    1   0.000000 32:32:32:32:32:32 12dBm Nov 17, 2018 01:29:08.863097000 +07
    2   0.022271 32:32:32:32:32:32 14dBm Nov 17, 2018 01:29:08.885368000 +07
    3   0.029350 32:32:32:32:32:32 13dBm Nov 17, 2018 01:29:08.892447000 +07
    4   0.089628 32:32:32:32:32:32 14dBm Nov 17, 2018 01:29:08.952725000 +07
    5   0.143690 32:32:32:32:32:32 12dBm Nov 17, 2018 01:29:09.006787000 +07
    6   0.228647 32:32:32:32:32:32 12dBm Nov 17, 2018 01:29:09.091744000 +07
    7   0.345128 32:32:32:32:32:32 11dBm Nov 17, 2018 01:29:09.208225000 +07
    8   0.619469 32:32:32:32:32:32 9dBm Nov 17, 2018 01:29:09.482566000 +07
    9   0.653465 32:32:32:32:32:32 12dBm Nov 17, 2018 01:29:09.516562000 +07
   10   0.670097 32:32:32:32:32:32 10dBm Nov 17, 2018 01:29:09.533194000 +07
   11   0.690674 32:32:32:32:32:32 9dBm Nov 17, 2018 01:29:09.553771000 +07
   12   0.735495 32:32:32:32:32:32 12dBm Nov 17, 2018 01:29:09.598592000 +07
   13   0.832480 32:32:32:32:32:32 13dBm Nov 17, 2018 01:29:09.695577000 +07
   14   0.851635 32:32:32:32:32:32 12dBm Nov 17, 2018 01:29:09.714732000 +07
   15   1.219609 32:32:32:32:32:32 11dBm Nov 17, 2018 01:29:10.082706000 +07
   16   1.381889 32:32:32:32:32:32 10dBm Nov 17, 2018 01:29:10.244986000 +07
   17   1.419646 32:32:32:32:32:32 10dBm Nov 17, 2018 01:29:10.282743000 +07
   18   1.430481 32:32:32:32:32:32 12dBm Nov 17, 2018 01:29:10.293578000 +07
   19   1.441700 32:32:32:32:32:32 12dBm Nov 17, 2018 01:29:10.304797000 +07
   20   1.497369 32:32:32:32:32:32 13dBm Nov 17, 2018 01:29:10.360466000 +07
   21   1.667058 32:32:32:32:32:32 12dBm Nov 17, 2018 01:29:10.530155000 +07
   22   1.701362 32:32:32:32:32:32 11dBm Nov 17, 2018 01:29:10.564459000 +07
   23   1.872969 32:32:32:32:32:32 12dBm Nov 17, 2018 01:29:10.736066000 +07
   24   1.909394 32:32:32:32:32:32 13dBm Nov 17, 2018 01:29:10.772491000 +07
   25   1.915970 32:32:32:32:32:32 13dBm Nov 17, 2018 01:29:10.779067000 +07
   26   1.942003 32:32:32:32:32:32 13dBm Nov 17, 2018 01:29:10.805100000 +07
   27   1.981414 32:32:32:32:32:32 14dBm Nov 17, 2018 01:29:10.844511000 +07
   28   2.017182 32:32:32:32:32:32 13dBm Nov 17, 2018 01:29:10.880279000 +07
   29   2.176093 32:32:32:32:32:32 13dBm Nov 17, 2018 01:29:11.039190000 +07
   30   2.226255 32:32:32:32:32:32 14dBm Nov 17, 2018 01:29:11.089352000 +07
   31   2.245254 32:32:32:32:32:32 13dBm Nov 17, 2018 01:29:11.108351000 +07
   32   2.288429 32:32:32:32:32:32 13dBm Nov 17, 2018 01:29:11.151526000 +07
   33   2.305024 32:32:32:32:32:32 15dBm Nov 17, 2018 01:29:11.168121000 +07
   34   2.338637 32:32:32:32:32:32 13dBm Nov 17, 2018 01:29:11.201734000 +07
   35   2.395919 32:32:32:32:32:32 12dBm Nov 17, 2018 01:29:11.259016000 +07
   36   2.707152 32:32:32:32:32:32 13dBm Nov 17, 2018 01:29:11.570249000 +07
   37   2.756020 32:32:32:32:32:32 11dBm Nov 17, 2018 01:29:11.619117000 +07
   38   2.791704 32:32:32:32:32:32 13dBm Nov 17, 2018 01:29:11.654801000 +07
   39   2.795564 32:32:32:32:32:32 12dBm Nov 17, 2018 01:29:11.658661000 +07
   40   3.060920 32:32:32:32:32:32 14dBm Nov 17, 2018 01:29:11.924017000 +07
   41   3.101750 32:32:32:32:32:32 13dBm Nov 17, 2018 01:29:11.964847000 +07
   42   3.106149 32:32:32:32:32:32 13dBm Nov 17, 2018 01:29:11.969246000 +07
   43   3.113895 32:32:32:32:32:32 13dBm Nov 17, 2018 01:29:11.976992000 +07
   44   3.120355 32:32:32:32:32:32 14dBm Nov 17, 2018 01:29:11.983452000 +07
   45   3.199106 32:32:32:32:32:32 13dBm Nov 17, 2018 01:29:12.062203000 +07
   46   3.219757 32:32:32:32:32:32 13dBm Nov 17, 2018 01:29:12.082854000 +07
   47   3.258849 32:32:32:32:32:32 15dBm Nov 17, 2018 01:29:12.121946000 +07
   48   3.508789 32:32:32:32:32:32 14dBm Nov 17, 2018 01:29:12.371886000 +07
   49   3.943514 32:32:32:32:32:32 12dBm Nov 17, 2018 01:29:12.806611000 +07
   50   3.956924 32:32:32:32:32:32 14dBm Nov 17, 2018 01:29:12.820021000 +07
   51   3.966579 32:32:32:32:32:32 12dBm Nov 17, 2018 01:29:12.829676000 +07
   52   4.029248 32:32:32:32:32:32 11dBm Nov 17, 2018 01:29:12.892345000 +07
   53   4.043487 32:32:32:32:32:32 11dBm Nov 17, 2018 01:29:12.906584000 +07
   54   4.076031 32:32:32:32:32:32 14dBm Nov 17, 2018 01:29:12.939128000 +07
   55   4.209834 32:32:32:32:32:32 12dBm Nov 17, 2018 01:29:13.072931000 +07
   56   4.249702 32:32:32:32:32:32 13dBm Nov 17, 2018 01:29:13.112799000 +07
   57   4.291201 32:32:32:32:32:32 13dBm Nov 17, 2018 01:29:13.154298000 +07
   58   4.343984 32:32:32:32:32:32 13dBm Nov 17, 2018 01:29:13.207081000 +07
   59   4.361409 32:32:32:32:32:32 14dBm Nov 17, 2018 01:29:13.224506000 +07
   60   4.381949 32:32:32:32:32:32 13dBm Nov 17, 2018 01:29:13.245046000 +07
   61   4.476821 32:32:32:32:32:32 14dBm Nov 17, 2018 01:29:13.339918000 +07
   62   4.510690 32:32:32:32:32:32 14dBm Nov 17, 2018 01:29:13.373787000 +07
   63   4.810999 32:32:32:32:32:32 15dBm Nov 17, 2018 01:29:13.674096000 +07
   64   4.899381 32:32:32:32:32:32 14dBm Nov 17, 2018 01:29:13.762478000 +07
   65   4.970120 32:32:32:32:32:32 14dBm Nov 17, 2018 01:29:13.833217000 +07
   66   5.011606 32:32:32:32:32:32 12dBm Nov 17, 2018 01:29:13.874703000 +07
   67   5.047214 32:32:32:32:32:32 12dBm Nov 17, 2018 01:29:13.910311000 +07
   68   5.063359 32:32:32:32:32:32 12dBm Nov 17, 2018 01:29:13.926456000 +07
   69   5.087927 32:32:32:32:32:32 13dBm Nov 17, 2018 01:29:13.951024000 +07
   70   5.453202 32:32:32:32:32:32 13dBm Nov 17, 2018 01:29:14.316299000 +07
   71   5.545211 32:32:32:32:32:32 13dBm Nov 17, 2018 01:29:14.408308000 +07
   72   5.559498 32:32:32:32:32:32 14dBm Nov 17, 2018 01:29:14.422595000 +07
   73   5.583403 32:32:32:32:32:32 13dBm Nov 17, 2018 01:29:14.446500000 +07
   74   5.789417 32:32:32:32:32:32 14dBm Nov 17, 2018 01:29:14.652514000 +07
   75   5.875574 32:32:32:32:32:32 14dBm Nov 17, 2018 01:29:14.738671000 +07
   76   5.961594 32:32:32:32:32:32 14dBm Nov 17, 2018 01:29:14.824691000 +07
   77   6.095860 32:32:32:32:32:32 13dBm Nov 17, 2018 01:29:14.958957000 +07
   78   6.144855 32:32:32:32:32:32 10dBm Nov 17, 2018 01:29:15.007952000 +07
   79   6.307969 32:32:32:32:32:32 14dBm Nov 17, 2018 01:29:15.171066000 +07
   80   6.380222 32:32:32:32:32:32 14dBm Nov 17, 2018 01:29:15.243319000 +07
   81   6.441423 32:32:32:32:32:32 13dBm Nov 17, 2018 01:29:15.304520000 +07
   82   6.461038 32:32:32:32:32:32 14dBm Nov 17, 2018 01:29:15.324135000 +07
   83   6.469612 32:32:32:32:32:32 14dBm Nov 17, 2018 01:29:15.332709000 +07
   84   6.505488 32:32:32:32:32:32 13dBm Nov 17, 2018 01:29:15.368585000 +07
   85   6.551983 32:32:32:32:32:32 14dBm Nov 17, 2018 01:29:15.415080000 +07
   86   6.680486 32:32:32:32:32:32 13dBm Nov 17, 2018 01:29:15.543583000 +07
   87   6.714782 32:32:32:32:32:32 13dBm Nov 17, 2018 01:29:15.577879000 +07
   88   6.719886 32:32:32:32:32:32 13dBm Nov 17, 2018 01:29:15.582983000 +07
   89   6.890971 32:32:32:32:32:32 13dBm Nov 17, 2018 01:29:15.754068000 +07
   90   6.947324 32:32:32:32:32:32 13dBm Nov 17, 2018 01:29:15.810421000 +07
   91   6.978611 32:32:32:32:32:32 10dBm Nov 17, 2018 01:29:15.841708000 +07
   92   6.997573 32:32:32:32:32:32 13dBm Nov 17, 2018 01:29:15.860670000 +07
   93   7.092794 32:32:32:32:32:32 12dBm Nov 17, 2018 01:29:15.955891000 +07
   94   7.132692 32:32:32:32:32:32 15dBm Nov 17, 2018 01:29:15.995789000 +07
   95   7.387246 32:32:32:32:32:32 12dBm Nov 17, 2018 01:29:16.250343000 +07
   96   7.405792 32:32:32:32:32:32 13dBm Nov 17, 2018 01:29:16.268889000 +07
   97   7.623574 32:32:32:32:32:32 13dBm Nov 17, 2018 01:29:16.486671000 +07
   98   7.677666 32:32:32:32:32:32 13dBm Nov 17, 2018 01:29:16.540763000 +07
   99   7.730327 32:32:32:32:32:32 13dBm Nov 17, 2018 01:29:16.593424000 +07
  100   7.781823 32:32:32:32:32:32 12dBm Nov 17, 2018 01:29:16.644920000 +07
  101   7.814567 32:32:32:32:32:32 14dBm Nov 17, 2018 01:29:16.677664000 +07
  102   7.879105 32:32:32:32:32:32 13dBm Nov 17, 2018 01:29:16.742202000 +07
  103   7.976831 32:32:32:32:32:32 14dBm Nov 17, 2018 01:29:16.839928000 +07
  104   8.092915 32:32:32:32:32:32 13dBm Nov 17, 2018 01:29:16.956012000 +07
  105   8.575058 32:32:32:32:32:32 11dBm Nov 17, 2018 01:29:17.438155000 +07
  106   8.607819 32:32:32:32:32:32 13dBm Nov 17, 2018 01:29:17.470916000 +07
  107   8.620771 32:32:32:32:32:32 11dBm Nov 17, 2018 01:29:17.483868000 +07
  108   8.634111 32:32:32:32:32:32 14dBm Nov 17, 2018 01:29:17.497208000 +07
  109   8.652838 32:32:32:32:32:32 11dBm Nov 17, 2018 01:29:17.515935000 +07
  110   8.675125 32:32:32:32:32:32 14dBm Nov 17, 2018 01:29:17.538222000 +07
  111   8.727598 32:32:32:32:32:32 12dBm Nov 17, 2018 01:29:17.590695000 +07
  112   8.782562 32:32:32:32:32:32 14dBm Nov 17, 2018 01:29:17.645659000 +07
  113   8.851991 32:32:32:32:32:32 13dBm Nov 17, 2018 01:29:17.715088000 +07
  114   9.035619 32:32:32:32:32:32 13dBm Nov 17, 2018 01:29:17.898716000 +07
  115   9.136514 32:32:32:32:32:32 13dBm Nov 17, 2018 01:29:17.999611000 +07
  116   9.209112 32:32:32:32:32:32 13dBm Nov 17, 2018 01:29:18.072209000 +07
  117   9.251422 32:32:32:32:32:32 13dBm Nov 17, 2018 01:29:18.114519000 +07
  118   9.427081 32:32:32:32:32:32 12dBm Nov 17, 2018 01:29:18.290178000 +07
  119   9.474042 32:32:32:32:32:32 13dBm Nov 17, 2018 01:29:18.337139000 +07
  120   9.635541 32:32:32:32:32:32 13dBm Nov 17, 2018 01:29:18.498638000 +07
  121   9.670121 32:32:32:32:32:32 13dBm Nov 17, 2018 01:29:18.533218000 +07
  122   9.750523 32:32:32:32:32:32 12dBm Nov 17, 2018 01:29:18.613620000 +07
  123   9.932346 32:32:32:32:32:32 13dBm Nov 17, 2018 01:29:18.795443000 +07
  124  10.125867 32:32:32:32:32:32 12dBm Nov 17, 2018 01:29:18.988964000 +07
  125  10.177865 32:32:32:32:32:32 13dBm Nov 17, 2018 01:29:19.040962000 +07
  126  10.414496 32:32:32:32:32:32 14dBm Nov 17, 2018 01:29:19.277593000 +07
  127  10.550622 32:32:32:32:32:32 12dBm Nov 17, 2018 01:29:19.413719000 +07
  128  10.567646 32:32:32:32:32:32 13dBm Nov 17, 2018 01:29:19.430743000 +07
  129  10.724803 32:32:32:32:32:32 12dBm Nov 17, 2018 01:29:19.587900000 +07
  130  10.823355 32:32:32:32:32:32 11dBm Nov 17, 2018 01:29:19.686452000 +07
  131  10.860205 32:32:32:32:32:32 13dBm Nov 17, 2018 01:29:19.723302000 +07
  132  10.981404 32:32:32:32:32:32 12dBm Nov 17, 2018 01:29:19.844501000 +07
  133  11.012742 32:32:32:32:32:32 13dBm Nov 17, 2018 01:29:19.875839000 +07
  134  11.258351 32:32:32:32:32:32 13dBm Nov 17, 2018 01:29:20.121448000 +07
  135  11.291484 32:32:32:32:32:32 13dBm Nov 17, 2018 01:29:20.154581000 +07
  136  11.420427 32:32:32:32:32:32 13dBm Nov 17, 2018 01:29:20.283524000 +07
  137  11.456930 32:32:32:32:32:32 13dBm Nov 17, 2018 01:29:20.320027000 +07
  138  11.473885 32:32:32:32:32:32 13dBm Nov 17, 2018 01:29:20.336982000 +07
  139  11.666632 32:32:32:32:32:32 14dBm Nov 17, 2018 01:29:20.529729000 +07
  140  11.926301 32:32:32:32:32:32 13dBm Nov 17, 2018 01:29:20.789398000 +07
  141  11.949265 32:32:32:32:32:32 12dBm Nov 17, 2018 01:29:20.812362000 +07
  142  11.956866 32:32:32:32:32:32 12dBm Nov 17, 2018 01:29:20.819963000 +07
  143  12.007186 32:32:32:32:32:32 13dBm Nov 17, 2018 01:29:20.870283000 +07
  144  12.060045 32:32:32:32:32:32 14dBm Nov 17, 2018 01:29:20.923142000 +07
  145  12.091763 32:32:32:32:32:32 11dBm Nov 17, 2018 01:29:20.954860000 +07
  146  12.187980 32:32:32:32:32:32 13dBm Nov 17, 2018 01:29:21.051077000 +07
  147  12.237735 32:32:32:32:32:32 14dBm Nov 17, 2018 01:29:21.100832000 +07
  148  12.274464 32:32:32:32:32:32 12dBm Nov 17, 2018 01:29:21.137561000 +07
  149  12.368054 32:32:32:32:32:32 14dBm Nov 17, 2018 01:29:21.231151000 +07
  150  12.391597 32:32:32:32:32:32 13dBm Nov 17, 2018 01:29:21.254694000 +07
  151  12.622134 32:32:32:32:32:32 13dBm Nov 17, 2018 01:29:21.485231000 +07
  152  12.653842 32:32:32:32:32:32 12dBm Nov 17, 2018 01:29:21.516939000 +07
  153  12.787124 32:32:32:32:32:32 15dBm Nov 17, 2018 01:29:21.650221000 +07
  154  12.945676 32:32:32:32:32:32 11dBm Nov 17, 2018 01:29:21.808773000 +07
  155  12.959710 32:32:32:32:32:32 14dBm Nov 17, 2018 01:29:21.822807000 +07
  156  12.974786 32:32:32:32:32:32 12dBm Nov 17, 2018 01:29:21.837883000 +07
  157  13.036739 32:32:32:32:32:32 12dBm Nov 17, 2018 01:29:21.899836000 +07
  158  13.170338 32:32:32:32:32:32 12dBm Nov 17, 2018 01:29:22.033435000 +07
  159  13.221341 32:32:32:32:32:32 14dBm Nov 17, 2018 01:29:22.084438000 +07
  160  13.340073 32:32:32:32:32:32 16dBm Nov 17, 2018 01:29:22.203170000 +07
  161  13.439443 32:32:32:32:32:32 11dBm Nov 17, 2018 01:29:22.302540000 +07
  162  13.488659 32:32:32:32:32:32 15dBm Nov 17, 2018 01:29:22.351756000 +07
  163  13.560680 32:32:32:32:32:32 14dBm Nov 17, 2018 01:29:22.423777000 +07
  164  13.583431 32:32:32:32:32:32 12dBm Nov 17, 2018 01:29:22.446528000 +07
  165  13.720868 32:32:32:32:32:32 10dBm Nov 17, 2018 01:29:22.583965000 +07
  166  13.926639 32:32:32:32:32:32 13dBm Nov 17, 2018 01:29:22.789736000 +07
  167  13.986092 32:32:32:32:32:32 12dBm Nov 17, 2018 01:29:22.849189000 +07
  168  14.094374 32:32:32:32:32:32 12dBm Nov 17, 2018 01:29:22.957471000 +07
  169  14.123658 32:32:32:32:32:32 12dBm Nov 17, 2018 01:29:22.986755000 +07
  170  14.171133 32:32:32:32:32:32 13dBm Nov 17, 2018 01:29:23.034230000 +07
  171  14.221570 32:32:32:32:32:32 12dBm Nov 17, 2018 01:29:23.084667000 +07
  172  14.268431 32:32:32:32:32:32 11dBm Nov 17, 2018 01:29:23.131528000 +07
  173  14.358545 32:32:32:32:32:32 13dBm Nov 17, 2018 01:29:23.221642000 +07
  174  14.390947 32:32:32:32:32:32 13dBm Nov 17, 2018 01:29:23.254044000 +07
  175  14.424460 32:32:32:32:32:32 12dBm Nov 17, 2018 01:29:23.287557000 +07
  176  14.440356 32:32:32:32:32:32 12dBm Nov 17, 2018 01:29:23.303453000 +07
  177  14.541266 32:32:32:32:32:32 13dBm Nov 17, 2018 01:29:23.404363000 +07
  178  14.652805 32:32:32:32:32:32 13dBm Nov 17, 2018 01:29:23.515902000 +07
  179  14.809741 32:32:32:32:32:32 12dBm Nov 17, 2018 01:29:23.672838000 +07
  180  14.850135 32:32:32:32:32:32 13dBm Nov 17, 2018 01:29:23.713232000 +07
  181  14.984460 32:32:32:32:32:32 14dBm Nov 17, 2018 01:29:23.847557000 +07
  182  15.337546 32:32:32:32:32:32 13dBm Nov 17, 2018 01:29:24.200643000 +07
  183  15.492756 32:32:32:32:32:32 14dBm Nov 17, 2018 01:29:24.355853000 +07
  184  15.649967 32:32:32:32:32:32 14dBm Nov 17, 2018 01:29:24.513064000 +07
  185  15.776751 32:32:32:32:32:32 14dBm Nov 17, 2018 01:29:24.639848000 +07
  186  15.873498 32:32:32:32:32:32 10dBm Nov 17, 2018 01:29:24.736595000 +07
  187  15.951826 32:32:32:32:32:32 12dBm Nov 17, 2018 01:29:24.814923000 +07
  188  15.982092 32:32:32:32:32:32 13dBm Nov 17, 2018 01:29:24.845189000 +07
  189  16.054833 32:32:32:32:32:32 13dBm Nov 17, 2018 01:29:24.917930000 +07
  190  16.084948 32:32:32:32:32:32 12dBm Nov 17, 2018 01:29:24.948045000 +07
  191  16.135171 32:32:32:32:32:32 12dBm Nov 17, 2018 01:29:24.998268000 +07
  192  16.298100 32:32:32:32:32:32 14dBm Nov 17, 2018 01:29:25.161197000 +07
  193  16.322336 32:32:32:32:32:32 14dBm Nov 17, 2018 01:29:25.185433000 +07
  194  16.452775 32:32:32:32:32:32 12dBm Nov 17, 2018 01:29:25.315872000 +07
  195  16.479769 32:32:32:32:32:32 13dBm Nov 17, 2018 01:29:25.342866000 +07
  196  16.647748 32:32:32:32:32:32 13dBm Nov 17, 2018 01:29:25.510845000 +07
  197  16.703324 32:32:32:32:32:32 12dBm Nov 17, 2018 01:29:25.566421000 +07
  198  16.733418 32:32:32:32:32:32 14dBm Nov 17, 2018 01:29:25.596515000 +07
  199  16.752727 32:32:32:32:32:32 12dBm Nov 17, 2018 01:29:25.615824000 +07
  200  16.991978 32:32:32:32:32:32 12dBm Nov 17, 2018 01:29:25.855075000 +07
  201  17.015005 32:32:32:32:32:32 13dBm Nov 17, 2018 01:29:25.878102000 +07
  202  17.124924 32:32:32:32:32:32 13dBm Nov 17, 2018 01:29:25.988021000 +07
  203  17.403808 32:32:32:32:32:32 12dBm Nov 17, 2018 01:29:26.266905000 +07
  204  17.422068 32:32:32:32:32:32 12dBm Nov 17, 2018 01:29:26.285165000 +07
  205  17.925170 32:32:32:32:32:32 10dBm Nov 17, 2018 01:29:26.788267000 +07
  206  17.951642 32:32:32:32:32:32 13dBm Nov 17, 2018 01:29:26.814739000 +07
  207  18.040308 32:32:32:32:32:32 12dBm Nov 17, 2018 01:29:26.903405000 +07
  208  18.102855 32:32:32:32:32:32 13dBm Nov 17, 2018 01:29:26.965952000 +07
  209  18.125766 32:32:32:32:32:32 13dBm Nov 17, 2018 01:29:26.988863000 +07
  210  18.466343 32:32:32:32:32:32 12dBm Nov 17, 2018 01:29:27.329440000 +07
  211  18.673249 32:32:32:32:32:32 14dBm Nov 17, 2018 01:29:27.536346000 +07
  212  18.675892 32:32:32:32:32:32 14dBm Nov 17, 2018 01:29:27.538989000 +07
  213  18.718516 32:32:32:32:32:32 12dBm Nov 17, 2018 01:29:27.581613000 +07
  214  18.742551 32:32:32:32:32:32 15dBm Nov 17, 2018 01:29:27.605648000 +07
  215  18.771976 32:32:32:32:32:32 13dBm Nov 17, 2018 01:29:27.635073000 +07
  216  18.774123 32:32:32:32:32:32 12dBm Nov 17, 2018 01:29:27.637220000 +07
  217  18.872651 32:32:32:32:32:32 13dBm Nov 17, 2018 01:29:27.735748000 +07
  218  18.908380 32:32:32:32:32:32 12dBm Nov 17, 2018 01:29:27.771477000 +07
  219  18.949119 32:32:32:32:32:32 13dBm Nov 17, 2018 01:29:27.812216000 +07
  220  19.004858 32:32:32:32:32:32 12dBm Nov 17, 2018 01:29:27.867955000 +07
  221  19.161525 32:32:32:32:32:32 12dBm Nov 17, 2018 01:29:28.024622000 +07
  222  19.174930 32:32:32:32:32:32 13dBm Nov 17, 2018 01:29:28.038027000 +07
  223  19.215431 32:32:32:32:32:32 12dBm Nov 17, 2018 01:29:28.078528000 +07
  224  19.389717 32:32:32:32:32:32 13dBm Nov 17, 2018 01:29:28.252814000 +07
  225  19.471582 32:32:32:32:32:32 12dBm Nov 17, 2018 01:29:28.334679000 +07
  226  19.712003 32:32:32:32:32:32 12dBm Nov 17, 2018 01:29:28.575100000 +07
  227  19.748893 32:32:32:32:32:32 9dBm Nov 17, 2018 01:29:28.611990000 +07
  228  19.766120 32:32:32:32:32:32 12dBm Nov 17, 2018 01:29:28.629217000 +07
  229  19.784542 32:32:32:32:32:32 13dBm Nov 17, 2018 01:29:28.647639000 +07
  230  19.935746 32:32:32:32:32:32 13dBm Nov 17, 2018 01:29:28.798843000 +07
  231  19.962872 32:32:32:32:32:32 12dBm Nov 17, 2018 01:29:28.825969000 +07
  232  20.049672 32:32:32:32:32:32 14dBm Nov 17, 2018 01:29:28.912769000 +07
  233  20.068816 32:32:32:32:32:32 14dBm Nov 17, 2018 01:29:28.931913000 +07
  234  20.145994 32:32:32:32:32:32 13dBm Nov 17, 2018 01:29:29.009091000 +07
  235  20.270758 32:32:32:32:32:32 13dBm Nov 17, 2018 01:29:29.133855000 +07
  236  20.284984 32:32:32:32:32:32 12dBm Nov 17, 2018 01:29:29.148081000 +07
  237  20.464500 32:32:32:32:32:32 13dBm Nov 17, 2018 01:29:29.327597000 +07
  238  20.543268 32:32:32:32:32:32 14dBm Nov 17, 2018 01:29:29.406365000 +07
  239  20.603720 32:32:32:32:32:32 14dBm Nov 17, 2018 01:29:29.466817000 +07
  240  20.950587 32:32:32:32:32:32 13dBm Nov 17, 2018 01:29:29.813684000 +07
  241  20.998528 32:32:32:32:32:32 13dBm Nov 17, 2018 01:29:29.861625000 +07
  242  21.104006 32:32:32:32:32:32 14dBm Nov 17, 2018 01:29:29.967103000 +07
  243  21.107208 32:32:32:32:32:32 14dBm Nov 17, 2018 01:29:29.970305000 +07
  244  21.134047 32:32:32:32:32:32 13dBm Nov 17, 2018 01:29:29.997144000 +07
  245  21.143563 32:32:32:32:32:32 13dBm Nov 17, 2018 01:29:30.006660000 +07
  246  21.228457 32:32:32:32:32:32 13dBm Nov 17, 2018 01:29:30.091554000 +07
  247  21.356879 32:32:32:32:32:32 14dBm Nov 17, 2018 01:29:30.219976000 +07
  248  21.374250 32:32:32:32:32:32 13dBm Nov 17, 2018 01:29:30.237347000 +07
  249  21.535332 32:32:32:32:32:32 13dBm Nov 17, 2018 01:29:30.398429000 +07
  250  21.617165 32:32:32:32:32:32 14dBm Nov 17, 2018 01:29:30.480262000 +07
  251  21.645227 32:32:32:32:32:32 14dBm Nov 17, 2018 01:29:30.508324000 +07
  252  21.760923 32:32:32:32:32:32 14dBm Nov 17, 2018 01:29:30.624020000 +07
  253  21.929536 32:32:32:32:32:32 13dBm Nov 17, 2018 01:29:30.792633000 +07
  254  22.139745 32:32:32:32:32:32 13dBm Nov 17, 2018 01:29:31.002842000 +07
  255  22.436143 32:32:32:32:32:32 10dBm Nov 17, 2018 01:29:31.299240000 +07
  256  22.485103 32:32:32:32:32:32 12dBm Nov 17, 2018 01:29:31.348200000 +07
  257  22.593167 32:32:32:32:32:32 12dBm Nov 17, 2018 01:29:31.456264000 +07
  258  22.717182 32:32:32:32:32:32 13dBm Nov 17, 2018 01:29:31.580279000 +07
  259  22.857034 32:32:32:32:32:32 12dBm Nov 17, 2018 01:29:31.720131000 +07
  260  22.900442 32:32:32:32:32:32 12dBm Nov 17, 2018 01:29:31.763539000 +07
  261  22.923110 32:32:32:32:32:32 12dBm Nov 17, 2018 01:29:31.786207000 +07
  262  22.956829 32:32:32:32:32:32 12dBm Nov 17, 2018 01:29:31.819926000 +07
  263  22.977359 32:32:32:32:32:32 13dBm Nov 17, 2018 01:29:31.840456000 +07
  264  23.210279 32:32:32:32:32:32 12dBm Nov 17, 2018 01:29:32.073376000 +07
  265  23.222506 32:32:32:32:32:32 12dBm Nov 17, 2018 01:29:32.085603000 +07
  266  23.247814 32:32:32:32:32:32 13dBm Nov 17, 2018 01:29:32.110911000 +07
  267  23.291159 32:32:32:32:32:32 12dBm Nov 17, 2018 01:29:32.154256000 +07
  268  23.352500 32:32:32:32:32:32 13dBm Nov 17, 2018 01:29:32.215597000 +07
  269  23.695738 32:32:32:32:32:32 11dBm Nov 17, 2018 01:29:32.558835000 +07
  270  23.719160 32:32:32:32:32:32 13dBm Nov 17, 2018 01:29:32.582257000 +07
  271  23.951043 32:32:32:32:32:32 12dBm Nov 17, 2018 01:29:32.814140000 +07
  272  24.047910 32:32:32:32:32:32 13dBm Nov 17, 2018 01:29:32.911007000 +07
  273  24.206734 32:32:32:32:32:32 12dBm Nov 17, 2018 01:29:33.069831000 +07
  274  24.262700 32:32:32:32:32:32 12dBm Nov 17, 2018 01:29:33.125797000 +07
  275  24.331789 32:32:32:32:32:32 12dBm Nov 17, 2018 01:29:33.194886000 +07
  276  24.371612 32:32:32:32:32:32 12dBm Nov 17, 2018 01:29:33.234709000 +07
  277  24.497432 32:32:32:32:32:32 13dBm Nov 17, 2018 01:29:33.360529000 +07
  278  24.660222 32:32:32:32:32:32 13dBm Nov 17, 2018 01:29:33.523319000 +07
  279  24.677240 32:32:32:32:32:32 13dBm Nov 17, 2018 01:29:33.540337000 +07
  280  24.715361 32:32:32:32:32:32 14dBm Nov 17, 2018 01:29:33.578458000 +07
  281  24.859509 32:32:32:32:32:32 14dBm Nov 17, 2018 01:29:33.722606000 +07
  282  24.933850 32:32:32:32:32:32 14dBm Nov 17, 2018 01:29:33.796947000 +07
  283  24.972730 32:32:32:32:32:32 13dBm Nov 17, 2018 01:29:33.835827000 +07
  284  25.107270 32:32:32:32:32:32 13dBm Nov 17, 2018 01:29:33.970367000 +07
  285  25.290011 32:32:32:32:32:32 14dBm Nov 17, 2018 01:29:34.153108000 +07
  286  25.471976 32:32:32:32:32:32 11dBm Nov 17, 2018 01:29:34.335073000 +07
  287  25.613564 32:32:32:32:32:32 12dBm Nov 17, 2018 01:29:34.476661000 +07
  288  25.672664 32:32:32:32:32:32 13dBm Nov 17, 2018 01:29:34.535761000 +07
  289  25.725678 32:32:32:32:32:32 13dBm Nov 17, 2018 01:29:34.588775000 +07
  290  25.810271 32:32:32:32:32:32 14dBm Nov 17, 2018 01:29:34.673368000 +07
  291  25.820775 32:32:32:32:32:32 13dBm Nov 17, 2018 01:29:34.683872000 +07
  292  26.015986 32:32:32:32:32:32 10dBm Nov 17, 2018 01:29:34.879083000 +07
  293  26.082841 32:32:32:32:32:32 13dBm Nov 17, 2018 01:29:34.945938000 +07
  294  26.093230 32:32:32:32:32:32 13dBm Nov 17, 2018 01:29:34.956327000 +07
  295  26.111256 32:32:32:32:32:32 13dBm Nov 17, 2018 01:29:34.974353000 +07
  296  26.126088 32:32:32:32:32:32 13dBm Nov 17, 2018 01:29:34.989185000 +07
  297  26.254405 32:32:32:32:32:32 12dBm Nov 17, 2018 01:29:35.117502000 +07
  298  26.281717 32:32:32:32:32:32 12dBm Nov 17, 2018 01:29:35.144814000 +07
  299  26.318357 32:32:32:32:32:32 12dBm Nov 17, 2018 01:29:35.181454000 +07
  300  26.575912 32:32:32:32:32:32 12dBm Nov 17, 2018 01:29:35.439009000 +07
  301  26.614196 32:32:32:32:32:32 12dBm Nov 17, 2018 01:29:35.477293000 +07
  302  26.719439 32:32:32:32:32:32 11dBm Nov 17, 2018 01:29:35.582536000 +07
  303  26.756714 32:32:32:32:32:32 13dBm Nov 17, 2018 01:29:35.619811000 +07
  304  26.759663 32:32:32:32:32:32 13dBm Nov 17, 2018 01:29:35.622760000 +07
  305  26.779131 32:32:32:32:32:32 11dBm Nov 17, 2018 01:29:35.642228000 +07
  306  26.791193 32:32:32:32:32:32 10dBm Nov 17, 2018 01:29:35.654290000 +07
  307  27.000234 32:32:32:32:32:32 14dBm Nov 17, 2018 01:29:35.863331000 +07
  308  27.011456 32:32:32:32:32:32 13dBm Nov 17, 2018 01:29:35.874553000 +07
  309  27.023859 32:32:32:32:32:32 11dBm Nov 17, 2018 01:29:35.886956000 +07
  310  27.042798 32:32:32:32:32:32 12dBm Nov 17, 2018 01:29:35.905895000 +07
  311  27.149062 32:32:32:32:32:32 12dBm Nov 17, 2018 01:29:36.012159000 +07
  312  27.186006 32:32:32:32:32:32 12dBm Nov 17, 2018 01:29:36.049103000 +07
  313  27.267129 32:32:32:32:32:32 12dBm Nov 17, 2018 01:29:36.130226000 +07
  314  27.338729 32:32:32:32:32:32 9dBm Nov 17, 2018 01:29:36.201826000 +07
  315  27.421423 32:32:32:32:32:32 12dBm Nov 17, 2018 01:29:36.284520000 +07
  316  27.476266 32:32:32:32:32:32 13dBm Nov 17, 2018 01:29:36.339363000 +07
  317  27.526152 32:32:32:32:32:32 13dBm Nov 17, 2018 01:29:36.389249000 +07
  318  27.675657 32:32:32:32:32:32 12dBm Nov 17, 2018 01:29:36.538754000 +07
  319  27.786796 32:32:32:32:32:32 13dBm Nov 17, 2018 01:29:36.649893000 +07
  320  27.934990 32:32:32:32:32:32 14dBm Nov 17, 2018 01:29:36.798087000 +07
  321  28.174743 32:32:32:32:32:32 13dBm Nov 17, 2018 01:29:37.037840000 +07
  322  28.324737 32:32:32:32:32:32 13dBm Nov 17, 2018 01:29:37.187834000 +07
  323  28.536707 32:32:32:32:32:32 12dBm Nov 17, 2018 01:29:37.399804000 +07
  324  28.573871 32:32:32:32:32:32 14dBm Nov 17, 2018 01:29:37.436968000 +07
  325  28.576777 32:32:32:32:32:32 13dBm Nov 17, 2018 01:29:37.439874000 +07
  326  28.762746 32:32:32:32:32:32 14dBm Nov 17, 2018 01:29:37.625843000 +07
  327  28.789377 32:32:32:32:32:32 15dBm Nov 17, 2018 01:29:37.652474000 +07
  328  28.804775 32:32:32:32:32:32 14dBm Nov 17, 2018 01:29:37.667872000 +07
  329  28.834404 32:32:32:32:32:32 14dBm Nov 17, 2018 01:29:37.697501000 +07
  330  28.910888 32:32:32:32:32:32 14dBm Nov 17, 2018 01:29:37.773985000 +07
  331  29.101746 32:32:32:32:32:32 13dBm Nov 17, 2018 01:29:37.964843000 +07
  332  29.141425 32:32:32:32:32:32 13dBm Nov 17, 2018 01:29:38.004522000 +07
  333  29.188428 32:32:32:32:32:32 13dBm Nov 17, 2018 01:29:38.051525000 +07
  334  29.326590 32:32:32:32:32:32 14dBm Nov 17, 2018 01:29:38.189687000 +07
  335  29.352771 32:32:32:32:32:32 13dBm Nov 17, 2018 01:29:38.215868000 +07
  336  29.447019 32:32:32:32:32:32 14dBm Nov 17, 2018 01:29:38.310116000 +07
  337  29.514689 32:32:32:32:32:32 13dBm Nov 17, 2018 01:29:38.377786000 +07
  338  29.518312 32:32:32:32:32:32 12dBm Nov 17, 2018 01:29:38.381409000 +07
  339  29.527986 32:32:32:32:32:32 13dBm Nov 17, 2018 01:29:38.391083000 +07
  340  29.558823 32:32:32:32:32:32 14dBm Nov 17, 2018 01:29:38.421920000 +07
  341  29.617848 32:32:32:32:32:32 14dBm Nov 17, 2018 01:29:38.480945000 +07
  342  29.649027 32:32:32:32:32:32 14dBm Nov 17, 2018 01:29:38.512124000 +07
  343  29.674587 32:32:32:32:32:32 12dBm Nov 17, 2018 01:29:38.537684000 +07
  344  29.705289 32:32:32:32:32:32 11dBm Nov 17, 2018 01:29:38.568386000 +07
  345  29.772259 32:32:32:32:32:32 12dBm Nov 17, 2018 01:29:38.635356000 +07
  346  29.787899 32:32:32:32:32:32 12dBm Nov 17, 2018 01:29:38.650996000 +07
  347  29.800162 32:32:32:32:32:32 12dBm Nov 17, 2018 01:29:38.663259000 +07
  348  29.820273 32:32:32:32:32:32 14dBm Nov 17, 2018 01:29:38.683370000 +07
  349  29.877675 32:32:32:32:32:32 13dBm Nov 17, 2018 01:29:38.740772000 +07
  350  29.934879 32:32:32:32:32:32 11dBm Nov 17, 2018 01:29:38.797976000 +07
  351  30.016590 32:32:32:32:32:32 13dBm Nov 17, 2018 01:29:38.879687000 +07
  352  30.190415 32:32:32:32:32:32 11dBm Nov 17, 2018 01:29:39.053512000 +07
  353  30.641978 32:32:32:32:32:32 14dBm Nov 17, 2018 01:29:39.505075000 +07
  354  30.748452 32:32:32:32:32:32 15dBm Nov 17, 2018 01:29:39.611549000 +07
  355  30.763326 32:32:32:32:32:32 13dBm Nov 17, 2018 01:29:39.626423000 +07
  356  30.892212 32:32:32:32:32:32 12dBm Nov 17, 2018 01:29:39.755309000 +07
  357  30.906584 32:32:32:32:32:32 14dBm Nov 17, 2018 01:29:39.769681000 +07
  358  31.183560 32:32:32:32:32:32 14dBm Nov 17, 2018 01:29:40.046657000 +07
  359  31.331124 32:32:32:32:32:32 13dBm Nov 17, 2018 01:29:40.194221000 +07
  360  31.349868 32:32:32:32:32:32 14dBm Nov 17, 2018 01:29:40.212965000 +07
  361  31.550119 32:32:32:32:32:32 12dBm Nov 17, 2018 01:29:40.413216000 +07
  362  31.734604 32:32:32:32:32:32 12dBm Nov 17, 2018 01:29:40.597701000 +07
  363  31.786099 32:32:32:32:32:32 13dBm Nov 17, 2018 01:29:40.649196000 +07
  364  31.841277 32:32:32:32:32:32 13dBm Nov 17, 2018 01:29:40.704374000 +07
  365  32.190703 32:32:32:32:32:32 11dBm Nov 17, 2018 01:29:41.053800000 +07
  366  32.213870 32:32:32:32:32:32 12dBm Nov 17, 2018 01:29:41.076967000 +07
  367  32.472869 32:32:32:32:32:32 13dBm Nov 17, 2018 01:29:41.335966000 +07
  368  32.513610 32:32:32:32:32:32 14dBm Nov 17, 2018 01:29:41.376707000 +07
  369  32.575961 32:32:32:32:32:32 14dBm Nov 17, 2018 01:29:41.439058000 +07
  370  32.618347 32:32:32:32:32:32 13dBm Nov 17, 2018 01:29:41.481444000 +07
  371  32.629752 32:32:32:32:32:32 13dBm Nov 17, 2018 01:29:41.492849000 +07
  372  32.726466 32:32:32:32:32:32 10dBm Nov 17, 2018 01:29:41.589563000 +07
  373  32.846719 32:32:32:32:32:32 14dBm Nov 17, 2018 01:29:41.709816000 +07
  374  32.932364 32:32:32:32:32:32 13dBm Nov 17, 2018 01:29:41.795461000 +07
  375  32.979760 32:32:32:32:32:32 13dBm Nov 17, 2018 01:29:41.842857000 +07
  376  32.992842 32:32:32:32:32:32 13dBm Nov 17, 2018 01:29:41.855939000 +07
  377  33.101740 32:32:32:32:32:32 13dBm Nov 17, 2018 01:29:41.964837000 +07
  378  33.325963 32:32:32:32:32:32 13dBm Nov 17, 2018 01:29:42.189060000 +07
  379  33.356847 32:32:32:32:32:32 14dBm Nov 17, 2018 01:29:42.219944000 +07
  380  33.424986 32:32:32:32:32:32 13dBm Nov 17, 2018 01:29:42.288083000 +07
  381  33.502133 32:32:32:32:32:32 12dBm Nov 17, 2018 01:29:42.365230000 +07
  382  33.808236 32:32:32:32:32:32 12dBm Nov 17, 2018 01:29:42.671333000 +07
  383  33.883783 32:32:32:32:32:32 13dBm Nov 17, 2018 01:29:42.746880000 +07
  384  33.895292 32:32:32:32:32:32 12dBm Nov 17, 2018 01:29:42.758389000 +07
  385  33.925912 32:32:32:32:32:32 14dBm Nov 17, 2018 01:29:42.789009000 +07
  386  34.120586 32:32:32:32:32:32 13dBm Nov 17, 2018 01:29:42.983683000 +07
  387  34.430134 32:32:32:32:32:32 13dBm Nov 17, 2018 01:29:43.293231000 +07
  388  34.474271 32:32:32:32:32:32 14dBm Nov 17, 2018 01:29:43.337368000 +07
  389  34.544884 32:32:32:32:32:32 12dBm Nov 17, 2018 01:29:43.407981000 +07
  390  34.624197 32:32:32:32:32:32 13dBm Nov 17, 2018 01:29:43.487294000 +07
  391  34.778906 32:32:32:32:32:32 14dBm Nov 17, 2018 01:29:43.642003000 +07
  392  35.047115 32:32:32:32:32:32 13dBm Nov 17, 2018 01:29:43.910212000 +07
  393  35.080146 32:32:32:32:32:32 11dBm Nov 17, 2018 01:29:43.943243000 +07
  394  35.181479 32:32:32:32:32:32 12dBm Nov 17, 2018 01:29:44.044576000 +07
  395  35.213949 32:32:32:32:32:32 13dBm Nov 17, 2018 01:29:44.077046000 +07
  396  35.418759 32:32:32:32:32:32 11dBm Nov 17, 2018 01:29:44.281856000 +07
  397  35.450785 32:32:32:32:32:32 10dBm Nov 17, 2018 01:29:44.313882000 +07
  398  35.514606 32:32:32:32:32:32 13dBm Nov 17, 2018 01:29:44.377703000 +07
  399  35.600464 32:32:32:32:32:32 13dBm Nov 17, 2018 01:29:44.463561000 +07
  400  35.844849 32:32:32:32:32:32 13dBm Nov 17, 2018 01:29:44.707946000 +07
  401  35.917489 32:32:32:32:32:32 13dBm Nov 17, 2018 01:29:44.780586000 +07
  402  36.043029 32:32:32:32:32:32 15dBm Nov 17, 2018 01:29:44.906126000 +07
  403  36.077089 32:32:32:32:32:32 12dBm Nov 17, 2018 01:29:44.940186000 +07
  404  36.103955 32:32:32:32:32:32 11dBm Nov 17, 2018 01:29:44.967052000 +07
  405  36.182678 32:32:32:32:32:32 14dBm Nov 17, 2018 01:29:45.045775000 +07
  406  36.242032 32:32:32:32:32:32 14dBm Nov 17, 2018 01:29:45.105129000 +07
  407  36.286725 32:32:32:32:32:32 11dBm Nov 17, 2018 01:29:45.149822000 +07
  408  36.460918 32:32:32:32:32:32 13dBm Nov 17, 2018 01:29:45.324015000 +07
  409  36.526647 32:32:32:32:32:32 11dBm Nov 17, 2018 01:29:45.389744000 +07
  410  36.637224 32:32:32:32:32:32 14dBm Nov 17, 2018 01:29:45.500321000 +07
  411  36.656323 32:32:32:32:32:32 14dBm Nov 17, 2018 01:29:45.519420000 +07
  412  36.848779 32:32:32:32:32:32 14dBm Nov 17, 2018 01:29:45.711876000 +07
  413  36.858674 32:32:32:32:32:32 13dBm Nov 17, 2018 01:29:45.721771000 +07
  414  36.917149 32:32:32:32:32:32 12dBm Nov 17, 2018 01:29:45.780246000 +07
  415  37.208203 32:32:32:32:32:32 13dBm Nov 17, 2018 01:29:46.071300000 +07
  416  37.269532 32:32:32:32:32:32 14dBm Nov 17, 2018 01:29:46.132629000 +07
  417  37.292380 32:32:32:32:32:32 12dBm Nov 17, 2018 01:29:46.155477000 +07
  418  37.320703 32:32:32:32:32:32 13dBm Nov 17, 2018 01:29:46.183800000 +07
  419  37.510774 32:32:32:32:32:32 13dBm Nov 17, 2018 01:29:46.373871000 +07
  420  37.531417 32:32:32:32:32:32 13dBm Nov 17, 2018 01:29:46.394514000 +07
  421  37.547604 32:32:32:32:32:32 14dBm Nov 17, 2018 01:29:46.410701000 +07
  422  37.638579 32:32:32:32:32:32 12dBm Nov 17, 2018 01:29:46.501676000 +07
  423  37.687843 32:32:32:32:32:32 13dBm Nov 17, 2018 01:29:46.550940000 +07
  424  37.746659 32:32:32:32:32:32 14dBm Nov 17, 2018 01:29:46.609756000 +07
  425  37.760869 32:32:32:32:32:32 12dBm Nov 17, 2018 01:29:46.623966000 +07
  426  38.180332 32:32:32:32:32:32 13dBm Nov 17, 2018 01:29:47.043429000 +07
  427  38.227616 32:32:32:32:32:32 14dBm Nov 17, 2018 01:29:47.090713000 +07
  428  38.235825 32:32:32:32:32:32 11dBm Nov 17, 2018 01:29:47.098922000 +07
  429  38.262386 32:32:32:32:32:32 13dBm Nov 17, 2018 01:29:47.125483000 +07
  430  38.351096 32:32:32:32:32:32 13dBm Nov 17, 2018 01:29:47.214193000 +07
  431  38.381746 32:32:32:32:32:32 14dBm Nov 17, 2018 01:29:47.244843000 +07
  432  38.398525 32:32:32:32:32:32 13dBm Nov 17, 2018 01:29:47.261622000 +07
  433  38.415229 32:32:32:32:32:32 12dBm Nov 17, 2018 01:29:47.278326000 +07
  434  38.441256 32:32:32:32:32:32 13dBm Nov 17, 2018 01:29:47.304353000 +07
  435  38.630626 32:32:32:32:32:32 13dBm Nov 17, 2018 01:29:47.493723000 +07
  436  38.688531 32:32:32:32:32:32 12dBm Nov 17, 2018 01:29:47.551628000 +07
  437  38.793225 32:32:32:32:32:32 13dBm Nov 17, 2018 01:29:47.656322000 +07
  438  39.042510 32:32:32:32:32:32 13dBm Nov 17, 2018 01:29:47.905607000 +07
  439  39.078270 32:32:32:32:32:32 12dBm Nov 17, 2018 01:29:47.941367000 +07
  440  39.115351 32:32:32:32:32:32 13dBm Nov 17, 2018 01:29:47.978448000 +07
  441  39.188744 32:32:32:32:32:32 14dBm Nov 17, 2018 01:29:48.051841000 +07
  442  39.234880 32:32:32:32:32:32 13dBm Nov 17, 2018 01:29:48.097977000 +07
  443  39.253418 32:32:32:32:32:32 14dBm Nov 17, 2018 01:29:48.116515000 +07
  444  39.317021 32:32:32:32:32:32 14dBm Nov 17, 2018 01:29:48.180118000 +07
  445  39.518443 32:32:32:32:32:32 13dBm Nov 17, 2018 01:29:48.381540000 +07
  446  39.544160 32:32:32:32:32:32 13dBm Nov 17, 2018 01:29:48.407257000 +07
  447  39.570214 32:32:32:32:32:32 13dBm Nov 17, 2018 01:29:48.433311000 +07
  448  39.672996 32:32:32:32:32:32 13dBm Nov 17, 2018 01:29:48.536093000 +07
  449  39.704732 32:32:32:32:32:32 13dBm Nov 17, 2018 01:29:48.567829000 +07
  450  39.822271 32:32:32:32:32:32 13dBm Nov 17, 2018 01:29:48.685368000 +07
  451  39.941599 32:32:32:32:32:32 11dBm Nov 17, 2018 01:29:48.804696000 +07
  452  40.039674 32:32:32:32:32:32 12dBm Nov 17, 2018 01:29:48.902771000 +07
  453  40.212537 32:32:32:32:32:32 12dBm Nov 17, 2018 01:29:49.075634000 +07
  454  40.290356 32:32:32:32:32:32 13dBm Nov 17, 2018 01:29:49.153453000 +07
  455  40.417062 32:32:32:32:32:32 11dBm Nov 17, 2018 01:29:49.280159000 +07
  456  40.435900 32:32:32:32:32:32 13dBm Nov 17, 2018 01:29:49.298997000 +07
  457  40.486477 32:32:32:32:32:32 12dBm Nov 17, 2018 01:29:49.349574000 +07
  458  40.506864 32:32:32:32:32:32 14dBm Nov 17, 2018 01:29:49.369961000 +07
  459  40.558211 32:32:32:32:32:32 14dBm Nov 17, 2018 01:29:49.421308000 +07
  460  40.723922 32:32:32:32:32:32 12dBm Nov 17, 2018 01:29:49.587019000 +07
  461  40.741814 32:32:32:32:32:32 12dBm Nov 17, 2018 01:29:49.604911000 +07
  462  40.768772 32:32:32:32:32:32 13dBm Nov 17, 2018 01:29:49.631869000 +07
  463  40.797983 32:32:32:32:32:32 10dBm Nov 17, 2018 01:29:49.661080000 +07
  464  40.885023 32:32:32:32:32:32 13dBm Nov 17, 2018 01:29:49.748120000 +07
  465  40.912291 32:32:32:32:32:32 12dBm Nov 17, 2018 01:29:49.775388000 +07
  466  41.207559 32:32:32:32:32:32 15dBm Nov 17, 2018 01:29:50.070656000 +07
  467  41.278056 32:32:32:32:32:32 15dBm Nov 17, 2018 01:29:50.141153000 +07
  468  41.313010 32:32:32:32:32:32 13dBm Nov 17, 2018 01:29:50.176107000 +07
  469  41.337273 32:32:32:32:32:32 13dBm Nov 17, 2018 01:29:50.200370000 +07
  470  41.376064 32:32:32:32:32:32 14dBm Nov 17, 2018 01:29:50.239161000 +07
  471  41.556749 32:32:32:32:32:32 13dBm Nov 17, 2018 01:29:50.419846000 +07
  472  41.602719 32:32:32:32:32:32 12dBm Nov 17, 2018 01:29:50.465816000 +07
  473  41.656424 32:32:32:32:32:32 12dBm Nov 17, 2018 01:29:50.519521000 +07
  474  41.705343 32:32:32:32:32:32 10dBm Nov 17, 2018 01:29:50.568440000 +07
  475  41.879341 32:32:32:32:32:32 13dBm Nov 17, 2018 01:29:50.742438000 +07
  476  41.924632 32:32:32:32:32:32 13dBm Nov 17, 2018 01:29:50.787729000 +07
  477  41.980742 32:32:32:32:32:32 14dBm Nov 17, 2018 01:29:50.843839000 +07
  478  42.025347 32:32:32:32:32:32 14dBm Nov 17, 2018 01:29:50.888444000 +07
  479  42.134702 32:32:32:32:32:32 13dBm Nov 17, 2018 01:29:50.997799000 +07
  480  42.152866 32:32:32:32:32:32 14dBm Nov 17, 2018 01:29:51.015963000 +07
  481  42.168928 32:32:32:32:32:32 14dBm Nov 17, 2018 01:29:51.032025000 +07
  482  42.296958 32:32:32:32:32:32 14dBm Nov 17, 2018 01:29:51.160055000 +07
  483  42.337809 32:32:32:32:32:32 14dBm Nov 17, 2018 01:29:51.200906000 +07
  484  42.456755 32:32:32:32:32:32 14dBm Nov 17, 2018 01:29:51.319852000 +07
  485  42.552367 32:32:32:32:32:32 13dBm Nov 17, 2018 01:29:51.415464000 +07
  486  43.009418 32:32:32:32:32:32 14dBm Nov 17, 2018 01:29:51.872515000 +07
  487  43.018879 32:32:32:32:32:32 13dBm Nov 17, 2018 01:29:51.881976000 +07
  488  43.171100 32:32:32:32:32:32 13dBm Nov 17, 2018 01:29:52.034197000 +07
  489  43.265331 32:32:32:32:32:32 14dBm Nov 17, 2018 01:29:52.128428000 +07
  490  43.302845 32:32:32:32:32:32 12dBm Nov 17, 2018 01:29:52.165942000 +07
  491  43.425201 32:32:32:32:32:32 14dBm Nov 17, 2018 01:29:52.288298000 +07
  492  43.467321 32:32:32:32:32:32 14dBm Nov 17, 2018 01:29:52.330418000 +07
  493  43.491425 32:32:32:32:32:32 13dBm Nov 17, 2018 01:29:52.354522000 +07
  494  43.558348 32:32:32:32:32:32 11dBm Nov 17, 2018 01:29:52.421445000 +07
  495  43.674969 32:32:32:32:32:32 12dBm Nov 17, 2018 01:29:52.538066000 +07
  496  43.772364 32:32:32:32:32:32 13dBm Nov 17, 2018 01:29:52.635461000 +07
  497  43.975920 32:32:32:32:32:32 12dBm Nov 17, 2018 01:29:52.839017000 +07
  498  44.085096 32:32:32:32:32:32 14dBm Nov 17, 2018 01:29:52.948193000 +07
  499  44.297576 32:32:32:32:32:32 13dBm Nov 17, 2018 01:29:53.160673000 +07
  500  44.413029 32:32:32:32:32:32 11dBm Nov 17, 2018 01:29:53.276126000 +07
  501  44.563308 32:32:32:32:32:32 12dBm Nov 17, 2018 01:29:53.426405000 +07
  502  44.736092 32:32:32:32:32:32 13dBm Nov 17, 2018 01:29:53.599189000 +07
  503  44.801592 32:32:32:32:32:32 12dBm Nov 17, 2018 01:29:53.664689000 +07
  504  44.831880 32:32:32:32:32:32 11dBm Nov 17, 2018 01:29:53.694977000 +07
  505  44.848507 32:32:32:32:32:32 13dBm Nov 17, 2018 01:29:53.711604000 +07
  506  44.902493 32:32:32:32:32:32 11dBm Nov 17, 2018 01:29:53.765590000 +07
  507  44.939762 32:32:32:32:32:32 12dBm Nov 17, 2018 01:29:53.802859000 +07
  508  44.953609 32:32:32:32:32:32 13dBm Nov 17, 2018 01:29:53.816706000 +07
  509  44.971586 32:32:32:32:32:32 12dBm Nov 17, 2018 01:29:53.834683000 +07
  510  44.986252 32:32:32:32:32:32 11dBm Nov 17, 2018 01:29:53.849349000 +07
  511  45.138930 32:32:32:32:32:32 12dBm Nov 17, 2018 01:29:54.002027000 +07
  512  45.175022 32:32:32:32:32:32 11dBm Nov 17, 2018 01:29:54.038119000 +07
  513  45.295938 32:32:32:32:32:32 7dBm Nov 17, 2018 01:29:54.159035000 +07
  514  45.570030 32:32:32:32:32:32 12dBm Nov 17, 2018 01:29:54.433127000 +07
  515  45.599244 32:32:32:32:32:32 12dBm Nov 17, 2018 01:29:54.462341000 +07
  516  45.625891 32:32:32:32:32:32 9dBm Nov 17, 2018 01:29:54.488988000 +07
  517  45.714019 32:32:32:32:32:32 11dBm Nov 17, 2018 01:29:54.577116000 +07
  518  45.932654 32:32:32:32:32:32 12dBm Nov 17, 2018 01:29:54.795751000 +07
  519  45.960712 32:32:32:32:32:32 11dBm Nov 17, 2018 01:29:54.823809000 +07
  520  45.983631 32:32:32:32:32:32 8dBm Nov 17, 2018 01:29:54.846728000 +07
  521  46.130012 32:32:32:32:32:32 11dBm Nov 17, 2018 01:29:54.993109000 +07
  522  46.205907 32:32:32:32:32:32 11dBm Nov 17, 2018 01:29:55.069004000 +07
  523  46.375106 32:32:32:32:32:32 12dBm Nov 17, 2018 01:29:55.238203000 +07
  524  46.440783 32:32:32:32:32:32 11dBm Nov 17, 2018 01:29:55.303880000 +07
  525  46.489330 32:32:32:32:32:32 10dBm Nov 17, 2018 01:29:55.352427000 +07
  526  46.503243 32:32:32:32:32:32 12dBm Nov 17, 2018 01:29:55.366340000 +07
  527  46.577235 32:32:32:32:32:32 12dBm Nov 17, 2018 01:29:55.440332000 +07
  528  46.697458 32:32:32:32:32:32 12dBm Nov 17, 2018 01:29:55.560555000 +07
  529  46.743663 32:32:32:32:32:32 11dBm Nov 17, 2018 01:29:55.606760000 +07
  530  46.932679 32:32:32:32:32:32 12dBm Nov 17, 2018 01:29:55.795776000 +07
  531  46.974768 32:32:32:32:32:32 13dBm Nov 17, 2018 01:29:55.837865000 +07
  532  47.013160 32:32:32:32:32:32 13dBm Nov 17, 2018 01:29:55.876257000 +07
  533  47.030465 32:32:32:32:32:32 14dBm Nov 17, 2018 01:29:55.893562000 +07
  534  47.054639 32:32:32:32:32:32 12dBm Nov 17, 2018 01:29:55.917736000 +07
  535  47.166390 32:32:32:32:32:32 11dBm Nov 17, 2018 01:29:56.029487000 +07
  536  47.321750 32:32:32:32:32:32 11dBm Nov 17, 2018 01:29:56.184847000 +07
  537  47.335827 32:32:32:32:32:32 11dBm Nov 17, 2018 01:29:56.198924000 +07
  538  47.358488 32:32:32:32:32:32 9dBm Nov 17, 2018 01:29:56.221585000 +07
  539  47.433768 32:32:32:32:32:32 11dBm Nov 17, 2018 01:29:56.296865000 +07
  540  47.624693 32:32:32:32:32:32 13dBm Nov 17, 2018 01:29:56.487790000 +07
  541  47.839440 32:32:32:32:32:32 11dBm Nov 17, 2018 01:29:56.702537000 +07
  542  47.860073 32:32:32:32:32:32 11dBm Nov 17, 2018 01:29:56.723170000 +07
  543  47.871535 32:32:32:32:32:32 13dBm Nov 17, 2018 01:29:56.734632000 +07
  544  47.944725 32:32:32:32:32:32 12dBm Nov 17, 2018 01:29:56.807822000 +07
  545  48.121913 32:32:32:32:32:32 13dBm Nov 17, 2018 01:29:56.985010000 +07
  546  48.181675 32:32:32:32:32:32 11dBm Nov 17, 2018 01:29:57.044772000 +07
  547  48.272361 32:32:32:32:32:32 11dBm Nov 17, 2018 01:29:57.135458000 +07
  548  48.313970 32:32:32:32:32:32 12dBm Nov 17, 2018 01:29:57.177067000 +07
  549  48.349412 32:32:32:32:32:32 12dBm Nov 17, 2018 01:29:57.212509000 +07
  550  48.398869 32:32:32:32:32:32 12dBm Nov 17, 2018 01:29:57.261966000 +07
  551  48.410556 32:32:32:32:32:32 11dBm Nov 17, 2018 01:29:57.273653000 +07
  552  48.453526 32:32:32:32:32:32 13dBm Nov 17, 2018 01:29:57.316623000 +07
  553  48.740017 32:32:32:32:32:32 13dBm Nov 17, 2018 01:29:57.603114000 +07
  554  48.875774 32:32:32:32:32:32 12dBm Nov 17, 2018 01:29:57.738871000 +07
  555  48.907889 32:32:32:32:32:32 11dBm Nov 17, 2018 01:29:57.770986000 +07
  556  48.965081 32:32:32:32:32:32 11dBm Nov 17, 2018 01:29:57.828178000 +07
  557  48.989791 32:32:32:32:32:32 12dBm Nov 17, 2018 01:29:57.852888000 +07
  558  49.122058 32:32:32:32:32:32 12dBm Nov 17, 2018 01:29:57.985155000 +07
  559  49.132802 32:32:32:32:32:32 11dBm Nov 17, 2018 01:29:57.995899000 +07
  560  49.139273 32:32:32:32:32:32 13dBm Nov 17, 2018 01:29:58.002370000 +07
  561  49.146055 32:32:32:32:32:32 12dBm Nov 17, 2018 01:29:58.009152000 +07
  562  49.163501 32:32:32:32:32:32 11dBm Nov 17, 2018 01:29:58.026598000 +07
  563  49.208730 32:32:32:32:32:32 11dBm Nov 17, 2018 01:29:58.071827000 +07
  564  49.243957 32:32:32:32:32:32 11dBm Nov 17, 2018 01:29:58.107054000 +07
  565  49.395089 32:32:32:32:32:32 13dBm Nov 17, 2018 01:29:58.258186000 +07
  566  49.427444 32:32:32:32:32:32 13dBm Nov 17, 2018 01:29:58.290541000 +07
  567  49.499915 32:32:32:32:32:32 10dBm Nov 17, 2018 01:29:58.363012000 +07
  568  49.620928 32:32:32:32:32:32 11dBm Nov 17, 2018 01:29:58.484025000 +07
  569  49.705378 32:32:32:32:32:32 12dBm Nov 17, 2018 01:29:58.568475000 +07
  570  49.836069 32:32:32:32:32:32 11dBm Nov 17, 2018 01:29:58.699166000 +07
  571  49.927312 32:32:32:32:32:32 13dBm Nov 17, 2018 01:29:58.790409000 +07
  572  50.084198 32:32:32:32:32:32 12dBm Nov 17, 2018 01:29:58.947295000 +07
  573  50.175855 32:32:32:32:32:32 12dBm Nov 17, 2018 01:29:59.038952000 +07
  574  50.215256 32:32:32:32:32:32 13dBm Nov 17, 2018 01:29:59.078353000 +07
  575  50.249571 32:32:32:32:32:32 13dBm Nov 17, 2018 01:29:59.112668000 +07
  576  50.283057 32:32:32:32:32:32 12dBm Nov 17, 2018 01:29:59.146154000 +07
  577  50.310955 32:32:32:32:32:32 11dBm Nov 17, 2018 01:29:59.174052000 +07
  578  50.335392 32:32:32:32:32:32 14dBm Nov 17, 2018 01:29:59.198489000 +07
  579  50.710747 32:32:32:32:32:32 12dBm Nov 17, 2018 01:29:59.573844000 +07
  580  50.811427 32:32:32:32:32:32 11dBm Nov 17, 2018 01:29:59.674524000 +07
  581  50.931082 32:32:32:32:32:32 11dBm Nov 17, 2018 01:29:59.794179000 +07
  582  51.105409 32:32:32:32:32:32 11dBm Nov 17, 2018 01:29:59.968506000 +07
  583  51.211367 32:32:32:32:32:32 10dBm Nov 17, 2018 01:30:00.074464000 +07
  584  51.230974 32:32:32:32:32:32 11dBm Nov 17, 2018 01:30:00.094071000 +07
  585  51.464573 32:32:32:32:32:32 9dBm Nov 17, 2018 01:30:00.327670000 +07
  586  51.644584 32:32:32:32:32:32 11dBm Nov 17, 2018 01:30:00.507681000 +07
  587  51.692110 32:32:32:32:32:32 11dBm Nov 17, 2018 01:30:00.555207000 +07
  588  51.771387 32:32:32:32:32:32 11dBm Nov 17, 2018 01:30:00.634484000 +07
  589  51.842405 32:32:32:32:32:32 11dBm Nov 17, 2018 01:30:00.705502000 +07
  590  51.866736 32:32:32:32:32:32 13dBm Nov 17, 2018 01:30:00.729833000 +07
  591  51.958556 32:32:32:32:32:32 10dBm Nov 17, 2018 01:30:00.821653000 +07
  592  52.070926 32:32:32:32:32:32 13dBm Nov 17, 2018 01:30:00.934023000 +07
  593  52.264672 32:32:32:32:32:32 11dBm Nov 17, 2018 01:30:01.127769000 +07
  594  52.277182 32:32:32:32:32:32 13dBm Nov 17, 2018 01:30:01.140279000 +07
  595  52.296467 32:32:32:32:32:32 13dBm Nov 17, 2018 01:30:01.159564000 +07
  596  52.401930 32:32:32:32:32:32 12dBm Nov 17, 2018 01:30:01.265027000 +07
  597  52.420417 32:32:32:32:32:32 11dBm Nov 17, 2018 01:30:01.283514000 +07
  598  52.489359 32:32:32:32:32:32 13dBm Nov 17, 2018 01:30:01.352456000 +07
  599  52.518362 32:32:32:32:32:32 12dBm Nov 17, 2018 01:30:01.381459000 +07
  600  52.532187 32:32:32:32:32:32 12dBm Nov 17, 2018 01:30:01.395284000 +07
  601  52.621325 32:32:32:32:32:32 13dBm Nov 17, 2018 01:30:01.484422000 +07
  602  52.685082 32:32:32:32:32:32 13dBm Nov 17, 2018 01:30:01.548179000 +07
  603  52.725995 32:32:32:32:32:32 14dBm Nov 17, 2018 01:30:01.589092000 +07
  604  52.830132 32:32:32:32:32:32 11dBm Nov 17, 2018 01:30:01.693229000 +07
  605  52.935138 32:32:32:32:32:32 14dBm Nov 17, 2018 01:30:01.798235000 +07
  606  52.956510 32:32:32:32:32:32 12dBm Nov 17, 2018 01:30:01.819607000 +07
  607  53.272936 32:32:32:32:32:32 12dBm Nov 17, 2018 01:30:02.136033000 +07
  608  53.296499 32:32:32:32:32:32 14dBm Nov 17, 2018 01:30:02.159596000 +07
  609  53.334928 32:32:32:32:32:32 11dBm Nov 17, 2018 01:30:02.198025000 +07
  610  53.495468 32:32:32:32:32:32 13dBm Nov 17, 2018 01:30:02.358565000 +07
  611  53.753449 32:32:32:32:32:32 14dBm Nov 17, 2018 01:30:02.616546000 +07
  612  53.827062 32:32:32:32:32:32 13dBm Nov 17, 2018 01:30:02.690159000 +07
  613  53.928602 32:32:32:32:32:32 14dBm Nov 17, 2018 01:30:02.791699000 +07
  614  54.201182 32:32:32:32:32:32 13dBm Nov 17, 2018 01:30:03.064279000 +07
  615  54.321098 32:32:32:32:32:32 14dBm Nov 17, 2018 01:30:03.184195000 +07
  616  54.435294 32:32:32:32:32:32 14dBm Nov 17, 2018 01:30:03.298391000 +07
  617  54.515613 32:32:32:32:32:32 12dBm Nov 17, 2018 01:30:03.378710000 +07
  618  54.611949 32:32:32:32:32:32 12dBm Nov 17, 2018 01:30:03.475046000 +07
  619  54.635021 32:32:32:32:32:32 13dBm Nov 17, 2018 01:30:03.498118000 +07
  620  54.758445 32:32:32:32:32:32 13dBm Nov 17, 2018 01:30:03.621542000 +07
  621  54.911534 32:32:32:32:32:32 14dBm Nov 17, 2018 01:30:03.774631000 +07
  622  55.018891 32:32:32:32:32:32 13dBm Nov 17, 2018 01:30:03.881988000 +07
  623  55.037919 32:32:32:32:32:32 13dBm Nov 17, 2018 01:30:03.901016000 +07
  624  55.097766 32:32:32:32:32:32 10dBm Nov 17, 2018 01:30:03.960863000 +07
  625  55.149108 32:32:32:32:32:32 12dBm Nov 17, 2018 01:30:04.012205000 +07
  626  55.171073 32:32:32:32:32:32 13dBm Nov 17, 2018 01:30:04.034170000 +07
  627  55.396936 32:32:32:32:32:32 14dBm Nov 17, 2018 01:30:04.260033000 +07
  628  55.428638 32:32:32:32:32:32 14dBm Nov 17, 2018 01:30:04.291735000 +07
  629  55.480488 32:32:32:32:32:32 13dBm Nov 17, 2018 01:30:04.343585000 +07
  630  55.678282 32:32:32:32:32:32 14dBm Nov 17, 2018 01:30:04.541379000 +07
  631  55.708747 32:32:32:32:32:32 12dBm Nov 17, 2018 01:30:04.571844000 +07
  632  55.743430 32:32:32:32:32:32 12dBm Nov 17, 2018 01:30:04.606527000 +07
  633  55.757013 32:32:32:32:32:32 12dBm Nov 17, 2018 01:30:04.620110000 +07
  634  56.073765 32:32:32:32:32:32 13dBm Nov 17, 2018 01:30:04.936862000 +07
  635  56.090375 32:32:32:32:32:32 14dBm Nov 17, 2018 01:30:04.953472000 +07
  636  56.187110 32:32:32:32:32:32 13dBm Nov 17, 2018 01:30:05.050207000 +07
  637  56.260573 32:32:32:32:32:32 15dBm Nov 17, 2018 01:30:05.123670000 +07
  638  56.290857 32:32:32:32:32:32 14dBm Nov 17, 2018 01:30:05.153954000 +07
  639  56.319616 32:32:32:32:32:32 13dBm Nov 17, 2018 01:30:05.182713000 +07
  640  56.342017 32:32:32:32:32:32 15dBm Nov 17, 2018 01:30:05.205114000 +07
  641  56.438267 32:32:32:32:32:32 13dBm Nov 17, 2018 01:30:05.301364000 +07
  642  56.531171 32:32:32:32:32:32 14dBm Nov 17, 2018 01:30:05.394268000 +07
  643  56.589023 32:32:32:32:32:32 13dBm Nov 17, 2018 01:30:05.452120000 +07
  644  56.643179 32:32:32:32:32:32 15dBm Nov 17, 2018 01:30:05.506276000 +07
  645  56.648592 32:32:32:32:32:32 13dBm Nov 17, 2018 01:30:05.511689000 +07
  646  56.706963 32:32:32:32:32:32 13dBm Nov 17, 2018 01:30:05.570060000 +07
  647  56.857283 32:32:32:32:32:32 12dBm Nov 17, 2018 01:30:05.720380000 +07
  648  56.909139 32:32:32:32:32:32 13dBm Nov 17, 2018 01:30:05.772236000 +07
  649  56.926057 32:32:32:32:32:32 12dBm Nov 17, 2018 01:30:05.789154000 +07
  650  57.109346 32:32:32:32:32:32 13dBm Nov 17, 2018 01:30:05.972443000 +07
  651  57.188245 32:32:32:32:32:32 13dBm Nov 17, 2018 01:30:06.051342000 +07
  652  57.208458 32:32:32:32:32:32 13dBm Nov 17, 2018 01:30:06.071555000 +07
  653  57.236584 32:32:32:32:32:32 13dBm Nov 17, 2018 01:30:06.099681000 +07
  654  57.394208 32:32:32:32:32:32 11dBm Nov 17, 2018 01:30:06.257305000 +07
  655  57.523434 32:32:32:32:32:32 13dBm Nov 17, 2018 01:30:06.386531000 +07
  656  57.544384 32:32:32:32:32:32 13dBm Nov 17, 2018 01:30:06.407481000 +07
  657  57.633208 32:32:32:32:32:32 14dBm Nov 17, 2018 01:30:06.496305000 +07
  658  57.701716 32:32:32:32:32:32 13dBm Nov 17, 2018 01:30:06.564813000 +07
  659  57.744743 32:32:32:32:32:32 12dBm Nov 17, 2018 01:30:06.607840000 +07
  660  57.787764 32:32:32:32:32:32 14dBm Nov 17, 2018 01:30:06.650861000 +07
  661  57.873648 32:32:32:32:32:32 13dBm Nov 17, 2018 01:30:06.736745000 +07
  662  57.923723 32:32:32:32:32:32 13dBm Nov 17, 2018 01:30:06.786820000 +07
  663  58.046477 32:32:32:32:32:32 12dBm Nov 17, 2018 01:30:06.909574000 +07
  664  58.073276 32:32:32:32:32:32 13dBm Nov 17, 2018 01:30:06.936373000 +07
  665  58.146147 32:32:32:32:32:32 13dBm Nov 17, 2018 01:30:07.009244000 +07
  666  58.176628 32:32:32:32:32:32 13dBm Nov 17, 2018 01:30:07.039725000 +07
  667  58.275268 32:32:32:32:32:32 12dBm Nov 17, 2018 01:30:07.138365000 +07
  668  58.328890 32:32:32:32:32:32 11dBm Nov 17, 2018 01:30:07.191987000 +07
  669  58.345205 32:32:32:32:32:32 13dBm Nov 17, 2018 01:30:07.208302000 +07
  670  58.597057 32:32:32:32:32:32 12dBm Nov 17, 2018 01:30:07.460154000 +07
  671  59.121853 32:32:32:32:32:32 12dBm Nov 17, 2018 01:30:07.984950000 +07
  672  59.268323 32:32:32:32:32:32 12dBm Nov 17, 2018 01:30:08.131420000 +07
  673  59.291438 32:32:32:32:32:32 13dBm Nov 17, 2018 01:30:08.154535000 +07
  674  59.646666 32:32:32:32:32:32 13dBm Nov 17, 2018 01:30:08.509763000 +07
  675  59.721126 32:32:32:32:32:32 12dBm Nov 17, 2018 01:30:08.584223000 +07
  676  59.915927 32:32:32:32:32:32 14dBm Nov 17, 2018 01:30:08.779024000 +07
  677  60.025424 32:32:32:32:32:32 11dBm Nov 17, 2018 01:30:08.888521000 +07
  678  60.051989 32:32:32:32:32:32 13dBm Nov 17, 2018 01:30:08.915086000 +07
  679  60.172642 32:32:32:32:32:32 14dBm Nov 17, 2018 01:30:09.035739000 +07
  680  60.314249 32:32:32:32:32:32 10dBm Nov 17, 2018 01:30:09.177346000 +07
  681  60.380914 32:32:32:32:32:32 13dBm Nov 17, 2018 01:30:09.244011000 +07
  682  60.440666 32:32:32:32:32:32 13dBm Nov 17, 2018 01:30:09.303763000 +07
  683  60.478304 32:32:32:32:32:32 12dBm Nov 17, 2018 01:30:09.341401000 +07
  684  60.513420 32:32:32:32:32:32 12dBm Nov 17, 2018 01:30:09.376517000 +07
  685  60.558194 32:32:32:32:32:32 11dBm Nov 17, 2018 01:30:09.421291000 +07
