    1   0.000000 32:32:32:32:32:32 15dBm Nov 17, 2018 01:27:55.473361000 +07
    2   0.356932 32:32:32:32:32:32 14dBm Nov 17, 2018 01:27:55.830293000 +07
    3   0.602110 32:32:32:32:32:32 16dBm Nov 17, 2018 01:27:56.075471000 +07
    4   0.625474 32:32:32:32:32:32 15dBm Nov 17, 2018 01:27:56.098835000 +07
    5   0.677435 32:32:32:32:32:32 16dBm Nov 17, 2018 01:27:56.150796000 +07
    6   0.913291 32:32:32:32:32:32 15dBm Nov 17, 2018 01:27:56.386652000 +07
    7   1.031676 32:32:32:32:32:32 18dBm Nov 17, 2018 01:27:56.505037000 +07
    8   1.208484 32:32:32:32:32:32 16dBm Nov 17, 2018 01:27:56.681845000 +07
    9   1.227565 32:32:32:32:32:32 16dBm Nov 17, 2018 01:27:56.700926000 +07
   10   1.292732 32:32:32:32:32:32 14dBm Nov 17, 2018 01:27:56.766093000 +07
   11   1.311823 32:32:32:32:32:32 17dBm Nov 17, 2018 01:27:56.785184000 +07
   12   1.339732 32:32:32:32:32:32 17dBm Nov 17, 2018 01:27:56.813093000 +07
   13   1.534147 32:32:32:32:32:32 16dBm Nov 17, 2018 01:27:57.007508000 +07
   14   1.605308 32:32:32:32:32:32 18dBm Nov 17, 2018 01:27:57.078669000 +07
   15   1.763267 32:32:32:32:32:32 15dBm Nov 17, 2018 01:27:57.236628000 +07
   16   1.799421 32:32:32:32:32:32 16dBm Nov 17, 2018 01:27:57.272782000 +07
   17   1.860817 32:32:32:32:32:32 15dBm Nov 17, 2018 01:27:57.334178000 +07
   18   2.128867 32:32:32:32:32:32 17dBm Nov 17, 2018 01:27:57.602228000 +07
   19   2.220079 32:32:32:32:32:32 18dBm Nov 17, 2018 01:27:57.693440000 +07
   20   2.248266 32:32:32:32:32:32 17dBm Nov 17, 2018 01:27:57.721627000 +07
   21   2.456891 32:32:32:32:32:32 16dBm Nov 17, 2018 01:27:57.930252000 +07
   22   2.510503 32:32:32:32:32:32 15dBm Nov 17, 2018 01:27:57.983864000 +07
   23   2.533593 32:32:32:32:32:32 14dBm Nov 17, 2018 01:27:58.006954000 +07
   24   2.616817 32:32:32:32:32:32 16dBm Nov 17, 2018 01:27:58.090178000 +07
   25   2.664461 32:32:32:32:32:32 18dBm Nov 17, 2018 01:27:58.137822000 +07
   26   2.690543 32:32:32:32:32:32 17dBm Nov 17, 2018 01:27:58.163904000 +07
   27   2.711478 32:32:32:32:32:32 17dBm Nov 17, 2018 01:27:58.184839000 +07
   28   2.762543 32:32:32:32:32:32 16dBm Nov 17, 2018 01:27:58.235904000 +07
   29   2.821707 32:32:32:32:32:32 17dBm Nov 17, 2018 01:27:58.295068000 +07
   30   3.222660 32:32:32:32:32:32 16dBm Nov 17, 2018 01:27:58.696021000 +07
   31   3.414722 32:32:32:32:32:32 16dBm Nov 17, 2018 01:27:58.888083000 +07
   32   3.596901 32:32:32:32:32:32 13dBm Nov 17, 2018 01:27:59.070262000 +07
   33   3.632399 32:32:32:32:32:32 16dBm Nov 17, 2018 01:27:59.105760000 +07
   34   3.797665 32:32:32:32:32:32 15dBm Nov 17, 2018 01:27:59.271026000 +07
   35   3.918473 32:32:32:32:32:32 17dBm Nov 17, 2018 01:27:59.391834000 +07
   36   3.973407 32:32:32:32:32:32 18dBm Nov 17, 2018 01:27:59.446768000 +07
   37   3.992291 32:32:32:32:32:32 16dBm Nov 17, 2018 01:27:59.465652000 +07
   38   4.046221 32:32:32:32:32:32 19dBm Nov 17, 2018 01:27:59.519582000 +07
   39   4.309258 32:32:32:32:32:32 17dBm Nov 17, 2018 01:27:59.782619000 +07
   40   4.348505 32:32:32:32:32:32 17dBm Nov 17, 2018 01:27:59.821866000 +07
   41   4.366267 32:32:32:32:32:32 17dBm Nov 17, 2018 01:27:59.839628000 +07
   42   4.497567 32:32:32:32:32:32 15dBm Nov 17, 2018 01:27:59.970928000 +07
   43   4.659304 32:32:32:32:32:32 17dBm Nov 17, 2018 01:28:00.132665000 +07
   44   4.785009 32:32:32:32:32:32 16dBm Nov 17, 2018 01:28:00.258370000 +07
   45   4.897297 32:32:32:32:32:32 18dBm Nov 17, 2018 01:28:00.370658000 +07
   46   4.997903 32:32:32:32:32:32 19dBm Nov 17, 2018 01:28:00.471264000 +07
   47   5.034418 32:32:32:32:32:32 15dBm Nov 17, 2018 01:28:00.507779000 +07
   48   5.105130 32:32:32:32:32:32 18dBm Nov 17, 2018 01:28:00.578491000 +07
   49   5.119590 32:32:32:32:32:32 16dBm Nov 17, 2018 01:28:00.592951000 +07
   50   5.156453 32:32:32:32:32:32 17dBm Nov 17, 2018 01:28:00.629814000 +07
   51   5.189086 32:32:32:32:32:32 18dBm Nov 17, 2018 01:28:00.662447000 +07
   52   5.207944 32:32:32:32:32:32 16dBm Nov 17, 2018 01:28:00.681305000 +07
   53   5.352174 32:32:32:32:32:32 17dBm Nov 17, 2018 01:28:00.825535000 +07
   54   5.368199 32:32:32:32:32:32 18dBm Nov 17, 2018 01:28:00.841560000 +07
   55   5.388141 32:32:32:32:32:32 15dBm Nov 17, 2018 01:28:00.861502000 +07
   56   5.423189 32:32:32:32:32:32 15dBm Nov 17, 2018 01:28:00.896550000 +07
   57   5.675899 32:32:32:32:32:32 18dBm Nov 17, 2018 01:28:01.149260000 +07
   58   5.706023 32:32:32:32:32:32 17dBm Nov 17, 2018 01:28:01.179384000 +07
   59   5.725301 32:32:32:32:32:32 18dBm Nov 17, 2018 01:28:01.198662000 +07
   60   6.037616 32:32:32:32:32:32 17dBm Nov 17, 2018 01:28:01.510977000 +07
   61   6.047549 32:32:32:32:32:32 15dBm Nov 17, 2018 01:28:01.520910000 +07
   62   6.162933 32:32:32:32:32:32 18dBm Nov 17, 2018 01:28:01.636294000 +07
   63   6.183547 32:32:32:32:32:32 17dBm Nov 17, 2018 01:28:01.656908000 +07
   64   6.206622 32:32:32:32:32:32 16dBm Nov 17, 2018 01:28:01.679983000 +07
   65   6.225510 32:32:32:32:32:32 17dBm Nov 17, 2018 01:28:01.698871000 +07
   66   6.241364 32:32:32:32:32:32 14dBm Nov 17, 2018 01:28:01.714725000 +07
   67   6.349045 32:32:32:32:32:32 17dBm Nov 17, 2018 01:28:01.822406000 +07
   68   6.439752 32:32:32:32:32:32 17dBm Nov 17, 2018 01:28:01.913113000 +07
   69   6.465849 32:32:32:32:32:32 17dBm Nov 17, 2018 01:28:01.939210000 +07
   70   6.492369 32:32:32:32:32:32 17dBm Nov 17, 2018 01:28:01.965730000 +07
   71   6.565834 32:32:32:32:32:32 16dBm Nov 17, 2018 01:28:02.039195000 +07
   72   6.637328 32:32:32:32:32:32 17dBm Nov 17, 2018 01:28:02.110689000 +07
   73   6.697084 32:32:32:32:32:32 16dBm Nov 17, 2018 01:28:02.170445000 +07
   74   6.775590 32:32:32:32:32:32 17dBm Nov 17, 2018 01:28:02.248951000 +07
   75   6.799096 32:32:32:32:32:32 15dBm Nov 17, 2018 01:28:02.272457000 +07
   76   6.958533 32:32:32:32:32:32 17dBm Nov 17, 2018 01:28:02.431894000 +07
   77   7.050394 32:32:32:32:32:32 15dBm Nov 17, 2018 01:28:02.523755000 +07
   78   7.161242 32:32:32:32:32:32 15dBm Nov 17, 2018 01:28:02.634603000 +07
   79   7.368506 32:32:32:32:32:32 17dBm Nov 17, 2018 01:28:02.841867000 +07
   80   7.410240 32:32:32:32:32:32 18dBm Nov 17, 2018 01:28:02.883601000 +07
   81   7.427316 32:32:32:32:32:32 18dBm Nov 17, 2018 01:28:02.900677000 +07
   82   7.496825 32:32:32:32:32:32 17dBm Nov 17, 2018 01:28:02.970186000 +07
   83   7.522520 32:32:32:32:32:32 18dBm Nov 17, 2018 01:28:02.995881000 +07
   84   7.572737 32:32:32:32:32:32 16dBm Nov 17, 2018 01:28:03.046098000 +07
   85   7.724107 32:32:32:32:32:32 17dBm Nov 17, 2018 01:28:03.197468000 +07
   86   8.084417 32:32:32:32:32:32 14dBm Nov 17, 2018 01:28:03.557778000 +07
   87   8.379936 32:32:32:32:32:32 17dBm Nov 17, 2018 01:28:03.853297000 +07
   88   8.569315 32:32:32:32:32:32 13dBm Nov 17, 2018 01:28:04.042676000 +07
   89   8.893115 32:32:32:32:32:32 16dBm Nov 17, 2018 01:28:04.366476000 +07
   90   8.952032 32:32:32:32:32:32 18dBm Nov 17, 2018 01:28:04.425393000 +07
   91   8.968242 32:32:32:32:32:32 17dBm Nov 17, 2018 01:28:04.441603000 +07
   92   8.976805 32:32:32:32:32:32 14dBm Nov 17, 2018 01:28:04.450166000 +07
   93   8.993358 32:32:32:32:32:32 16dBm Nov 17, 2018 01:28:04.466719000 +07
   94   9.065599 32:32:32:32:32:32 16dBm Nov 17, 2018 01:28:04.538960000 +07
   95   9.102976 32:32:32:32:32:32 17dBm Nov 17, 2018 01:28:04.576337000 +07
   96   9.120415 32:32:32:32:32:32 17dBm Nov 17, 2018 01:28:04.593776000 +07
   97   9.275828 32:32:32:32:32:32 15dBm Nov 17, 2018 01:28:04.749189000 +07
   98   9.353703 32:32:32:32:32:32 16dBm Nov 17, 2018 01:28:04.827064000 +07
   99   9.638260 32:32:32:32:32:32 17dBm Nov 17, 2018 01:28:05.111621000 +07
  100   9.780110 32:32:32:32:32:32 16dBm Nov 17, 2018 01:28:05.253471000 +07
  101   9.829546 32:32:32:32:32:32 14dBm Nov 17, 2018 01:28:05.302907000 +07
  102   9.850272 32:32:32:32:32:32 15dBm Nov 17, 2018 01:28:05.323633000 +07
  103   9.865959 32:32:32:32:32:32 17dBm Nov 17, 2018 01:28:05.339320000 +07
  104   9.965036 32:32:32:32:32:32 16dBm Nov 17, 2018 01:28:05.438397000 +07
  105  10.399789 32:32:32:32:32:32 17dBm Nov 17, 2018 01:28:05.873150000 +07
  106  10.605488 32:32:32:32:32:32 17dBm Nov 17, 2018 01:28:06.078849000 +07
  107  10.690801 32:32:32:32:32:32 16dBm Nov 17, 2018 01:28:06.164162000 +07
  108  10.713787 32:32:32:32:32:32 15dBm Nov 17, 2018 01:28:06.187148000 +07
  109  10.917552 32:32:32:32:32:32 16dBm Nov 17, 2018 01:28:06.390913000 +07
  110  11.055386 32:32:32:32:32:32 17dBm Nov 17, 2018 01:28:06.528747000 +07
  111  11.161917 32:32:32:32:32:32 19dBm Nov 17, 2018 01:28:06.635278000 +07
  112  11.179425 32:32:32:32:32:32 17dBm Nov 17, 2018 01:28:06.652786000 +07
  113  11.416261 32:32:32:32:32:32 16dBm Nov 17, 2018 01:28:06.889622000 +07
  114  11.472056 32:32:32:32:32:32 15dBm Nov 17, 2018 01:28:06.945417000 +07
  115  11.532630 32:32:32:32:32:32 15dBm Nov 17, 2018 01:28:07.005991000 +07
  116  11.597796 32:32:32:32:32:32 16dBm Nov 17, 2018 01:28:07.071157000 +07
  117  11.802276 32:32:32:32:32:32 16dBm Nov 17, 2018 01:28:07.275637000 +07
  118  11.849254 32:32:32:32:32:32 16dBm Nov 17, 2018 01:28:07.322615000 +07
  119  12.012318 32:32:32:32:32:32 16dBm Nov 17, 2018 01:28:07.485679000 +07
  120  12.194222 32:32:32:32:32:32 14dBm Nov 17, 2018 01:28:07.667583000 +07
  121  12.222149 32:32:32:32:32:32 18dBm Nov 17, 2018 01:28:07.695510000 +07
  122  12.425394 32:32:32:32:32:32 17dBm Nov 17, 2018 01:28:07.898755000 +07
  123  12.464831 32:32:32:32:32:32 17dBm Nov 17, 2018 01:28:07.938192000 +07
  124  12.570784 32:32:32:32:32:32 17dBm Nov 17, 2018 01:28:08.044145000 +07
  125  12.747223 32:32:32:32:32:32 18dBm Nov 17, 2018 01:28:08.220584000 +07
  126  12.772115 32:32:32:32:32:32 17dBm Nov 17, 2018 01:28:08.245476000 +07
  127  12.833776 32:32:32:32:32:32 18dBm Nov 17, 2018 01:28:08.307137000 +07
  128  12.901589 32:32:32:32:32:32 18dBm Nov 17, 2018 01:28:08.374950000 +07
  129  12.956526 32:32:32:32:32:32 16dBm Nov 17, 2018 01:28:08.429887000 +07
  130  12.975180 32:32:32:32:32:32 18dBm Nov 17, 2018 01:28:08.448541000 +07
  131  12.986470 32:32:32:32:32:32 16dBm Nov 17, 2018 01:28:08.459831000 +07
  132  13.003101 32:32:32:32:32:32 16dBm Nov 17, 2018 01:28:08.476462000 +07
  133  13.366179 32:32:32:32:32:32 17dBm Nov 17, 2018 01:28:08.839540000 +07
  134  13.416818 32:32:32:32:32:32 18dBm Nov 17, 2018 01:28:08.890179000 +07
  135  13.510735 32:32:32:32:32:32 18dBm Nov 17, 2018 01:28:08.984096000 +07
  136  13.855900 32:32:32:32:32:32 18dBm Nov 17, 2018 01:28:09.329261000 +07
  137  13.971502 32:32:32:32:32:32 16dBm Nov 17, 2018 01:28:09.444863000 +07
  138  13.989557 32:32:32:32:32:32 18dBm Nov 17, 2018 01:28:09.462918000 +07
  139  14.004069 32:32:32:32:32:32 17dBm Nov 17, 2018 01:28:09.477430000 +07
  140  14.017385 32:32:32:32:32:32 17dBm Nov 17, 2018 01:28:09.490746000 +07
  141  14.061058 32:32:32:32:32:32 17dBm Nov 17, 2018 01:28:09.534419000 +07
  142  14.164520 32:32:32:32:32:32 18dBm Nov 17, 2018 01:28:09.637881000 +07
  143  14.226956 32:32:32:32:32:32 16dBm Nov 17, 2018 01:28:09.700317000 +07
  144  14.407545 32:32:32:32:32:32 17dBm Nov 17, 2018 01:28:09.880906000 +07
  145  14.458858 32:32:32:32:32:32 18dBm Nov 17, 2018 01:28:09.932219000 +07
  146  14.476249 32:32:32:32:32:32 16dBm Nov 17, 2018 01:28:09.949610000 +07
  147  14.531897 32:32:32:32:32:32 17dBm Nov 17, 2018 01:28:10.005258000 +07
  148  14.551936 32:32:32:32:32:32 17dBm Nov 17, 2018 01:28:10.025297000 +07
  149  14.688426 32:32:32:32:32:32 17dBm Nov 17, 2018 01:28:10.161787000 +07
  150  14.878774 32:32:32:32:32:32 17dBm Nov 17, 2018 01:28:10.352135000 +07
  151  14.964369 32:32:32:32:32:32 17dBm Nov 17, 2018 01:28:10.437730000 +07
  152  15.000104 32:32:32:32:32:32 16dBm Nov 17, 2018 01:28:10.473465000 +07
  153  15.090996 32:32:32:32:32:32 16dBm Nov 17, 2018 01:28:10.564357000 +07
  154  15.138719 32:32:32:32:32:32 15dBm Nov 17, 2018 01:28:10.612080000 +07
  155  15.168516 32:32:32:32:32:32 17dBm Nov 17, 2018 01:28:10.641877000 +07
  156  15.417029 32:32:32:32:32:32 18dBm Nov 17, 2018 01:28:10.890390000 +07
  157  15.474229 32:32:32:32:32:32 17dBm Nov 17, 2018 01:28:10.947590000 +07
  158  15.619482 32:32:32:32:32:32 16dBm Nov 17, 2018 01:28:11.092843000 +07
  159  15.803806 32:32:32:32:32:32 16dBm Nov 17, 2018 01:28:11.277167000 +07
  160  16.116186 32:32:32:32:32:32 17dBm Nov 17, 2018 01:28:11.589547000 +07
  161  16.169083 32:32:32:32:32:32 17dBm Nov 17, 2018 01:28:11.642444000 +07
  162  16.173567 32:32:32:32:32:32 17dBm Nov 17, 2018 01:28:11.646928000 +07
  163  16.381598 32:32:32:32:32:32 17dBm Nov 17, 2018 01:28:11.854959000 +07
  164  16.447461 32:32:32:32:32:32 16dBm Nov 17, 2018 01:28:11.920822000 +07
  165  16.656219 32:32:32:32:32:32 18dBm Nov 17, 2018 01:28:12.129580000 +07
  166  16.674634 32:32:32:32:32:32 17dBm Nov 17, 2018 01:28:12.147995000 +07
  167  16.881399 32:32:32:32:32:32 17dBm Nov 17, 2018 01:28:12.354760000 +07
  168  16.891483 32:32:32:32:32:32 17dBm Nov 17, 2018 01:28:12.364844000 +07
  169  16.929143 32:32:32:32:32:32 16dBm Nov 17, 2018 01:28:12.402504000 +07
  170  17.060674 32:32:32:32:32:32 17dBm Nov 17, 2018 01:28:12.534035000 +07
  171  17.086304 32:32:32:32:32:32 16dBm Nov 17, 2018 01:28:12.559665000 +07
  172  17.103649 32:32:32:32:32:32 16dBm Nov 17, 2018 01:28:12.577010000 +07
  173  17.126062 32:32:32:32:32:32 17dBm Nov 17, 2018 01:28:12.599423000 +07
  174  17.158762 32:32:32:32:32:32 18dBm Nov 17, 2018 01:28:12.632123000 +07
  175  17.497777 32:32:32:32:32:32 17dBm Nov 17, 2018 01:28:12.971138000 +07
  176  17.641542 32:32:32:32:32:32 15dBm Nov 17, 2018 01:28:13.114903000 +07
  177  17.666739 32:32:32:32:32:32 17dBm Nov 17, 2018 01:28:13.140100000 +07
  178  17.745753 32:32:32:32:32:32 19dBm Nov 17, 2018 01:28:13.219114000 +07
  179  18.050107 32:32:32:32:32:32 17dBm Nov 17, 2018 01:28:13.523468000 +07
  180  18.064990 32:32:32:32:32:32 15dBm Nov 17, 2018 01:28:13.538351000 +07
  181  18.114121 32:32:32:32:32:32 15dBm Nov 17, 2018 01:28:13.587482000 +07
  182  18.132265 32:32:32:32:32:32 17dBm Nov 17, 2018 01:28:13.605626000 +07
  183  18.256504 32:32:32:32:32:32 16dBm Nov 17, 2018 01:28:13.729865000 +07
  184  18.379042 32:32:32:32:32:32 18dBm Nov 17, 2018 01:28:13.852403000 +07
  185  18.438657 32:32:32:32:32:32 15dBm Nov 17, 2018 01:28:13.912018000 +07
  186  18.493410 32:32:32:32:32:32 17dBm Nov 17, 2018 01:28:13.966771000 +07
  187  18.661148 32:32:32:32:32:32 19dBm Nov 17, 2018 01:28:14.134509000 +07
  188  18.750363 32:32:32:32:32:32 18dBm Nov 17, 2018 01:28:14.223724000 +07
  189  18.768203 32:32:32:32:32:32 15dBm Nov 17, 2018 01:28:14.241564000 +07
  190  18.789618 32:32:32:32:32:32 18dBm Nov 17, 2018 01:28:14.262979000 +07
  191  19.146593 32:32:32:32:32:32 18dBm Nov 17, 2018 01:28:14.619954000 +07
  192  19.191297 32:32:32:32:32:32 18dBm Nov 17, 2018 01:28:14.664658000 +07
  193  19.246079 32:32:32:32:32:32 18dBm Nov 17, 2018 01:28:14.719440000 +07
  194  19.398586 32:32:32:32:32:32 17dBm Nov 17, 2018 01:28:14.871947000 +07
  195  19.456120 32:32:32:32:32:32 17dBm Nov 17, 2018 01:28:14.929481000 +07
  196  19.472134 32:32:32:32:32:32 16dBm Nov 17, 2018 01:28:14.945495000 +07
  197  19.533599 32:32:32:32:32:32 17dBm Nov 17, 2018 01:28:15.006960000 +07
  198  19.578655 32:32:32:32:32:32 17dBm Nov 17, 2018 01:28:15.052016000 +07
  199  19.916282 32:32:32:32:32:32 16dBm Nov 17, 2018 01:28:15.389643000 +07
  200  19.952291 32:32:32:32:32:32 16dBm Nov 17, 2018 01:28:15.425652000 +07
  201  20.337228 32:32:32:32:32:32 17dBm Nov 17, 2018 01:28:15.810589000 +07
  202  20.461980 32:32:32:32:32:32 15dBm Nov 17, 2018 01:28:15.935341000 +07
  203  20.482565 32:32:32:32:32:32 18dBm Nov 17, 2018 01:28:15.955926000 +07
  204  20.625611 32:32:32:32:32:32 17dBm Nov 17, 2018 01:28:16.098972000 +07
  205  20.649333 32:32:32:32:32:32 17dBm Nov 17, 2018 01:28:16.122694000 +07
  206  20.680627 32:32:32:32:32:32 18dBm Nov 17, 2018 01:28:16.153988000 +07
  207  20.781895 32:32:32:32:32:32 18dBm Nov 17, 2018 01:28:16.255256000 +07
  208  20.892674 32:32:32:32:32:32 16dBm Nov 17, 2018 01:28:16.366035000 +07
  209  20.939206 32:32:32:32:32:32 17dBm Nov 17, 2018 01:28:16.412567000 +07
  210  21.181736 32:32:32:32:32:32 16dBm Nov 17, 2018 01:28:16.655097000 +07
  211  21.627118 32:32:32:32:32:32 17dBm Nov 17, 2018 01:28:17.100479000 +07
  212  21.852952 32:32:32:32:32:32 18dBm Nov 17, 2018 01:28:17.326313000 +07
  213  21.892557 32:32:32:32:32:32 16dBm Nov 17, 2018 01:28:17.365918000 +07
  214  22.326573 32:32:32:32:32:32 15dBm Nov 17, 2018 01:28:17.799934000 +07
  215  22.593434 32:32:32:32:32:32 16dBm Nov 17, 2018 01:28:18.066795000 +07
  216  22.603244 32:32:32:32:32:32 16dBm Nov 17, 2018 01:28:18.076605000 +07
  217  22.628546 32:32:32:32:32:32 18dBm Nov 17, 2018 01:28:18.101907000 +07
  218  22.698672 32:32:32:32:32:32 15dBm Nov 17, 2018 01:28:18.172033000 +07
  219  22.732863 32:32:32:32:32:32 17dBm Nov 17, 2018 01:28:18.206224000 +07
  220  22.781493 32:32:32:32:32:32 18dBm Nov 17, 2018 01:28:18.254854000 +07
  221  22.883070 32:32:32:32:32:32 17dBm Nov 17, 2018 01:28:18.356431000 +07
  222  23.028535 32:32:32:32:32:32 16dBm Nov 17, 2018 01:28:18.501896000 +07
  223  23.111818 32:32:32:32:32:32 16dBm Nov 17, 2018 01:28:18.585179000 +07
  224  23.146685 32:32:32:32:32:32 17dBm Nov 17, 2018 01:28:18.620046000 +07
  225  23.174745 32:32:32:32:32:32 16dBm Nov 17, 2018 01:28:18.648106000 +07
  226  23.192369 32:32:32:32:32:32 15dBm Nov 17, 2018 01:28:18.665730000 +07
  227  23.466464 32:32:32:32:32:32 17dBm Nov 17, 2018 01:28:18.939825000 +07
  228  23.533595 32:32:32:32:32:32 16dBm Nov 17, 2018 01:28:19.006956000 +07
  229  23.660951 32:32:32:32:32:32 18dBm Nov 17, 2018 01:28:19.134312000 +07
  230  23.724288 32:32:32:32:32:32 15dBm Nov 17, 2018 01:28:19.197649000 +07
  231  23.882951 32:32:32:32:32:32 18dBm Nov 17, 2018 01:28:19.356312000 +07
  232  23.897074 32:32:32:32:32:32 17dBm Nov 17, 2018 01:28:19.370435000 +07
  233  24.040396 32:32:32:32:32:32 17dBm Nov 17, 2018 01:28:19.513757000 +07
  234  24.093759 32:32:32:32:32:32 17dBm Nov 17, 2018 01:28:19.567120000 +07
  235  24.397825 32:32:32:32:32:32 17dBm Nov 17, 2018 01:28:19.871186000 +07
  236  24.566970 32:32:32:32:32:32 16dBm Nov 17, 2018 01:28:20.040331000 +07
  237  24.628906 32:32:32:32:32:32 16dBm Nov 17, 2018 01:28:20.102267000 +07
  238  24.685171 32:32:32:32:32:32 17dBm Nov 17, 2018 01:28:20.158532000 +07
  239  24.708311 32:32:32:32:32:32 17dBm Nov 17, 2018 01:28:20.181672000 +07
  240  24.779892 32:32:32:32:32:32 17dBm Nov 17, 2018 01:28:20.253253000 +07
  241  24.803442 32:32:32:32:32:32 18dBm Nov 17, 2018 01:28:20.276803000 +07
  242  24.832090 32:32:32:32:32:32 17dBm Nov 17, 2018 01:28:20.305451000 +07
  243  24.864131 32:32:32:32:32:32 16dBm Nov 17, 2018 01:28:20.337492000 +07
  244  25.090687 32:32:32:32:32:32 16dBm Nov 17, 2018 01:28:20.564048000 +07
  245  25.125325 32:32:32:32:32:32 18dBm Nov 17, 2018 01:28:20.598686000 +07
  246  25.244174 32:32:32:32:32:32 16dBm Nov 17, 2018 01:28:20.717535000 +07
  247  25.427176 32:32:32:32:32:32 16dBm Nov 17, 2018 01:28:20.900537000 +07
  248  25.471991 32:32:32:32:32:32 17dBm Nov 17, 2018 01:28:20.945352000 +07
  249  25.525361 32:32:32:32:32:32 16dBm Nov 17, 2018 01:28:20.998722000 +07
  250  25.751374 32:32:32:32:32:32 17dBm Nov 17, 2018 01:28:21.224735000 +07
  251  25.906261 32:32:32:32:32:32 18dBm Nov 17, 2018 01:28:21.379622000 +07
  252  25.954009 32:32:32:32:32:32 16dBm Nov 17, 2018 01:28:21.427370000 +07
  253  25.969555 32:32:32:32:32:32 17dBm Nov 17, 2018 01:28:21.442916000 +07
  254  26.010160 32:32:32:32:32:32 17dBm Nov 17, 2018 01:28:21.483521000 +07
  255  26.045372 32:32:32:32:32:32 17dBm Nov 17, 2018 01:28:21.518733000 +07
  256  26.099529 32:32:32:32:32:32 18dBm Nov 17, 2018 01:28:21.572890000 +07
  257  26.215220 32:32:32:32:32:32 16dBm Nov 17, 2018 01:28:21.688581000 +07
  258  26.272390 32:32:32:32:32:32 17dBm Nov 17, 2018 01:28:21.745751000 +07
  259  26.309881 32:32:32:32:32:32 18dBm Nov 17, 2018 01:28:21.783242000 +07
  260  26.325759 32:32:32:32:32:32 15dBm Nov 17, 2018 01:28:21.799120000 +07
  261  26.636052 32:32:32:32:32:32 17dBm Nov 17, 2018 01:28:22.109413000 +07
  262  26.908537 32:32:32:32:32:32 18dBm Nov 17, 2018 01:28:22.381898000 +07
  263  26.996336 32:32:32:32:32:32 17dBm Nov 17, 2018 01:28:22.469697000 +07
  264  27.008287 32:32:32:32:32:32 15dBm Nov 17, 2018 01:28:22.481648000 +07
  265  27.028289 32:32:32:32:32:32 18dBm Nov 17, 2018 01:28:22.501650000 +07
  266  27.113408 32:32:32:32:32:32 16dBm Nov 17, 2018 01:28:22.586769000 +07
  267  27.190175 32:32:32:32:32:32 17dBm Nov 17, 2018 01:28:22.663536000 +07
  268  27.557717 32:32:32:32:32:32 17dBm Nov 17, 2018 01:28:23.031078000 +07
  269  27.859146 32:32:32:32:32:32 16dBm Nov 17, 2018 01:28:23.332507000 +07
  270  27.878156 32:32:32:32:32:32 18dBm Nov 17, 2018 01:28:23.351517000 +07
  271  27.970690 32:32:32:32:32:32 15dBm Nov 17, 2018 01:28:23.444051000 +07
  272  28.094812 32:32:32:32:32:32 17dBm Nov 17, 2018 01:28:23.568173000 +07
  273  28.114898 32:32:32:32:32:32 17dBm Nov 17, 2018 01:28:23.588259000 +07
  274  28.182212 32:32:32:32:32:32 16dBm Nov 17, 2018 01:28:23.655573000 +07
  275  28.244413 32:32:32:32:32:32 18dBm Nov 17, 2018 01:28:23.717774000 +07
  276  28.310498 32:32:32:32:32:32 17dBm Nov 17, 2018 01:28:23.783859000 +07
  277  28.558173 32:32:32:32:32:32 16dBm Nov 17, 2018 01:28:24.031534000 +07
  278  28.581615 32:32:32:32:32:32 15dBm Nov 17, 2018 01:28:24.054976000 +07
  279  28.746977 32:32:32:32:32:32 16dBm Nov 17, 2018 01:28:24.220338000 +07
  280  28.924099 32:32:32:32:32:32 15dBm Nov 17, 2018 01:28:24.397460000 +07
  281  28.970915 32:32:32:32:32:32 17dBm Nov 17, 2018 01:28:24.444276000 +07
  282  29.017676 32:32:32:32:32:32 17dBm Nov 17, 2018 01:28:24.491037000 +07
  283  29.035828 32:32:32:32:32:32 17dBm Nov 17, 2018 01:28:24.509189000 +07
  284  29.242113 32:32:32:32:32:32 16dBm Nov 17, 2018 01:28:24.715474000 +07
  285  29.286774 32:32:32:32:32:32 15dBm Nov 17, 2018 01:28:24.760135000 +07
  286  29.293138 32:32:32:32:32:32 17dBm Nov 17, 2018 01:28:24.766499000 +07
  287  29.364666 32:32:32:32:32:32 17dBm Nov 17, 2018 01:28:24.838027000 +07
  288  29.457626 32:32:32:32:32:32 14dBm Nov 17, 2018 01:28:24.930987000 +07
  289  29.500666 32:32:32:32:32:32 16dBm Nov 17, 2018 01:28:24.974027000 +07
  290  29.565314 32:32:32:32:32:32 18dBm Nov 17, 2018 01:28:25.038675000 +07
  291  29.593110 32:32:32:32:32:32 17dBm Nov 17, 2018 01:28:25.066471000 +07
  292  29.611906 32:32:32:32:32:32 19dBm Nov 17, 2018 01:28:25.085267000 +07
  293  29.668385 32:32:32:32:32:32 18dBm Nov 17, 2018 01:28:25.141746000 +07
  294  29.773320 32:32:32:32:32:32 18dBm Nov 17, 2018 01:28:25.246681000 +07
  295  29.957693 32:32:32:32:32:32 17dBm Nov 17, 2018 01:28:25.431054000 +07
  296  30.005825 32:32:32:32:32:32 15dBm Nov 17, 2018 01:28:25.479186000 +07
  297  30.203808 32:32:32:32:32:32 16dBm Nov 17, 2018 01:28:25.677169000 +07
  298  30.218148 32:32:32:32:32:32 16dBm Nov 17, 2018 01:28:25.691509000 +07
  299  30.342754 32:32:32:32:32:32 16dBm Nov 17, 2018 01:28:25.816115000 +07
  300  31.116892 32:32:32:32:32:32 18dBm Nov 17, 2018 01:28:26.590253000 +07
  301  31.150277 32:32:32:32:32:32 16dBm Nov 17, 2018 01:28:26.623638000 +07
  302  31.168707 32:32:32:32:32:32 16dBm Nov 17, 2018 01:28:26.642068000 +07
  303  31.213652 32:32:32:32:32:32 17dBm Nov 17, 2018 01:28:26.687013000 +07
  304  31.290901 32:32:32:32:32:32 16dBm Nov 17, 2018 01:28:26.764262000 +07
  305  31.476098 32:32:32:32:32:32 17dBm Nov 17, 2018 01:28:26.949459000 +07
  306  31.636544 32:32:32:32:32:32 17dBm Nov 17, 2018 01:28:27.109905000 +07
  307  31.663860 32:32:32:32:32:32 15dBm Nov 17, 2018 01:28:27.137221000 +07
  308  31.790420 32:32:32:32:32:32 12dBm Nov 17, 2018 01:28:27.263781000 +07
  309  31.920502 32:32:32:32:32:32 17dBm Nov 17, 2018 01:28:27.393863000 +07
  310  32.067000 32:32:32:32:32:32 18dBm Nov 17, 2018 01:28:27.540361000 +07
  311  32.088451 32:32:32:32:32:32 18dBm Nov 17, 2018 01:28:27.561812000 +07
  312  32.102284 32:32:32:32:32:32 16dBm Nov 17, 2018 01:28:27.575645000 +07
  313  32.158542 32:32:32:32:32:32 17dBm Nov 17, 2018 01:28:27.631903000 +07
  314  32.180266 32:32:32:32:32:32 17dBm Nov 17, 2018 01:28:27.653627000 +07
  315  32.196716 32:32:32:32:32:32 17dBm Nov 17, 2018 01:28:27.670077000 +07
  316  32.286883 32:32:32:32:32:32 17dBm Nov 17, 2018 01:28:27.760244000 +07
  317  32.315794 32:32:32:32:32:32 17dBm Nov 17, 2018 01:28:27.789155000 +07
  318  32.334413 32:32:32:32:32:32 17dBm Nov 17, 2018 01:28:27.807774000 +07
  319  32.474347 32:32:32:32:32:32 17dBm Nov 17, 2018 01:28:27.947708000 +07
  320  32.491104 32:32:32:32:32:32 17dBm Nov 17, 2018 01:28:27.964465000 +07
  321  32.528894 32:32:32:32:32:32 17dBm Nov 17, 2018 01:28:28.002255000 +07
  322  32.726951 32:32:32:32:32:32 17dBm Nov 17, 2018 01:28:28.200312000 +07
  323  32.748355 32:32:32:32:32:32 17dBm Nov 17, 2018 01:28:28.221716000 +07
  324  33.190369 32:32:32:32:32:32 17dBm Nov 17, 2018 01:28:28.663730000 +07
  325  33.659792 32:32:32:32:32:32 17dBm Nov 17, 2018 01:28:29.133153000 +07
  326  33.683241 32:32:32:32:32:32 17dBm Nov 17, 2018 01:28:29.156602000 +07
  327  33.724301 32:32:32:32:32:32 17dBm Nov 17, 2018 01:28:29.197662000 +07
  328  33.847534 32:32:32:32:32:32 16dBm Nov 17, 2018 01:28:29.320895000 +07
  329  33.955548 32:32:32:32:32:32 16dBm Nov 17, 2018 01:28:29.428909000 +07
  330  34.009927 32:32:32:32:32:32 16dBm Nov 17, 2018 01:28:29.483288000 +07
  331  34.190436 32:32:32:32:32:32 17dBm Nov 17, 2018 01:28:29.663797000 +07
  332  34.392988 32:32:32:32:32:32 17dBm Nov 17, 2018 01:28:29.866349000 +07
  333  34.429959 32:32:32:32:32:32 18dBm Nov 17, 2018 01:28:29.903320000 +07
  334  34.520012 32:32:32:32:32:32 16dBm Nov 17, 2018 01:28:29.993373000 +07
  335  34.541263 32:32:32:32:32:32 15dBm Nov 17, 2018 01:28:30.014624000 +07
  336  34.650441 32:32:32:32:32:32 17dBm Nov 17, 2018 01:28:30.123802000 +07
  337  34.660522 32:32:32:32:32:32 17dBm Nov 17, 2018 01:28:30.133883000 +07
  338  34.696690 32:32:32:32:32:32 15dBm Nov 17, 2018 01:28:30.170051000 +07
  339  34.787161 32:32:32:32:32:32 18dBm Nov 17, 2018 01:28:30.260522000 +07
  340  34.850383 32:32:32:32:32:32 14dBm Nov 17, 2018 01:28:30.323744000 +07
  341  35.029749 32:32:32:32:32:32 18dBm Nov 17, 2018 01:28:30.503110000 +07
  342  35.102068 32:32:32:32:32:32 17dBm Nov 17, 2018 01:28:30.575429000 +07
  343  35.206585 32:32:32:32:32:32 17dBm Nov 17, 2018 01:28:30.679946000 +07
  344  35.286440 32:32:32:32:32:32 16dBm Nov 17, 2018 01:28:30.759801000 +07
  345  35.325981 32:32:32:32:32:32 14dBm Nov 17, 2018 01:28:30.799342000 +07
  346  35.520611 32:32:32:32:32:32 17dBm Nov 17, 2018 01:28:30.993972000 +07
  347  35.560758 32:32:32:32:32:32 17dBm Nov 17, 2018 01:28:31.034119000 +07
  348  35.563210 32:32:32:32:32:32 16dBm Nov 17, 2018 01:28:31.036571000 +07
  349  35.771338 32:32:32:32:32:32 18dBm Nov 17, 2018 01:28:31.244699000 +07
  350  35.813522 32:32:32:32:32:32 17dBm Nov 17, 2018 01:28:31.286883000 +07
  351  35.840360 32:32:32:32:32:32 15dBm Nov 17, 2018 01:28:31.313721000 +07
  352  35.853230 32:32:32:32:32:32 16dBm Nov 17, 2018 01:28:31.326591000 +07
  353  35.925504 32:32:32:32:32:32 16dBm Nov 17, 2018 01:28:31.398865000 +07
  354  35.988496 32:32:32:32:32:32 15dBm Nov 17, 2018 01:28:31.461857000 +07
  355  36.028567 32:32:32:32:32:32 17dBm Nov 17, 2018 01:28:31.501928000 +07
  356  36.051216 32:32:32:32:32:32 17dBm Nov 17, 2018 01:28:31.524577000 +07
  357  36.167896 32:32:32:32:32:32 17dBm Nov 17, 2018 01:28:31.641257000 +07
  358  36.187361 32:32:32:32:32:32 18dBm Nov 17, 2018 01:28:31.660722000 +07
  359  36.200300 32:32:32:32:32:32 16dBm Nov 17, 2018 01:28:31.673661000 +07
  360  36.542808 32:32:32:32:32:32 17dBm Nov 17, 2018 01:28:32.016169000 +07
  361  36.622942 32:32:32:32:32:32 17dBm Nov 17, 2018 01:28:32.096303000 +07
  362  36.666243 32:32:32:32:32:32 16dBm Nov 17, 2018 01:28:32.139604000 +07
  363  36.895578 32:32:32:32:32:32 17dBm Nov 17, 2018 01:28:32.368939000 +07
  364  36.949634 32:32:32:32:32:32 17dBm Nov 17, 2018 01:28:32.422995000 +07
  365  37.179987 32:32:32:32:32:32 16dBm Nov 17, 2018 01:28:32.653348000 +07
  366  37.214292 32:32:32:32:32:32 17dBm Nov 17, 2018 01:28:32.687653000 +07
  367  37.224433 32:32:32:32:32:32 16dBm Nov 17, 2018 01:28:32.697794000 +07
  368  37.251416 32:32:32:32:32:32 18dBm Nov 17, 2018 01:28:32.724777000 +07
  369  37.284758 32:32:32:32:32:32 16dBm Nov 17, 2018 01:28:32.758119000 +07
  370  37.366994 32:32:32:32:32:32 15dBm Nov 17, 2018 01:28:32.840355000 +07
  371  37.437188 32:32:32:32:32:32 17dBm Nov 17, 2018 01:28:32.910549000 +07
  372  37.559642 32:32:32:32:32:32 18dBm Nov 17, 2018 01:28:33.033003000 +07
  373  37.634136 32:32:32:32:32:32 17dBm Nov 17, 2018 01:28:33.107497000 +07
  374  37.671533 32:32:32:32:32:32 17dBm Nov 17, 2018 01:28:33.144894000 +07
  375  37.710577 32:32:32:32:32:32 17dBm Nov 17, 2018 01:28:33.183938000 +07
  376  38.066315 32:32:32:32:32:32 18dBm Nov 17, 2018 01:28:33.539676000 +07
  377  38.156506 32:32:32:32:32:32 18dBm Nov 17, 2018 01:28:33.629867000 +07
  378  38.361020 32:32:32:32:32:32 18dBm Nov 17, 2018 01:28:33.834381000 +07
  379  38.441462 32:32:32:32:32:32 17dBm Nov 17, 2018 01:28:33.914823000 +07
  380  38.518035 32:32:32:32:32:32 17dBm Nov 17, 2018 01:28:33.991396000 +07
  381  38.697689 32:32:32:32:32:32 18dBm Nov 17, 2018 01:28:34.171050000 +07
  382  38.975106 32:32:32:32:32:32 18dBm Nov 17, 2018 01:28:34.448467000 +07
  383  39.011868 32:32:32:32:32:32 16dBm Nov 17, 2018 01:28:34.485229000 +07
  384  39.194825 32:32:32:32:32:32 17dBm Nov 17, 2018 01:28:34.668186000 +07
  385  39.231958 32:32:32:32:32:32 17dBm Nov 17, 2018 01:28:34.705319000 +07
  386  39.254466 32:32:32:32:32:32 18dBm Nov 17, 2018 01:28:34.727827000 +07
  387  39.325069 32:32:32:32:32:32 15dBm Nov 17, 2018 01:28:34.798430000 +07
  388  39.428110 32:32:32:32:32:32 16dBm Nov 17, 2018 01:28:34.901471000 +07
  389  39.466572 32:32:32:32:32:32 16dBm Nov 17, 2018 01:28:34.939933000 +07
  390  39.483066 32:32:32:32:32:32 17dBm Nov 17, 2018 01:28:34.956427000 +07
  391  39.543528 32:32:32:32:32:32 16dBm Nov 17, 2018 01:28:35.016889000 +07
  392  39.596792 32:32:32:32:32:32 15dBm Nov 17, 2018 01:28:35.070153000 +07
  393  39.682404 32:32:32:32:32:32 17dBm Nov 17, 2018 01:28:35.155765000 +07
  394  39.766558 32:32:32:32:32:32 15dBm Nov 17, 2018 01:28:35.239919000 +07
  395  39.792957 32:32:32:32:32:32 17dBm Nov 17, 2018 01:28:35.266318000 +07
  396  40.010185 32:32:32:32:32:32 17dBm Nov 17, 2018 01:28:35.483546000 +07
  397  40.032757 32:32:32:32:32:32 18dBm Nov 17, 2018 01:28:35.506118000 +07
  398  40.175074 32:32:32:32:32:32 16dBm Nov 17, 2018 01:28:35.648435000 +07
  399  40.223670 32:32:32:32:32:32 15dBm Nov 17, 2018 01:28:35.697031000 +07
  400  40.251013 32:32:32:32:32:32 18dBm Nov 17, 2018 01:28:35.724374000 +07
  401  40.284399 32:32:32:32:32:32 17dBm Nov 17, 2018 01:28:35.757760000 +07
  402  40.386620 32:32:32:32:32:32 18dBm Nov 17, 2018 01:28:35.859981000 +07
  403  40.409842 32:32:32:32:32:32 17dBm Nov 17, 2018 01:28:35.883203000 +07
  404  40.426520 32:32:32:32:32:32 18dBm Nov 17, 2018 01:28:35.899881000 +07
  405  40.633419 32:32:32:32:32:32 17dBm Nov 17, 2018 01:28:36.106780000 +07
  406  40.722901 32:32:32:32:32:32 17dBm Nov 17, 2018 01:28:36.196262000 +07
  407  40.782200 32:32:32:32:32:32 17dBm Nov 17, 2018 01:28:36.255561000 +07
  408  40.987396 32:32:32:32:32:32 16dBm Nov 17, 2018 01:28:36.460757000 +07
  409  41.069009 32:32:32:32:32:32 17dBm Nov 17, 2018 01:28:36.542370000 +07
  410  41.264103 32:32:32:32:32:32 17dBm Nov 17, 2018 01:28:36.737464000 +07
  411  41.424021 32:32:32:32:32:32 15dBm Nov 17, 2018 01:28:36.897382000 +07
  412  41.448447 32:32:32:32:32:32 17dBm Nov 17, 2018 01:28:36.921808000 +07
  413  41.527215 32:32:32:32:32:32 17dBm Nov 17, 2018 01:28:37.000576000 +07
  414  41.566341 32:32:32:32:32:32 18dBm Nov 17, 2018 01:28:37.039702000 +07
  415  41.717370 32:32:32:32:32:32 15dBm Nov 17, 2018 01:28:37.190731000 +07
  416  41.760465 32:32:32:32:32:32 17dBm Nov 17, 2018 01:28:37.233826000 +07
  417  41.793082 32:32:32:32:32:32 17dBm Nov 17, 2018 01:28:37.266443000 +07
  418  42.222309 32:32:32:32:32:32 15dBm Nov 17, 2018 01:28:37.695670000 +07
  419  42.345428 32:32:32:32:32:32 17dBm Nov 17, 2018 01:28:37.818789000 +07
  420  42.399457 32:32:32:32:32:32 18dBm Nov 17, 2018 01:28:37.872818000 +07
  421  42.441281 32:32:32:32:32:32 14dBm Nov 17, 2018 01:28:37.914642000 +07
  422  42.520044 32:32:32:32:32:32 17dBm Nov 17, 2018 01:28:37.993405000 +07
  423  42.571647 32:32:32:32:32:32 17dBm Nov 17, 2018 01:28:38.045008000 +07
  424  42.785934 32:32:32:32:32:32 16dBm Nov 17, 2018 01:28:38.259295000 +07
  425  42.840966 32:32:32:32:32:32 14dBm Nov 17, 2018 01:28:38.314327000 +07
  426  42.864988 32:32:32:32:32:32 15dBm Nov 17, 2018 01:28:38.338349000 +07
  427  42.922692 32:32:32:32:32:32 16dBm Nov 17, 2018 01:28:38.396053000 +07
  428  42.947665 32:32:32:32:32:32 16dBm Nov 17, 2018 01:28:38.421026000 +07
  429  42.965694 32:32:32:32:32:32 17dBm Nov 17, 2018 01:28:38.439055000 +07
  430  43.058228 32:32:32:32:32:32 17dBm Nov 17, 2018 01:28:38.531589000 +07
  431  43.287949 32:32:32:32:32:32 17dBm Nov 17, 2018 01:28:38.761310000 +07
  432  43.408867 32:32:32:32:32:32 16dBm Nov 17, 2018 01:28:38.882228000 +07
  433  43.829816 32:32:32:32:32:32 16dBm Nov 17, 2018 01:28:39.303177000 +07
  434  43.894559 32:32:32:32:32:32 17dBm Nov 17, 2018 01:28:39.367920000 +07
  435  43.981409 32:32:32:32:32:32 16dBm Nov 17, 2018 01:28:39.454770000 +07
  436  44.429565 32:32:32:32:32:32 17dBm Nov 17, 2018 01:28:39.902926000 +07
  437  44.455773 32:32:32:32:32:32 15dBm Nov 17, 2018 01:28:39.929134000 +07
  438  44.718003 32:32:32:32:32:32 16dBm Nov 17, 2018 01:28:40.191364000 +07
  439  44.778997 32:32:32:32:32:32 17dBm Nov 17, 2018 01:28:40.252358000 +07
  440  44.816108 32:32:32:32:32:32 16dBm Nov 17, 2018 01:28:40.289469000 +07
  441  44.949850 32:32:32:32:32:32 18dBm Nov 17, 2018 01:28:40.423211000 +07
  442  44.982569 32:32:32:32:32:32 17dBm Nov 17, 2018 01:28:40.455930000 +07
  443  45.241043 32:32:32:32:32:32 16dBm Nov 17, 2018 01:28:40.714404000 +07
  444  45.257491 32:32:32:32:32:32 16dBm Nov 17, 2018 01:28:40.730852000 +07
  445  45.361738 32:32:32:32:32:32 16dBm Nov 17, 2018 01:28:40.835099000 +07
  446  45.411361 32:32:32:32:32:32 16dBm Nov 17, 2018 01:28:40.884722000 +07
  447  45.609512 32:32:32:32:32:32 16dBm Nov 17, 2018 01:28:41.082873000 +07
  448  45.690134 32:32:32:32:32:32 17dBm Nov 17, 2018 01:28:41.163495000 +07
  449  45.735446 32:32:32:32:32:32 16dBm Nov 17, 2018 01:28:41.208807000 +07
  450  45.847256 32:32:32:32:32:32 16dBm Nov 17, 2018 01:28:41.320617000 +07
  451  45.870976 32:32:32:32:32:32 18dBm Nov 17, 2018 01:28:41.344337000 +07
  452  45.897889 32:32:32:32:32:32 17dBm Nov 17, 2018 01:28:41.371250000 +07
  453  45.958368 32:32:32:32:32:32 16dBm Nov 17, 2018 01:28:41.431729000 +07
  454  46.290711 32:32:32:32:32:32 13dBm Nov 17, 2018 01:28:41.764072000 +07
  455  46.316813 32:32:32:32:32:32 17dBm Nov 17, 2018 01:28:41.790174000 +07
  456  46.353752 32:32:32:32:32:32 15dBm Nov 17, 2018 01:28:41.827113000 +07
  457  46.414443 32:32:32:32:32:32 17dBm Nov 17, 2018 01:28:41.887804000 +07
  458  46.509697 32:32:32:32:32:32 16dBm Nov 17, 2018 01:28:41.983058000 +07
  459  46.736109 32:32:32:32:32:32 17dBm Nov 17, 2018 01:28:42.209470000 +07
  460  46.802422 32:32:32:32:32:32 18dBm Nov 17, 2018 01:28:42.275783000 +07
  461  46.961084 32:32:32:32:32:32 15dBm Nov 17, 2018 01:28:42.434445000 +07
  462  46.986186 32:32:32:32:32:32 16dBm Nov 17, 2018 01:28:42.459547000 +07
  463  47.070097 32:32:32:32:32:32 14dBm Nov 17, 2018 01:28:42.543458000 +07
  464  47.149115 32:32:32:32:32:32 16dBm Nov 17, 2018 01:28:42.622476000 +07
