    1   0.000000 32:32:32:32:32:32 16dBm Nov 17, 2018 01:07:05.667770000 +07
    2   0.263376 32:32:32:32:32:32 19dBm Nov 17, 2018 01:07:05.931146000 +07
    3   0.441467 32:32:32:32:32:32 17dBm Nov 17, 2018 01:07:06.109237000 +07
    4   0.630450 32:32:32:32:32:32 17dBm Nov 17, 2018 01:07:06.298220000 +07
    5   0.783479 32:32:32:32:32:32 18dBm Nov 17, 2018 01:07:06.451249000 +07
    6   0.962579 32:32:32:32:32:32 17dBm Nov 17, 2018 01:07:06.630349000 +07
    7   1.087717 32:32:32:32:32:32 17dBm Nov 17, 2018 01:07:06.755487000 +07
    8   1.324291 32:32:32:32:32:32 17dBm Nov 17, 2018 01:07:06.992061000 +07
    9   1.389365 32:32:32:32:32:32 17dBm Nov 17, 2018 01:07:07.057135000 +07
   10   1.780591 32:32:32:32:32:32 17dBm Nov 17, 2018 01:07:07.448361000 +07
   11   2.112390 32:32:32:32:32:32 14dBm Nov 17, 2018 01:07:07.780160000 +07
   12   2.850394 32:32:32:32:32:32 16dBm Nov 17, 2018 01:07:08.518164000 +07
   13   2.977080 32:32:32:32:32:32 19dBm Nov 17, 2018 01:07:08.644850000 +07
   14   3.407829 32:32:32:32:32:32 18dBm Nov 17, 2018 01:07:09.075599000 +07
   15   3.473218 32:32:32:32:32:32 17dBm Nov 17, 2018 01:07:09.140988000 +07
   16   3.614674 32:32:32:32:32:32 18dBm Nov 17, 2018 01:07:09.282444000 +07
   17   4.119849 32:32:32:32:32:32 17dBm Nov 17, 2018 01:07:09.787619000 +07
   18   4.272278 32:32:32:32:32:32 17dBm Nov 17, 2018 01:07:09.940048000 +07
   19   4.693636 32:32:32:32:32:32 18dBm Nov 17, 2018 01:07:10.361406000 +07
   20   4.810241 32:32:32:32:32:32 17dBm Nov 17, 2018 01:07:10.478011000 +07
   21   5.232869 32:32:32:32:32:32 16dBm Nov 17, 2018 01:07:10.900639000 +07
   22   5.355601 32:32:32:32:32:32 16dBm Nov 17, 2018 01:07:11.023371000 +07
   23   5.637085 32:32:32:32:32:32 17dBm Nov 17, 2018 01:07:11.304855000 +07
   24   5.693194 32:32:32:32:32:32 17dBm Nov 17, 2018 01:07:11.360964000 +07
   25   6.199281 32:32:32:32:32:32 17dBm Nov 17, 2018 01:07:11.867051000 +07
   26   6.693987 32:32:32:32:32:32 18dBm Nov 17, 2018 01:07:12.361757000 +07
   27   6.809679 32:32:32:32:32:32 16dBm Nov 17, 2018 01:07:12.477449000 +07
   28   6.891543 32:32:32:32:32:32 16dBm Nov 17, 2018 01:07:12.559313000 +07
   29   6.932106 32:32:32:32:32:32 17dBm Nov 17, 2018 01:07:12.599876000 +07
   30   6.980795 32:32:32:32:32:32 19dBm Nov 17, 2018 01:07:12.648565000 +07
   31   7.038872 32:32:32:32:32:32 16dBm Nov 17, 2018 01:07:12.706642000 +07
   32   7.209239 32:32:32:32:32:32 17dBm Nov 17, 2018 01:07:12.877009000 +07
   33   7.284731 32:32:32:32:32:32 17dBm Nov 17, 2018 01:07:12.952501000 +07
   34   7.399173 32:32:32:32:32:32 18dBm Nov 17, 2018 01:07:13.066943000 +07
   35   7.439152 32:32:32:32:32:32 17dBm Nov 17, 2018 01:07:13.106922000 +07
   36   7.521581 32:32:32:32:32:32 16dBm Nov 17, 2018 01:07:13.189351000 +07
   37   7.613813 32:32:32:32:32:32 17dBm Nov 17, 2018 01:07:13.281583000 +07
   38   8.471046 32:32:32:32:32:32 18dBm Nov 17, 2018 01:07:14.138816000 +07
   39   8.551540 32:32:32:32:32:32 16dBm Nov 17, 2018 01:07:14.219310000 +07
   40   9.185117 32:32:32:32:32:32 16dBm Nov 17, 2018 01:07:14.852887000 +07
   41   9.454850 32:32:32:32:32:32 18dBm Nov 17, 2018 01:07:15.122620000 +07
   42   9.724961 32:32:32:32:32:32 18dBm Nov 17, 2018 01:07:15.392731000 +07
   43   9.839402 32:32:32:32:32:32 17dBm Nov 17, 2018 01:07:15.507172000 +07
   44  10.142937 32:32:32:32:32:32 18dBm Nov 17, 2018 01:07:15.810707000 +07
   45  10.282659 32:32:32:32:32:32 16dBm Nov 17, 2018 01:07:15.950429000 +07
   46  10.312900 32:32:32:32:32:32 17dBm Nov 17, 2018 01:07:15.980670000 +07
   47  10.493125 32:32:32:32:32:32 17dBm Nov 17, 2018 01:07:16.160895000 +07
   48  11.177631 32:32:32:32:32:32 16dBm Nov 17, 2018 01:07:16.845401000 +07
   49  11.371783 32:32:32:32:32:32 17dBm Nov 17, 2018 01:07:17.039553000 +07
   50  12.029124 32:32:32:32:32:32 16dBm Nov 17, 2018 01:07:17.696894000 +07
   51  12.828545 32:32:32:32:32:32 16dBm Nov 17, 2018 01:07:18.496315000 +07
   52  13.240242 32:32:32:32:32:32 19dBm Nov 17, 2018 01:07:18.908012000 +07
   53  13.357817 32:32:32:32:32:32 18dBm Nov 17, 2018 01:07:19.025587000 +07
   54  13.943479 32:32:32:32:32:32 18dBm Nov 17, 2018 01:07:19.611249000 +07
   55  14.134187 32:32:32:32:32:32 18dBm Nov 17, 2018 01:07:19.801957000 +07
   56  14.409758 32:32:32:32:32:32 17dBm Nov 17, 2018 01:07:20.077528000 +07
   57  14.502688 32:32:32:32:32:32 16dBm Nov 17, 2018 01:07:20.170458000 +07
   58  14.828708 32:32:32:32:32:32 18dBm Nov 17, 2018 01:07:20.496478000 +07
   59  15.037785 32:32:32:32:32:32 16dBm Nov 17, 2018 01:07:20.705555000 +07
   60  15.080150 32:32:32:32:32:32 18dBm Nov 17, 2018 01:07:20.747920000 +07
   61  15.195273 32:32:32:32:32:32 19dBm Nov 17, 2018 01:07:20.863043000 +07
   62  15.525092 32:32:32:32:32:32 15dBm Nov 17, 2018 01:07:21.192862000 +07
   63  15.842107 32:32:32:32:32:32 17dBm Nov 17, 2018 01:07:21.509877000 +07
   64  16.849597 32:32:32:32:32:32 17dBm Nov 17, 2018 01:07:22.517367000 +07
   65  17.369390 32:32:32:32:32:32 16dBm Nov 17, 2018 01:07:23.037160000 +07
   66  17.704839 32:32:32:32:32:32 18dBm Nov 17, 2018 01:07:23.372609000 +07
   67  17.750425 32:32:32:32:32:32 16dBm Nov 17, 2018 01:07:23.418195000 +07
   68  18.031119 32:32:32:32:32:32 17dBm Nov 17, 2018 01:07:23.698889000 +07
   69  18.072344 32:32:32:32:32:32 18dBm Nov 17, 2018 01:07:23.740114000 +07
   70  18.615778 32:32:32:32:32:32 17dBm Nov 17, 2018 01:07:24.283548000 +07
   71  19.126441 32:32:32:32:32:32 16dBm Nov 17, 2018 01:07:24.794211000 +07
   72  19.664147 32:32:32:32:32:32 17dBm Nov 17, 2018 01:07:25.331917000 +07
   73  20.499441 32:32:32:32:32:32 17dBm Nov 17, 2018 01:07:26.167211000 +07
   74  20.621058 32:32:32:32:32:32 17dBm Nov 17, 2018 01:07:26.288828000 +07
   75  20.889545 32:32:32:32:32:32 19dBm Nov 17, 2018 01:07:26.557315000 +07
   76  20.958672 32:32:32:32:32:32 18dBm Nov 17, 2018 01:07:26.626442000 +07
   77  21.653592 32:32:32:32:32:32 17dBm Nov 17, 2018 01:07:27.321362000 +07
   78  21.752757 32:32:32:32:32:32 17dBm Nov 17, 2018 01:07:27.420527000 +07
   79  21.900931 32:32:32:32:32:32 18dBm Nov 17, 2018 01:07:27.568701000 +07
   80  22.006591 32:32:32:32:32:32 17dBm Nov 17, 2018 01:07:27.674361000 +07
   81  22.481412 32:32:32:32:32:32 16dBm Nov 17, 2018 01:07:28.149182000 +07
   82  22.720172 32:32:32:32:32:32 18dBm Nov 17, 2018 01:07:28.387942000 +07
   83  22.777738 32:32:32:32:32:32 17dBm Nov 17, 2018 01:07:28.445508000 +07
   84  23.320740 32:32:32:32:32:32 17dBm Nov 17, 2018 01:07:28.988510000 +07
   85  24.023171 32:32:32:32:32:32 18dBm Nov 17, 2018 01:07:29.690941000 +07
   86  24.338577 32:32:32:32:32:32 18dBm Nov 17, 2018 01:07:30.006347000 +07
   87  24.429365 32:32:32:32:32:32 17dBm Nov 17, 2018 01:07:30.097135000 +07
   88  24.591884 32:32:32:32:32:32 16dBm Nov 17, 2018 01:07:30.259654000 +07
   89  24.714791 32:32:32:32:32:32 18dBm Nov 17, 2018 01:07:30.382561000 +07
   90  24.834163 32:32:32:32:32:32 18dBm Nov 17, 2018 01:07:30.501933000 +07
   91  25.183238 32:32:32:32:32:32 18dBm Nov 17, 2018 01:07:30.851008000 +07
   92  25.283127 32:32:32:32:32:32 17dBm Nov 17, 2018 01:07:30.950897000 +07
   93  25.293828 32:32:32:32:32:32 17dBm Nov 17, 2018 01:07:30.961598000 +07
   94  25.332585 32:32:32:32:32:32 17dBm Nov 17, 2018 01:07:31.000355000 +07
   95  25.717359 32:32:32:32:32:32 15dBm Nov 17, 2018 01:07:31.385129000 +07
   96  25.993161 32:32:32:32:32:32 16dBm Nov 17, 2018 01:07:31.660931000 +07
   97  27.299916 32:32:32:32:32:32 17dBm Nov 17, 2018 01:07:32.967686000 +07
   98  27.425927 32:32:32:32:32:32 18dBm Nov 17, 2018 01:07:33.093697000 +07
   99  27.464001 32:32:32:32:32:32 17dBm Nov 17, 2018 01:07:33.131771000 +07
  100  27.656597 32:32:32:32:32:32 18dBm Nov 17, 2018 01:07:33.324367000 +07
  101  28.582432 32:32:32:32:32:32 17dBm Nov 17, 2018 01:07:34.250202000 +07
  102  28.975207 32:32:32:32:32:32 19dBm Nov 17, 2018 01:07:34.642977000 +07
  103  29.283929 32:32:32:32:32:32 15dBm Nov 17, 2018 01:07:34.951699000 +07
  104  30.207178 32:32:32:32:32:32 17dBm Nov 17, 2018 01:07:35.874948000 +07
  105  30.839286 32:32:32:32:32:32 16dBm Nov 17, 2018 01:07:36.507056000 +07
  106  31.079413 32:32:32:32:32:32 15dBm Nov 17, 2018 01:07:36.747183000 +07
  107  31.198411 32:32:32:32:32:32 16dBm Nov 17, 2018 01:07:36.866181000 +07
  108  31.420374 32:32:32:32:32:32 18dBm Nov 17, 2018 01:07:37.088144000 +07
  109  31.515455 32:32:32:32:32:32 18dBm Nov 17, 2018 01:07:37.183225000 +07
  110  31.908191 32:32:32:32:32:32 15dBm Nov 17, 2018 01:07:37.575961000 +07
  111  32.152451 32:32:32:32:32:32 17dBm Nov 17, 2018 01:07:37.820221000 +07
  112  32.309011 32:32:32:32:32:32 15dBm Nov 17, 2018 01:07:37.976781000 +07
  113  32.639112 32:32:32:32:32:32 18dBm Nov 17, 2018 01:07:38.306882000 +07
  114  33.050166 32:32:32:32:32:32 17dBm Nov 17, 2018 01:07:38.717936000 +07
  115  33.671259 32:32:32:32:32:32 18dBm Nov 17, 2018 01:07:39.339029000 +07
  116  33.711481 32:32:32:32:32:32 16dBm Nov 17, 2018 01:07:39.379251000 +07
  117  33.749547 32:32:32:32:32:32 18dBm Nov 17, 2018 01:07:39.417317000 +07
  118  33.829664 32:32:32:32:32:32 18dBm Nov 17, 2018 01:07:39.497434000 +07
  119  33.957983 32:32:32:32:32:32 18dBm Nov 17, 2018 01:07:39.625753000 +07
  120  34.191404 32:32:32:32:32:32 19dBm Nov 17, 2018 01:07:39.859174000 +07
  121  34.234214 32:32:32:32:32:32 21dBm Nov 17, 2018 01:07:39.901984000 +07
  122  34.880439 32:32:32:32:32:32 19dBm Nov 17, 2018 01:07:40.548209000 +07
  123  36.017526 32:32:32:32:32:32 16dBm Nov 17, 2018 01:07:41.685296000 +07
  124  36.320637 32:32:32:32:32:32 19dBm Nov 17, 2018 01:07:41.988407000 +07
  125  36.375529 32:32:32:32:32:32 18dBm Nov 17, 2018 01:07:42.043299000 +07
  126  36.505809 32:32:32:32:32:32 20dBm Nov 17, 2018 01:07:42.173579000 +07
  127  36.876628 32:32:32:32:32:32 19dBm Nov 17, 2018 01:07:42.544398000 +07
  128  36.954139 32:32:32:32:32:32 19dBm Nov 17, 2018 01:07:42.621909000 +07
  129  37.053398 32:32:32:32:32:32 19dBm Nov 17, 2018 01:07:42.721168000 +07
  130  37.299214 32:32:32:32:32:32 19dBm Nov 17, 2018 01:07:42.966984000 +07
  131  37.997674 32:32:32:32:32:32 20dBm Nov 17, 2018 01:07:43.665444000 +07
  132  38.185993 32:32:32:32:32:32 18dBm Nov 17, 2018 01:07:43.853763000 +07
  133  38.338961 32:32:32:32:32:32 19dBm Nov 17, 2018 01:07:44.006731000 +07
  134  38.803453 32:32:32:32:32:32 19dBm Nov 17, 2018 01:07:44.471223000 +07
  135  39.018393 32:32:32:32:32:32 18dBm Nov 17, 2018 01:07:44.686163000 +07
  136  39.377314 32:32:32:32:32:32 19dBm Nov 17, 2018 01:07:45.045084000 +07
  137  39.580632 32:32:32:32:32:32 19dBm Nov 17, 2018 01:07:45.248402000 +07
  138  39.709062 32:32:32:32:32:32 21dBm Nov 17, 2018 01:07:45.376832000 +07
  139  40.128734 32:32:32:32:32:32 17dBm Nov 17, 2018 01:07:45.796504000 +07
  140  40.405659 32:32:32:32:32:32 18dBm Nov 17, 2018 01:07:46.073429000 +07
  141  40.465392 32:32:32:32:32:32 20dBm Nov 17, 2018 01:07:46.133162000 +07
  142  40.503066 32:32:32:32:32:32 19dBm Nov 17, 2018 01:07:46.170836000 +07
  143  40.718812 32:32:32:32:32:32 17dBm Nov 17, 2018 01:07:46.386582000 +07
  144  40.787675 32:32:32:32:32:32 16dBm Nov 17, 2018 01:07:46.455445000 +07
  145  40.879338 32:32:32:32:32:32 20dBm Nov 17, 2018 01:07:46.547108000 +07
  146  41.101581 32:32:32:32:32:32 18dBm Nov 17, 2018 01:07:46.769351000 +07
  147  41.307913 32:32:32:32:32:32 18dBm Nov 17, 2018 01:07:46.975683000 +07
  148  41.385631 32:32:32:32:32:32 20dBm Nov 17, 2018 01:07:47.053401000 +07
  149  41.930919 32:32:32:32:32:32 18dBm Nov 17, 2018 01:07:47.598689000 +07
  150  42.107381 32:32:32:32:32:32 18dBm Nov 17, 2018 01:07:47.775151000 +07
  151  42.288363 32:32:32:32:32:32 18dBm Nov 17, 2018 01:07:47.956133000 +07
  152  42.421332 32:32:32:32:32:32 17dBm Nov 17, 2018 01:07:48.089102000 +07
  153  42.613149 32:32:32:32:32:32 18dBm Nov 17, 2018 01:07:48.280919000 +07
  154  43.098827 32:32:32:32:32:32 19dBm Nov 17, 2018 01:07:48.766597000 +07
  155  43.208741 32:32:32:32:32:32 18dBm Nov 17, 2018 01:07:48.876511000 +07
  156  43.292093 32:32:32:32:32:32 18dBm Nov 17, 2018 01:07:48.959863000 +07
  157  43.598267 32:32:32:32:32:32 18dBm Nov 17, 2018 01:07:49.266037000 +07
  158  44.589239 32:32:32:32:32:32 19dBm Nov 17, 2018 01:07:50.257009000 +07
  159  44.621194 32:32:32:32:32:32 18dBm Nov 17, 2018 01:07:50.288964000 +07
  160  44.626019 32:32:32:32:32:32 19dBm Nov 17, 2018 01:07:50.293789000 +07
  161  45.111870 32:32:32:32:32:32 18dBm Nov 17, 2018 01:07:50.779640000 +07
  162  45.116296 32:32:32:32:32:32 17dBm Nov 17, 2018 01:07:50.784066000 +07
  163  45.119902 32:32:32:32:32:32 20dBm Nov 17, 2018 01:07:50.787672000 +07
  164  45.124497 32:32:32:32:32:32 17dBm Nov 17, 2018 01:07:50.792267000 +07
  165  45.127159 32:32:32:32:32:32 19dBm Nov 17, 2018 01:07:50.794929000 +07
  166  45.135542 32:32:32:32:32:32 19dBm Nov 17, 2018 01:07:50.803312000 +07
  167  45.138665 32:32:32:32:32:32 18dBm Nov 17, 2018 01:07:50.806435000 +07
  168  45.140090 32:32:32:32:32:32 18dBm Nov 17, 2018 01:07:50.807860000 +07
  169  45.319975 32:32:32:32:32:32 18dBm Nov 17, 2018 01:07:50.987745000 +07
  170  45.338754 32:32:32:32:32:32 15dBm Nov 17, 2018 01:07:51.006524000 +07
  171  45.368467 32:32:32:32:32:32 20dBm Nov 17, 2018 01:07:51.036237000 +07
  172  45.835131 32:32:32:32:32:32 19dBm Nov 17, 2018 01:07:51.502901000 +07
  173  45.847341 32:32:32:32:32:32 17dBm Nov 17, 2018 01:07:51.515111000 +07
  174  45.848394 32:32:32:32:32:32 14dBm Nov 17, 2018 01:07:51.516164000 +07
  175  46.076313 32:32:32:32:32:32 19dBm Nov 17, 2018 01:07:51.744083000 +07
  176  46.103490 32:32:32:32:32:32 19dBm Nov 17, 2018 01:07:51.771260000 +07
  177  46.112977 32:32:32:32:32:32 17dBm Nov 17, 2018 01:07:51.780747000 +07
  178  46.355242 32:32:32:32:32:32 19dBm Nov 17, 2018 01:07:52.023012000 +07
  179  46.364172 32:32:32:32:32:32 19dBm Nov 17, 2018 01:07:52.031942000 +07
  180  46.369287 32:32:32:32:32:32 19dBm Nov 17, 2018 01:07:52.037057000 +07
  181  46.874276 32:32:32:32:32:32 17dBm Nov 17, 2018 01:07:52.542046000 +07
  182  47.103829 32:32:32:32:32:32 17dBm Nov 17, 2018 01:07:52.771599000 +07
  183  47.345374 32:32:32:32:32:32 19dBm Nov 17, 2018 01:07:53.013144000 +07
  184  47.345424 32:32:32:32:32:32 18dBm Nov 17, 2018 01:07:53.013194000 +07
  185  47.372075 32:32:32:32:32:32 17dBm Nov 17, 2018 01:07:53.039845000 +07
  186  47.381057 32:32:32:32:32:32 18dBm Nov 17, 2018 01:07:53.048827000 +07
  187  47.661323 32:32:32:32:32:32 17dBm Nov 17, 2018 01:07:53.329093000 +07
  188  48.373445 32:32:32:32:32:32 19dBm Nov 17, 2018 01:07:54.041215000 +07
  189  48.377016 32:32:32:32:32:32 18dBm Nov 17, 2018 01:07:54.044786000 +07
  190  48.606123 32:32:32:32:32:32 19dBm Nov 17, 2018 01:07:54.273893000 +07
  191  49.118454 32:32:32:32:32:32 18dBm Nov 17, 2018 01:07:54.786224000 +07
  192  49.121954 32:32:32:32:32:32 19dBm Nov 17, 2018 01:07:54.789724000 +07
  193  49.153757 32:32:32:32:32:32 18dBm Nov 17, 2018 01:07:54.821527000 +07
  194  49.388528 32:32:32:32:32:32 18dBm Nov 17, 2018 01:07:55.056298000 +07
  195  49.404610 32:32:32:32:32:32 19dBm Nov 17, 2018 01:07:55.072380000 +07
  196  49.404631 32:32:32:32:32:32 17dBm Nov 17, 2018 01:07:55.072401000 +07
  197  49.413287 32:32:32:32:32:32 19dBm Nov 17, 2018 01:07:55.081057000 +07
  198  49.634010 32:32:32:32:32:32 17dBm Nov 17, 2018 01:07:55.301780000 +07
  199  49.654829 32:32:32:32:32:32 18dBm Nov 17, 2018 01:07:55.322599000 +07
  200  49.670431 32:32:32:32:32:32 19dBm Nov 17, 2018 01:07:55.338201000 +07
  201  49.681077 32:32:32:32:32:32 19dBm Nov 17, 2018 01:07:55.348847000 +07
  202  50.383807 32:32:32:32:32:32 19dBm Nov 17, 2018 01:07:56.051577000 +07
  203  50.389450 32:32:32:32:32:32 18dBm Nov 17, 2018 01:07:56.057220000 +07
  204  50.397480 32:32:32:32:32:32 17dBm Nov 17, 2018 01:07:56.065250000 +07
  205  50.905360 32:32:32:32:32:32 16dBm Nov 17, 2018 01:07:56.573130000 +07
  206  50.917389 32:32:32:32:32:32 19dBm Nov 17, 2018 01:07:56.585159000 +07
  207  51.136287 32:32:32:32:32:32 18dBm Nov 17, 2018 01:07:56.804057000 +07
  208  51.145940 32:32:32:32:32:32 17dBm Nov 17, 2018 01:07:56.813710000 +07
  209  51.155728 32:32:32:32:32:32 19dBm Nov 17, 2018 01:07:56.823498000 +07
  210  51.172791 32:32:32:32:32:32 18dBm Nov 17, 2018 01:07:56.840561000 +07
  211  51.174239 32:32:32:32:32:32 17dBm Nov 17, 2018 01:07:56.842009000 +07
  212  51.425986 32:32:32:32:32:32 18dBm Nov 17, 2018 01:07:57.093756000 +07
  213  51.429518 32:32:32:32:32:32 18dBm Nov 17, 2018 01:07:57.097288000 +07
  214  51.450954 32:32:32:32:32:32 16dBm Nov 17, 2018 01:07:57.118724000 +07
  215  51.916060 32:32:32:32:32:32 18dBm Nov 17, 2018 01:07:57.583830000 +07
  216  51.947722 32:32:32:32:32:32 18dBm Nov 17, 2018 01:07:57.615492000 +07
  217  52.670385 32:32:32:32:32:32 18dBm Nov 17, 2018 01:07:58.338155000 +07
  218  52.686160 32:32:32:32:32:32 17dBm Nov 17, 2018 01:07:58.353930000 +07
  219  52.692053 32:32:32:32:32:32 18dBm Nov 17, 2018 01:07:58.359823000 +07
  220  52.723755 32:32:32:32:32:32 18dBm Nov 17, 2018 01:07:58.391525000 +07
  221  52.724740 32:32:32:32:32:32 18dBm Nov 17, 2018 01:07:58.392510000 +07
  222  52.726185 32:32:32:32:32:32 18dBm Nov 17, 2018 01:07:58.393955000 +07
  223  52.900107 32:32:32:32:32:32 18dBm Nov 17, 2018 01:07:58.567877000 +07
  224  52.901769 32:32:32:32:32:32 17dBm Nov 17, 2018 01:07:58.569539000 +07
  225  52.916784 32:32:32:32:32:32 21dBm Nov 17, 2018 01:07:58.584554000 +07
  226  65.811477 32:32:32:32:32:32 17dBm Nov 17, 2018 01:08:11.479247000 +07
  227  65.814098 32:32:32:32:32:32 18dBm Nov 17, 2018 01:08:11.481868000 +07
  228  66.289407 32:32:32:32:32:32 18dBm Nov 17, 2018 01:08:11.957177000 +07
  229  66.300766 32:32:32:32:32:32 17dBm Nov 17, 2018 01:08:11.968536000 +07
  230  66.312734 32:32:32:32:32:32 17dBm Nov 17, 2018 01:08:11.980504000 +07
  231  67.040497 32:32:32:32:32:32 16dBm Nov 17, 2018 01:08:12.708267000 +07
  232  67.054236 32:32:32:32:32:32 18dBm Nov 17, 2018 01:08:12.722006000 +07
  233  68.037449 32:32:32:32:32:32 18dBm Nov 17, 2018 01:08:13.705219000 +07
  234  68.053296 32:32:32:32:32:32 17dBm Nov 17, 2018 01:08:13.721066000 +07
  235  68.073350 32:32:32:32:32:32 18dBm Nov 17, 2018 01:08:13.741120000 +07
  236  68.082295 32:32:32:32:32:32 18dBm Nov 17, 2018 01:08:13.750065000 +07
  237  68.103412 32:32:32:32:32:32 18dBm Nov 17, 2018 01:08:13.771182000 +07
  238  68.108582 32:32:32:32:32:32 18dBm Nov 17, 2018 01:08:13.776352000 +07
  239  68.304415 32:32:32:32:32:32 15dBm Nov 17, 2018 01:08:13.972185000 +07
  240  68.326412 32:32:32:32:32:32 18dBm Nov 17, 2018 01:08:13.994182000 +07
  241  68.830951 32:32:32:32:32:32 19dBm Nov 17, 2018 01:08:14.498721000 +07
  242  69.053616 32:32:32:32:32:32 17dBm Nov 17, 2018 01:08:14.721386000 +07
  243  69.086699 32:32:32:32:32:32 18dBm Nov 17, 2018 01:08:14.754469000 +07
  244  69.306402 32:32:32:32:32:32 18dBm Nov 17, 2018 01:08:14.974172000 +07
  245  69.319710 32:32:32:32:32:32 18dBm Nov 17, 2018 01:08:14.987480000 +07
  246  69.339675 32:32:32:32:32:32 19dBm Nov 17, 2018 01:08:15.007445000 +07
  247  69.342987 32:32:32:32:32:32 16dBm Nov 17, 2018 01:08:15.010757000 +07
  248  69.349079 32:32:32:32:32:32 15dBm Nov 17, 2018 01:08:15.016849000 +07
  249  69.352524 32:32:32:32:32:32 19dBm Nov 17, 2018 01:08:15.020294000 +07
  250  69.569821 32:32:32:32:32:32 19dBm Nov 17, 2018 01:08:15.237591000 +07
  251  69.579174 32:32:32:32:32:32 19dBm Nov 17, 2018 01:08:15.246944000 +07
  252  69.583846 32:32:32:32:32:32 17dBm Nov 17, 2018 01:08:15.251616000 +07
  253  69.599291 32:32:32:32:32:32 17dBm Nov 17, 2018 01:08:15.267061000 +07
  254  69.603164 32:32:32:32:32:32 18dBm Nov 17, 2018 01:08:15.270934000 +07
  255  69.806918 32:32:32:32:32:32 18dBm Nov 17, 2018 01:08:15.474688000 +07
  256  70.092172 32:32:32:32:32:32 18dBm Nov 17, 2018 01:08:15.759942000 +07
  257  70.107464 32:32:32:32:32:32 19dBm Nov 17, 2018 01:08:15.775234000 +07
  258  70.110559 32:32:32:32:32:32 19dBm Nov 17, 2018 01:08:15.778329000 +07
  259  70.335986 32:32:32:32:32:32 18dBm Nov 17, 2018 01:08:16.003756000 +07
  260  70.579517 32:32:32:32:32:32 17dBm Nov 17, 2018 01:08:16.247287000 +07
  261  70.581904 32:32:32:32:32:32 17dBm Nov 17, 2018 01:08:16.249674000 +07
  262  70.583917 32:32:32:32:32:32 18dBm Nov 17, 2018 01:08:16.251687000 +07
  263  70.602760 32:32:32:32:32:32 17dBm Nov 17, 2018 01:08:16.270530000 +07
  264  70.612517 32:32:32:32:32:32 17dBm Nov 17, 2018 01:08:16.280287000 +07
  265  71.081276 32:32:32:32:32:32 18dBm Nov 17, 2018 01:08:16.749046000 +07
  266  71.085970 32:32:32:32:32:32 18dBm Nov 17, 2018 01:08:16.753740000 +07
  267  71.100323 32:32:32:32:32:32 17dBm Nov 17, 2018 01:08:16.768093000 +07
  268  71.352036 32:32:32:32:32:32 18dBm Nov 17, 2018 01:08:17.019806000 +07
  269  71.593318 32:32:32:32:32:32 17dBm Nov 17, 2018 01:08:17.261088000 +07
  270  71.600151 32:32:32:32:32:32 19dBm Nov 17, 2018 01:08:17.267921000 +07
  271  71.615241 32:32:32:32:32:32 19dBm Nov 17, 2018 01:08:17.283011000 +07
  272  71.618221 32:32:32:32:32:32 20dBm Nov 17, 2018 01:08:17.285991000 +07
  273  72.105725 32:32:32:32:32:32 18dBm Nov 17, 2018 01:08:17.773495000 +07
  274  72.105786 32:32:32:32:32:32 17dBm Nov 17, 2018 01:08:17.773556000 +07
  275  72.112068 32:32:32:32:32:32 18dBm Nov 17, 2018 01:08:17.779838000 +07
  276  72.129972 32:32:32:32:32:32 17dBm Nov 17, 2018 01:08:17.797742000 +07
  277  72.133976 32:32:32:32:32:32 18dBm Nov 17, 2018 01:08:17.801746000 +07
  278  72.137110 32:32:32:32:32:32 19dBm Nov 17, 2018 01:08:17.804880000 +07
  279  72.140546 32:32:32:32:32:32 18dBm Nov 17, 2018 01:08:17.808316000 +07
  280  72.145962 32:32:32:32:32:32 18dBm Nov 17, 2018 01:08:17.813732000 +07
  281  72.621178 32:32:32:32:32:32 18dBm Nov 17, 2018 01:08:18.288948000 +07
  282  72.630099 32:32:32:32:32:32 18dBm Nov 17, 2018 01:08:18.297869000 +07
  283  72.634839 32:32:32:32:32:32 18dBm Nov 17, 2018 01:08:18.302609000 +07
  284  72.635654 32:32:32:32:32:32 17dBm Nov 17, 2018 01:08:18.303424000 +07
  285  73.612521 32:32:32:32:32:32 19dBm Nov 17, 2018 01:08:19.280291000 +07
  286  73.635602 32:32:32:32:32:32 17dBm Nov 17, 2018 01:08:19.303372000 +07
  287  73.875832 32:32:32:32:32:32 18dBm Nov 17, 2018 01:08:19.543602000 +07
  288  73.898161 32:32:32:32:32:32 18dBm Nov 17, 2018 01:08:19.565931000 +07
  289  73.899447 32:32:32:32:32:32 18dBm Nov 17, 2018 01:08:19.567217000 +07
  290  73.904306 32:32:32:32:32:32 18dBm Nov 17, 2018 01:08:19.572076000 +07
  291  74.117547 32:32:32:32:32:32 17dBm Nov 17, 2018 01:08:19.785317000 +07
  292  74.119843 32:32:32:32:32:32 18dBm Nov 17, 2018 01:08:19.787613000 +07
  293  75.380413 32:32:32:32:32:32 18dBm Nov 17, 2018 01:08:21.048183000 +07
  294  75.391279 32:32:32:32:32:32 19dBm Nov 17, 2018 01:08:21.059049000 +07
  295  75.641064 32:32:32:32:32:32 17dBm Nov 17, 2018 01:08:21.308834000 +07
  296  75.824094 32:32:32:32:32:32 16dBm Nov 17, 2018 01:08:21.491864000 +07
  297  76.011440 32:32:32:32:32:32 17dBm Nov 17, 2018 01:08:21.679210000 +07
  298  76.021293 32:32:32:32:32:32 18dBm Nov 17, 2018 01:08:21.689063000 +07
  299  76.025212 32:32:32:32:32:32 17dBm Nov 17, 2018 01:08:21.692982000 +07
  300  76.406058 32:32:32:32:32:32 16dBm Nov 17, 2018 01:08:22.073828000 +07
  301  76.412669 32:32:32:32:32:32 19dBm Nov 17, 2018 01:08:22.080439000 +07
  302  76.419594 32:32:32:32:32:32 19dBm Nov 17, 2018 01:08:22.087364000 +07
  303  76.427069 32:32:32:32:32:32 19dBm Nov 17, 2018 01:08:22.094839000 +07
  304  76.431115 32:32:32:32:32:32 18dBm Nov 17, 2018 01:08:22.098885000 +07
  305  76.584002 32:32:32:32:32:32 16dBm Nov 17, 2018 01:08:22.251772000 +07
  306  76.584046 32:32:32:32:32:32 16dBm Nov 17, 2018 01:08:22.251816000 +07
  307  76.593013 32:32:32:32:32:32 17dBm Nov 17, 2018 01:08:22.260783000 +07
  308  76.972296 32:32:32:32:32:32 18dBm Nov 17, 2018 01:08:22.640066000 +07
  309  76.981567 32:32:32:32:32:32 18dBm Nov 17, 2018 01:08:22.649337000 +07
  310  76.990695 32:32:32:32:32:32 19dBm Nov 17, 2018 01:08:22.658465000 +07
  311  77.179041 32:32:32:32:32:32 17dBm Nov 17, 2018 01:08:22.846811000 +07
  312  77.192240 32:32:32:32:32:32 19dBm Nov 17, 2018 01:08:22.860010000 +07
  313  77.203899 32:32:32:32:32:32 19dBm Nov 17, 2018 01:08:22.871669000 +07
  314  77.213814 32:32:32:32:32:32 18dBm Nov 17, 2018 01:08:22.881584000 +07
  315  77.226957 32:32:32:32:32:32 19dBm Nov 17, 2018 01:08:22.894727000 +07
  316  77.229243 32:32:32:32:32:32 18dBm Nov 17, 2018 01:08:22.897013000 +07
  317  77.342791 32:32:32:32:32:32 19dBm Nov 17, 2018 01:08:23.010561000 +07
  318  77.343627 32:32:32:32:32:32 19dBm Nov 17, 2018 01:08:23.011397000 +07
  319  77.755695 32:32:32:32:32:32 19dBm Nov 17, 2018 01:08:23.423465000 +07
  320  78.326234 32:32:32:32:32:32 19dBm Nov 17, 2018 01:08:23.994004000 +07
  321  78.345715 32:32:32:32:32:32 18dBm Nov 17, 2018 01:08:24.013485000 +07
  322  79.517287 32:32:32:32:32:32 19dBm Nov 17, 2018 01:08:25.185057000 +07
  323  81.809949 32:32:32:32:32:32 17dBm Nov 17, 2018 01:08:27.477719000 +07
  324  81.823491 32:32:32:32:32:32 18dBm Nov 17, 2018 01:08:27.491261000 +07
  325  81.836762 32:32:32:32:32:32 18dBm Nov 17, 2018 01:08:27.504532000 +07
  326  81.844950 32:32:32:32:32:32 17dBm Nov 17, 2018 01:08:27.512720000 +07
  327  81.846599 32:32:32:32:32:32 17dBm Nov 17, 2018 01:08:27.514369000 +07
  328  81.970045 32:32:32:32:32:32 17dBm Nov 17, 2018 01:08:27.637815000 +07
  329  82.389710 32:32:32:32:32:32 18dBm Nov 17, 2018 01:08:28.057480000 +07
  330  82.403369 32:32:32:32:32:32 17dBm Nov 17, 2018 01:08:28.071139000 +07
  331  82.561397 32:32:32:32:32:32 17dBm Nov 17, 2018 01:08:28.229167000 +07
  332  82.575931 32:32:32:32:32:32 18dBm Nov 17, 2018 01:08:28.243701000 +07
  333  82.582353 32:32:32:32:32:32 18dBm Nov 17, 2018 01:08:28.250123000 +07
  334  82.603190 32:32:32:32:32:32 18dBm Nov 17, 2018 01:08:28.270960000 +07
  335  83.440559 32:32:32:32:32:32 18dBm Nov 17, 2018 01:08:29.108329000 +07
  336  83.440618 32:32:32:32:32:32 18dBm Nov 17, 2018 01:08:29.108388000 +07
  337  83.464060 32:32:32:32:32:32 17dBm Nov 17, 2018 01:08:29.131830000 +07
  338  83.476487 32:32:32:32:32:32 18dBm Nov 17, 2018 01:08:29.144257000 +07
  339  83.958597 32:32:32:32:32:32 18dBm Nov 17, 2018 01:08:29.626367000 +07
  340  83.973528 32:32:32:32:32:32 19dBm Nov 17, 2018 01:08:29.641298000 +07
  341  83.976120 32:32:32:32:32:32 16dBm Nov 17, 2018 01:08:29.643890000 +07
  342  83.981266 32:32:32:32:32:32 18dBm Nov 17, 2018 01:08:29.649036000 +07
  343  84.221855 32:32:32:32:32:32 17dBm Nov 17, 2018 01:08:29.889625000 +07
  344  84.231260 32:32:32:32:32:32 16dBm Nov 17, 2018 01:08:29.899030000 +07
  345  84.713124 32:32:32:32:32:32 17dBm Nov 17, 2018 01:08:30.380894000 +07
  346  84.713172 32:32:32:32:32:32 19dBm Nov 17, 2018 01:08:30.380942000 +07
  347  84.731019 32:32:32:32:32:32 19dBm Nov 17, 2018 01:08:30.398789000 +07
  348  84.738653 32:32:32:32:32:32 19dBm Nov 17, 2018 01:08:30.406423000 +07
  349  84.958564 32:32:32:32:32:32 19dBm Nov 17, 2018 01:08:30.626334000 +07
  350  85.219006 32:32:32:32:32:32 18dBm Nov 17, 2018 01:08:30.886776000 +07
  351  85.444806 32:32:32:32:32:32 18dBm Nov 17, 2018 01:08:31.112576000 +07
  352  85.955121 32:32:32:32:32:32 18dBm Nov 17, 2018 01:08:31.622891000 +07
  353  86.706699 32:32:32:32:32:32 19dBm Nov 17, 2018 01:08:32.374469000 +07
  354  86.712528 32:32:32:32:32:32 18dBm Nov 17, 2018 01:08:32.380298000 +07
  355  87.239364 32:32:32:32:32:32 17dBm Nov 17, 2018 01:08:32.907134000 +07
  356  87.251350 32:32:32:32:32:32 17dBm Nov 17, 2018 01:08:32.919120000 +07
  357  87.443906 32:32:32:32:32:32 19dBm Nov 17, 2018 01:08:33.111676000 +07
  358  87.732406 32:32:32:32:32:32 18dBm Nov 17, 2018 01:08:33.400176000 +07
  359  87.757481 32:32:32:32:32:32 19dBm Nov 17, 2018 01:08:33.425251000 +07
  360  87.773503 32:32:32:32:32:32 18dBm Nov 17, 2018 01:08:33.441273000 +07
  361  87.778163 32:32:32:32:32:32 19dBm Nov 17, 2018 01:08:33.445933000 +07
  362  87.779022 32:32:32:32:32:32 18dBm Nov 17, 2018 01:08:33.446792000 +07
  363  89.473670 32:32:32:32:32:32 18dBm Nov 17, 2018 01:08:35.141440000 +07
  364  89.481322 32:32:32:32:32:32 18dBm Nov 17, 2018 01:08:35.149092000 +07
  365  89.488673 32:32:32:32:32:32 17dBm Nov 17, 2018 01:08:35.156443000 +07
  366  89.739635 32:32:32:32:32:32 18dBm Nov 17, 2018 01:08:35.407405000 +07
  367  89.753292 32:32:32:32:32:32 18dBm Nov 17, 2018 01:08:35.421062000 +07
  368  89.773808 32:32:32:32:32:32 18dBm Nov 17, 2018 01:08:35.441578000 +07
  369  89.782190 32:32:32:32:32:32 17dBm Nov 17, 2018 01:08:35.449960000 +07
  370  90.513809 32:32:32:32:32:32 20dBm Nov 17, 2018 01:08:36.181579000 +07
  371  90.537149 32:32:32:32:32:32 19dBm Nov 17, 2018 01:08:36.204919000 +07
  372  90.549880 32:32:32:32:32:32 18dBm Nov 17, 2018 01:08:36.217650000 +07
  373  90.762991 32:32:32:32:32:32 19dBm Nov 17, 2018 01:08:36.430761000 +07
  374  90.772613 32:32:32:32:32:32 18dBm Nov 17, 2018 01:08:36.440383000 +07
  375  90.777474 32:32:32:32:32:32 17dBm Nov 17, 2018 01:08:36.445244000 +07
  376  90.782804 32:32:32:32:32:32 18dBm Nov 17, 2018 01:08:36.450574000 +07
  377  91.007639 32:32:32:32:32:32 19dBm Nov 17, 2018 01:08:36.675409000 +07
  378  91.016749 32:32:32:32:32:32 19dBm Nov 17, 2018 01:08:36.684519000 +07
  379  91.026821 32:32:32:32:32:32 17dBm Nov 17, 2018 01:08:36.694591000 +07
  380  91.035327 32:32:32:32:32:32 19dBm Nov 17, 2018 01:08:36.703097000 +07
  381  91.048395 32:32:32:32:32:32 18dBm Nov 17, 2018 01:08:36.716165000 +07
  382  91.055340 32:32:32:32:32:32 17dBm Nov 17, 2018 01:08:36.723110000 +07
  383 1170455690.594376               Dec 19, 2055 23:41:56.262146000 +07
