       1       032:32:32:32:32:3 12dBm   Nov 17,   201802:14:51.146982000 7          2
       20.03483132:32:32:32:32:3  9Bm N  ov 17, 2018 0 2:14:51.181813000  7         12
       30.11144732:32:32:32:32:3 11dBm   Nov 17,   201802:14:51.258429000 7        ###
       40.14752832:32:32:32:32:3  8Bm N  ov 17, 2018 0 2:14:51.294510000  7        ###
       50.24242532:32:32:32:32:3  9Bm N  ov 17, 2018 0 2:14:51.389407000  7        ###
       60.26046132:32:32:32:32:3  9Bm N  ov 17, 2018 0 2:14:51.407443000  7S          
       70.40857732:32:32:32:32:3 10dBm   Nov 17,   201802:14:51.555559000 7
       80.53960332:32:32:32:32:3  8Bm N  ov 17, 2018 0 2:14:51.686585000  7
       90.56907432:32:32:32:32:3  9Bm N  ov 17, 2018 0 2:14:51.716056000  7
      100.75779232:32:32:32:32:3  8Bm N  ov 17, 2018 0 2:14:51.904774000  7
      110.82055132:32:32:32:32:3  8Bm N  ov 17, 2018 0 2:14:51.967533000  7
      120.93521132:32:32:32:32:3 10dBm   Nov 17,   201802:14:52.082193000 7
      130.96599732:32:32:32:32:3  8Bm N  ov 17, 2018 0 2:14:52.112979000  7
      140.99367832:32:32:32:32:3 11dBm   Nov 17,   201802:14:52.140660000 7
      151.05271332:32:32:32:32:3  9Bm N  ov 17, 2018 0 2:14:52.199695000  7
      161.08176332:32:32:32:32:3 10dBm   Nov 17,   201802:14:52.228745000 7
      171.15721232:32:32:32:32:3  9Bm N  ov 17, 2018 0 2:14:52.304194000  7
      181.35942932:32:32:32:32:3 10dBm   Nov 17,   201802:14:52.506411000 7
      19 1.7109232:32:32:32:32:3  8Bm N  ov 17, 2018 0 2:14:52.857902000  7
      201.80951432:32:32:32:32:3  9Bm N  ov 17, 2018 0 2:14:52.956496000  7
      212.05217732:32:32:32:32:3  8Bm N  ov 17, 2018 0 2:14:53.199159000  7
      222.08156732:32:32:32:32:3  7Bm N  ov 17, 2018 0 2:14:53.228549000  7
      232.11342632:32:32:32:32:3 11dBm   Nov 17,   201802:14:53.260408000 7
      242.29591332:32:32:32:32:3  8Bm N  ov 17, 2018 0 2:14:53.442895000  7
      252.43332632:32:32:32:32:3  8Bm N  ov 17, 2018 0 2:14:53.580308000  7
      262.46855332:32:32:32:32:3 10dBm   Nov 17,   201802:14:53.615535000 7
      272.49077332:32:32:32:32:3  8Bm N  ov 17, 2018 0 2:14:53.637755000  7
      28 2.7465832:32:32:32:32:3  8Bm N  ov 17, 2018 0 2:14:53.893562000  7
      292.89734232:32:32:32:32:3  8Bm N  ov 17, 2018 0 2:14:54.044324000  7
      302.91760732:32:32:32:32:3  9Bm N  ov 17, 2018 0 2:14:54.064589000  7
      312.96534432:32:32:32:32:3  9Bm N  ov 17, 2018 0 2:14:54.112326000  7
      322.99421432:32:32:32:32:3 10dBm   Nov 17,   201802:14:54.141196000 7
      333.03236332:32:32:32:32:3  7Bm N  ov 17, 2018 0 2:14:54.179345000  7
      343.15391732:32:32:32:32:3  6Bm N  ov 17, 2018 0 2:14:54.300899000  7
      353.17705732:32:32:32:32:3 10dBm   Nov 17,   201802:14:54.324039000 7
      363.32256132:32:32:32:32:3  6Bm N  ov 17, 2018 0 2:14:54.469543000  7
      373.39638132:32:32:32:32:3  8Bm N  ov 17, 2018 0 2:14:54.543363000  7
      383.41881432:32:32:32:32:3  7Bm N  ov 17, 2018 0 2:14:54.565796000  7
      393.48161432:32:32:32:32:3  8Bm N  ov 17, 2018 0 2:14:54.628596000  7
      403.49736932:32:32:32:32:3  6Bm N  ov 17, 2018 0 2:14:54.644351000  7
      413.71122132:32:32:32:32:3  8Bm N  ov 17, 2018 0 2:14:54.858203000  7
      423.75711932:32:32:32:32:3  9Bm N  ov 17, 2018 0 2:14:54.904101000  7
      434.10419132:32:32:32:32:3 10dBm   Nov 17,   201802:14:55.251173000 7
      444.17940132:32:32:32:32:3 10dBm   Nov 17,   201802:14:55.326383000 7
      454.19947132:32:32:32:32:3  9Bm N  ov 17, 2018 0 2:14:55.346453000  7
      464.21597632:32:32:32:32:3 10dBm   Nov 17,   201802:14:55.362958000 7
      47 4.2355232:32:32:32:32:3 10dBm   Nov 17,   201802:14:55.382502000 7
      484.27920332:32:32:32:32:3 10dBm   Nov 17,   201802:14:55.426185000 7
      494.30731332:32:32:32:32:3  9Bm N  ov 17, 2018 0 2:14:55.454295000  7
      504.32424932:32:32:32:32:3  9Bm N  ov 17, 2018 0 2:14:55.471231000  7
      514.44023332:32:32:32:32:3  9Bm N  ov 17, 2018 0 2:14:55.587215000  7
      524.51325132:32:32:32:32:3  9Bm N  ov 17, 2018 0 2:14:55.660233000  7
      534.78100832:32:32:32:32:3  7Bm N  ov 17, 2018 0 2:14:55.927990000  7
      544.81800232:32:32:32:32:3  7Bm N  ov 17, 2018 0 2:14:55.964984000  7
      554.83992832:32:32:32:32:3  7Bm N  ov 17, 2018 0 2:14:55.986910000  7
      564.96344732:32:32:32:32:3  6Bm N  ov 17, 2018 0 2:14:56.110429000  7
      575.00794332:32:32:32:32:3 10dBm   Nov 17,   201802:14:56.154925000 7
      585.09534932:32:32:32:32:3  9Bm N  ov 17, 2018 0 2:14:56.242331000  7
      595.23099432:32:32:32:32:3 10dBm   Nov 17,   201802:14:56.377976000 7
      605.24883632:32:32:32:32:3 10dBm   Nov 17,   201802:14:56.395818000 7
      615.38268232:32:32:32:32:3  8Bm N  ov 17, 2018 0 2:14:56.529664000  7
      625.53910932:32:32:32:32:3  9Bm N  ov 17, 2018 0 2:14:56.686091000  7
      635.59653532:32:32:32:32:3  9Bm N  ov 17, 2018 0 2:14:56.743517000  7
      645.62959732:32:32:32:32:3  9Bm N  ov 17, 2018 0 2:14:56.776579000  7
      655.74305132:32:32:32:32:3 11dBm   Nov 17,   201802:14:56.890033000 7
      665.75097132:32:32:32:32:3 10dBm   Nov 17,   201802:14:56.897953000 7
      675.77378132:32:32:32:32:3  9Bm N  ov 17, 2018 0 2:14:56.920763000  7
      685.84048732:32:32:32:32:3 11dBm   Nov 17,   201802:14:56.987469000 7
      695.95882232:32:32:32:32:3  9Bm N  ov 17, 2018 0 2:14:57.105804000  7
      705.99752132:32:32:32:32:3 10dBm   Nov 17,   201802:14:57.144503000 7
      716.05474332:32:32:32:32:3 11dBm   Nov 17,   201802:14:57.201725000 7
      726.11825632:32:32:32:32:3  6Bm N  ov 17, 2018 0 2:14:57.265238000  7
      736.14124732:32:32:32:32:3  9Bm N  ov 17, 2018 0 2:14:57.288229000  7
      746.36358432:32:32:32:32:3  7Bm N  ov 17, 2018 0 2:14:57.510566000  7
      756.39530332:32:32:32:32:3 10dBm   Nov 17,   201802:14:57.542285000 7
      766.43735432:32:32:32:32:3  9Bm N  ov 17, 2018 0 2:14:57.584336000  7
      776.76187632:32:32:32:32:3  9Bm N  ov 17, 2018 0 2:14:57.908858000  7
      786.90287132:32:32:32:32:3  8Bm N  ov 17, 2018 0 2:14:58.049853000  7
      796.92714832:32:32:32:32:3 10dBm   Nov 17,   201802:14:58.074130000 7
      806.96737232:32:32:32:32:3 10dBm   Nov 17,   201802:14:58.114354000 7
      816.99813532:32:32:32:32:3 10dBm   Nov 17,   201802:14:58.145117000 7
      827.49480632:32:32:32:32:3  9Bm N  ov 17, 2018 0 2:14:58.641788000  7
      837.64146432:32:32:32:32:3 11dBm   Nov 17,   201802:14:58.788446000 7
      84 7.7712332:32:32:32:32:3 10dBm   Nov 17,   201802:14:58.918212000 7
      857.77328632:32:32:32:32:3 10dBm   Nov 17,   201802:14:58.920268000 7
      867.94359632:32:32:32:32:3 10dBm   Nov 17,   201802:14:59.090578000 7
      878.00875532:32:32:32:32:3  9Bm N  ov 17, 2018 0 2:14:59.155737000  7
      888.09712132:32:32:32:32:3  8Bm N  ov 17, 2018 0 2:14:59.244103000  7
      898.14644932:32:32:32:32:3  9Bm N  ov 17, 2018 0 2:14:59.293431000  7
      908.15998732:32:32:32:32:3  7Bm N  ov 17, 2018 0 2:14:59.306969000  7
      918.21430132:32:32:32:32:3  9Bm N  ov 17, 2018 0 2:14:59.361283000  7
      928.30560732:32:32:32:32:3 10dBm   Nov 17,   201802:14:59.452589000 7
      938.36241532:32:32:32:32:3  9Bm N  ov 17, 2018 0 2:14:59.509397000  7
      948.42126432:32:32:32:32:3 10dBm   Nov 17,   201802:14:59.568246000 7
      958.47752532:32:32:32:32:3 10dBm   Nov 17,   201802:14:59.624507000 7
      968.49691832:32:32:32:32:3 10dBm   Nov 17,   201802:14:59.643900000 7
      978.62740932:32:32:32:32:3  7Bm N  ov 17, 2018 0 2:14:59.774391000  7
      988.69230632:32:32:32:32:3  9Bm N  ov 17, 2018 0 2:14:59.839288000  7
      998.90641132:32:32:32:32:3 10dBm   Nov 17,   201802:15:00.053393000 7
     100 8.9495432:32:32:32:32:3  8Bm N  ov 17, 2018 0 2:15:00.096522000  7
     1019.06101232:32:32:32:32:3 10dBm   Nov 17,   201802:15:00.207994000 7
     1029.13299632:32:32:32:32:3  9Bm N  ov 17, 2018 0 2:15:00.279978000  7
     103 9.2850132:32:32:32:32:3  9Bm N  ov 17, 2018 0 2:15:00.431992000  7
     1049.47745832:32:32:32:32:3  8Bm N  ov 17, 2018 0 2:15:00.624440000  7
     105 9.5411632:32:32:32:32:3  8Bm N  ov 17, 2018 0 2:15:00.688142000  7
     1069.56329932:32:32:32:32:3  8Bm N  ov 17, 2018 0 2:15:00.710281000  7
  107  10.01901832:32:32:32:32:3 10dBm   Nov 17,   201802:15:01.166000000 7
  108  10.04734732:32:32:32:32:3 10dBm   Nov 17,   201802:15:01.194329000 7
  109  10.33861432:32:32:32:32:3  9Bm N  ov 17, 2018 0 2:15:01.485596000  7
  110  10.55856532:32:32:32:32:3 10dBm   Nov 17,   201802:15:01.705547000 7
  111  10.61115932:32:32:32:32:3 10dBm   Nov 17,   201802:15:01.758141000 7
  112  10.64336132:32:32:32:32:3  9Bm N  ov 17, 2018 0 2:15:01.790343000  7
  113  10.68435832:32:32:32:32:3  9Bm N  ov 17, 2018 0 2:15:01.831340000  7
  114  10.96431732:32:32:32:32:3  9Bm N  ov 17, 2018 0 2:15:02.111299000  7
  115  1 1.0168732:32:32:32:32:3  9Bm N  ov 17, 2018 0 2:15:02.163852000  7
  116  11.05277332:32:32:32:32:3  8Bm N  ov 17, 2018 0 2:15:02.199755000  7
  117  11.07146832:32:32:32:32:3  9Bm N  ov 17, 2018 0 2:15:02.218450000  7
  118  11.08540432:32:32:32:32:3 10dBm   Nov 17,   201802:15:02.232386000 7
  119  11.10325732:32:32:32:32:3 10dBm   Nov 17,   201802:15:02.250239000 7
  120  11.11612232:32:32:32:32:3 10dBm   Nov 17,   201802:15:02.263104000 7
  121  11.16767132:32:32:32:32:3  9Bm N  ov 17, 2018 0 2:15:02.314653000  7
  122  11.20372632:32:32:32:32:3  9Bm N  ov 17, 2018 0 2:15:02.350708000  7
  123  11.22098332:32:32:32:32:3  8Bm N  ov 17, 2018 0 2:15:02.367965000  7
  124  11.38947732:32:32:32:32:3 11dBm   Nov 17,   201802:15:02.536459000 7
  125  11.44099732:32:32:32:32:3 11dBm   Nov 17,   201802:15:02.587979000 7
  126  11.63932132:32:32:32:32:3 10dBm   Nov 17,   201802:15:02.786303000 7
  127  11.88661332:32:32:32:32:3  9Bm N  ov 17, 2018 0 2:15:03.033595000  7
  128  11.90232532:32:32:32:32:3 10dBm   Nov 17,   201802:15:03.049307000 7
  129  11.92228832:32:32:32:32:3 10dBm   Nov 17,   201802:15:03.069270000 7
  130  12.14686332:32:32:32:32:3  9Bm N  ov 17, 2018 0 2:15:03.293845000  7
  131  12.26312332:32:32:32:32:3 10dBm   Nov 17,   201802:15:03.410105000 7
  132  12.30504232:32:32:32:32:3 10dBm   Nov 17,   201802:15:03.452024000 7
  133  12.32507532:32:32:32:32:3  9Bm N  ov 17, 2018 0 2:15:03.472057000  7
  134  12.42640532:32:32:32:32:3 11dBm   Nov 17,   201802:15:03.573387000 7
  135  12.46176532:32:32:32:32:3 10dBm   Nov 17,   201802:15:03.608747000 7
  136  12.48372732:32:32:32:32:3 10dBm   Nov 17,   201802:15:03.630709000 7
  137  12.57703332:32:32:32:32:3  9Bm N  ov 17, 2018 0 2:15:03.724015000  7
  138  1 2.6050832:32:32:32:32:3  7Bm N  ov 17, 2018 0 2:15:03.752062000  7
  139  12.65483132:32:32:32:32:3  8Bm N  ov 17, 2018 0 2:15:03.801813000  7
  140  12.67881132:32:32:32:32:3  8Bm N  ov 17, 2018 0 2:15:03.825793000  7
  141  12.79915732:32:32:32:32:3 10dBm   Nov 17,   201802:15:03.946139000 7
  142  12.88334832:32:32:32:32:3  9Bm N  ov 17, 2018 0 2:15:04.030330000  7
  143  12.96430932:32:32:32:32:3  7Bm N  ov 17, 2018 0 2:15:04.111291000  7
  144  1 3.2017732:32:32:32:32:3  9Bm N  ov 17, 2018 0 2:15:04.348752000  7
  145  1 3.2383332:32:32:32:32:3  9Bm N  ov 17, 2018 0 2:15:04.385312000  7
  146  13.28694832:32:32:32:32:3  8Bm N  ov 17, 2018 0 2:15:04.433930000  7
  147  13.40008332:32:32:32:32:3 10dBm   Nov 17,   201802:15:04.547065000 7
  148  13.43125332:32:32:32:32:3 10dBm   Nov 17,   201802:15:04.578235000 7
  149  13.44249932:32:32:32:32:3 10dBm   Nov 17,   201802:15:04.589481000 7
  150  13.46380932:32:32:32:32:3 10dBm   Nov 17,   201802:15:04.610791000 7
  151  13.54463532:32:32:32:32:3 10dBm   Nov 17,   201802:15:04.691617000 7
  152  13.60511832:32:32:32:32:3 11dBm   Nov 17,   201802:15:04.752100000 7
  153  13.62227932:32:32:32:32:3 10dBm   Nov 17,   201802:15:04.769261000 7
  154  13.70734632:32:32:32:32:3 11dBm   Nov 17,   201802:15:04.854328000 7
  155  13.78740532:32:32:32:32:3  8Bm N  ov 17, 2018 0 2:15:04.934387000  7
  156  13.82021132:32:32:32:32:3  9Bm N  ov 17, 2018 0 2:15:04.967193000  7
  157  13.91032532:32:32:32:32:3  9Bm N  ov 17, 2018 0 2:15:05.057307000  7
  158  14.05662632:32:32:32:32:3 11dBm   Nov 17,   201802:15:05.203608000 7
  159  14.17012632:32:32:32:32:3 10dBm   Nov 17,   201802:15:05.317108000 7
  160  1 4.1889732:32:32:32:32:3 10dBm   Nov 17,   201802:15:05.335952000 7
  161  14.21464332:32:32:32:32:3 11dBm   Nov 17,   201802:15:05.361625000 7
  162  14.42220232:32:32:32:32:3  9Bm N  ov 17, 2018 0 2:15:05.569184000  7
  163  14.58974932:32:32:32:32:3  8Bm N  ov 17, 2018 0 2:15:05.736731000  7
  164  1 4.6082632:32:32:32:32:3 10dBm   Nov 17,   201802:15:05.755242000 7
  165  14.62242132:32:32:32:32:3 10dBm   Nov 17,   201802:15:05.769403000 7
  166  14.93543132:32:32:32:32:3 10dBm   Nov 17,   201802:15:06.082413000 7
  167  14.96143432:32:32:32:32:3  9Bm N  ov 17, 2018 0 2:15:06.108416000  7
  168  14.98573232:32:32:32:32:3  8Bm N  ov 17, 2018 0 2:15:06.132714000  7
  169  1 5.1062232:32:32:32:32:3 11dBm   Nov 17,   201802:15:06.253202000 7
  170  15.16831532:32:32:32:32:3  9Bm N  ov 17, 2018 0 2:15:06.315297000  7
  171  15.22942732:32:32:32:32:3 10dBm   Nov 17,   201802:15:06.376409000 7
  172  15.29614932:32:32:32:32:3  9Bm N  ov 17, 2018 0 2:15:06.443131000  7
  173  1 5.3425932:32:32:32:32:3 11dBm   Nov 17,   201802:15:06.489572000 7
  174  1 5.4773732:32:32:32:32:3  9Bm N  ov 17, 2018 0 2:15:06.624352000  7
  175  15.49175532:32:32:32:32:3  9Bm N  ov 17, 2018 0 2:15:06.638737000  7
  176  1  5.509632:32:32:32:32:3 11dBm   Nov 17,   201802:15:06.656582000 7
  177  15.58604632:32:32:32:32:3 11dBm   Nov 17,   201802:15:06.733028000 7
  178  15.72609632:32:32:32:32:3 10dBm   Nov 17,   201802:15:06.873078000 7
  179  15.76765332:32:32:32:32:3  8Bm N  ov 17, 2018 0 2:15:06.914635000  7
  180  15.91794232:32:32:32:32:3 10dBm   Nov 17,   201802:15:07.064924000 7
  181  15.95383732:32:32:32:32:3 10dBm   Nov 17,   201802:15:07.100819000 7
  182  16.00326232:32:32:32:32:3  7Bm N  ov 17, 2018 0 2:15:07.150244000  7
  183  16.09418932:32:32:32:32:3 11dBm   Nov 17,   201802:15:07.241171000 7
  184  16.19796632:32:32:32:32:3 10dBm   Nov 17,   201802:15:07.344948000 7
  185  16.22464832:32:32:32:32:3  9Bm N  ov 17, 2018 0 2:15:07.371630000  7
  186  1 6.2433732:32:32:32:32:3 11dBm   Nov 17,   201802:15:07.390352000 7
  187  16.31280232:32:32:32:32:3  8Bm N  ov 17, 2018 0 2:15:07.459784000  7
  188  16.33811832:32:32:32:32:3  9Bm N  ov 17, 2018 0 2:15:07.485100000  7
  189  16.36650432:32:32:32:32:3 10dBm   Nov 17,   201802:15:07.513486000 7
  190  16.39212532:32:32:32:32:3  9Bm N  ov 17, 2018 0 2:15:07.539107000  7
  191  16.57277332:32:32:32:32:3  9Bm N  ov 17, 2018 0 2:15:07.719755000  7
  192  16.70776532:32:32:32:32:3 10dBm   Nov 17,   201802:15:07.854747000 7
  193  16.73399532:32:32:32:32:3 10dBm   Nov 17,   201802:15:07.880977000 7
  194  16.87766432:32:32:32:32:3  9Bm N  ov 17, 2018 0 2:15:08.024646000  7
  195  16.98473932:32:32:32:32:3  8Bm N  ov 17, 2018 0 2:15:08.131721000  7
  196  17.10496332:32:32:32:32:3  8Bm N  ov 17, 2018 0 2:15:08.251945000  7
  197  17.19373332:32:32:32:32:3  6Bm N  ov 17, 2018 0 2:15:08.340715000  7
  198  17.33633432:32:32:32:32:3 10dBm   Nov 17,   201802:15:08.483316000 7
  199  17.49069932:32:32:32:32:3 11dBm   Nov 17,   201802:15:08.637681000 7
  200  17.66667632:32:32:32:32:3 10dBm   Nov 17,   201802:15:08.813658000 7
  201  17.69052932:32:32:32:32:3 10dBm   Nov 17,   201802:15:08.837511000 7
  202  17.87443332:32:32:32:32:3  9Bm N  ov 17, 2018 0 2:15:09.021415000  7
  203  17.94759432:32:32:32:32:3 10dBm   Nov 17,   201802:15:09.094576000 7
  204  18.04180532:32:32:32:32:3  7Bm N  ov 17, 2018 0 2:15:09.188787000  7
  205  18.07158132:32:32:32:32:3 10dBm   Nov 17,   201802:15:09.218563000 7
  206  18.18590532:32:32:32:32:3  9Bm N  ov 17, 2018 0 2:15:09.332887000  7
  207  18.27918932:32:32:32:32:3 10dBm   Nov 17,   201802:15:09.426171000 7
  208  18.39562432:32:32:32:32:3  9Bm N  ov 17, 2018 0 2:15:09.542606000  7
  209  18.50710132:32:32:32:32:3  9Bm N  ov 17, 2018 0 2:15:09.654083000  7
  210  18.56777132:32:32:32:32:3  9Bm N  ov 17, 2018 0 2:15:09.714753000  7
  211  1 8.6802732:32:32:32:32:3  8Bm N  ov 17, 2018 0 2:15:09.827252000  7
  212  18.83203932:32:32:32:32:3  9Bm N  ov 17, 2018 0 2:15:09.979021000  7
  213  18.85531832:32:32:32:32:3 11dBm   Nov 17,   201802:15:10.002300000 7
  214  18.97595732:32:32:32:32:3  8Bm N  ov 17, 2018 0 2:15:10.122939000  7
  215  19.02471832:32:32:32:32:3 10dBm   Nov 17,   201802:15:10.171700000 7
  216  19.14528232:32:32:32:32:3  9Bm N  ov 17, 2018 0 2:15:10.292264000  7
  217  19.18798532:32:32:32:32:3  9Bm N  ov 17, 2018 0 2:15:10.334967000  7
  218  19.33389932:32:32:32:32:3 10dBm   Nov 17,   201802:15:10.480881000 7
  219  19.51671432:32:32:32:32:3  9Bm N  ov 17, 2018 0 2:15:10.663696000  7
  220  19.77928532:32:32:32:32:3 10dBm   Nov 17,   201802:15:10.926267000 7
  221  19.85035832:32:32:32:32:3  9Bm N  ov 17, 2018 0 2:15:10.997340000  7
  222  19.94532232:32:32:32:32:3  8Bm N  ov 17, 2018 0 2:15:11.092304000  7
  223  20.03995832:32:32:32:32:3  9Bm N  ov 17, 2018 0 2:15:11.186940000  7
  224  20.06556932:32:32:32:32:3  9Bm N  ov 17, 2018 0 2:15:11.212551000  7
  225  20.22389432:32:32:32:32:3 10dBm   Nov 17,   201802:15:11.370876000 7
  226  20.23132432:32:32:32:32:3  9Bm N  ov 17, 2018 0 2:15:11.378306000  7
  227  20.27677932:32:32:32:32:3  9Bm N  ov 17, 2018 0 2:15:11.423761000  7
  228  20.29117532:32:32:32:32:3  9Bm N  ov 17, 2018 0 2:15:11.438157000  7
  229  20.32440232:32:32:32:32:3 10dBm   Nov 17,   201802:15:11.471384000 7
  230  20.57317632:32:32:32:32:3 10dBm   Nov 17,   201802:15:11.720158000 7
  231  20.59781732:32:32:32:32:3  9Bm N  ov 17, 2018 0 2:15:11.744799000  7
  232  20.91860732:32:32:32:32:3  8Bm N  ov 17, 2018 0 2:15:12.065589000  7
  233  21.02285532:32:32:32:32:3  8Bm N  ov 17, 2018 0 2:15:12.169837000  7
  234  21.03938132:32:32:32:32:3  8Bm N  ov 17, 2018 0 2:15:12.186363000  7
  235  21.06383932:32:32:32:32:3 10dBm   Nov 17,   201802:15:12.210821000 7
  236  2 1.1129832:32:32:32:32:3 10dBm   Nov 17,   201802:15:12.259962000 7
  237  21.16120732:32:32:32:32:3  9Bm N  ov 17, 2018 0 2:15:12.308189000  7
  238  21.20950732:32:32:32:32:3  8Bm N  ov 17, 2018 0 2:15:12.356489000  7
  239  21.24976932:32:32:32:32:3 10dBm   Nov 17,   201802:15:12.396751000 7
  240  21.27581832:32:32:32:32:3  8Bm N  ov 17, 2018 0 2:15:12.422800000  7
  241  21.41189432:32:32:32:32:3  8Bm N  ov 17, 2018 0 2:15:12.558876000  7
  242  21.48224332:32:32:32:32:3 10dBm   Nov 17,   201802:15:12.629225000 7
  243  21.53812232:32:32:32:32:3 11dBm   Nov 17,   201802:15:12.685104000 7
  244  21.74263332:32:32:32:32:3  9Bm N  ov 17, 2018 0 2:15:12.889615000  7
  245  21.76311532:32:32:32:32:3  8Bm N  ov 17, 2018 0 2:15:12.910097000  7
  246  21.78397732:32:32:32:32:3  9Bm N  ov 17, 2018 0 2:15:12.930959000  7
  247  21.93538132:32:32:32:32:3 11dBm   Nov 17,   201802:15:13.082363000 7
  248  21.98051632:32:32:32:32:3  6Bm N  ov 17, 2018 0 2:15:13.127498000  7
  249  22.00555232:32:32:32:32:3 10dBm   Nov 17,   201802:15:13.152534000 7
  250  22.01858632:32:32:32:32:3  9Bm N  ov 17, 2018 0 2:15:13.165568000  7
  251  22.09790332:32:32:32:32:3 10dBm   Nov 17,   201802:15:13.244885000 7
  252  22.13087532:32:32:32:32:3  7Bm N  ov 17, 2018 0 2:15:13.277857000  7
  253  22.14662132:32:32:32:32:3  7Bm N  ov 17, 2018 0 2:15:13.293603000  7
  254  22.16284232:32:32:32:32:3  9Bm N  ov 17, 2018 0 2:15:13.309824000  7
  255  22.19600132:32:32:32:32:3  9Bm N  ov 17, 2018 0 2:15:13.342983000  7
  256  2 2.3874732:32:32:32:32:3  9Bm N  ov 17, 2018 0 2:15:13.534452000  7
  257  22.60652632:32:32:32:32:3 10dBm   Nov 17,   201802:15:13.753508000 7
  258  22.65947232:32:32:32:32:3 10dBm   Nov 17,   201802:15:13.806454000 7
  259  23.04057332:32:32:32:32:3  8Bm N  ov 17, 2018 0 2:15:14.187555000  7
  260  23.08986132:32:32:32:32:3  8Bm N  ov 17, 2018 0 2:15:14.236843000  7
  261  23.11271232:32:32:32:32:3 11dBm   Nov 17,   201802:15:14.259694000 7
  262  23.16572432:32:32:32:32:3  7Bm N  ov 17, 2018 0 2:15:14.312706000  7
  263  2 3.1842232:32:32:32:32:3 10dBm   Nov 17,   201802:15:14.331202000 7
  264  23.21205932:32:32:32:32:3  9Bm N  ov 17, 2018 0 2:15:14.359041000  7
  265  23.34445532:32:32:32:32:3  7Bm N  ov 17, 2018 0 2:15:14.491437000  7
  266  23.61705332:32:32:32:32:3  9Bm N  ov 17, 2018 0 2:15:14.764035000  7
  267  23.78092532:32:32:32:32:3  9Bm N  ov 17, 2018 0 2:15:14.927907000  7
  268  23.82118332:32:32:32:32:3 10dBm   Nov 17,   201802:15:14.968165000 7
  269  24.02386432:32:32:32:32:3  8Bm N  ov 17, 2018 0 2:15:15.170846000  7
  270  24.10311132:32:32:32:32:3  8Bm N  ov 17, 2018 0 2:15:15.250093000  7
  271  24.12303632:32:32:32:32:3  9Bm N  ov 17, 2018 0 2:15:15.270018000  7
  272  24.19007732:32:32:32:32:3 10dBm   Nov 17,   201802:15:15.337059000 7
  273  24.23110132:32:32:32:32:3 11dBm   Nov 17,   201802:15:15.378083000 7
  274  24.29725132:32:32:32:32:3  9Bm N  ov 17, 2018 0 2:15:15.444233000  7
  275  2 4.3734932:32:32:32:32:3  9Bm N  ov 17, 2018 0 2:15:15.520472000  7
  276  2 4.4152932:32:32:32:32:3  8Bm N  ov 17, 2018 0 2:15:15.562272000  7
  277  24.74762132:32:32:32:32:3 10dBm   Nov 17,   201802:15:15.894603000 7
  278  2 4.9620432:32:32:32:32:3  9Bm N  ov 17, 2018 0 2:15:16.109022000  7
  279  25.08788832:32:32:32:32:3  9Bm N  ov 17, 2018 0 2:15:16.234870000  7
  280  25.13374632:32:32:32:32:3  9Bm N  ov 17, 2018 0 2:15:16.280728000  7
  281  2 5.1419632:32:32:32:32:3  7Bm N  ov 17, 2018 0 2:15:16.288942000  7
  282  25.15051432:32:32:32:32:3  9Bm N  ov 17, 2018 0 2:15:16.297496000  7
  283  25.45305932:32:32:32:32:3  9Bm N  ov 17, 2018 0 2:15:16.600041000  7
  284  25.51919132:32:32:32:32:3 10dBm   Nov 17,   201802:15:16.666173000 7
  285  25.54410532:32:32:32:32:3  9Bm N  ov 17, 2018 0 2:15:16.691087000  7
  286  25.56110932:32:32:32:32:3 11dBm   Nov 17,   201802:15:16.708091000 7
  287  2 5.5810432:32:32:32:32:3 11dBm   Nov 17,   201802:15:16.728022000 7
  288  2 5.5810532:32:32:32:32:3 10dBm   Nov 17,   201802:15:16.728032000 7
  289  2 5.7986132:32:32:32:32:3 10dBm   Nov 17,   201802:15:16.945592000 7
  290  2 5.8849532:32:32:32:32:3  9Bm N  ov 17, 2018 0 2:15:17.031932000  7
  291  26.00482732:32:32:32:32:3 10dBm   Nov 17,   201802:15:17.151809000 7
  292  26.07463432:32:32:32:32:3  9Bm N  ov 17, 2018 0 2:15:17.221616000  7
  293  26.08645432:32:32:32:32:3  9Bm N  ov 17, 2018 0 2:15:17.233436000  7
  294  26.11966632:32:32:32:32:3  9Bm N  ov 17, 2018 0 2:15:17.266648000  7
  295  26.13397732:32:32:32:32:3  9Bm N  ov 17, 2018 0 2:15:17.280959000  7
  296  26.14993232:32:32:32:32:3  9Bm N  ov 17, 2018 0 2:15:17.296914000  7
  297  26.22239632:32:32:32:32:3  9Bm N  ov 17, 2018 0 2:15:17.369378000  7
  298  26.26248132:32:32:32:32:3 10dBm   Nov 17,   201802:15:17.409463000 7
  299  26.43510432:32:32:32:32:3  7Bm N  ov 17, 2018 0 2:15:17.582086000  7
  300  26.49352932:32:32:32:32:3  9Bm N  ov 17, 2018 0 2:15:17.640511000  7
  301  26.50994332:32:32:32:32:3  9Bm N  ov 17, 2018 0 2:15:17.656925000  7
  302  26.68718432:32:32:32:32:3 10dBm   Nov 17,   201802:15:17.834166000 7
  303  26.81316532:32:32:32:32:3 10dBm   Nov 17,   201802:15:17.960147000 7
  304  26.88961532:32:32:32:32:3  8Bm N  ov 17, 2018 0 2:15:18.036597000  7
  305  26.90632132:32:32:32:32:3  7Bm N  ov 17, 2018 0 2:15:18.053303000  7
  306  26.92472532:32:32:32:32:3  8Bm N  ov 17, 2018 0 2:15:18.071707000  7
  307  27.16933132:32:32:32:32:3  9Bm N  ov 17, 2018 0 2:15:18.316313000  7
  308  27.20881732:32:32:32:32:3  9Bm N  ov 17, 2018 0 2:15:18.355799000  7
  309  27.34263632:32:32:32:32:3  9Bm N  ov 17, 2018 0 2:15:18.489618000  7
  310  27.37765132:32:32:32:32:3  9Bm N  ov 17, 2018 0 2:15:18.524633000  7
  311  27.39735932:32:32:32:32:3  9Bm N  ov 17, 2018 0 2:15:18.544341000  7
  312  27.51989332:32:32:32:32:3  7Bm N  ov 17, 2018 0 2:15:18.666875000  7
  313  27.59956932:32:32:32:32:3  9Bm N  ov 17, 2018 0 2:15:18.746551000  7
  314  27.81626332:32:32:32:32:3  7Bm N  ov 17, 2018 0 2:15:18.963245000  7
  315  27.84523432:32:32:32:32:3 10dBm   Nov 17,   201802:15:18.992216000 7
  316  27.86513932:32:32:32:32:3  9Bm N  ov 17, 2018 0 2:15:19.012121000  7
  317  27.89409132:32:32:32:32:3  9Bm N  ov 17, 2018 0 2:15:19.041073000  7
  318  27.96570932:32:32:32:32:3  8Bm N  ov 17, 2018 0 2:15:19.112691000  7
  319  27.98599632:32:32:32:32:3  9Bm N  ov 17, 2018 0 2:15:19.132978000  7
  320  28.09650232:32:32:32:32:3 10dBm   Nov 17,   201802:15:19.243484000 7
  321  28.19375132:32:32:32:32:3  9Bm N  ov 17, 2018 0 2:15:19.340733000  7
  322  28.21976832:32:32:32:32:3  9Bm N  ov 17, 2018 0 2:15:19.366750000  7
  323  28.29565832:32:32:32:32:3  9Bm N  ov 17, 2018 0 2:15:19.442640000  7
  324  28.38924132:32:32:32:32:3  9Bm N  ov 17, 2018 0 2:15:19.536223000  7
  325  28.42470432:32:32:32:32:3  9Bm N  ov 17, 2018 0 2:15:19.571686000  7
  326  28.44762532:32:32:32:32:3  8Bm N  ov 17, 2018 0 2:15:19.594607000  7
  327  28.59630432:32:32:32:32:3  9Bm N  ov 17, 2018 0 2:15:19.743286000  7
  328  28.60077232:32:32:32:32:3  9Bm N  ov 17, 2018 0 2:15:19.747754000  7
  329  28.61980532:32:32:32:32:3  8Bm N  ov 17, 2018 0 2:15:19.766787000  7
  330  28.70005432:32:32:32:32:3  8Bm N  ov 17, 2018 0 2:15:19.847036000  7
  331  28.76020932:32:32:32:32:3  9Bm N  ov 17, 2018 0 2:15:19.907191000  7
  332  28.79824732:32:32:32:32:3 10dBm   Nov 17,   201802:15:19.945229000 7
  333  28.98061132:32:32:32:32:3  8Bm N  ov 17, 2018 0 2:15:20.127593000  7
  334  2 8.9999232:32:32:32:32:3  9Bm N  ov 17, 2018 0 2:15:20.146902000  7
  335  29.23945832:32:32:32:32:3  9Bm N  ov 17, 2018 0 2:15:20.386440000  7
  336  29.25465732:32:32:32:32:3  8Bm N  ov 17, 2018 0 2:15:20.401639000  7
  337  29.61275332:32:32:32:32:3 10dBm   Nov 17,   201802:15:20.759735000 7
  338  29.64099932:32:32:32:32:3 10dBm   Nov 17,   201802:15:20.787981000 7
  339  2 9.6632832:32:32:32:32:3 10dBm   Nov 17,   201802:15:20.810262000 7
  340  29.73457932:32:32:32:32:3 10dBm   Nov 17,   201802:15:20.881561000 7
  341  29.88952432:32:32:32:32:3  8Bm N  ov 17, 2018 0 2:15:21.036506000  7
  342  29.94842832:32:32:32:32:3  9Bm N  ov 17, 2018 0 2:15:21.095410000  7
  343  29.99785732:32:32:32:32:3  6Bm N  ov 17, 2018 0 2:15:21.144839000  7
  344  30.04673732:32:32:32:32:3  8Bm N  ov 17, 2018 0 2:15:21.193719000  7
  345  30.06570532:32:32:32:32:3  7Bm N  ov 17, 2018 0 2:15:21.212687000  7
  346  30.15997232:32:32:32:32:3  8Bm N  ov 17, 2018 0 2:15:21.306954000  7
  347  30.25911232:32:32:32:32:3  9Bm N  ov 17, 2018 0 2:15:21.406094000  7
  348  30.40795132:32:32:32:32:3  8Bm N  ov 17, 2018 0 2:15:21.554933000  7
  349  30.75001732:32:32:32:32:3  7Bm N  ov 17, 2018 0 2:15:21.896999000  7
  350  30.77878832:32:32:32:32:3  8Bm N  ov 17, 2018 0 2:15:21.925770000  7
  351  30.81256632:32:32:32:32:3  9Bm N  ov 17, 2018 0 2:15:21.959548000  7
  352  30.83132432:32:32:32:32:3  9Bm N  ov 17, 2018 0 2:15:21.978306000  7
  353  31.04205332:32:32:32:32:3  8Bm N  ov 17, 2018 0 2:15:22.189035000  7
  354  31.09519232:32:32:32:32:3  7Bm N  ov 17, 2018 0 2:15:22.242174000  7
  355  31.11334932:32:32:32:32:3  8Bm N  ov 17, 2018 0 2:15:22.260331000  7
  356  31.26734632:32:32:32:32:3  7Bm N  ov 17, 2018 0 2:15:22.414328000  7
  357  31.36027432:32:32:32:32:3  8Bm N  ov 17, 2018 0 2:15:22.507256000  7
  358  31.39848432:32:32:32:32:3  8Bm N  ov 17, 2018 0 2:15:22.545466000  7
  359  31.49274932:32:32:32:32:3 10dBm   Nov 17,   201802:15:22.639731000 7
  360  31.51312532:32:32:32:32:3 10dBm   Nov 17,   201802:15:22.660107000 7
  361  3 1.7685632:32:32:32:32:3  8Bm N  ov 17, 2018 0 2:15:22.915542000  7
  362  31.78017332:32:32:32:32:3 10dBm   Nov 17,   201802:15:22.927155000 7
  363  31.97357632:32:32:32:32:3  9Bm N  ov 17, 2018 0 2:15:23.120558000  7
  364  31.98806432:32:32:32:32:3  9Bm N  ov 17, 2018 0 2:15:23.135046000  7
  365  31.99305932:32:32:32:32:3  9Bm N  ov 17, 2018 0 2:15:23.140041000  7
  366  32.18981732:32:32:32:32:3  8Bm N  ov 17, 2018 0 2:15:23.336799000  7
  367  32.31136232:32:32:32:32:3  7Bm N  ov 17, 2018 0 2:15:23.458344000  7
  368  32.76632532:32:32:32:32:3  9Bm N  ov 17, 2018 0 2:15:23.913307000  7
  369  33.01887832:32:32:32:32:3  9Bm N  ov 17, 2018 0 2:15:24.165860000  7
  370  33.09227632:32:32:32:32:3 10dBm   Nov 17,   201802:15:24.239258000 7
  371  33.40723732:32:32:32:32:3 10dBm   Nov 17,   201802:15:24.554219000 7
  372  33.47702532:32:32:32:32:3  9Bm N  ov 17, 2018 0 2:15:24.624007000  7
  373  33.50646532:32:32:32:32:3 10dBm   Nov 17,   201802:15:24.653447000 7
  374  33.57273632:32:32:32:32:3  9Bm N  ov 17, 2018 0 2:15:24.719718000  7
  375  33.70125432:32:32:32:32:3 10dBm   Nov 17,   201802:15:24.848236000 7
  376  33.76698532:32:32:32:32:3  8Bm N  ov 17, 2018 0 2:15:24.913967000  7
  377  33.78673632:32:32:32:32:3  9Bm N  ov 17, 2018 0 2:15:24.933718000  7
  378  33.81557732:32:32:32:32:3 10dBm   Nov 17,   201802:15:24.962559000 7
  379  33.82399632:32:32:32:32:3  9Bm N  ov 17, 2018 0 2:15:24.970978000  7
  380  3 3.8513232:32:32:32:32:3  9Bm N  ov 17, 2018 0 2:15:24.998302000  7
  381  33.91407232:32:32:32:32:3  9Bm N  ov 17, 2018 0 2:15:25.061054000  7
  382  33.96175232:32:32:32:32:3 10dBm   Nov 17,   201802:15:25.108734000 7
  383  34.01693632:32:32:32:32:3  9Bm N  ov 17, 2018 0 2:15:25.163918000  7
  384  34.04597432:32:32:32:32:3  9Bm N  ov 17, 2018 0 2:15:25.192956000  7
  385  34.23238732:32:32:32:32:3  9Bm N  ov 17, 2018 0 2:15:25.379369000  7
  386  34.40054332:32:32:32:32:3  6Bm N  ov 17, 2018 0 2:15:25.547525000  7
  387  34.45191832:32:32:32:32:3  8Bm N  ov 17, 2018 0 2:15:25.598900000  7
  388  34.53285432:32:32:32:32:3  8Bm N  ov 17, 2018 0 2:15:25.679836000  7
  389  34.57082432:32:32:32:32:3  9Bm N  ov 17, 2018 0 2:15:25.717806000  7
  390  3 4.6075632:32:32:32:32:3  7Bm N  ov 17, 2018 0 2:15:25.754542000  7
  391  34.65803632:32:32:32:32:3  8Bm N  ov 17, 2018 0 2:15:25.805018000  7
  392  34.73568232:32:32:32:32:3  7Bm N  ov 17, 2018 0 2:15:25.882664000  7
  393  34.83053932:32:32:32:32:3  8Bm N  ov 17, 2018 0 2:15:25.977521000  7
  394  35.09953632:32:32:32:32:3 10dBm   Nov 17,   201802:15:26.246518000 7
  395  35.16309332:32:32:32:32:3  7Bm N  ov 17, 2018 0 2:15:26.310075000  7
  396  35.28318832:32:32:32:32:3  9Bm N  ov 17, 2018 0 2:15:26.430170000  7
  397  35.30315832:32:32:32:32:3  8Bm N  ov 17, 2018 0 2:15:26.450140000  7
  398  35.46691132:32:32:32:32:3  9Bm N  ov 17, 2018 0 2:15:26.613893000  7
  399  35.57578532:32:32:32:32:3  6Bm N  ov 17, 2018 0 2:15:26.722767000  7
  400  35.76700832:32:32:32:32:3  9Bm N  ov 17, 2018 0 2:15:26.913990000  7
  401  35.84015432:32:32:32:32:3  9Bm N  ov 17, 2018 0 2:15:26.987136000  7
  402  35.90008232:32:32:32:32:3 10dBm   Nov 17,   201802:15:27.047064000 7
  403  35.91909132:32:32:32:32:3 10dBm   Nov 17,   201802:15:27.066073000 7
  404  35.93353232:32:32:32:32:3 10dBm   Nov 17,   201802:15:27.080514000 7
  405  35.96498832:32:32:32:32:3  8Bm N  ov 17, 2018 0 2:15:27.111970000  7
  406  35.99544232:32:32:32:32:3  9Bm N  ov 17, 2018 0 2:15:27.142424000  7
  407  36.21318332:32:32:32:32:3 10dBm   Nov 17,   201802:15:27.360165000 7
  408  36.23822532:32:32:32:32:3  9Bm N  ov 17, 2018 0 2:15:27.385207000  7
  409  36.50118532:32:32:32:32:3  8Bm N  ov 17, 2018 0 2:15:27.648167000  7
  410  36.57347932:32:32:32:32:3 11dBm   Nov 17,   201802:15:27.720461000 7
  411  36.71278132:32:32:32:32:3 10dBm   Nov 17,   201802:15:27.859763000 7
  412  36.82479932:32:32:32:32:3  7Bm N  ov 17, 2018 0 2:15:27.971781000  7
  413  3 6.9924332:32:32:32:32:3 10dBm   Nov 17,   201802:15:28.139412000 7
  414  3 7.0410832:32:32:32:32:3 10dBm   Nov 17,   201802:15:28.188062000 7
  415  37.31419732:32:32:32:32:3  9Bm N  ov 17, 2018 0 2:15:28.461179000  7
  416  37.38743532:32:32:32:32:3  8Bm N  ov 17, 2018 0 2:15:28.534417000  7
  417  37.49042732:32:32:32:32:3  8Bm N  ov 17, 2018 0 2:15:28.637409000  7
  418  37.64955632:32:32:32:32:3  8Bm N  ov 17, 2018 0 2:15:28.796538000  7
  419  37.81694932:32:32:32:32:3  8Bm N  ov 17, 2018 0 2:15:28.963931000  7
  420  37.96255932:32:32:32:32:3 10dBm   Nov 17,   201802:15:29.109541000 7
  421  38.11071232:32:32:32:32:3  8Bm N  ov 17, 2018 0 2:15:29.257694000  7
  422  38.15824232:32:32:32:32:3  9Bm N  ov 17, 2018 0 2:15:29.305224000  7
  423  38.22844132:32:32:32:32:3  9Bm N  ov 17, 2018 0 2:15:29.375423000  7
  424  38.26221132:32:32:32:32:3  9Bm N  ov 17, 2018 0 2:15:29.409193000  7
  425  38.30822432:32:32:32:32:3  8Bm N  ov 17, 2018 0 2:15:29.455206000  7
  426  38.37084332:32:32:32:32:3  8Bm N  ov 17, 2018 0 2:15:29.517825000  7
  427  38.38433332:32:32:32:32:3  9Bm N  ov 17, 2018 0 2:15:29.531315000  7
  428  38.51430832:32:32:32:32:3  9Bm N  ov 17, 2018 0 2:15:29.661290000  7
  429  38.64897332:32:32:32:32:3  7Bm N  ov 17, 2018 0 2:15:29.795955000  7
  430  38.68708532:32:32:32:32:3 10dBm   Nov 17,   201802:15:29.834067000 7
  431  38.70142732:32:32:32:32:3 10dBm   Nov 17,   201802:15:29.848409000 7
  432  38.78534732:32:32:32:32:3  8Bm N  ov 17, 2018 0 2:15:29.932329000  7
  433  39.05600332:32:32:32:32:3  9Bm N  ov 17, 2018 0 2:15:30.202985000  7
  434  39.14469732:32:32:32:32:3  8Bm N  ov 17, 2018 0 2:15:30.291679000  7
  435  39.28495432:32:32:32:32:3 10dBm   Nov 17,   201802:15:30.431936000 7
  436  3 9.3046632:32:32:32:32:3 10dBm   Nov 17,   201802:15:30.451642000 7
  437  39.33037332:32:32:32:32:3 10dBm   Nov 17,   201802:15:30.477355000 7
  438  39.45140932:32:32:32:32:3  9Bm N  ov 17, 2018 0 2:15:30.598391000  7
  439  39.47526832:32:32:32:32:3  7Bm N  ov 17, 2018 0 2:15:30.622250000  7
  440  3 9.5031732:32:32:32:32:3  9Bm N  ov 17, 2018 0 2:15:30.650152000  7
  441  39.56008132:32:32:32:32:3  9Bm N  ov 17, 2018 0 2:15:30.707063000  7
  442  39.78867932:32:32:32:32:3  9Bm N  ov 17, 2018 0 2:15:30.935661000  7
  443  39.98089632:32:32:32:32:3  9Bm N  ov 17, 2018 0 2:15:31.127878000  7
  444  40.08025732:32:32:32:32:3  9Bm N  ov 17, 2018 0 2:15:31.227239000  7
  445  40.36461332:32:32:32:32:3 10dBm   Nov 17,   201802:15:31.511595000 7
  446  40.38589732:32:32:32:32:3  9Bm N  ov 17, 2018 0 2:15:31.532879000  7
  447  40.40130732:32:32:32:32:3 10dBm   Nov 17,   201802:15:31.548289000 7
  448  4 0.5552132:32:32:32:32:3  8Bm N  ov 17, 2018 0 2:15:31.702192000  7
  449  40.64332132:32:32:32:32:3  9Bm N  ov 17, 2018 0 2:15:31.790303000  7
  450  40.68526932:32:32:32:32:3 11dBm   Nov 17,   201802:15:31.832251000 7
  451  40.70185432:32:32:32:32:3  8Bm N  ov 17, 2018 0 2:15:31.848836000  7
  452  41.01484132:32:32:32:32:3  6Bm N  ov 17, 2018 0 2:15:32.161823000  7
  453  41.16146232:32:32:32:32:3 10dBm   Nov 17,   201802:15:32.308444000 7
  454  41.23136132:32:32:32:32:3  7Bm N  ov 17, 2018 0 2:15:32.378343000  7
  455  41.24307732:32:32:32:32:3  9Bm N  ov 17, 2018 0 2:15:32.390059000  7
  456  41.30416132:32:32:32:32:3 10dBm   Nov 17,   201802:15:32.451143000 7
  457  41.57085432:32:32:32:32:3 10dBm   Nov 17,   201802:15:32.717836000 7
  458  41.77095532:32:32:32:32:3  9Bm N  ov 17, 2018 0 2:15:32.917937000  7
  459  41.87702132:32:32:32:32:3 10dBm   Nov 17,   201802:15:33.024003000 7
  460  41.88612732:32:32:32:32:3 10dBm   Nov 17,   201802:15:33.033109000 7
  461  41.96482132:32:32:32:32:3 10dBm   Nov 17,   201802:15:33.111803000 7
  462  42.04871332:32:32:32:32:3 11dBm   Nov 17,   201802:15:33.195695000 7
  463  42.11465532:32:32:32:32:3 10dBm   Nov 17,   201802:15:33.261637000 7
  464  42.15344832:32:32:32:32:3  9Bm N  ov 17, 2018 0 2:15:33.300430000  7
  465  42.20252132:32:32:32:32:3  9Bm N  ov 17, 2018 0 2:15:33.349503000  7
  466  42.21764632:32:32:32:32:3 10dBm   Nov 17,   201802:15:33.364628000 7
  467  42.30664532:32:32:32:32:3  8Bm N  ov 17, 2018 0 2:15:33.453627000  7
  468  42.37557932:32:32:32:32:3  9Bm N  ov 17, 2018 0 2:15:33.522561000  7
  469  42.51639832:32:32:32:32:3  9Bm N  ov 17, 2018 0 2:15:33.663380000  7
  470  42.69587632:32:32:32:32:3  9Bm N  ov 17, 2018 0 2:15:33.842858000  7
  471  42.82568532:32:32:32:32:3  6Bm N  ov 17, 2018 0 2:15:33.972667000  7
  472  42.89358632:32:32:32:32:3 10dBm   Nov 17,   201802:15:34.040568000 7
  473  42.92862532:32:32:32:32:3  9Bm N  ov 17, 2018 0 2:15:34.075607000  7
  474  42.94755132:32:32:32:32:3 10dBm   Nov 17,   201802:15:34.094533000 7
  475  43.16475132:32:32:32:32:3  9Bm N  ov 17, 2018 0 2:15:34.311733000  7
  476  43.27366532:32:32:32:32:3  9Bm N  ov 17, 2018 0 2:15:34.420647000  7
  477  43.31160132:32:32:32:32:3  9Bm N  ov 17, 2018 0 2:15:34.458583000  7
  478  43.42898432:32:32:32:32:3  8Bm N  ov 17, 2018 0 2:15:34.575966000  7
  479  43.51749232:32:32:32:32:3 10dBm   Nov 17,   201802:15:34.664474000 7
  480  43.89960932:32:32:32:32:3  9Bm N  ov 17, 2018 0 2:15:35.046591000  7
  481  44.12025632:32:32:32:32:3  9Bm N  ov 17, 2018 0 2:15:35.267238000  7
  482  44.18664332:32:32:32:32:3  9Bm N  ov 17, 2018 0 2:15:35.333625000  7
  483  44.30447432:32:32:32:32:3 10dBm   Nov 17,   201802:15:35.451456000 7
  484  44.39382532:32:32:32:32:3  9Bm N  ov 17, 2018 0 2:15:35.540807000  7
  485  44.49420432:32:32:32:32:3  7Bm N  ov 17, 2018 0 2:15:35.641186000  7
  486  44.55228232:32:32:32:32:3  8Bm N  ov 17, 2018 0 2:15:35.699264000  7
  487  44.56913332:32:32:32:32:3  7Bm N  ov 17, 2018 0 2:15:35.716115000  7
  488  44.58438832:32:32:32:32:3  9Bm N  ov 17, 2018 0 2:15:35.731370000  7
  489  44.67831932:32:32:32:32:3 11dBm   Nov 17,   201802:15:35.825301000 7
  490  45.23936632:32:32:32:32:3 10dBm   Nov 17,   201802:15:36.386348000 7
  491  45.26558532:32:32:32:32:3 11dBm   Nov 17,   201802:15:36.412567000 7
  492  45.31634432:32:32:32:32:3  9Bm N  ov 17, 2018 0 2:15:36.463326000  7
  493  45.35363632:32:32:32:32:3 10dBm   Nov 17,   201802:15:36.500618000 7
  494  45.63798932:32:32:32:32:3 10dBm   Nov 17,   201802:15:36.784971000 7
  495  45.93162432:32:32:32:32:3  9Bm N  ov 17, 2018 0 2:15:37.078606000  7
  496  45.94904632:32:32:32:32:3 11dBm   Nov 17,   201802:15:37.096028000 7
  497  45.95207132:32:32:32:32:3 10dBm   Nov 17,   201802:15:37.099053000 7
  498  46.03301732:32:32:32:32:3  8Bm N  ov 17, 2018 0 2:15:37.179999000  7
  499  46.15936732:32:32:32:32:3  9Bm N  ov 17, 2018 0 2:15:37.306349000  7
  500  46.18507532:32:32:32:32:3 10dBm   Nov 17,   201802:15:37.332057000 7
  501  46.25858632:32:32:32:32:3 10dBm   Nov 17,   201802:15:37.405568000 7
  502  46.43964232:32:32:32:32:3 11dBm   Nov 17,   201802:15:37.586624000 7
  503  4 6.4901832:32:32:32:32:3 10dBm   Nov 17,   201802:15:37.637162000 7
  504  46.54745132:32:32:32:32:3  9Bm N  ov 17, 2018 0 2:15:37.694433000  7
  505  46.57263832:32:32:32:32:3 10dBm   Nov 17,   201802:15:37.719620000 7
  506  4 6.6022632:32:32:32:32:3  8Bm N  ov 17, 2018 0 2:15:37.749242000  7
  507  46.64871732:32:32:32:32:3  7Bm N  ov 17, 2018 0 2:15:37.795699000  7
  508  46.72351932:32:32:32:32:3 11dBm   Nov 17,   201802:15:37.870501000 7
  509  46.79949432:32:32:32:32:3  8Bm N  ov 17, 2018 0 2:15:37.946476000  7
  510  46.82415632:32:32:32:32:3  9Bm N  ov 17, 2018 0 2:15:37.971138000  7
  511  46.85064432:32:32:32:32:3  6Bm N  ov 17, 2018 0 2:15:37.997626000  7
  512  46.98153932:32:32:32:32:3 10dBm   Nov 17,   201802:15:38.128521000 7
  513  47.03577932:32:32:32:32:3  8Bm N  ov 17, 2018 0 2:15:38.182761000  7
  514  47.04865232:32:32:32:32:3 10dBm   Nov 17,   201802:15:38.195634000 7
  515  4 7.1049732:32:32:32:32:3  9Bm N  ov 17, 2018 0 2:15:38.251952000  7
  516  47.46227732:32:32:32:32:3  8Bm N  ov 17, 2018 0 2:15:38.609259000  7
  517  47.52920132:32:32:32:32:3  9Bm N  ov 17, 2018 0 2:15:38.676183000  7
  518  47.56257232:32:32:32:32:3 10dBm   Nov 17,   201802:15:38.709554000 7
  519  47.59898832:32:32:32:32:3 11dBm   Nov 17,   201802:15:38.745970000 7
  520  47.82270732:32:32:32:32:3 11dBm   Nov 17,   201802:15:38.969689000 7
  521  48.15420732:32:32:32:32:3  8Bm N  ov 17, 2018 0 2:15:39.301189000  7
  522  48.20611332:32:32:32:32:3 10dBm   Nov 17,   201802:15:39.353095000 7
  523  48.21502732:32:32:32:32:3 10dBm   Nov 17,   201802:15:39.362009000 7
  524  48.21976132:32:32:32:32:3  9Bm N  ov 17, 2018 0 2:15:39.366743000  7
  525  48.25421332:32:32:32:32:3 10dBm   Nov 17,   201802:15:39.401195000 7
  526  48.27445532:32:32:32:32:3  9Bm N  ov 17, 2018 0 2:15:39.421437000  7
  527  48.44444632:32:32:32:32:3 10dBm   Nov 17,   201802:15:39.591428000 7
  528  4 8.5866132:32:32:32:32:3 11dBm   Nov 17,   201802:15:39.733592000 7
  529  4 8.6521832:32:32:32:32:3 10dBm   Nov 17,   201802:15:39.799162000 7
  530  48.74498832:32:32:32:32:3  9Bm N  ov 17, 2018 0 2:15:39.891970000  7
  531  48.81220832:32:32:32:32:3 10dBm   Nov 17,   201802:15:39.959190000 7
  532  48.88360932:32:32:32:32:3 11dBm   Nov 17,   201802:15:40.030591000 7
  533  48.90004432:32:32:32:32:3 11dBm   Nov 17,   201802:15:40.047026000 7
  534  48.97150732:32:32:32:32:3 10dBm   Nov 17,   201802:15:40.118489000 7
  535  49.04120732:32:32:32:32:3 10dBm   Nov 17,   201802:15:40.188189000 7
  536  49.10746332:32:32:32:32:3 10dBm   Nov 17,   201802:15:40.254445000 7
  537  49.16158932:32:32:32:32:3 11dBm   Nov 17,   201802:15:40.308571000 7
  538  49.30607732:32:32:32:32:3 10dBm   Nov 17,   201802:15:40.453059000 7
  539  49.36109632:32:32:32:32:3  7Bm N  ov 17, 2018 0 2:15:40.508078000  7
  540  49.40645432:32:32:32:32:3 10dBm   Nov 17,   201802:15:40.553436000 7
  541  49.47116232:32:32:32:32:3  9Bm N  ov 17, 2018 0 2:15:40.618144000  7
  542  49.49022232:32:32:32:32:3 10dBm   Nov 17,   201802:15:40.637204000 7
  543  49.61613332:32:32:32:32:3 10dBm   Nov 17,   201802:15:40.763115000 7
  544  49.68967132:32:32:32:32:3  9Bm N  ov 17, 2018 0 2:15:40.836653000  7
  545  49.72581632:32:32:32:32:3  8Bm N  ov 17, 2018 0 2:15:40.872798000  7
  546  49.83577332:32:32:32:32:3 10dBm   Nov 17,   201802:15:40.982755000 7
  547  49.86470332:32:32:32:32:3  8Bm N  ov 17, 2018 0 2:15:41.011685000  7
  548  49.89354532:32:32:32:32:3 10dBm   Nov 17,   201802:15:41.040527000 7
  549  50.23935632:32:32:32:32:3 10dBm   Nov 17,   201802:15:41.386338000 7
  550  50.29386332:32:32:32:32:3  9Bm N  ov 17, 2018 0 2:15:41.440845000  7
  551  50.53136632:32:32:32:32:3 10dBm   Nov 17,   201802:15:41.678348000 7
  552  50.57184432:32:32:32:32:3 10dBm   Nov 17,   201802:15:41.718826000 7
  553  50.71917832:32:32:32:32:3 10dBm   Nov 17,   201802:15:41.866160000 7
  554  50.74498132:32:32:32:32:3 11dBm   Nov 17,   201802:15:41.891963000 7
  555  50.90172532:32:32:32:32:3 10dBm   Nov 17,   201802:15:42.048707000 7
  556  50.94820732:32:32:32:32:3  8Bm N  ov 17, 2018 0 2:15:42.095189000  7
  557  51.11366232:32:32:32:32:3  9Bm N  ov 17, 2018 0 2:15:42.260644000  7
  558  51.14790132:32:32:32:32:3  9Bm N  ov 17, 2018 0 2:15:42.294883000  7
  559  51.18302732:32:32:32:32:3  9Bm N  ov 17, 2018 0 2:15:42.330009000  7
  560  51.22316532:32:32:32:32:3  7Bm N  ov 17, 2018 0 2:15:42.370147000  7
  561  51.27927132:32:32:32:32:3 10dBm   Nov 17,   201802:15:42.426253000 7
  562  51.42671832:32:32:32:32:3 10dBm   Nov 17,   201802:15:42.573700000 7
  563  5 1.4621532:32:32:32:32:3 10dBm   Nov 17,   201802:15:42.609132000 7
  564  51.67957132:32:32:32:32:3 10dBm   Nov 17,   201802:15:42.826553000 7
  565  51.80243132:32:32:32:32:3  8Bm N  ov 17, 2018 0 2:15:42.949413000  7
  566  51.83965732:32:32:32:32:3 10dBm   Nov 17,   201802:15:42.986639000 7
  567  52.01002432:32:32:32:32:3 10dBm   Nov 17,   201802:15:43.157006000 7
  568  5 2.0436532:32:32:32:32:3  9Bm N  ov 17, 2018 0 2:15:43.190632000  7
  569  52.25323932:32:32:32:32:3  8Bm N  ov 17, 2018 0 2:15:43.400221000  7
  570  52.26415232:32:32:32:32:3  9Bm N  ov 17, 2018 0 2:15:43.411134000  7
  571  52.27553132:32:32:32:32:3  7Bm N  ov 17, 2018 0 2:15:43.422513000  7
  572  52.36326132:32:32:32:32:3  6Bm N  ov 17, 2018 0 2:15:43.510243000  7
  573  52.54912232:32:32:32:32:3 10dBm   Nov 17,   201802:15:43.696104000 7
  574  52.60283632:32:32:32:32:3 10dBm   Nov 17,   201802:15:43.749818000 7
  575  52.63736932:32:32:32:32:3  8Bm N  ov 17, 2018 0 2:15:43.784351000  7
  576  52.66830832:32:32:32:32:3 10dBm   Nov 17,   201802:15:43.815290000 7
  577  5  2.858732:32:32:32:32:3  9Bm N  ov 17, 2018 0 2:15:44.005682000  7
  578  52.88852732:32:32:32:32:3  9Bm N  ov 17, 2018 0 2:15:44.035509000  7
  579  52.92277332:32:32:32:32:3  8Bm N  ov 17, 2018 0 2:15:44.069755000  7
  580  53.12297632:32:32:32:32:3 11dBm   Nov 17,   201802:15:44.269958000 7
  581  53.20637132:32:32:32:32:3 10dBm   Nov 17,   201802:15:44.353353000 7
  582  53.25915732:32:32:32:32:3  9Bm N  ov 17, 2018 0 2:15:44.406139000  7
  583  53.29843432:32:32:32:32:3  9Bm N  ov 17, 2018 0 2:15:44.445416000  7
  584  53.31454232:32:32:32:32:3  9Bm N  ov 17, 2018 0 2:15:44.461524000  7
  585  53.42487132:32:32:32:32:3  9Bm N  ov 17, 2018 0 2:15:44.571853000  7
  586  5 3.6658432:32:32:32:32:3  9Bm N  ov 17, 2018 0 2:15:44.812822000  7
  587  53.88687932:32:32:32:32:3  9Bm N  ov 17, 2018 0 2:15:45.033861000  7
  588  53.90018732:32:32:32:32:3  7Bm N  ov 17, 2018 0 2:15:45.047169000  7
  589  53.96180332:32:32:32:32:3 10dBm   Nov 17,   201802:15:45.108785000 7
  590  53.97971432:32:32:32:32:3  9Bm N  ov 17, 2018 0 2:15:45.126696000  7
  591  54.02302832:32:32:32:32:3  9Bm N  ov 17, 2018 0 2:15:45.170010000  7
  592  54.18441832:32:32:32:32:3  9Bm N  ov 17, 2018 0 2:15:45.331400000  7
  593  54.65191432:32:32:32:32:3  9Bm N  ov 17, 2018 0 2:15:45.798896000  7
  594  54.81077732:32:32:32:32:3 10dBm   Nov 17,   201802:15:45.957759000 7
  595  54.89789332:32:32:32:32:3 10dBm   Nov 17,   201802:15:46.044875000 7
  596  55.14366932:32:32:32:32:3 10dBm   Nov 17,   201802:15:46.290651000 7
  597  55.18262932:32:32:32:32:3 10dBm   Nov 17,   201802:15:46.329611000 7
  598  55.20405232:32:32:32:32:3  9Bm N  ov 17, 2018 0 2:15:46.351034000  7
  599  55.28804832:32:32:32:32:3  9Bm N  ov 17, 2018 0 2:15:46.435030000  7
  600  55.61139332:32:32:32:32:3  9Bm N  ov 17, 2018 0 2:15:46.758375000  7
  601  55.77295932:32:32:32:32:3 10dBm   Nov 17,   201802:15:46.919941000 7
  602  55.81203832:32:32:32:32:3  8Bm N  ov 17, 2018 0 2:15:46.959020000  7
  603  5 5.8535632:32:32:32:32:3  8Bm N  ov 17, 2018 0 2:15:47.000542000  7
  604  5 5.9648932:32:32:32:32:3  6Bm N  ov 17, 2018 0 2:15:47.111872000  7
  605  55.98689532:32:32:32:32:3  9Bm N  ov 17, 2018 0 2:15:47.133877000  7
  606  56.00931532:32:32:32:32:3  8Bm N  ov 17, 2018 0 2:15:47.156297000  7
  607  56.04594232:32:32:32:32:3  8Bm N  ov 17, 2018 0 2:15:47.192924000  7
  608  56.25620832:32:32:32:32:3  9Bm N  ov 17, 2018 0 2:15:47.403190000  7
  609  56.62146732:32:32:32:32:3 11dBm   Nov 17,   201802:15:47.768449000 7
  610  56.64333532:32:32:32:32:3  8Bm N  ov 17, 2018 0 2:15:47.790317000  7
  611  56.66444432:32:32:32:32:3  7Bm N  ov 17, 2018 0 2:15:47.811426000  7
  612  56.92073532:32:32:32:32:3 10dBm   Nov 17,   201802:15:48.067717000 7
  613  57.03550132:32:32:32:32:3 10dBm   Nov 17,   201802:15:48.182483000 7
  614  5 7.4728332:32:32:32:32:3 10dBm   Nov 17,   201802:15:48.619812000 7
  615  57.50162332:32:32:32:32:3  8Bm N  ov 17, 2018 0 2:15:48.648605000  7
  616  57.71239632:32:32:32:32:3 10dBm   Nov 17,   201802:15:48.859378000 7
  617  57.83431732:32:32:32:32:3 11dBm   Nov 17,   201802:15:48.981299000 7
  618  57.87425132:32:32:32:32:3  9Bm N  ov 17, 2018 0 2:15:49.021233000  7
  619  57.94527532:32:32:32:32:3 10dBm   Nov 17,   201802:15:49.092257000 7
  620  57.97890532:32:32:32:32:3  7Bm N  ov 17, 2018 0 2:15:49.125887000  7
  621  58.00353732:32:32:32:32:3 10dBm   Nov 17,   201802:15:49.150519000 7
  622  58.07243532:32:32:32:32:3  9Bm N  ov 17, 2018 0 2:15:49.219417000  7
  623  58.16506232:32:32:32:32:3 10dBm   Nov 17,   201802:15:49.312044000 7
  624  58.40532732:32:32:32:32:3  9Bm N  ov 17, 2018 0 2:15:49.552309000  7
  625  58.56837932:32:32:32:32:3  9Bm N  ov 17, 2018 0 2:15:49.715361000  7
  626  58.65937332:32:32:32:32:3  9Bm N  ov 17, 2018 0 2:15:49.806355000  7
  627  58.74182432:32:32:32:32:3 10dBm   Nov 17,   201802:15:49.888806000 7
  628  58.90453732:32:32:32:32:3  7Bm N  ov 17, 2018 0 2:15:50.051519000  7
  629  58.93288732:32:32:32:32:3  8Bm N  ov 17, 2018 0 2:15:50.079869000  7
  630  58.94632432:32:32:32:32:3  7Bm N  ov 17, 2018 0 2:15:50.093306000  7
  631  59.08560932:32:32:32:32:3  8Bm N  ov 17, 2018 0 2:15:50.232591000  7
  632  59.20842932:32:32:32:32:3  9Bm N  ov 17, 2018 0 2:15:50.355411000  7
  633  59.68600332:32:32:32:32:3 10dBm   Nov 17,   201802:15:50.832985000 7
  634  59.73454532:32:32:32:32:3  8Bm N  ov 17, 2018 0 2:15:50.881527000  7
  635  59.86328532:32:32:32:32:3 10dBm   Nov 17,   201802:15:51.010267000 7
  636  59.88169532:32:32:32:32:3  9Bm N  ov 17, 2018 0 2:15:51.028677000  7
  637  59.97277432:32:32:32:32:3  9Bm N  ov 17, 2018 0 2:15:51.119756000  7
  638  60.09061532:32:32:32:32:3  7Bm N  ov 17, 2018 0 2:15:51.237597000  7
  639  60.12462732:32:32:32:32:3  9Bm N  ov 17, 2018 0 2:15:51.271609000  7
  640  60.13823332:32:32:32:32:3  7Bm N  ov 17, 2018 0 2:15:51.285215000  7
  641  60.15067832:32:32:32:32:3  8Bm N  ov 17, 2018 0 2:15:51.297660000  7
  642  60.16731532:32:32:32:32:3  9Bm N  ov 17, 2018 0 2:15:51.314297000  7
  643  6 0.1848432:32:32:32:32:3 10dBm   Nov 17,   201802:15:51.331822000 7
  644  60.29008732:32:32:32:32:3  7Bm N  ov 17, 2018 0 2:15:51.437069000  7
  645  60.38635432:32:32:32:32:3  9Bm N  ov 17, 2018 0 2:15:51.533336000  7
  646  60.40319732:32:32:32:32:3 11dBm   Nov 17,   201802:15:51.550179000 7
  647  6 0.5030532:32:32:32:32:3  8Bm N  ov 17, 2018 0 2:15:51.650032000  7
  648  6 0.5458932:32:32:32:32:3  9Bm N  ov 17, 2018 0 2:15:51.692872000  7
  649  60.62117332:32:32:32:32:3  8Bm N  ov 17, 2018 0 2:15:51.768155000  7
  650  6 0.6589332:32:32:32:32:3 10dBm   Nov 17,   201802:15:51.805912000 7
  651  60.69996232:32:32:32:32:3  6Bm N  ov 17, 2018 0 2:15:51.846944000  7
  652  60.76588932:32:32:32:32:3  8Bm N  ov 17, 2018 0 2:15:51.912871000  7
  653  60.95728332:32:32:32:32:3 10dBm   Nov 17,   201802:15:52.104265000 7
  654  61.19248232:32:32:32:32:3 10dBm   Nov 17,   201802:15:52.339464000 7
  655  61.34768632:32:32:32:32:3  8Bm N  ov 17, 2018 0 2:15:52.494668000  7
  656  61.43649332:32:32:32:32:3 10dBm   Nov 17,   201802:15:52.583475000 7
  657  6 1.4570132:32:32:32:32:3  9Bm N  ov 17, 2018 0 2:15:52.603992000  7
  658  61.47888332:32:32:32:32:3  9Bm N  ov 17, 2018 0 2:15:52.625865000  7
  659  61.56865832:32:32:32:32:3 10dBm   Nov 17,   201802:15:52.715640000 7
  660  6 1.5830832:32:32:32:32:3  8Bm N  ov 17, 2018 0 2:15:52.730062000  7
  661  61.59540432:32:32:32:32:3  8Bm N  ov 17, 2018 0 2:15:52.742386000  7
  662  61.70975432:32:32:32:32:3  8Bm N  ov 17, 2018 0 2:15:52.856736000  7
  663  61.76088132:32:32:32:32:3  8Bm N  ov 17, 2018 0 2:15:52.907863000  7
  664  61.81145132:32:32:32:32:3  9Bm N  ov 17, 2018 0 2:15:52.958433000  7
  665  61.87139532:32:32:32:32:3  9Bm N  ov 17, 2018 0 2:15:53.018377000  7
  666  61.91690832:32:32:32:32:3  8Bm N  ov 17, 2018 0 2:15:53.063890000  7
  667  6 1.9377832:32:32:32:32:3 10dBm   Nov 17,   201802:15:53.084762000 7
  668  61.95200132:32:32:32:32:3  8Bm N  ov 17, 2018 0 2:15:53.098983000  7
  669  62.00727832:32:32:32:32:3  7Bm N  ov 17, 2018 0 2:15:53.154260000  7
  670  62.15207332:32:32:32:32:3  9Bm N  ov 17, 2018 0 2:15:53.299055000  7
  671  62.20878232:32:32:32:32:3  9Bm N  ov 17, 2018 0 2:15:53.355764000  7
  672  62.22536332:32:32:32:32:3  7Bm N  ov 17, 2018 0 2:15:53.372345000  7
  673  62.27258232:32:32:32:32:3  9Bm N  ov 17, 2018 0 2:15:53.419564000  7
  674  62.28928632:32:32:32:32:3  8Bm N  ov 17, 2018 0 2:15:53.436268000  7
  675  62.31235432:32:32:32:32:3  8Bm N  ov 17, 2018 0 2:15:53.459336000  7
  676  62.38700632:32:32:32:32:3 10dBm   Nov 17,   201802:15:53.533988000 7
  677  62.43832732:32:32:32:32:3 10dBm   Nov 17,   201802:15:53.585309000 7
  678  62.47322332:32:32:32:32:3  9Bm N  ov 17, 2018 0 2:15:53.620205000  7
  679  62.49528132:32:32:32:32:3  9Bm N  ov 17, 2018 0 2:15:53.642263000  7
  680  62.51167232:32:32:32:32:3  9Bm N  ov 17, 2018 0 2:15:53.658654000  7
  681  62.52405732:32:32:32:32:3 10dBm   Nov 17,   201802:15:53.671039000 7
  682  62.80036232:32:32:32:32:3 11dBm   Nov 17,   201802:15:53.947344000 7
  683  62.81819332:32:32:32:32:3  9Bm N  ov 17, 2018 0 2:15:53.965175000  7
  684  62.83433132:32:32:32:32:3 10dBm   Nov 17,   201802:15:53.981313000 7
  685  62.85932532:32:32:32:32:3  9Bm N  ov 17, 2018 0 2:15:54.006307000  7
  686  6 3.0090432:32:32:32:32:3  8Bm N  ov 17, 2018 0 2:15:54.156022000  7
  687  63.04417232:32:32:32:32:3  9Bm N  ov 17, 2018 0 2:15:54.191154000  7
  688  63.08622632:32:32:32:32:3  9Bm N  ov 17, 2018 0 2:15:54.233208000  7
  689  63.27172332:32:32:32:32:3  9Bm N  ov 17, 2018 0 2:15:54.418705000  7
  690  63.30946432:32:32:32:32:3 10dBm   Nov 17,   201802:15:54.456446000 7
  691  63.32705332:32:32:32:32:3  8Bm N  ov 17, 2018 0 2:15:54.474035000  7
  692  63.46970132:32:32:32:32:3  9Bm N  ov 17, 2018 0 2:15:54.616683000  7
  693  63.51871632:32:32:32:32:3  7Bm N  ov 17, 2018 0 2:15:54.665698000  7
  694  63.68132232:32:32:32:32:3  8Bm N  ov 17, 2018 0 2:15:54.828304000  7
  695  6 3.7693932:32:32:32:32:3  9Bm N  ov 17, 2018 0 2:15:54.916372000  7
  696  63.78568532:32:32:32:32:3  7Bm N  ov 17, 2018 0 2:15:54.932667000  7
  697  63.98981932:32:32:32:32:3  4Bm N  ov 17, 2018 0 2:15:55.136801000  7
  698  64.16532132:32:32:32:32:3 10dBm   Nov 17,   201802:15:55.312303000 7
  699  64.19485232:32:32:32:32:3 10dBm   Nov 17,   201802:15:55.341834000 7
  700  64.21349532:32:32:32:32:3 10dBm   Nov 17,   201802:15:55.360477000 7
  701  64.23678232:32:32:32:32:3  9Bm N  ov 17, 2018 0 2:15:55.383764000  7
  702  64.26451732:32:32:32:32:3 10dBm   Nov 17,   201802:15:55.411499000 7
  703  64.30184932:32:32:32:32:3 10dBm   Nov 17,   201802:15:55.448831000 7
  704  64.39909832:32:32:32:32:3  7Bm N  ov 17, 2018 0 2:15:55.546080000  7
  705  64.46573132:32:32:32:32:3 10dBm   Nov 17,   201802:15:55.612713000 7
  706  6  4.557832:32:32:32:32:3  9Bm N  ov 17, 2018 0 2:15:55.704782000  7
  707  64.63884332:32:32:32:32:3  9Bm N  ov 17, 2018 0 2:15:55.785825000  7
  708  6 4.6701732:32:32:32:32:3  9Bm N  ov 17, 2018 0 2:15:55.817152000  7
  709  6 4.7242532:32:32:32:32:3  9Bm N  ov 17, 2018 0 2:15:55.871232000  7
  710  64.93932632:32:32:32:32:3 10dBm   Nov 17,   201802:15:56.086308000 7
  711  64.98517332:32:32:32:32:3  9Bm N  ov 17, 2018 0 2:15:56.132155000  7
  712  65.01570332:32:32:32:32:3 10dBm   Nov 17,   201802:15:56.162685000 7
  713  65.05475632:32:32:32:32:3  9Bm N  ov 17, 2018 0 2:15:56.201738000  7
  714  65.24402832:32:32:32:32:3  8Bm N  ov 17, 2018 0 2:15:56.391010000  7
  715  65.42625432:32:32:32:32:3  9Bm N  ov 17, 2018 0 2:15:56.573236000  7
  716  65.50159832:32:32:32:32:3 10dBm   Nov 17,   201802:15:56.648580000 7
  717  65.59554332:32:32:32:32:3  8Bm N  ov 17, 2018 0 2:15:56.742525000  7
  718  6 5.6642732:32:32:32:32:3  6Bm N  ov 17, 2018 0 2:15:56.811252000  7
  719  65.72090832:32:32:32:32:3 10dBm   Nov 17,   201802:15:56.867890000 7
  720  65.76587232:32:32:32:32:3 10dBm   Nov 17,   201802:15:56.912854000 7
  721  6 5.8047232:32:32:32:32:3  9Bm N  ov 17, 2018 0 2:15:56.951702000  7
  722  66.02048132:32:32:32:32:3  8Bm N  ov 17, 2018 0 2:15:57.167463000  7
  723  66.09768832:32:32:32:32:3  8Bm N  ov 17, 2018 0 2:15:57.244670000  7
  724  66.19490532:32:32:32:32:3 10dBm   Nov 17,   201802:15:57.341887000 7
  725  66.29898132:32:32:32:32:3  8Bm N  ov 17, 2018 0 2:15:57.445963000  7
  726  66.32653632:32:32:32:32:3 10dBm   Nov 17,   201802:15:57.473518000 7
  727  66.37911732:32:32:32:32:3  8Bm N  ov 17, 2018 0 2:15:57.526099000  7
  728  66.44148232:32:32:32:32:3 10dBm   Nov 17,   201802:15:57.588464000 7
  729  66.57233532:32:32:32:32:3  9Bm N  ov 17, 2018 0 2:15:57.719317000  7
  730  66.62677632:32:32:32:32:3 10dBm   Nov 17,   201802:15:57.773758000 7
  731  66.64511432:32:32:32:32:3 10dBm   Nov 17,   201802:15:57.792096000 7
  732  66.68069232:32:32:32:32:3 10dBm   Nov 17,   201802:15:57.827674000 7
  733  66.70639932:32:32:32:32:3 10dBm   Nov 17,   201802:15:57.853381000 7
  734  6 6.7875432:32:32:32:32:3  9Bm N  ov 17, 2018 0 2:15:57.934522000  7
  735  6 6.8488932:32:32:32:32:3  9Bm N  ov 17, 2018 0 2:15:57.995872000  7
  736  66.91123332:32:32:32:32:3 10dBm   Nov 17,   201802:15:58.058215000 7
  737  67.02969432:32:32:32:32:3 10dBm   Nov 17,   201802:15:58.176676000 7
  738  67.05631532:32:32:32:32:3  9Bm N  ov 17, 2018 0 2:15:58.203297000  7
  739  6 7.2351332:32:32:32:32:3  9Bm N  ov 17, 2018 0 2:15:58.382112000  7
  740  67.39353132:32:32:32:32:3  7Bm N  ov 17, 2018 0 2:15:58.540513000  7
  741  67.44930832:32:32:32:32:3  9Bm N  ov 17, 2018 0 2:15:58.596290000  7
  742  67.46580932:32:32:32:32:3 10dBm   Nov 17,   201802:15:58.612791000 7
  743  67.66850432:32:32:32:32:3 11dBm   Nov 17,   201802:15:58.815486000 7
  744  67.73211632:32:32:32:32:3 10dBm   Nov 17,   201802:15:58.879098000 7
  745  67.73946732:32:32:32:32:3  7Bm N  ov 17, 2018 0 2:15:58.886449000  7
  746  67.81883932:32:32:32:32:3  9Bm N  ov 17, 2018 0 2:15:58.965821000  7
  747  67.91905532:32:32:32:32:3 10dBm   Nov 17,   201802:15:59.066037000 7
  748  67.97857632:32:32:32:32:3  9Bm N  ov 17, 2018 0 2:15:59.125558000  7
  749  67.99153332:32:32:32:32:3  9Bm N  ov 17, 2018 0 2:15:59.138515000  7
  750  68.04659232:32:32:32:32:3  9Bm N  ov 17, 2018 0 2:15:59.193574000  7
  751  68.05106632:32:32:32:32:3 11dBm   Nov 17,   201802:15:59.198048000 7
  752  68.10012732:32:32:32:32:3  9Bm N  ov 17, 2018 0 2:15:59.247109000  7
  753  6 8.1452432:32:32:32:32:3  9Bm N  ov 17, 2018 0 2:15:59.292222000  7
  754  68.17873832:32:32:32:32:3  8Bm N  ov 17, 2018 0 2:15:59.325720000  7
  755  6 8.2293532:32:32:32:32:3 10dBm   Nov 17,   201802:15:59.376332000 7
  756  68.25625332:32:32:32:32:3 11dBm   Nov 17,   201802:15:59.403235000 7
  757  68.28087532:32:32:32:32:3 10dBm   Nov 17,   201802:15:59.427857000 7
  758  68.33557732:32:32:32:32:3  9Bm N  ov 17, 2018 0 2:15:59.482559000  7
  759  68.41770532:32:32:32:32:3 10dBm   Nov 17,   201802:15:59.564687000 7
  760  68.46989632:32:32:32:32:3 10dBm   Nov 17,   201802:15:59.616878000 7
  761  68.49373332:32:32:32:32:3  8Bm N  ov 17, 2018 0 2:15:59.640715000  7
  762  68.50631932:32:32:32:32:3  9Bm N  ov 17, 2018 0 2:15:59.653301000  7
  763  69.07292732:32:32:32:32:3  7Bm N  ov 17, 2018 0 2:16:00.219909000  7
  764  69.12330332:32:32:32:32:3  9Bm N  ov 17, 2018 0 2:16:00.270285000  7
  765  69.15215132:32:32:32:32:3  8Bm N  ov 17, 2018 0 2:16:00.299133000  7
  766  69.17128532:32:32:32:32:3  9Bm N  ov 17, 2018 0 2:16:00.318267000  7
  767  69.29046932:32:32:32:32:3  2Bm N  ov 17, 2018 0 2:16:00.437451000  7
  768  69.32417832:32:32:32:32:3  7Bm N  ov 17, 2018 0 2:16:00.471160000  7
  769  69.40420432:32:32:32:32:3  8Bm N  ov 17, 2018 0 2:16:00.551186000  7
  770  69.48046832:32:32:32:32:3  9Bm N  ov 17, 2018 0 2:16:00.627450000  7
  771  69.54851832:32:32:32:32:3  7Bm N  ov 17, 2018 0 2:16:00.695500000  7
  772  69.57333832:32:32:32:32:3  9Bm N  ov 17, 2018 0 2:16:00.720320000  7
  773  69.68209432:32:32:32:32:3 10dBm   Nov 17,   201802:16:00.829076000 7
  774  69.80297432:32:32:32:32:3  8Bm N  ov 17, 2018 0 2:16:00.949956000  7
  775  69.82875532:32:32:32:32:3  9Bm N  ov 17, 2018 0 2:16:00.975737000  7
  776  69.86398432:32:32:32:32:3  9Bm N  ov 17, 2018 0 2:16:01.010966000  7
  777  69.89639332:32:32:32:32:3 10dBm   Nov 17,   201802:16:01.043375000 7
  778  69.91906132:32:32:32:32:3  4Bm N  ov 17, 2018 0 2:16:01.066043000  7
  779  69.93352732:32:32:32:32:3  9Bm N  ov 17, 2018 0 2:16:01.080509000  7
  780  70.08429732:32:32:32:32:3  8Bm N  ov 17, 2018 0 2:16:01.231279000  7
  781  70.16742232:32:32:32:32:3  8Bm N  ov 17, 2018 0 2:16:01.314404000  7
  782  70.44522832:32:32:32:32:3  9Bm N  ov 17, 2018 0 2:16:01.592210000  7
  783  70.80013332:32:32:32:32:3  8Bm N  ov 17, 2018 0 2:16:01.947115000  7
  784  7 0.8414332:32:32:32:32:3  8Bm N  ov 17, 2018 0 2:16:01.988412000  7
  785  70.92033532:32:32:32:32:3  8Bm N  ov 17, 2018 0 2:16:02.067317000  7
  786  70.96484732:32:32:32:32:3  9Bm N  ov 17, 2018 0 2:16:02.111829000  7
  787  71.03793332:32:32:32:32:3  9Bm N  ov 17, 2018 0 2:16:02.184915000  7
  788  71.08019732:32:32:32:32:3  9Bm N  ov 17, 2018 0 2:16:02.227179000  7
  789  71.10716632:32:32:32:32:3 10dBm   Nov 17,   201802:16:02.254148000 7
  790  71.24814432:32:32:32:32:3  9Bm N  ov 17, 2018 0 2:16:02.395126000  7
  791  71.30766632:32:32:32:32:3  8Bm N  ov 17, 2018 0 2:16:02.454648000  7
  792  71.37435532:32:32:32:32:3  9Bm N  ov 17, 2018 0 2:16:02.521337000  7
  793  71.44039632:32:32:32:32:3  9Bm N  ov 17, 2018 0 2:16:02.587378000  7
  794  71.47775832:32:32:32:32:3 10dBm   Nov 17,   201802:16:02.624740000 7
  795  71.50598232:32:32:32:32:3  9Bm N  ov 17, 2018 0 2:16:02.652964000  7
  796  71.67806332:32:32:32:32:3  7Bm N  ov 17, 2018 0 2:16:02.825045000  7
  797  71.76502632:32:32:32:32:3 10dBm   Nov 17,   201802:16:02.912008000 7
  798  71.81784932:32:32:32:32:3 11dBm   Nov 17,   201802:16:02.964831000 7
  799  71.91689832:32:32:32:32:3  8Bm N  ov 17, 2018 0 2:16:03.063880000  7
  800  71.94359932:32:32:32:32:3  9Bm N  ov 17, 2018 0 2:16:03.090581000  7
  801  71.96194132:32:32:32:32:3  8Bm N  ov 17, 2018 0 2:16:03.108923000  7
  802  72.01020332:32:32:32:32:3  9Bm N  ov 17, 2018 0 2:16:03.157185000  7
  803  72.10839632:32:32:32:32:3  8Bm N  ov 17, 2018 0 2:16:03.255378000  7
  804  72.14935532:32:32:32:32:3 10dBm   Nov 17,   201802:16:03.296337000 7
  805  7 2.2264232:32:32:32:32:3  9Bm N  ov 17, 2018 0 2:16:03.373402000  7
  806  72.37992632:32:32:32:32:3 11dBm   Nov 17,   201802:16:03.526908000 7
  807  72.53779532:32:32:32:32:3  9Bm N  ov 17, 2018 0 2:16:03.684777000  7
  808  72.62453732:32:32:32:32:3 10dBm   Nov 17,   201802:16:03.771519000 7
  809  72.67690132:32:32:32:32:3 10dBm   Nov 17,   201802:16:03.823883000 7
  810  72.82723532:32:32:32:32:3  8Bm N  ov 17, 2018 0 2:16:03.974217000  7
  811  7 2.8994232:32:32:32:32:3  9Bm N  ov 17, 2018 0 2:16:04.046402000  7
  812  72.93864932:32:32:32:32:3  7Bm N  ov 17, 2018 0 2:16:04.085631000  7
  813  72.95877532:32:32:32:32:3  8Bm N  ov 17, 2018 0 2:16:04.105757000  7
  814  73.31116932:32:32:32:32:3  9Bm N  ov 17, 2018 0 2:16:04.458151000  7
  815  73.34384132:32:32:32:32:3  9Bm N  ov 17, 2018 0 2:16:04.490823000  7
  816  73.36693832:32:32:32:32:3 10dBm   Nov 17,   201802:16:04.513920000 7
  817  73.40947132:32:32:32:32:3  8Bm N  ov 17, 2018 0 2:16:04.556453000  7
  818  73.43916732:32:32:32:32:3  8Bm N  ov 17, 2018 0 2:16:04.586149000  7
  819  73.46267532:32:32:32:32:3 11dBm   Nov 17,   201802:16:04.609657000 7
  820  74.05691132:32:32:32:32:3 10dBm   Nov 17,   201802:16:05.203893000 7
  821  74.11035232:32:32:32:32:3  8Bm N  ov 17, 2018 0 2:16:05.257334000  7
  822  74.15111532:32:32:32:32:3  9Bm N  ov 17, 2018 0 2:16:05.298097000  7
  823  7 4.3013532:32:32:32:32:3  9Bm N  ov 17, 2018 0 2:16:05.448332000  7
  824  74.43497732:32:32:32:32:3  8Bm N  ov 17, 2018 0 2:16:05.581959000  7
  825  74.47352732:32:32:32:32:3 10dBm   Nov 17,   201802:16:05.620509000 7
  826  74.49480632:32:32:32:32:3 10dBm   Nov 17,   201802:16:05.641788000 7
  827  74.52535332:32:32:32:32:3  8Bm N  ov 17, 2018 0 2:16:05.672335000  7
  828  74.79872332:32:32:32:32:3  9Bm N  ov 17, 2018 0 2:16:05.945705000  7
  829  74.90694632:32:32:32:32:3  7Bm N  ov 17, 2018 0 2:16:06.053928000  7
  830  74.95987732:32:32:32:32:3  9Bm N  ov 17, 2018 0 2:16:06.106859000  7
  831  75.01268332:32:32:32:32:3  9Bm N  ov 17, 2018 0 2:16:06.159665000  7
  832  75.17943232:32:32:32:32:3  8Bm N  ov 17, 2018 0 2:16:06.326414000  7
  833  75.23463932:32:32:32:32:3  9Bm N  ov 17, 2018 0 2:16:06.381621000  7
  834  75.26529232:32:32:32:32:3 10dBm   Nov 17,   201802:16:06.412274000 7
  835  75.32090832:32:32:32:32:3 11dBm   Nov 17,   201802:16:06.467890000 7
  836  7 5.3736332:32:32:32:32:3 10dBm   Nov 17,   201802:16:06.520612000 7
  837  75.38535732:32:32:32:32:3  9Bm N  ov 17, 2018 0 2:16:06.532339000  7
  838  75.51625532:32:32:32:32:3  9Bm N  ov 17, 2018 0 2:16:06.663237000  7
  839  75.63653732:32:32:32:32:3 10dBm   Nov 17,   201802:16:06.783519000 7
  840  75.84289832:32:32:32:32:3  9Bm N  ov 17, 2018 0 2:16:06.989880000  7
  841  76.05169132:32:32:32:32:3  9Bm N  ov 17, 2018 0 2:16:07.198673000  7
  842  76.08277332:32:32:32:32:3  8Bm N  ov 17, 2018 0 2:16:07.229755000  7
  843  76.31590732:32:32:32:32:3 10dBm   Nov 17,   201802:16:07.462889000 7
  844  76.34470732:32:32:32:32:3 10dBm   Nov 17,   201802:16:07.491689000 7
  845  76.36348432:32:32:32:32:3  9Bm N  ov 17, 2018 0 2:16:07.510466000  7
  846  77.07088432:32:32:32:32:3  9Bm N  ov 17, 2018 0 2:16:08.217866000  7
  847  77.12990132:32:32:32:32:3 10dBm   Nov 17,   201802:16:08.276883000 7
  848  77.18767532:32:32:32:32:3  8Bm N  ov 17, 2018 0 2:16:08.334657000  7
  849  77.22215132:32:32:32:32:3  7Bm N  ov 17, 2018 0 2:16:08.369133000  7
  850  77.46627832:32:32:32:32:3 10dBm   Nov 17,   201802:16:08.613260000 7
  851  77.52700332:32:32:32:32:3 10dBm   Nov 17,   201802:16:08.673985000 7
  852  77.70328632:32:32:32:32:3  8Bm N  ov 17, 2018 0 2:16:08.850268000  7
  853  77.86511432:32:32:32:32:3 10dBm   Nov 17,   201802:16:09.012096000 7
  854  77.92052632:32:32:32:32:3 11dBm   Nov 17,   201802:16:09.067508000 7
  855  77.93852632:32:32:32:32:3 10dBm   Nov 17,   201802:16:09.085508000 7
  856  78.13619732:32:32:32:32:3 10dBm   Nov 17,   201802:16:09.283179000 7
  857  78.16681132:32:32:32:32:3 11dBm   Nov 17,   201802:16:09.313793000 7
  858  78.19240732:32:32:32:32:3 10dBm   Nov 17,   201802:16:09.339389000 7
  859  78.20765932:32:32:32:32:3 10dBm   Nov 17,   201802:16:09.354641000 7
  860  78.59006832:32:32:32:32:3 11dBm   Nov 17,   201802:16:09.737050000 7
  861  78.59996432:32:32:32:32:3 11dBm   Nov 17,   201802:16:09.746946000 7
  862  7 8.7624332:32:32:32:32:3  9Bm N  ov 17, 2018 0 2:16:09.909412000  7
  863  78.83784732:32:32:32:32:3 10dBm   Nov 17,   201802:16:09.984829000 7
  864  78.94816132:32:32:32:32:3 10dBm   Nov 17,   201802:16:10.095143000 7
  865  79.02889332:32:32:32:32:3  7Bm N  ov 17, 2018 0 2:16:10.175875000  7
  866  79.04598532:32:32:32:32:3  8Bm N  ov 17, 2018 0 2:16:10.192967000  7
  867  79.10131232:32:32:32:32:3 10dBm   Nov 17,   201802:16:10.248294000 7
  868  79.24322132:32:32:32:32:3  9Bm N  ov 17, 2018 0 2:16:10.390203000  7
  869  79.30615832:32:32:32:32:3  8Bm N  ov 17, 2018 0 2:16:10.453140000  7
  870  79.47971732:32:32:32:32:3  8Bm N  ov 17, 2018 0 2:16:10.626699000  7
  871  79.52466532:32:32:32:32:3  9Bm N  ov 17, 2018 0 2:16:10.671647000  7
  872  79.54591132:32:32:32:32:3  6Bm N  ov 17, 2018 0 2:16:10.692893000  7
  873  79.75575632:32:32:32:32:3 10dBm   Nov 17,   201802:16:10.902738000 7
  874  79.79582232:32:32:32:32:3  8Bm N  ov 17, 2018 0 2:16:10.942804000  7
  875  7 9.8245332:32:32:32:32:3  8Bm N  ov 17, 2018 0 2:16:10.971512000  7
  876  80.04142932:32:32:32:32:3  8Bm N  ov 17, 2018 0 2:16:11.188411000  7
  877  80.07865532:32:32:32:32:3  8Bm N  ov 17, 2018 0 2:16:11.225637000  7
  878  80.14795432:32:32:32:32:3  8Bm N  ov 17, 2018 0 2:16:11.294936000  7
  879  80.18642932:32:32:32:32:3  9Bm N  ov 17, 2018 0 2:16:11.333411000  7
  880  80.26468632:32:32:32:32:3  8Bm N  ov 17, 2018 0 2:16:11.411668000  7
  881  80.34017832:32:32:32:32:3  8Bm N  ov 17, 2018 0 2:16:11.487160000  7
  882  8 0.4407232:32:32:32:32:3  8Bm N  ov 17, 2018 0 2:16:11.587702000  7
  883  80.51460432:32:32:32:32:3  9Bm N  ov 17, 2018 0 2:16:11.661586000  7
  884  80.82358832:32:32:32:32:3 11dBm   Nov 17,   201802:16:11.970570000 7
  885  80.83767332:32:32:32:32:3  9Bm N  ov 17, 2018 0 2:16:11.984655000  7
  886  8 0.8532432:32:32:32:32:3  9Bm N  ov 17, 2018 0 2:16:12.000222000  7
  887  80.90010132:32:32:32:32:3  9Bm N  ov 17, 2018 0 2:16:12.047083000  7
  888  81.11822532:32:32:32:32:3  9Bm N  ov 17, 2018 0 2:16:12.265207000  7
  889  81.27451732:32:32:32:32:3  8Bm N  ov 17, 2018 0 2:16:12.421499000  7
  890  81.32312232:32:32:32:32:3  7Bm N  ov 17, 2018 0 2:16:12.470104000  7
  891  81.33918532:32:32:32:32:3  9Bm N  ov 17, 2018 0 2:16:12.486167000  7
  892  81.36439132:32:32:32:32:3  9Bm N  ov 17, 2018 0 2:16:12.511373000  7
  893  81.53889532:32:32:32:32:3  7Bm N  ov 17, 2018 0 2:16:12.685877000  7
  894  81.61156232:32:32:32:32:3  8Bm N  ov 17, 2018 0 2:16:12.758544000  7
  895  81.69532832:32:32:32:32:3  9Bm N  ov 17, 2018 0 2:16:12.842310000  7
  896  81.81528632:32:32:32:32:3  8Bm N  ov 17, 2018 0 2:16:12.962268000  7
  897  81.90052632:32:32:32:32:3  8Bm N  ov 17, 2018 0 2:16:13.047508000  7
  898  82.00089832:32:32:32:32:3  9Bm N  ov 17, 2018 0 2:16:13.147880000  7
  899  82.24577132:32:32:32:32:3  6Bm N  ov 17, 2018 0 2:16:13.392753000  7
  900  82.29153932:32:32:32:32:3  8Bm N  ov 17, 2018 0 2:16:13.438521000  7
  901  82.38508532:32:32:32:32:3  7Bm N  ov 17, 2018 0 2:16:13.532067000  7
  902  82.47580132:32:32:32:32:3  7Bm N  ov 17, 2018 0 2:16:13.622783000  7
  903  82.52534732:32:32:32:32:3  7Bm N  ov 17, 2018 0 2:16:13.672329000  7
  904  82.66545432:32:32:32:32:3  7Bm N  ov 17, 2018 0 2:16:13.812436000  7
  905  8 2.9415132:32:32:32:32:3 10dBm   Nov 17,   201802:16:14.088492000 7
  906  83.01428432:32:32:32:32:3  9Bm N  ov 17, 2018 0 2:16:14.161266000  7
  907  83.07743932:32:32:32:32:3  9Bm N  ov 17, 2018 0 2:16:14.224421000  7
  908  83.08930932:32:32:32:32:3  8Bm N  ov 17, 2018 0 2:16:14.236291000  7
  909  8  3.106832:32:32:32:32:3  8Bm N  ov 17, 2018 0 2:16:14.253782000  7
  910  83.13011632:32:32:32:32:3  7Bm N  ov 17, 2018 0 2:16:14.277098000  7
  911  83.15898332:32:32:32:32:3  9Bm N  ov 17, 2018 0 2:16:14.305965000  7
  912  83.17892932:32:32:32:32:3  8Bm N  ov 17, 2018 0 2:16:14.325911000  7
  913  83.19740632:32:32:32:32:3  9Bm N  ov 17, 2018 0 2:16:14.344388000  7
  914  83.22406232:32:32:32:32:3  9Bm N  ov 17, 2018 0 2:16:14.371044000  7
  915  83.27921532:32:32:32:32:3 10dBm   Nov 17,   201802:16:14.426197000 7
  916  83.36100232:32:32:32:32:3  9Bm N  ov 17, 2018 0 2:16:14.507984000  7
  917  83.43005932:32:32:32:32:3  6Bm N  ov 17, 2018 0 2:16:14.577041000  7
  918  83.56236732:32:32:32:32:3  8Bm N  ov 17, 2018 0 2:16:14.709349000  7
  919  83.64306832:32:32:32:32:3  7Bm N  ov 17, 2018 0 2:16:14.790050000  7
  920  83.80741632:32:32:32:32:3  8Bm N  ov 17, 2018 0 2:16:14.954398000  7
  921  83.86903332:32:32:32:32:3  9Bm N  ov 17, 2018 0 2:16:15.016015000  7
  922  83.90270232:32:32:32:32:3  9Bm N  ov 17, 2018 0 2:16:15.049684000  7
  923  8 3.9157632:32:32:32:32:3  8Bm N  ov 17, 2018 0 2:16:15.062742000  7
  924  83.97922632:32:32:32:32:3 10dBm   Nov 17,   201802:16:15.126208000 7
  925  84.21199332:32:32:32:32:3  8Bm N  ov 17, 2018 0 2:16:15.358975000  7
  926  84.46717832:32:32:32:32:3  8Bm N  ov 17, 2018 0 2:16:15.614160000  7
  927  84.48809232:32:32:32:32:3  8Bm N  ov 17, 2018 0 2:16:15.635074000  7
  928  84.50263132:32:32:32:32:3  7Bm N  ov 17, 2018 0 2:16:15.649613000  7
  929  84.54787832:32:32:32:32:3  7Bm N  ov 17, 2018 0 2:16:15.694860000  7
  930  84.74481632:32:32:32:32:3  8Bm N  ov 17, 2018 0 2:16:15.891798000  7
  931  8 4.8875132:32:32:32:32:3  7Bm N  ov 17, 2018 0 2:16:16.034492000  7
  932  84.94079332:32:32:32:32:3  8Bm N  ov 17, 2018 0 2:16:16.087775000  7
  933  8 4.9643332:32:32:32:32:3 10dBm   Nov 17,   201802:16:16.111312000 7
  934  85.18220232:32:32:32:32:3  9Bm N  ov 17, 2018 0 2:16:16.329184000  7
  935  85.61423132:32:32:32:32:3  6Bm N  ov 17, 2018 0 2:16:16.761213000  7
  936  85.77904532:32:32:32:32:3  8Bm N  ov 17, 2018 0 2:16:16.926027000  7
  937  85.92118532:32:32:32:32:3  8Bm N  ov 17, 2018 0 2:16:17.068167000  7
  938  85.93730132:32:32:32:32:3  8Bm N  ov 17, 2018 0 2:16:17.084283000  7
  939  85.96805932:32:32:32:32:3  6Bm N  ov 17, 2018 0 2:16:17.115041000  7
  940  85.98991332:32:32:32:32:3  8Bm N  ov 17, 2018 0 2:16:17.136895000  7
  941  86.11673932:32:32:32:32:3  9Bm N  ov 17, 2018 0 2:16:17.263721000  7
  942  86.17567532:32:32:32:32:3  8Bm N  ov 17, 2018 0 2:16:17.322657000  7
  943  86.20199132:32:32:32:32:3  9Bm N  ov 17, 2018 0 2:16:17.348973000  7
  944  86.37143832:32:32:32:32:3  8Bm N  ov 17, 2018 0 2:16:17.518420000  7
  945  86.40615732:32:32:32:32:3  9Bm N  ov 17, 2018 0 2:16:17.553139000  7
  946  86.61942832:32:32:32:32:3  9Bm N  ov 17, 2018 0 2:16:17.766410000  7
  947  86.64049232:32:32:32:32:3  9Bm N  ov 17, 2018 0 2:16:17.787474000  7
  948  86.65716132:32:32:32:32:3 10dBm   Nov 17,   201802:16:17.804143000 7
  949  86.67508132:32:32:32:32:3  8Bm N  ov 17, 2018 0 2:16:17.822063000  7
  950  86.70280732:32:32:32:32:3  7Bm N  ov 17, 2018 0 2:16:17.849789000  7
  951  87.05622832:32:32:32:32:3 10dBm   Nov 17,   201802:16:18.203210000 7
  952  87.18161932:32:32:32:32:3  9Bm N  ov 17, 2018 0 2:16:18.328601000  7
  953  87.30368432:32:32:32:32:3  7Bm N  ov 17, 2018 0 2:16:18.450666000  7
  954  87.32712732:32:32:32:32:3  7Bm N  ov 17, 2018 0 2:16:18.474109000  7
  955  87.34694732:32:32:32:32:3  8Bm N  ov 17, 2018 0 2:16:18.493929000  7
  956  87.38792132:32:32:32:32:3  9Bm N  ov 17, 2018 0 2:16:18.534903000  7
  957  87.60288232:32:32:32:32:3  8Bm N  ov 17, 2018 0 2:16:18.749864000  7
  958  87.79010932:32:32:32:32:3 10dBm   Nov 17,   201802:16:18.937091000 7
  959  87.83635632:32:32:32:32:3 10dBm   Nov 17,   201802:16:18.983338000 7
  960  87.96565732:32:32:32:32:3  8Bm N  ov 17, 2018 0 2:16:19.112639000  7
  961  88.12166932:32:32:32:32:3 10dBm   Nov 17,   201802:16:19.268651000 7
  962  88.14767532:32:32:32:32:3  8Bm N  ov 17, 2018 0 2:16:19.294657000  7
  963  88.17844832:32:32:32:32:3  9Bm N  ov 17, 2018 0 2:16:19.325430000  7
  964  88.24247632:32:32:32:32:3  9Bm N  ov 17, 2018 0 2:16:19.389458000  7
  965  88.30638532:32:32:32:32:3  9Bm N  ov 17, 2018 0 2:16:19.453367000  7
  966  88.36444632:32:32:32:32:3 10dBm   Nov 17,   201802:16:19.511428000 7
  967  88.61404232:32:32:32:32:3 10dBm   Nov 17,   201802:16:19.761024000 7
  968  89.10891132:32:32:32:32:3  9Bm N  ov 17, 2018 0 2:16:20.255893000  7
  969  89.28522232:32:32:32:32:3 10dBm   Nov 17,   201802:16:20.432204000 7
  970  89.31602732:32:32:32:32:3  9Bm N  ov 17, 2018 0 2:16:20.463009000  7
  971  89.41489732:32:32:32:32:3  9Bm N  ov 17, 2018 0 2:16:20.561879000  7
  972  8 9.4548732:32:32:32:32:3  8Bm N  ov 17, 2018 0 2:16:20.601852000  7
  973  89.54031532:32:32:32:32:3  8Bm N  ov 17, 2018 0 2:16:20.687297000  7
  974  89.64773632:32:32:32:32:3  9Bm N  ov 17, 2018 0 2:16:20.794718000  7
  975  89.67490432:32:32:32:32:3  9Bm N  ov 17, 2018 0 2:16:20.821886000  7
  976  89.74531632:32:32:32:32:3  9Bm N  ov 17, 2018 0 2:16:20.892298000  7
  977  89.80598232:32:32:32:32:3 10dBm   Nov 17,   201802:16:20.952964000 7
  978  89.88121832:32:32:32:32:3 10dBm   Nov 17,   201802:16:21.028200000 7
  979  89.95257232:32:32:32:32:3  8Bm N  ov 17, 2018 0 2:16:21.099554000  7
  980  90.15636932:32:32:32:32:3 11dBm   Nov 17,   201802:16:21.303351000 7
  981  90.20266432:32:32:32:32:3  5Bm N  ov 17, 2018 0 2:16:21.349646000  7
  982  90.31972632:32:32:32:32:3  9Bm N  ov 17, 2018 0 2:16:21.466708000  7
  983  90.34170832:32:32:32:32:3  9Bm N  ov 17, 2018 0 2:16:21.488690000  7
  984  90.35129132:32:32:32:32:3  9Bm N  ov 17, 2018 0 2:16:21.498273000  7
  985  90.41134132:32:32:32:32:3  9Bm N  ov 17, 2018 0 2:16:21.558323000  7
  986  90.71170132:32:32:32:32:3  8Bm N  ov 17, 2018 0 2:16:21.858683000  7
  987  90.76462832:32:32:32:32:3 10dBm   Nov 17,   201802:16:21.911610000 7
  988  90.78786732:32:32:32:32:3  9Bm N  ov 17, 2018 0 2:16:21.934849000  7
  989  90.87670532:32:32:32:32:3  9Bm N  ov 17, 2018 0 2:16:22.023687000  7
  990  91.03206432:32:32:32:32:3  8Bm N  ov 17, 2018 0 2:16:22.179046000  7
  991  91.10333532:32:32:32:32:3  7Bm N  ov 17, 2018 0 2:16:22.250317000  7
  992  91.13105132:32:32:32:32:3 10dBm   Nov 17,   201802:16:22.278033000 7
  993  91.15935132:32:32:32:32:3  9Bm N  ov 17, 2018 0 2:16:22.306333000  7
  994  91.17699132:32:32:32:32:3  9Bm N  ov 17, 2018 0 2:16:22.323973000  7
  995  91.30819632:32:32:32:32:3  9Bm N  ov 17, 2018 0 2:16:22.455178000  7
  996  9 1.4282832:32:32:32:32:3 10dBm   Nov 17,   201802:16:22.575262000 7
  997  91.50132332:32:32:32:32:3  8Bm N  ov 17, 2018 0 2:16:22.648305000  7
  998  91.63020932:32:32:32:32:3  9Bm N  ov 17, 2018 0 2:16:22.777191000  7
  999  91.65907732:32:32:32:32:3 10dBm   Nov 17,   201802:16:22.806059000 7
 1000  91.67207632:32:32:32:32:3 10dBm   Nov 17,   201802:16:22.819058000 7
 1001  9 1.7130832:32:32:32:32:3 10dBm   Nov 17,   201802:16:22.860062000 7
 1002  91.74300732:32:32:32:32:3  6Bm N  ov 17, 2018 0 2:16:22.889989000  7
 1003  91.84025932:32:32:32:32:3 10dBm   Nov 17,   201802:16:22.987241000 7
 1004  91.84932132:32:32:32:32:3 10dBm   Nov 17,   201802:16:22.996303000 7
 1005  92.05312732:32:32:32:32:3 11dBm   Nov 17,   201802:16:23.200109000 7
 1006  92.16828932:32:32:32:32:3  9Bm N  ov 17, 2018 0 2:16:23.315271000  7
 1007  92.23942332:32:32:32:32:3 10dBm   Nov 17,   201802:16:23.386405000 7
 1008  92.29061632:32:32:32:32:3  9Bm N  ov 17, 2018 0 2:16:23.437598000  7
 1009  92.31559232:32:32:32:32:3  9Bm N  ov 17, 2018 0 2:16:23.462574000  7
 1010  92.36615732:32:32:32:32:3  9Bm N  ov 17, 2018 0 2:16:23.513139000  7
 1011  92.38468232:32:32:32:32:3 10dBm   Nov 17,   201802:16:23.531664000 7
 1012  92.59122632:32:32:32:32:3 10dBm   Nov 17,   201802:16:23.738208000 7
 1013  92.61058232:32:32:32:32:3 10dBm   Nov 17,   201802:16:23.757564000 7
 1014  92.63129232:32:32:32:32:3  8Bm N  ov 17, 2018 0 2:16:23.778274000  7
 1015  92.70389532:32:32:32:32:3  9Bm N  ov 17, 2018 0 2:16:23.850877000  7
 1016  92.72024232:32:32:32:32:3  9Bm N  ov 17, 2018 0 2:16:23.867224000  7
 1017  92.92144432:32:32:32:32:3  9Bm N  ov 17, 2018 0 2:16:24.068426000  7
 1018  93.24582832:32:32:32:32:3  9Bm N  ov 17, 2018 0 2:16:24.392810000  7
 1019  93.56078632:32:32:32:32:3 10dBm   Nov 17,   201802:16:24.707768000 7
 1020  93.64432432:32:32:32:32:3 10dBm   Nov 17,   201802:16:24.791306000 7
 1021  93.92686432:32:32:32:32:3  9Bm N  ov 17, 2018 0 2:16:25.073846000  7
 1022  9  3.949832:32:32:32:32:3 10dBm   Nov 17,   201802:16:25.096782000 7
 1023  93.98797932:32:32:32:32:3  8Bm N  ov 17, 2018 0 2:16:25.134961000  7
 1024  94.00421732:32:32:32:32:3  9Bm N  ov 17, 2018 0 2:16:25.151199000  7
 1025  94.06827632:32:32:32:32:3  9Bm N  ov 17, 2018 0 2:16:25.215258000  7
 1026  94.16209232:32:32:32:32:3  6Bm N  ov 17, 2018 0 2:16:25.309074000  7
 1027  9 4.3316732:32:32:32:32:3  9Bm N  ov 17, 2018 0 2:16:25.478652000  7
 1028  9 4.4079132:32:32:32:32:3  8Bm N  ov 17, 2018 0 2:16:25.554892000  7
 1029  94.45180832:32:32:32:32:3  8Bm N  ov 17, 2018 0 2:16:25.598790000  7
 1030  94.50016532:32:32:32:32:3  8Bm N  ov 17, 2018 0 2:16:25.647147000  7
 1031  94.51778732:32:32:32:32:3  7Bm N  ov 17, 2018 0 2:16:25.664769000  7
 1032  94.62845132:32:32:32:32:3  9Bm N  ov 17, 2018 0 2:16:25.775433000  7
 1033  9 4.7565732:32:32:32:32:3  9Bm N  ov 17, 2018 0 2:16:25.903552000  7
 1034  94.84092832:32:32:32:32:3  9Bm N  ov 17, 2018 0 2:16:25.987910000  7
 1035  94.95025532:32:32:32:32:3  8Bm N  ov 17, 2018 0 2:16:26.097237000  7
 1036  95.11227732:32:32:32:32:3  8Bm N  ov 17, 2018 0 2:16:26.259259000  7
 1037  95.13702132:32:32:32:32:3  7Bm N  ov 17, 2018 0 2:16:26.284003000  7
 1038  95.27309632:32:32:32:32:3 10dBm   Nov 17,   201802:16:26.420078000 7
 1039  95.39297532:32:32:32:32:3  9Bm N  ov 17, 2018 0 2:16:26.539957000  7
 1040  95.46346632:32:32:32:32:3  9Bm N  ov 17, 2018 0 2:16:26.610448000  7
 1041  95.51248832:32:32:32:32:3  9Bm N  ov 17, 2018 0 2:16:26.659470000  7
 1042  95.60715932:32:32:32:32:3  8Bm N  ov 17, 2018 0 2:16:26.754141000  7
 1043  95.63605132:32:32:32:32:3  9Bm N  ov 17, 2018 0 2:16:26.783033000  7
 1044  95.64760132:32:32:32:32:3 10dBm   Nov 17,   201802:16:26.794583000 7
 1045  95.68546632:32:32:32:32:3  7Bm N  ov 17, 2018 0 2:16:26.832448000  7
 1046  95.75072932:32:32:32:32:3  7Bm N  ov 17, 2018 0 2:16:26.897711000  7
 1047  95.87168232:32:32:32:32:3  8Bm N  ov 17, 2018 0 2:16:27.018664000  7
 1048  95.88588632:32:32:32:32:3  8Bm N  ov 17, 2018 0 2:16:27.032868000  7
 1049  96.04490232:32:32:32:32:3  9Bm N  ov 17, 2018 0 2:16:27.191884000  7
 1050  96.41098732:32:32:32:32:3  9Bm N  ov 17, 2018 0 2:16:27.557969000  7
 1051  96.43980832:32:32:32:32:3  8Bm N  ov 17, 2018 0 2:16:27.586790000  7
 1052  96.92247232:32:32:32:32:3 11dBm   Nov 17,   201802:16:28.069454000 7
 1053  9 6.9557732:32:32:32:32:3 12dBm   Nov 17,   201802:16:28.102752000 7
 1054  96.96799832:32:32:32:32:3 10dBm   Nov 17,   201802:16:28.114980000 7
 1055  96.98156132:32:32:32:32:3 10dBm   Nov 17,   201802:16:28.128543000 7
 1056  96.99316532:32:32:32:32:3 10dBm   Nov 17,   201802:16:28.140147000 7
 1057  97.23274732:32:32:32:32:3  9Bm N  ov 17, 2018 0 2:16:28.379729000  7
 1058  97.29732532:32:32:32:32:3  8Bm N  ov 17, 2018 0 2:16:28.444307000  7
 1059  97.32161932:32:32:32:32:3  9Bm N  ov 17, 2018 0 2:16:28.468601000  7
 1060  97.49270832:32:32:32:32:3 10dBm   Nov 17,   201802:16:28.639690000 7
 1061  97.53487832:32:32:32:32:3  8Bm N  ov 17, 2018 0 2:16:28.681860000  7
 1062  97.60217432:32:32:32:32:3  8Bm N  ov 17, 2018 0 2:16:28.749156000  7
 1063  97.74203932:32:32:32:32:3  9Bm N  ov 17, 2018 0 2:16:28.889021000  7
 1064  98.07458632:32:32:32:32:3 10dBm   Nov 17,   201802:16:29.221568000 7
 1065  98.20240132:32:32:32:32:3 10dBm   Nov 17,   201802:16:29.349383000 7
 1066  98.25207432:32:32:32:32:3  8Bm N  ov 17, 2018 0 2:16:29.399056000  7
 1067  9 8.3422332:32:32:32:32:3 10dBm   Nov 17,   201802:16:29.489212000 7
 1068  98.50471532:32:32:32:32:3 11dBm   Nov 17,   201802:16:29.651697000 7
 1069  98.64550832:32:32:32:32:3  9Bm N  ov 17, 2018 0 2:16:29.792490000  7
 1070  98.75198932:32:32:32:32:3  9Bm N  ov 17, 2018 0 2:16:29.898971000  7
 1071  98.85409132:32:32:32:32:3  9Bm N  ov 17, 2018 0 2:16:30.001073000  7
 1072  98.91453932:32:32:32:32:3  7Bm N  ov 17, 2018 0 2:16:30.061521000  7
 1073  98.93127732:32:32:32:32:3  8Bm N  ov 17, 2018 0 2:16:30.078259000  7
 1074  99.35522532:32:32:32:32:3  9Bm N  ov 17, 2018 0 2:16:30.502207000  7
 1075  99.37203732:32:32:32:32:3  7Bm N  ov 17, 2018 0 2:16:30.519019000  7
 1076  99.91317132:32:32:32:32:3 12dBm   Nov 17,   201802:16:31.060153000 7
 1077  99.93552332:32:32:32:32:3 11dBm   Nov 17,   201802:16:31.082505000 7
 1078  99.97694232:32:32:32:32:3 10dBm   Nov 17,   201802:16:31.123924000 7
 1079 100.00694432:32:32:32:32:3 11dBm   Nov 17,   201802:16:31.153926000 7
 1080 100.19463132:32:32:32:32:3  8Bm N  ov 17, 2018 0 2:16:31.341613000  7
 1081 100.25066132:32:32:32:32:3  9Bm N  ov 17, 2018 0 2:16:31.397643000  7
 1082 100.29748932:32:32:32:32:3 10dBm   Nov 17,   201802:16:31.444471000 7
 1083 100.53805432:32:32:32:32:3  7Bm N  ov 17, 2018 0 2:16:31.685036000  7
 1084 100.70320832:32:32:32:32:3  9Bm N  ov 17, 2018 0 2:16:31.850190000  7
 1085 100.82892732:32:32:32:32:3 10dBm   Nov 17,   201802:16:31.975909000 7
 1086 100.98483332:32:32:32:32:3  9Bm N  ov 17, 2018 0 2:16:32.131815000  7
 1087 101.03518432:32:32:32:32:3 11dBm   Nov 17,   201802:16:32.182166000 7
 1088 101.16001932:32:32:32:32:3 12dBm   Nov 17,   201802:16:32.307001000 7
 1089 101.20133732:32:32:32:32:3 12dBm   Nov 17,   201802:16:32.348319000 7
 1090 101.24137132:32:32:32:32:3 11dBm   Nov 17,   201802:16:32.388353000 7
 1091 101.41241832:32:32:32:32:3 12dBm   Nov 17,   201802:16:32.559400000 7
 1092 101.46952132:32:32:32:32:3 11dBm   Nov 17,   201802:16:32.616503000 7
 1093 101.51993532:32:32:32:32:3 10dBm   Nov 17,   201802:16:32.666917000 7
 1094 101.56340232:32:32:32:32:3 10dBm   Nov 17,   201802:16:32.710384000 7
 1095 101.81336432:32:32:32:32:3 11dBm   Nov 17,   201802:16:32.960346000 7
 1096 102.06083932:32:32:32:32:3 10dBm   Nov 17,   201802:16:33.207821000 7
 1097 102.13365832:32:32:32:32:3 10dBm   Nov 17,   201802:16:33.280640000 7
 1098 102.24503732:32:32:32:32:3  9Bm N  ov 17, 2018 0 2:16:33.392019000  7
 1099 102.33889532:32:32:32:32:3 10dBm   Nov 17,   201802:16:33.485877000 7
 1100 102.38495232:32:32:32:32:3 11dBm   Nov 17,   201802:16:33.531934000 7
 1101 102.62172232:32:32:32:32:3 10dBm   Nov 17,   201802:16:33.768704000 7
 1102 102.77758832:32:32:32:32:3 10dBm   Nov 17,   201802:16:33.924570000 7
 1103 102.84190732:32:32:32:32:3 11dBm   Nov 17,   201802:16:33.988889000 7
 1104 102.85200632:32:32:32:32:3  9Bm N  ov 17, 2018 0 2:16:33.998988000  7
 1105 103.02536832:32:32:32:32:3  9Bm N  ov 17, 2018 0 2:16:34.172350000  7
 1106 10 3.0289832:32:32:32:32:3  9Bm N  ov 17, 2018 0 2:16:34.175962000  7
 1107 1170451625          115164    Dec   19, 2055 23: 41:56.262146000 +0  
