                1       032:32:32:32:32:3 15dBm  Nov 17, 201801:27:55.47336100 7         12
                20.35693232:32:32:32:32:3 14dBm  Nov 17, 201801:27:55.83029300 7         19
                3 0.6021132:32:32:32:32:3 16dBm  Nov 17, 201801:27:56.07547100 7        ###
                40.62547432:32:32:32:32:3 15dBm  Nov 17, 201801:27:56.09883500 7        ###
                50.67743532:32:32:32:32:3 16dBm  Nov 17, 201801:27:56.15079600 7        ###
                60.91329132:32:32:32:32:3 15dBm  Nov 17, 201801:27:56.38665200 7S          
                71.03167632:32:32:32:32:3 18dBm  Nov 17, 201801:27:56.50503700 7
                81.20848432:32:32:32:32:3 16dBm  Nov 17, 201801:27:56.68184500 7
                91.22756532:32:32:32:32:3 16dBm  Nov 17, 201801:27:56.70092600 7
               101.29273232:32:32:32:32:3 14dBm  Nov 17, 201801:27:56.76609300 7
               111.31182332:32:32:32:32:3 17dBm  Nov 17, 201801:27:56.78518400 7
               121.33973232:32:32:32:32:3 17dBm  Nov 17, 201801:27:56.81309300 7
               131.53414732:32:32:32:32:3 16dBm  Nov 17, 201801:27:57.00750800 7
               141.60530832:32:32:32:32:3 18dBm  Nov 17, 201801:27:57.07866900 7
               151.76326732:32:32:32:32:3 15dBm  Nov 17, 201801:27:57.23662800 7
               161.79942132:32:32:32:32:3 16dBm  Nov 17, 201801:27:57.27278200 7
               171.86081732:32:32:32:32:3 15dBm  Nov 17, 201801:27:57.33417800 7
               182.12886732:32:32:32:32:3 17dBm  Nov 17, 201801:27:57.60222800 7
               192.22007932:32:32:32:32:3 18dBm  Nov 17, 201801:27:57.69344000 7
               202.24826632:32:32:32:32:3 17dBm  Nov 17, 201801:27:57.72162700 7
               212.45689132:32:32:32:32:3 16dBm  Nov 17, 201801:27:57.93025200 7
               222.51050332:32:32:32:32:3 15dBm  Nov 17, 201801:27:57.98386400 7
               232.53359332:32:32:32:32:3 14dBm  Nov 17, 201801:27:58.00695400 7
               242.61681732:32:32:32:32:3 16dBm  Nov 17, 201801:27:58.09017800 7
               252.66446132:32:32:32:32:3 18dBm  Nov 17, 201801:27:58.13782200 7
               262.69054332:32:32:32:32:3 17dBm  Nov 17, 201801:27:58.16390400 7
               272.71147832:32:32:32:32:3 17dBm  Nov 17, 201801:27:58.18483900 7
               282.76254332:32:32:32:32:3 16dBm  Nov 17, 201801:27:58.23590400 7
               292.82170732:32:32:32:32:3 17dBm  Nov 17, 201801:27:58.29506800 7
               30 3.2226632:32:32:32:32:3 16dBm  Nov 17, 201801:27:58.69602100 7
               313.41472232:32:32:32:32:3 16dBm  Nov 17, 201801:27:58.88808300 7
               323.59690132:32:32:32:32:3 13dBm  Nov 17, 201801:27:59.07026200 7
               333.63239932:32:32:32:32:3 16dBm  Nov 17, 201801:27:59.10576000 7
               343.79766532:32:32:32:32:3 15dBm  Nov 17, 201801:27:59.27102600 7
               353.91847332:32:32:32:32:3 17dBm  Nov 17, 201801:27:59.39183400 7
               363.97340732:32:32:32:32:3 18dBm  Nov 17, 201801:27:59.44676800 7
               373.99229132:32:32:32:32:3 16dBm  Nov 17, 201801:27:59.46565200 7
               384.04622132:32:32:32:32:3 19dBm  Nov 17, 201801:27:59.51958200 7
               394.30925832:32:32:32:32:3 17dBm  Nov 17, 201801:27:59.78261900 7
               404.34850532:32:32:32:32:3 17dBm  Nov 17, 201801:27:59.82186600 7
               414.36626732:32:32:32:32:3 17dBm  Nov 17, 201801:27:59.83962800 7
               424.49756732:32:32:32:32:3 15dBm  Nov 17, 201801:27:59.97092800 7
               434.65930432:32:32:32:32:3 17dBm  Nov 17, 201801:28:00.13266500 7
               444.78500932:32:32:32:32:3 16dBm  Nov 17, 201801:28:00.25837000 7
               454.89729732:32:32:32:32:3 18dBm  Nov 17, 201801:28:00.37065800 7
               464.99790332:32:32:32:32:3 19dBm  Nov 17, 201801:28:00.47126400 7
               475.03441832:32:32:32:32:3 15dBm  Nov 17, 201801:28:00.50777900 7
               48 5.1051332:32:32:32:32:3 18dBm  Nov 17, 201801:28:00.57849100 7
               49 5.1195932:32:32:32:32:3 16dBm  Nov 17, 201801:28:00.59295100 7
               505.15645332:32:32:32:32:3 17dBm  Nov 17, 201801:28:00.62981400 7
               515.18908632:32:32:32:32:3 18dBm  Nov 17, 201801:28:00.66244700 7
               525.20794432:32:32:32:32:3 16dBm  Nov 17, 201801:28:00.68130500 7
               535.35217432:32:32:32:32:3 17dBm  Nov 17, 201801:28:00.82553500 7
               545.36819932:32:32:32:32:3 18dBm  Nov 17, 201801:28:00.84156000 7
               555.38814132:32:32:32:32:3 15dBm  Nov 17, 201801:28:00.86150200 7
               565.42318932:32:32:32:32:3 15dBm  Nov 17, 201801:28:00.89655000 7
               575.67589932:32:32:32:32:3 18dBm  Nov 17, 201801:28:01.14926000 7
               585.70602332:32:32:32:32:3 17dBm  Nov 17, 201801:28:01.17938400 7
               595.72530132:32:32:32:32:3 18dBm  Nov 17, 201801:28:01.19866200 7
               606.03761632:32:32:32:32:3 17dBm  Nov 17, 201801:28:01.51097700 7
               616.04754932:32:32:32:32:3 15dBm  Nov 17, 201801:28:01.52091000 7
               626.16293332:32:32:32:32:3 18dBm  Nov 17, 201801:28:01.63629400 7
               636.18354732:32:32:32:32:3 17dBm  Nov 17, 201801:28:01.65690800 7
               646.20662232:32:32:32:32:3 16dBm  Nov 17, 201801:28:01.67998300 7
               65 6.2255132:32:32:32:32:3 17dBm  Nov 17, 201801:28:01.69887100 7
               666.24136432:32:32:32:32:3 14dBm  Nov 17, 201801:28:01.71472500 7
               676.34904532:32:32:32:32:3 17dBm  Nov 17, 201801:28:01.82240600 7
               686.43975232:32:32:32:32:3 17dBm  Nov 17, 201801:28:01.91311300 7
               696.46584932:32:32:32:32:3 17dBm  Nov 17, 201801:28:01.93921000 7
               706.49236932:32:32:32:32:3 17dBm  Nov 17, 201801:28:01.96573000 7
               716.56583432:32:32:32:32:3 16dBm  Nov 17, 201801:28:02.03919500 7
               726.63732832:32:32:32:32:3 17dBm  Nov 17, 201801:28:02.11068900 7
               736.69708432:32:32:32:32:3 16dBm  Nov 17, 201801:28:02.17044500 7
               74 6.7755932:32:32:32:32:3 17dBm  Nov 17, 201801:28:02.24895100 7
               756.79909632:32:32:32:32:3 15dBm  Nov 17, 201801:28:02.27245700 7
               766.95853332:32:32:32:32:3 17dBm  Nov 17, 201801:28:02.43189400 7
               777.05039432:32:32:32:32:3 15dBm  Nov 17, 201801:28:02.52375500 7
               787.16124232:32:32:32:32:3 15dBm  Nov 17, 201801:28:02.63460300 7
               797.36850632:32:32:32:32:3 17dBm  Nov 17, 201801:28:02.84186700 7
               80 7.4102432:32:32:32:32:3 18dBm  Nov 17, 201801:28:02.88360100 7
               817.42731632:32:32:32:32:3 18dBm  Nov 17, 201801:28:02.90067700 7
               827.49682532:32:32:32:32:3 17dBm  Nov 17, 201801:28:02.97018600 7
               83 7.5225232:32:32:32:32:3 18dBm  Nov 17, 201801:28:02.99588100 7
               847.57273732:32:32:32:32:3 16dBm  Nov 17, 201801:28:03.04609800 7
               857.72410732:32:32:32:32:3 17dBm  Nov 17, 201801:28:03.19746800 7
               868.08441732:32:32:32:32:3 14dBm  Nov 17, 201801:28:03.55777800 7
               878.37993632:32:32:32:32:3 17dBm  Nov 17, 201801:28:03.85329700 7
               888.56931532:32:32:32:32:3 13dBm  Nov 17, 201801:28:04.04267600 7
               898.89311532:32:32:32:32:3 16dBm  Nov 17, 201801:28:04.36647600 7
               908.95203232:32:32:32:32:3 18dBm  Nov 17, 201801:28:04.42539300 7
               918.96824232:32:32:32:32:3 17dBm  Nov 17, 201801:28:04.44160300 7
               928.97680532:32:32:32:32:3 14dBm  Nov 17, 201801:28:04.45016600 7
               938.99335832:32:32:32:32:3 16dBm  Nov 17, 201801:28:04.46671900 7
               949.06559932:32:32:32:32:3 16dBm  Nov 17, 201801:28:04.53896000 7
               959.10297632:32:32:32:32:3 17dBm  Nov 17, 201801:28:04.57633700 7
               969.12041532:32:32:32:32:3 17dBm  Nov 17, 201801:28:04.59377600 7
               979.27582832:32:32:32:32:3 15dBm  Nov 17, 201801:28:04.74918900 7
               989.35370332:32:32:32:32:3 16dBm  Nov 17, 201801:28:04.82706400 7
               99 9.6382632:32:32:32:32:3 17dBm  Nov 17, 201801:28:05.11162100 7
              100 9.7801132:32:32:32:32:3 16dBm  Nov 17, 201801:28:05.25347100 7
              1019.82954632:32:32:32:32:3 14dBm  Nov 17, 201801:28:05.30290700 7
              1029.85027232:32:32:32:32:3 15dBm  Nov 17, 201801:28:05.32363300 7
              1039.86595932:32:32:32:32:3 17dBm  Nov 17, 201801:28:05.33932000 7
              1049.96503632:32:32:32:32:3 16dBm  Nov 17, 201801:28:05.43839700 7
           105  10.39978932:32:32:32:32:3 17dBm  Nov 17, 201801:28:05.87315000 7
           106  10.60548832:32:32:32:32:3 17dBm  Nov 17, 201801:28:06.07884900 7
           107  10.69080132:32:32:32:32:3 16dBm  Nov 17, 201801:28:06.16416200 7
           108  10.71378732:32:32:32:32:3 15dBm  Nov 17, 201801:28:06.18714800 7
           109  10.91755232:32:32:32:32:3 16dBm  Nov 17, 201801:28:06.39091300 7
           110  11.05538632:32:32:32:32:3 17dBm  Nov 17, 201801:28:06.52874700 7
           111  11.16191732:32:32:32:32:3 19dBm  Nov 17, 201801:28:06.63527800 7
           112  11.17942532:32:32:32:32:3 17dBm  Nov 17, 201801:28:06.65278600 7
           113  11.41626132:32:32:32:32:3 16dBm  Nov 17, 201801:28:06.88962200 7
           114  11.47205632:32:32:32:32:3 15dBm  Nov 17, 201801:28:06.94541700 7
           115  1 1.5326332:32:32:32:32:3 15dBm  Nov 17, 201801:28:07.00599100 7
           116  11.59779632:32:32:32:32:3 16dBm  Nov 17, 201801:28:07.07115700 7
           117  11.80227632:32:32:32:32:3 16dBm  Nov 17, 201801:28:07.27563700 7
           118  11.84925432:32:32:32:32:3 16dBm  Nov 17, 201801:28:07.32261500 7
           119  12.01231832:32:32:32:32:3 16dBm  Nov 17, 201801:28:07.48567900 7
           120  12.19422232:32:32:32:32:3 14dBm  Nov 17, 201801:28:07.66758300 7
           121  12.22214932:32:32:32:32:3 18dBm  Nov 17, 201801:28:07.69551000 7
           122  12.42539432:32:32:32:32:3 17dBm  Nov 17, 201801:28:07.89875500 7
           123  12.46483132:32:32:32:32:3 17dBm  Nov 17, 201801:28:07.93819200 7
           124  12.57078432:32:32:32:32:3 17dBm  Nov 17, 201801:28:08.04414500 7
           125  12.74722332:32:32:32:32:3 18dBm  Nov 17, 201801:28:08.22058400 7
           126  12.77211532:32:32:32:32:3 17dBm  Nov 17, 201801:28:08.24547600 7
           127  12.83377632:32:32:32:32:3 18dBm  Nov 17, 201801:28:08.30713700 7
           128  12.90158932:32:32:32:32:3 18dBm  Nov 17, 201801:28:08.37495000 7
           129  12.95652632:32:32:32:32:3 16dBm  Nov 17, 201801:28:08.42988700 7
           130  1 2.9751832:32:32:32:32:3 18dBm  Nov 17, 201801:28:08.44854100 7
           131  1 2.9864732:32:32:32:32:3 16dBm  Nov 17, 201801:28:08.45983100 7
           132  13.00310132:32:32:32:32:3 16dBm  Nov 17, 201801:28:08.47646200 7
           133  13.36617932:32:32:32:32:3 17dBm  Nov 17, 201801:28:08.83954000 7
           134  13.41681832:32:32:32:32:3 18dBm  Nov 17, 201801:28:08.89017900 7
           135  13.51073532:32:32:32:32:3 18dBm  Nov 17, 201801:28:08.98409600 7
           136  1  3.855932:32:32:32:32:3 18dBm  Nov 17, 201801:28:09.32926100 7
           137  13.97150232:32:32:32:32:3 16dBm  Nov 17, 201801:28:09.44486300 7
           138  13.98955732:32:32:32:32:3 18dBm  Nov 17, 201801:28:09.46291800 7
           139  14.00406932:32:32:32:32:3 17dBm  Nov 17, 201801:28:09.47743000 7
           140  14.01738532:32:32:32:32:3 17dBm  Nov 17, 201801:28:09.49074600 7
           141  14.06105832:32:32:32:32:3 17dBm  Nov 17, 201801:28:09.53441900 7
           142  1 4.1645232:32:32:32:32:3 18dBm  Nov 17, 201801:28:09.63788100 7
           143  14.22695632:32:32:32:32:3 16dBm  Nov 17, 201801:28:09.70031700 7
           144  14.40754532:32:32:32:32:3 17dBm  Nov 17, 201801:28:09.88090600 7
           145  14.45885832:32:32:32:32:3 18dBm  Nov 17, 201801:28:09.93221900 7
           146  14.47624932:32:32:32:32:3 16dBm  Nov 17, 201801:28:09.94961000 7
           147  14.53189732:32:32:32:32:3 17dBm  Nov 17, 201801:28:10.00525800 7
           148  14.55193632:32:32:32:32:3 17dBm  Nov 17, 201801:28:10.02529700 7
           149  14.68842632:32:32:32:32:3 17dBm  Nov 17, 201801:28:10.16178700 7
           150  14.87877432:32:32:32:32:3 17dBm  Nov 17, 201801:28:10.35213500 7
           151  14.96436932:32:32:32:32:3 17dBm  Nov 17, 201801:28:10.43773000 7
           152  15.00010432:32:32:32:32:3 16dBm  Nov 17, 201801:28:10.47346500 7
           153  15.09099632:32:32:32:32:3 16dBm  Nov 17, 201801:28:10.56435700 7
           154  15.13871932:32:32:32:32:3 15dBm  Nov 17, 201801:28:10.61208000 7
           155  15.16851632:32:32:32:32:3 17dBm  Nov 17, 201801:28:10.64187700 7
           156  15.41702932:32:32:32:32:3 18dBm  Nov 17, 201801:28:10.89039000 7
           157  15.47422932:32:32:32:32:3 17dBm  Nov 17, 201801:28:10.94759000 7
           158  15.61948232:32:32:32:32:3 16dBm  Nov 17, 201801:28:11.09284300 7
           159  15.80380632:32:32:32:32:3 16dBm  Nov 17, 201801:28:11.27716700 7
           160  16.11618632:32:32:32:32:3 17dBm  Nov 17, 201801:28:11.58954700 7
           161  16.16908332:32:32:32:32:3 17dBm  Nov 17, 201801:28:11.64244400 7
           162  16.17356732:32:32:32:32:3 17dBm  Nov 17, 201801:28:11.64692800 7
           163  16.38159832:32:32:32:32:3 17dBm  Nov 17, 201801:28:11.85495900 7
           164  16.44746132:32:32:32:32:3 16dBm  Nov 17, 201801:28:11.92082200 7
           165  16.65621932:32:32:32:32:3 18dBm  Nov 17, 201801:28:12.12958000 7
           166  16.67463432:32:32:32:32:3 17dBm  Nov 17, 201801:28:12.14799500 7
           167  16.88139932:32:32:32:32:3 17dBm  Nov 17, 201801:28:12.35476000 7
           168  16.89148332:32:32:32:32:3 17dBm  Nov 17, 201801:28:12.36484400 7
           169  16.92914332:32:32:32:32:3 16dBm  Nov 17, 201801:28:12.40250400 7
           170  17.06067432:32:32:32:32:3 17dBm  Nov 17, 201801:28:12.53403500 7
           171  17.08630432:32:32:32:32:3 16dBm  Nov 17, 201801:28:12.55966500 7
           172  17.10364932:32:32:32:32:3 16dBm  Nov 17, 201801:28:12.57701000 7
           173  17.12606232:32:32:32:32:3 17dBm  Nov 17, 201801:28:12.59942300 7
           174  17.15876232:32:32:32:32:3 18dBm  Nov 17, 201801:28:12.63212300 7
           175  17.49777732:32:32:32:32:3 17dBm  Nov 17, 201801:28:12.97113800 7
           176  17.64154232:32:32:32:32:3 15dBm  Nov 17, 201801:28:13.11490300 7
           177  17.66673932:32:32:32:32:3 17dBm  Nov 17, 201801:28:13.14010000 7
           178  17.74575332:32:32:32:32:3 19dBm  Nov 17, 201801:28:13.21911400 7
           179  18.05010732:32:32:32:32:3 17dBm  Nov 17, 201801:28:13.52346800 7
           180  1 8.0649932:32:32:32:32:3 15dBm  Nov 17, 201801:28:13.53835100 7
           181  18.11412132:32:32:32:32:3 15dBm  Nov 17, 201801:28:13.58748200 7
           182  18.13226532:32:32:32:32:3 17dBm  Nov 17, 201801:28:13.60562600 7
           183  18.25650432:32:32:32:32:3 16dBm  Nov 17, 201801:28:13.72986500 7
           184  18.37904232:32:32:32:32:3 18dBm  Nov 17, 201801:28:13.85240300 7
           185  18.43865732:32:32:32:32:3 15dBm  Nov 17, 201801:28:13.91201800 7
           186  1 8.4934132:32:32:32:32:3 17dBm  Nov 17, 201801:28:13.96677100 7
           187  18.66114832:32:32:32:32:3 19dBm  Nov 17, 201801:28:14.13450900 7
           188  18.75036332:32:32:32:32:3 18dBm  Nov 17, 201801:28:14.22372400 7
           189  18.76820332:32:32:32:32:3 15dBm  Nov 17, 201801:28:14.24156400 7
           190  18.78961832:32:32:32:32:3 18dBm  Nov 17, 201801:28:14.26297900 7
           191  19.14659332:32:32:32:32:3 18dBm  Nov 17, 201801:28:14.61995400 7
           192  19.19129732:32:32:32:32:3 18dBm  Nov 17, 201801:28:14.66465800 7
           193  19.24607932:32:32:32:32:3 18dBm  Nov 17, 201801:28:14.71944000 7
           194  19.39858632:32:32:32:32:3 17dBm  Nov 17, 201801:28:14.87194700 7
           195  1 9.4561232:32:32:32:32:3 17dBm  Nov 17, 201801:28:14.92948100 7
           196  19.47213432:32:32:32:32:3 16dBm  Nov 17, 201801:28:14.94549500 7
           197  19.53359932:32:32:32:32:3 17dBm  Nov 17, 201801:28:15.00696000 7
           198  19.57865532:32:32:32:32:3 17dBm  Nov 17, 201801:28:15.05201600 7
           199  19.91628232:32:32:32:32:3 16dBm  Nov 17, 201801:28:15.38964300 7
           200  19.95229132:32:32:32:32:3 16dBm  Nov 17, 201801:28:15.42565200 7
           201  20.33722832:32:32:32:32:3 17dBm  Nov 17, 201801:28:15.81058900 7
           202  2 0.4619832:32:32:32:32:3 15dBm  Nov 17, 201801:28:15.93534100 7
           203  20.48256532:32:32:32:32:3 18dBm  Nov 17, 201801:28:15.95592600 7
           204  20.62561132:32:32:32:32:3 17dBm  Nov 17, 201801:28:16.09897200 7
           205  20.64933332:32:32:32:32:3 17dBm  Nov 17, 201801:28:16.12269400 7
           206  20.68062732:32:32:32:32:3 18dBm  Nov 17, 201801:28:16.15398800 7
           207  20.78189532:32:32:32:32:3 18dBm  Nov 17, 201801:28:16.25525600 7
           208  20.89267432:32:32:32:32:3 16dBm  Nov 17, 201801:28:16.36603500 7
           209  20.93920632:32:32:32:32:3 17dBm  Nov 17, 201801:28:16.41256700 7
           210  21.18173632:32:32:32:32:3 16dBm  Nov 17, 201801:28:16.65509700 7
           211  21.62711832:32:32:32:32:3 17dBm  Nov 17, 201801:28:17.10047900 7
           212  21.85295232:32:32:32:32:3 18dBm  Nov 17, 201801:28:17.32631300 7
           213  21.89255732:32:32:32:32:3 16dBm  Nov 17, 201801:28:17.36591800 7
           214  22.32657332:32:32:32:32:3 15dBm  Nov 17, 201801:28:17.79993400 7
           215  22.59343432:32:32:32:32:3 16dBm  Nov 17, 201801:28:18.06679500 7
           216  22.60324432:32:32:32:32:3 16dBm  Nov 17, 201801:28:18.07660500 7
           217  22.62854632:32:32:32:32:3 18dBm  Nov 17, 201801:28:18.10190700 7
           218  22.69867232:32:32:32:32:3 15dBm  Nov 17, 201801:28:18.17203300 7
           219  22.73286332:32:32:32:32:3 17dBm  Nov 17, 201801:28:18.20622400 7
           220  22.78149332:32:32:32:32:3 18dBm  Nov 17, 201801:28:18.25485400 7
           221  2 2.8830732:32:32:32:32:3 17dBm  Nov 17, 201801:28:18.35643100 7
           222  23.02853532:32:32:32:32:3 16dBm  Nov 17, 201801:28:18.50189600 7
           223  23.11181832:32:32:32:32:3 16dBm  Nov 17, 201801:28:18.58517900 7
           224  23.14668532:32:32:32:32:3 17dBm  Nov 17, 201801:28:18.62004600 7
           225  23.17474532:32:32:32:32:3 16dBm  Nov 17, 201801:28:18.64810600 7
           226  23.19236932:32:32:32:32:3 15dBm  Nov 17, 201801:28:18.66573000 7
           227  23.46646432:32:32:32:32:3 17dBm  Nov 17, 201801:28:18.93982500 7
           228  23.53359532:32:32:32:32:3 16dBm  Nov 17, 201801:28:19.00695600 7
           229  23.66095132:32:32:32:32:3 18dBm  Nov 17, 201801:28:19.13431200 7
           230  23.72428832:32:32:32:32:3 15dBm  Nov 17, 201801:28:19.19764900 7
           231  23.88295132:32:32:32:32:3 18dBm  Nov 17, 201801:28:19.35631200 7
           232  23.89707432:32:32:32:32:3 17dBm  Nov 17, 201801:28:19.37043500 7
           233  24.04039632:32:32:32:32:3 17dBm  Nov 17, 201801:28:19.51375700 7
           234  24.09375932:32:32:32:32:3 17dBm  Nov 17, 201801:28:19.56712000 7
           235  24.39782532:32:32:32:32:3 17dBm  Nov 17, 201801:28:19.87118600 7
           236  2 4.5669732:32:32:32:32:3 16dBm  Nov 17, 201801:28:20.04033100 7
           237  24.62890632:32:32:32:32:3 16dBm  Nov 17, 201801:28:20.10226700 7
           238  24.68517132:32:32:32:32:3 17dBm  Nov 17, 201801:28:20.15853200 7
           239  24.70831132:32:32:32:32:3 17dBm  Nov 17, 201801:28:20.18167200 7
           240  24.77989232:32:32:32:32:3 17dBm  Nov 17, 201801:28:20.25325300 7
           241  24.80344232:32:32:32:32:3 18dBm  Nov 17, 201801:28:20.27680300 7
           242  2 4.8320932:32:32:32:32:3 17dBm  Nov 17, 201801:28:20.30545100 7
           243  24.86413132:32:32:32:32:3 16dBm  Nov 17, 201801:28:20.33749200 7
           244  25.09068732:32:32:32:32:3 16dBm  Nov 17, 201801:28:20.56404800 7
           245  25.12532532:32:32:32:32:3 18dBm  Nov 17, 201801:28:20.59868600 7
           246  25.24417432:32:32:32:32:3 16dBm  Nov 17, 201801:28:20.71753500 7
           247  25.42717632:32:32:32:32:3 16dBm  Nov 17, 201801:28:20.90053700 7
           248  25.47199132:32:32:32:32:3 17dBm  Nov 17, 201801:28:20.94535200 7
           249  25.52536132:32:32:32:32:3 16dBm  Nov 17, 201801:28:20.99872200 7
           250  25.75137432:32:32:32:32:3 17dBm  Nov 17, 201801:28:21.22473500 7
           251  25.90626132:32:32:32:32:3 18dBm  Nov 17, 201801:28:21.37962200 7
           252  25.95400932:32:32:32:32:3 16dBm  Nov 17, 201801:28:21.42737000 7
           253  25.96955532:32:32:32:32:3 17dBm  Nov 17, 201801:28:21.44291600 7
           254  2 6.0101632:32:32:32:32:3 17dBm  Nov 17, 201801:28:21.48352100 7
           255  26.04537232:32:32:32:32:3 17dBm  Nov 17, 201801:28:21.51873300 7
           256  26.09952932:32:32:32:32:3 18dBm  Nov 17, 201801:28:21.57289000 7
           257  2 6.2152232:32:32:32:32:3 16dBm  Nov 17, 201801:28:21.68858100 7
           258  2 6.2723932:32:32:32:32:3 17dBm  Nov 17, 201801:28:21.74575100 7
           259  26.30988132:32:32:32:32:3 18dBm  Nov 17, 201801:28:21.78324200 7
           260  26.32575932:32:32:32:32:3 15dBm  Nov 17, 201801:28:21.79912000 7
           261  26.63605232:32:32:32:32:3 17dBm  Nov 17, 201801:28:22.10941300 7
           262  26.90853732:32:32:32:32:3 18dBm  Nov 17, 201801:28:22.38189800 7
           263  26.99633632:32:32:32:32:3 17dBm  Nov 17, 201801:28:22.46969700 7
           264  27.00828732:32:32:32:32:3 15dBm  Nov 17, 201801:28:22.48164800 7
           265  27.02828932:32:32:32:32:3 18dBm  Nov 17, 201801:28:22.50165000 7
           266  27.11340832:32:32:32:32:3 16dBm  Nov 17, 201801:28:22.58676900 7
           267  27.19017532:32:32:32:32:3 17dBm  Nov 17, 201801:28:22.66353600 7
           268  27.55771732:32:32:32:32:3 17dBm  Nov 17, 201801:28:23.03107800 7
           269  27.85914632:32:32:32:32:3 16dBm  Nov 17, 201801:28:23.33250700 7
           270  27.87815632:32:32:32:32:3 18dBm  Nov 17, 201801:28:23.35151700 7
           271  2 7.9706932:32:32:32:32:3 15dBm  Nov 17, 201801:28:23.44405100 7
           272  28.09481232:32:32:32:32:3 17dBm  Nov 17, 201801:28:23.56817300 7
           273  28.11489832:32:32:32:32:3 17dBm  Nov 17, 201801:28:23.58825900 7
           274  28.18221232:32:32:32:32:3 16dBm  Nov 17, 201801:28:23.65557300 7
           275  28.24441332:32:32:32:32:3 18dBm  Nov 17, 201801:28:23.71777400 7
           276  28.31049832:32:32:32:32:3 17dBm  Nov 17, 201801:28:23.78385900 7
           277  28.55817332:32:32:32:32:3 16dBm  Nov 17, 201801:28:24.03153400 7
           278  28.58161532:32:32:32:32:3 15dBm  Nov 17, 201801:28:24.05497600 7
           279  28.74697732:32:32:32:32:3 16dBm  Nov 17, 201801:28:24.22033800 7
           280  28.92409932:32:32:32:32:3 15dBm  Nov 17, 201801:28:24.39746000 7
           281  28.97091532:32:32:32:32:3 17dBm  Nov 17, 201801:28:24.44427600 7
           282  29.01767632:32:32:32:32:3 17dBm  Nov 17, 201801:28:24.49103700 7
           283  29.03582832:32:32:32:32:3 17dBm  Nov 17, 201801:28:24.50918900 7
           284  29.24211332:32:32:32:32:3 16dBm  Nov 17, 201801:28:24.71547400 7
           285  29.28677432:32:32:32:32:3 15dBm  Nov 17, 201801:28:24.76013500 7
           286  29.29313832:32:32:32:32:3 17dBm  Nov 17, 201801:28:24.76649900 7
           287  29.36466632:32:32:32:32:3 17dBm  Nov 17, 201801:28:24.83802700 7
           288  29.45762632:32:32:32:32:3 14dBm  Nov 17, 201801:28:24.93098700 7
           289  29.50066632:32:32:32:32:3 16dBm  Nov 17, 201801:28:24.97402700 7
           290  29.56531432:32:32:32:32:3 18dBm  Nov 17, 201801:28:25.03867500 7
           291  2 9.5931132:32:32:32:32:3 17dBm  Nov 17, 201801:28:25.06647100 7
           292  29.61190632:32:32:32:32:3 19dBm  Nov 17, 201801:28:25.08526700 7
           293  29.66838532:32:32:32:32:3 18dBm  Nov 17, 201801:28:25.14174600 7
           294  2 9.7733232:32:32:32:32:3 18dBm  Nov 17, 201801:28:25.24668100 7
           295  29.95769332:32:32:32:32:3 17dBm  Nov 17, 201801:28:25.43105400 7
           296  30.00582532:32:32:32:32:3 15dBm  Nov 17, 201801:28:25.47918600 7
           297  30.20380832:32:32:32:32:3 16dBm  Nov 17, 201801:28:25.67716900 7
           298  30.21814832:32:32:32:32:3 16dBm  Nov 17, 201801:28:25.69150900 7
           299  30.34275432:32:32:32:32:3 16dBm  Nov 17, 201801:28:25.81611500 7
           300  31.11689232:32:32:32:32:3 18dBm  Nov 17, 201801:28:26.59025300 7
           301  31.15027732:32:32:32:32:3 16dBm  Nov 17, 201801:28:26.62363800 7
           302  31.16870732:32:32:32:32:3 16dBm  Nov 17, 201801:28:26.64206800 7
           303  31.21365232:32:32:32:32:3 17dBm  Nov 17, 201801:28:26.68701300 7
           304  31.29090132:32:32:32:32:3 16dBm  Nov 17, 201801:28:26.76426200 7
           305  31.47609832:32:32:32:32:3 17dBm  Nov 17, 201801:28:26.94945900 7
           306  31.63654432:32:32:32:32:3 17dBm  Nov 17, 201801:28:27.10990500 7
           307  3 1.6638632:32:32:32:32:3 15dBm  Nov 17, 201801:28:27.13722100 7
           308  3 1.7904232:32:32:32:32:3 12dBm  Nov 17, 201801:28:27.26378100 7
           309  31.92050232:32:32:32:32:3 17dBm  Nov 17, 201801:28:27.39386300 7
           310  3   2.06732:32:32:32:32:3 18dBm  Nov 17, 201801:28:27.54036100 7
           311  32.08845132:32:32:32:32:3 18dBm  Nov 17, 201801:28:27.56181200 7
           312  32.10228432:32:32:32:32:3 16dBm  Nov 17, 201801:28:27.57564500 7
           313  32.15854232:32:32:32:32:3 17dBm  Nov 17, 201801:28:27.63190300 7
           314  32.18026632:32:32:32:32:3 17dBm  Nov 17, 201801:28:27.65362700 7
           315  32.19671632:32:32:32:32:3 17dBm  Nov 17, 201801:28:27.67007700 7
           316  32.28688332:32:32:32:32:3 17dBm  Nov 17, 201801:28:27.76024400 7
           317  32.31579432:32:32:32:32:3 17dBm  Nov 17, 201801:28:27.78915500 7
           318  32.33441332:32:32:32:32:3 17dBm  Nov 17, 201801:28:27.80777400 7
           319  32.47434732:32:32:32:32:3 17dBm  Nov 17, 201801:28:27.94770800 7
           320  32.49110432:32:32:32:32:3 17dBm  Nov 17, 201801:28:27.96446500 7
           321  32.52889432:32:32:32:32:3 17dBm  Nov 17, 201801:28:28.00225500 7
           322  32.72695132:32:32:32:32:3 17dBm  Nov 17, 201801:28:28.20031200 7
           323  32.74835532:32:32:32:32:3 17dBm  Nov 17, 201801:28:28.22171600 7
           324  33.19036932:32:32:32:32:3 17dBm  Nov 17, 201801:28:28.66373000 7
           325  33.65979232:32:32:32:32:3 17dBm  Nov 17, 201801:28:29.13315300 7
           326  33.68324132:32:32:32:32:3 17dBm  Nov 17, 201801:28:29.15660200 7
           327  33.72430132:32:32:32:32:3 17dBm  Nov 17, 201801:28:29.19766200 7
           328  33.84753432:32:32:32:32:3 16dBm  Nov 17, 201801:28:29.32089500 7
           329  33.95554832:32:32:32:32:3 16dBm  Nov 17, 201801:28:29.42890900 7
           330  34.00992732:32:32:32:32:3 16dBm  Nov 17, 201801:28:29.48328800 7
           331  34.19043632:32:32:32:32:3 17dBm  Nov 17, 201801:28:29.66379700 7
           332  34.39298832:32:32:32:32:3 17dBm  Nov 17, 201801:28:29.86634900 7
           333  34.42995932:32:32:32:32:3 18dBm  Nov 17, 201801:28:29.90332000 7
           334  34.52001232:32:32:32:32:3 16dBm  Nov 17, 201801:28:29.99337300 7
           335  34.54126332:32:32:32:32:3 15dBm  Nov 17, 201801:28:30.01462400 7
           336  34.65044132:32:32:32:32:3 17dBm  Nov 17, 201801:28:30.12380200 7
           337  34.66052232:32:32:32:32:3 17dBm  Nov 17, 201801:28:30.13388300 7
           338  3 4.6966932:32:32:32:32:3 15dBm  Nov 17, 201801:28:30.17005100 7
           339  34.78716132:32:32:32:32:3 18dBm  Nov 17, 201801:28:30.26052200 7
           340  34.85038332:32:32:32:32:3 14dBm  Nov 17, 201801:28:30.32374400 7
           341  35.02974932:32:32:32:32:3 18dBm  Nov 17, 201801:28:30.50311000 7
           342  35.10206832:32:32:32:32:3 17dBm  Nov 17, 201801:28:30.57542900 7
           343  35.20658532:32:32:32:32:3 17dBm  Nov 17, 201801:28:30.67994600 7
           344  3 5.2864432:32:32:32:32:3 16dBm  Nov 17, 201801:28:30.75980100 7
           345  35.32598132:32:32:32:32:3 14dBm  Nov 17, 201801:28:30.79934200 7
           346  35.52061132:32:32:32:32:3 17dBm  Nov 17, 201801:28:30.99397200 7
           347  35.56075832:32:32:32:32:3 17dBm  Nov 17, 201801:28:31.03411900 7
           348  3 5.5632132:32:32:32:32:3 16dBm  Nov 17, 201801:28:31.03657100 7
           349  35.77133832:32:32:32:32:3 18dBm  Nov 17, 201801:28:31.24469900 7
           350  35.81352232:32:32:32:32:3 17dBm  Nov 17, 201801:28:31.28688300 7
           351  3 5.8403632:32:32:32:32:3 15dBm  Nov 17, 201801:28:31.31372100 7
           352  3 5.8532332:32:32:32:32:3 16dBm  Nov 17, 201801:28:31.32659100 7
           353  35.92550432:32:32:32:32:3 16dBm  Nov 17, 201801:28:31.39886500 7
           354  35.98849632:32:32:32:32:3 15dBm  Nov 17, 201801:28:31.46185700 7
           355  36.02856732:32:32:32:32:3 17dBm  Nov 17, 201801:28:31.50192800 7
           356  36.05121632:32:32:32:32:3 17dBm  Nov 17, 201801:28:31.52457700 7
           357  36.16789632:32:32:32:32:3 17dBm  Nov 17, 201801:28:31.64125700 7
           358  36.18736132:32:32:32:32:3 18dBm  Nov 17, 201801:28:31.66072200 7
           359  3  6.200332:32:32:32:32:3 16dBm  Nov 17, 201801:28:31.67366100 7
           360  36.54280832:32:32:32:32:3 17dBm  Nov 17, 201801:28:32.01616900 7
           361  36.62294232:32:32:32:32:3 17dBm  Nov 17, 201801:28:32.09630300 7
           362  36.66624332:32:32:32:32:3 16dBm  Nov 17, 201801:28:32.13960400 7
           363  36.89557832:32:32:32:32:3 17dBm  Nov 17, 201801:28:32.36893900 7
           364  36.94963432:32:32:32:32:3 17dBm  Nov 17, 201801:28:32.42299500 7
           365  37.17998732:32:32:32:32:3 16dBm  Nov 17, 201801:28:32.65334800 7
           366  37.21429232:32:32:32:32:3 17dBm  Nov 17, 201801:28:32.68765300 7
           367  37.22443332:32:32:32:32:3 16dBm  Nov 17, 201801:28:32.69779400 7
           368  37.25141632:32:32:32:32:3 18dBm  Nov 17, 201801:28:32.72477700 7
           369  37.28475832:32:32:32:32:3 16dBm  Nov 17, 201801:28:32.75811900 7
           370  37.36699432:32:32:32:32:3 15dBm  Nov 17, 201801:28:32.84035500 7
           371  37.43718832:32:32:32:32:3 17dBm  Nov 17, 201801:28:32.91054900 7
           372  37.55964232:32:32:32:32:3 18dBm  Nov 17, 201801:28:33.03300300 7
           373  37.63413632:32:32:32:32:3 17dBm  Nov 17, 201801:28:33.10749700 7
           374  37.67153332:32:32:32:32:3 17dBm  Nov 17, 201801:28:33.14489400 7
           375  37.71057732:32:32:32:32:3 17dBm  Nov 17, 201801:28:33.18393800 7
           376  38.06631532:32:32:32:32:3 18dBm  Nov 17, 201801:28:33.53967600 7
           377  38.15650632:32:32:32:32:3 18dBm  Nov 17, 201801:28:33.62986700 7
           378  3 8.3610232:32:32:32:32:3 18dBm  Nov 17, 201801:28:33.83438100 7
           379  38.44146232:32:32:32:32:3 17dBm  Nov 17, 201801:28:33.91482300 7
           380  38.51803532:32:32:32:32:3 17dBm  Nov 17, 201801:28:33.99139600 7
           381  38.69768932:32:32:32:32:3 18dBm  Nov 17, 201801:28:34.17105000 7
           382  38.97510632:32:32:32:32:3 18dBm  Nov 17, 201801:28:34.44846700 7
           383  39.01186832:32:32:32:32:3 16dBm  Nov 17, 201801:28:34.48522900 7
           384  39.19482532:32:32:32:32:3 17dBm  Nov 17, 201801:28:34.66818600 7
           385  39.23195832:32:32:32:32:3 17dBm  Nov 17, 201801:28:34.70531900 7
           386  39.25446632:32:32:32:32:3 18dBm  Nov 17, 201801:28:34.72782700 7
           387  39.32506932:32:32:32:32:3 15dBm  Nov 17, 201801:28:34.79843000 7
           388  3 9.4281132:32:32:32:32:3 16dBm  Nov 17, 201801:28:34.90147100 7
           389  39.46657232:32:32:32:32:3 16dBm  Nov 17, 201801:28:34.93993300 7
           390  39.48306632:32:32:32:32:3 17dBm  Nov 17, 201801:28:34.95642700 7
           391  39.54352832:32:32:32:32:3 16dBm  Nov 17, 201801:28:35.01688900 7
           392  39.59679232:32:32:32:32:3 15dBm  Nov 17, 201801:28:35.07015300 7
           393  39.68240432:32:32:32:32:3 17dBm  Nov 17, 201801:28:35.15576500 7
           394  39.76655832:32:32:32:32:3 15dBm  Nov 17, 201801:28:35.23991900 7
           395  39.79295732:32:32:32:32:3 17dBm  Nov 17, 201801:28:35.26631800 7
           396  40.01018532:32:32:32:32:3 17dBm  Nov 17, 201801:28:35.48354600 7
           397  40.03275732:32:32:32:32:3 18dBm  Nov 17, 201801:28:35.50611800 7
           398  40.17507432:32:32:32:32:3 16dBm  Nov 17, 201801:28:35.64843500 7
           399  4 0.2236732:32:32:32:32:3 15dBm  Nov 17, 201801:28:35.69703100 7
           400  40.25101332:32:32:32:32:3 18dBm  Nov 17, 201801:28:35.72437400 7
           401  40.28439932:32:32:32:32:3 17dBm  Nov 17, 201801:28:35.75776000 7
           402  4 0.3866232:32:32:32:32:3 18dBm  Nov 17, 201801:28:35.85998100 7
           403  40.40984232:32:32:32:32:3 17dBm  Nov 17, 201801:28:35.88320300 7
           404  4 0.4265232:32:32:32:32:3 18dBm  Nov 17, 201801:28:35.89988100 7
           405  40.63341932:32:32:32:32:3 17dBm  Nov 17, 201801:28:36.10678000 7
           406  40.72290132:32:32:32:32:3 17dBm  Nov 17, 201801:28:36.19626200 7
           407  4  0.782232:32:32:32:32:3 17dBm  Nov 17, 201801:28:36.25556100 7
           408  40.98739632:32:32:32:32:3 16dBm  Nov 17, 201801:28:36.46075700 7
           409  41.06900932:32:32:32:32:3 17dBm  Nov 17, 201801:28:36.54237000 7
           410  41.26410332:32:32:32:32:3 17dBm  Nov 17, 201801:28:36.73746400 7
           411  41.42402132:32:32:32:32:3 15dBm  Nov 17, 201801:28:36.89738200 7
           412  41.44844732:32:32:32:32:3 17dBm  Nov 17, 201801:28:36.92180800 7
           413  41.52721532:32:32:32:32:3 17dBm  Nov 17, 201801:28:37.00057600 7
           414  41.56634132:32:32:32:32:3 18dBm  Nov 17, 201801:28:37.03970200 7
           415  4 1.7173732:32:32:32:32:3 15dBm  Nov 17, 201801:28:37.19073100 7
           416  41.76046532:32:32:32:32:3 17dBm  Nov 17, 201801:28:37.23382600 7
           417  41.79308232:32:32:32:32:3 17dBm  Nov 17, 201801:28:37.26644300 7
           418  42.22230932:32:32:32:32:3 15dBm  Nov 17, 201801:28:37.69567000 7
           419  42.34542832:32:32:32:32:3 17dBm  Nov 17, 201801:28:37.81878900 7
           420  42.39945732:32:32:32:32:3 18dBm  Nov 17, 201801:28:37.87281800 7
           421  42.44128132:32:32:32:32:3 14dBm  Nov 17, 201801:28:37.91464200 7
           422  42.52004432:32:32:32:32:3 17dBm  Nov 17, 201801:28:37.99340500 7
           423  42.57164732:32:32:32:32:3 17dBm  Nov 17, 201801:28:38.04500800 7
           424  42.78593432:32:32:32:32:3 16dBm  Nov 17, 201801:28:38.25929500 7
           425  42.84096632:32:32:32:32:3 14dBm  Nov 17, 201801:28:38.31432700 7
           426  42.86498832:32:32:32:32:3 15dBm  Nov 17, 201801:28:38.33834900 7
           427  42.92269232:32:32:32:32:3 16dBm  Nov 17, 201801:28:38.39605300 7
           428  42.94766532:32:32:32:32:3 16dBm  Nov 17, 201801:28:38.42102600 7
           429  42.96569432:32:32:32:32:3 17dBm  Nov 17, 201801:28:38.43905500 7
           430  43.05822832:32:32:32:32:3 17dBm  Nov 17, 201801:28:38.53158900 7
           431  43.28794932:32:32:32:32:3 17dBm  Nov 17, 201801:28:38.76131000 7
           432  43.40886732:32:32:32:32:3 16dBm  Nov 17, 201801:28:38.88222800 7
           433  43.82981632:32:32:32:32:3 16dBm  Nov 17, 201801:28:39.30317700 7
           434  43.89455932:32:32:32:32:3 17dBm  Nov 17, 201801:28:39.36792000 7
           435  43.98140932:32:32:32:32:3 16dBm  Nov 17, 201801:28:39.45477000 7
           436  44.42956532:32:32:32:32:3 17dBm  Nov 17, 201801:28:39.90292600 7
           437  44.45577332:32:32:32:32:3 15dBm  Nov 17, 201801:28:39.92913400 7
           438  44.71800332:32:32:32:32:3 16dBm  Nov 17, 201801:28:40.19136400 7
           439  44.77899732:32:32:32:32:3 17dBm  Nov 17, 201801:28:40.25235800 7
           440  44.81610832:32:32:32:32:3 16dBm  Nov 17, 201801:28:40.28946900 7
           441  4 4.9498532:32:32:32:32:3 18dBm  Nov 17, 201801:28:40.42321100 7
           442  44.98256932:32:32:32:32:3 17dBm  Nov 17, 201801:28:40.45593000 7
           443  45.24104332:32:32:32:32:3 16dBm  Nov 17, 201801:28:40.71440400 7
           444  45.25749132:32:32:32:32:3 16dBm  Nov 17, 201801:28:40.73085200 7
           445  45.36173832:32:32:32:32:3 16dBm  Nov 17, 201801:28:40.83509900 7
           446  45.41136132:32:32:32:32:3 16dBm  Nov 17, 201801:28:40.88472200 7
           447  45.60951232:32:32:32:32:3 16dBm  Nov 17, 201801:28:41.08287300 7
           448  45.69013432:32:32:32:32:3 17dBm  Nov 17, 201801:28:41.16349500 7
           449  45.73544632:32:32:32:32:3 16dBm  Nov 17, 201801:28:41.20880700 7
           450  45.84725632:32:32:32:32:3 16dBm  Nov 17, 201801:28:41.32061700 7
           451  45.87097632:32:32:32:32:3 18dBm  Nov 17, 201801:28:41.34433700 7
           452  45.89788932:32:32:32:32:3 17dBm  Nov 17, 201801:28:41.37125000 7
           453  45.95836832:32:32:32:32:3 16dBm  Nov 17, 201801:28:41.43172900 7
           454  46.29071132:32:32:32:32:3 13dBm  Nov 17, 201801:28:41.76407200 7
           455  46.31681332:32:32:32:32:3 17dBm  Nov 17, 201801:28:41.79017400 7
           456  46.35375232:32:32:32:32:3 15dBm  Nov 17, 201801:28:41.82711300 7
           457  46.41444332:32:32:32:32:3 17dBm  Nov 17, 201801:28:41.88780400 7
           458  46.50969732:32:32:32:32:3 16dBm  Nov 17, 201801:28:41.98305800 7
           459  46.73610932:32:32:32:32:3 17dBm  Nov 17, 201801:28:42.20947000 7
           460  46.80242232:32:32:32:32:3 18dBm  Nov 17, 201801:28:42.27578300 7
           461  46.96108432:32:32:32:32:3 15dBm  Nov 17, 201801:28:42.43444500 7
           462  46.98618632:32:32:32:32:3 16dBm  Nov 17, 201801:28:42.45954700 7
           463  47.07009732:32:32:32:32:3 14dBm  Nov 17, 201801:28:42.54345800 7
           464  47.14911532:32:32:32:32:3 16dBm  Nov 17, 201801:28:42.62247600 7
