                1       032:32:32:32:32:3 4dBm N  ov 17, 2018 0 1:58:40.305591000  7          0
                20.03398932:32:32:32:32:3 3dBm N  ov 17, 2018 0 1:58:40.339580000  7          7
                30.30388432:32:32:32:32:3 3dBm N  ov 17, 2018 0 1:58:40.609475000  7        ###
                40.91395832:32:32:32:32:3 5dBm N  ov 17, 2018 0 1:58:41.219549000  7        ###
                51.37941132:32:32:32:32:3 3dBm N  ov 17, 2018 0 1:58:41.685002000  7        ###
                6 1.7049832:32:32:32:32:3 4dBm N  ov 17, 2018 0 1:58:42.010571000  7
                72.10777432:32:32:32:32:3 4dBm N  ov 17, 2018 0 1:58:42.413365000  7
                82.31789432:32:32:32:32:3 5dBm N  ov 17, 2018 0 1:58:42.623485000  7
                9  2.439632:32:32:32:32:3 4dBm N  ov 17, 2018 0 1:58:42.745191000  7
               103.25763432:32:32:32:32:3 5dBm N  ov 17, 2018 0 1:58:43.563225000  7
               113.46153632:32:32:32:32:3 6dBm N  ov 17, 2018 0 1:58:43.767127000  7
               123.57703332:32:32:32:32:3 4dBm N  ov 17, 2018 0 1:58:43.882624000  7
               133.61329432:32:32:32:32:3 6dBm N  ov 17, 2018 0 1:58:43.918885000  7
               144.08446532:32:32:32:32:3 5dBm N  ov 17, 2018 0 1:58:44.390056000  7
               154.17910332:32:32:32:32:3 6dBm N  ov 17, 2018 0 1:58:44.484694000  7
               164.44908432:32:32:32:32:3 6dBm N  ov 17, 2018 0 1:58:44.754675000  7
               174.56362332:32:32:32:32:3 2dBm N  ov 17, 2018 0 1:58:44.869214000  7
               185.53358132:32:32:32:32:3 5dBm N  ov 17, 2018 0 1:58:45.839172000  7
               195.68031732:32:32:32:32:3 5dBm N  ov 17, 2018 0 1:58:45.985908000  7
               205.69856232:32:32:32:32:3 6dBm N  ov 17, 2018 0 1:58:46.004153000  7
               215.79267732:32:32:32:32:3 5dBm N  ov 17, 2018 0 1:58:46.098268000  7
               225.84852832:32:32:32:32:3 6dBm N  ov 17, 2018 0 1:58:46.154119000  7
               236.64665732:32:32:32:32:3 5dBm N  ov 17, 2018 0 1:58:46.952248000  7
               247.84005932:32:32:32:32:3 4dBm N  ov 17, 2018 0 1:58:48.145650000  7
               258.59515532:32:32:32:32:3 3dBm N  ov 17, 2018 0 1:58:48.900746000  7
               268.86548932:32:32:32:32:3 5dBm N  ov 17, 2018 0 1:58:49.171080000  7
               279.07964332:32:32:32:32:3 5dBm N  ov 17, 2018 0 1:58:49.385234000  7
               289.09797932:32:32:32:32:3 4dBm N  ov 17, 2018 0 1:58:49.403570000  7
            29  10.12798132:32:32:32:32:3 4dBm N  ov 17, 2018 0 1:58:50.433572000  7
            30  1 3.6352832:32:32:32:32:3 3dBm N  ov 17, 2018 0 1:58:53.940871000  7
            31  13.79785232:32:32:32:32:3 6dBm N  ov 17, 2018 0 1:58:54.103443000  7
            32  13.81937332:32:32:32:32:3 5dBm N  ov 17, 2018 0 1:58:54.124964000  7
            33  14.46206732:32:32:32:32:3 5dBm N  ov 17, 2018 0 1:58:54.767658000  7
            34  14.49078232:32:32:32:32:3 3dBm N  ov 17, 2018 0 1:58:54.796373000  7
            35  14.53523232:32:32:32:32:3 5dBm N  ov 17, 2018 0 1:58:54.840823000  7
            36  14.92838732:32:32:32:32:3 5dBm N  ov 17, 2018 0 1:58:55.233978000  7
            37  14.97403732:32:32:32:32:3 6dBm N  ov 17, 2018 0 1:58:55.279628000  7
            38  14.97994832:32:32:32:32:3 5dBm N  ov 17, 2018 0 1:58:55.285539000  7
            39  15.20836932:32:32:32:32:3 5dBm N  ov 17, 2018 0 1:58:55.513960000  7
            40  15.33233732:32:32:32:32:3 5dBm N  ov 17, 2018 0 1:58:55.637928000  7
            41  15.43958132:32:32:32:32:3 6dBm N  ov 17, 2018 0 1:58:55.745172000  7
            42  16.26444132:32:32:32:32:3 6dBm N  ov 17, 2018 0 1:58:56.570032000  7
            43  17.25657632:32:32:32:32:3 2dBm N  ov 17, 2018 0 1:58:57.562167000  7
            44  18.60821732:32:32:32:32:3 5dBm N  ov 17, 2018 0 1:58:58.913808000  7
            45  18.98240632:32:32:32:32:3 6dBm N  ov 17, 2018 0 1:58:59.287997000  7
            46  19.29732232:32:32:32:32:3 5dBm N  ov 17, 2018 0 1:58:59.602913000  7
            47  26.59621432:32:32:32:32:3 5dBm N  ov 17, 2018 0 1:59:06.901805000  7
            48  27.07953132:32:32:32:32:3 5dBm N  ov 17, 2018 0 1:59:07.385122000  7
            49  27.70008232:32:32:32:32:3 4dBm N  ov 17, 2018 0 1:59:08.005673000  7
            50  2 8.0090732:32:32:32:32:3 4dBm N  ov 17, 2018 0 1:59:08.314661000  7
            51  28.02992932:32:32:32:32:3 5dBm N  ov 17, 2018 0 1:59:08.335520000  7
            52  2 9.3371432:32:32:32:32:3 4dBm N  ov 17, 2018 0 1:59:09.642731000  7
            53  29.42262232:32:32:32:32:3 5dBm N  ov 17, 2018 0 1:59:09.728213000  7
            54  2 9.6366932:32:32:32:32:3 5dBm N  ov 17, 2018 0 1:59:09.942281000  7
            55  29.68869832:32:32:32:32:3 5dBm N  ov 17, 2018 0 1:59:09.994289000  7
            56  29.97069532:32:32:32:32:3 5dBm N  ov 17, 2018 0 1:59:10.276286000  7
            57  30.03533432:32:32:32:32:3 6dBm N  ov 17, 2018 0 1:59:10.340925000  7
            58  30.09030532:32:32:32:32:3 4dBm N  ov 17, 2018 0 1:59:10.395896000  7
            59  31.22405332:32:32:32:32:3 3dBm N  ov 17, 2018 0 1:59:11.529644000  7
            60  31.61381232:32:32:32:32:3 4dBm N  ov 17, 2018 0 1:59:11.919403000  7
            61  31.84810632:32:32:32:32:3 2dBm N  ov 17, 2018 0 1:59:12.153697000  7
            62  32.31692132:32:32:32:32:3 5dBm N  ov 17, 2018 0 1:59:12.622512000  7
            63  32.70168832:32:32:32:32:3 5dBm N  ov 17, 2018 0 1:59:13.007279000  7
            64  3 2.8352932:32:32:32:32:3 2dBm N  ov 17, 2018 0 1:59:13.140881000  7
            65  33.16123832:32:32:32:32:3 5dBm N  ov 17, 2018 0 1:59:13.466829000  7
            66  34.31347132:32:32:32:32:3 0dBm N  ov 17, 2018 0 1:59:14.619062000  7
            67  34.74914732:32:32:32:32:3 3dBm N  ov 17, 2018 0 1:59:15.054738000  7
            68  34.76777432:32:32:32:32:3 4dBm N  ov 17, 2018 0 1:59:15.073365000  7
            69  35.87854432:32:32:32:32:3 6dBm N  ov 17, 2018 0 1:59:16.184135000  7
            70  3 5.9183832:32:32:32:32:3 3dBm N  ov 17, 2018 0 1:59:16.223971000  7
            71  36.04079232:32:32:32:32:3 5dBm N  ov 17, 2018 0 1:59:16.346383000  7
            72  36.49743732:32:32:32:32:3 5dBm N  ov 17, 2018 0 1:59:16.803028000  7
            73  37.27935832:32:32:32:32:3 5dBm N  ov 17, 2018 0 1:59:17.584949000  7
            74  37.35261132:32:32:32:32:3 4dBm N  ov 17, 2018 0 1:59:17.658202000  7
            75  37.43851232:32:32:32:32:3 5dBm N  ov 17, 2018 0 1:59:17.744103000  7
            76  37.53705632:32:32:32:32:3 5dBm N  ov 17, 2018 0 1:59:17.842647000  7
            77  3 7.6686332:32:32:32:32:3 5dBm N  ov 17, 2018 0 1:59:17.974221000  7
            78  37.77123732:32:32:32:32:3 3dBm N  ov 17, 2018 0 1:59:18.076828000  7
            79  38.20499732:32:32:32:32:3 5dBm N  ov 17, 2018 0 1:59:18.510588000  7
            80  38.76693232:32:32:32:32:3 6dBm N  ov 17, 2018 0 1:59:19.072523000  7
            81  39.01584432:32:32:32:32:3 6dBm N  ov 17, 2018 0 1:59:19.321435000  7
            82  39.36899132:32:32:32:32:3 4dBm N  ov 17, 2018 0 1:59:19.674582000  7
            83  39.58636532:32:32:32:32:3 5dBm N  ov 17, 2018 0 1:59:19.891956000  7
            84  39.70155532:32:32:32:32:3 5dBm N  ov 17, 2018 0 1:59:20.007146000  7
            85  39.78218432:32:32:32:32:3 4dBm N  ov 17, 2018 0 1:59:20.087775000  7
            86  3   9.80232:32:32:32:32:3 4dBm N  ov 17, 2018 0 1:59:20.107591000  7
            87  4 0.1508732:32:32:32:32:3 6dBm N  ov 17, 2018 0 1:59:20.456461000  7
            88  40.78169632:32:32:32:32:3 5dBm N  ov 17, 2018 0 1:59:21.087287000  7
            89  47.11699732:32:32:32:32:3 5dBm N  ov 17, 2018 0 1:59:27.422588000  7
            90  4 7.8797432:32:32:32:32:3 5dBm N  ov 17, 2018 0 1:59:28.185331000  7
            91  47.96528432:32:32:32:32:3 4dBm N  ov 17, 2018 0 1:59:28.270875000  7
            92  48.10992832:32:32:32:32:3 2dBm N  ov 17, 2018 0 1:59:28.415519000  7
            93  48.77737332:32:32:32:32:3 6dBm N  ov 17, 2018 0 1:59:29.082964000  7
            94  48.80251832:32:32:32:32:3 4dBm N  ov 17, 2018 0 1:59:29.108109000  7
            95  51.94089232:32:32:32:32:3 6dBm N  ov 17, 2018 0 1:59:32.246483000  7
            96  52.37807732:32:32:32:32:3 4dBm N  ov 17, 2018 0 1:59:32.683668000  7
            97  52.60403132:32:32:32:32:3 6dBm N  ov 17, 2018 0 1:59:32.909622000  7
            98  52.88229932:32:32:32:32:3 5dBm N  ov 17, 2018 0 1:59:33.187890000  7
            99  5 5.8247832:32:32:32:32:3 3dBm N  ov 17, 2018 0 1:59:36.130371000  7
           100  57.70929932:32:32:32:32:3 5dBm N  ov 17, 2018 0 1:59:38.014890000  7
           101  60.00625332:32:32:32:32:3 6dBm N  ov 17, 2018 0 1:59:40.311844000  7
           102  61.93427132:32:32:32:32:3 6dBm N  ov 17, 2018 0 1:59:42.239862000  7
           103  6 5.2860432:32:32:32:32:3 5dBm N  ov 17, 2018 0 1:59:45.591631000  7
           104  65.42617332:32:32:32:32:3 3dBm N  ov 17, 2018 0 1:59:45.731764000  7
           105  65.73090532:32:32:32:32:3 5dBm N  ov 17, 2018 0 1:59:46.036496000  7
           106  66.00150232:32:32:32:32:3 6dBm N  ov 17, 2018 0 1:59:46.307093000  7
           107  66.84620632:32:32:32:32:3 6dBm N  ov 17, 2018 0 1:59:47.151797000  7
           108  66.88012532:32:32:32:32:3 4dBm N  ov 17, 2018 0 1:59:47.185716000  7
           109  67.12711932:32:32:32:32:3 5dBm N  ov 17, 2018 0 1:59:47.432710000  7
           110  67.70960232:32:32:32:32:3 4dBm N  ov 17, 2018 0 1:59:48.015193000  7
           111  68.08186932:32:32:32:32:3 6dBm N  ov 17, 2018 0 1:59:48.387460000  7
           112  68.16897732:32:32:32:32:3 4dBm N  ov 17, 2018 0 1:59:48.474568000  7
           113  68.28030932:32:32:32:32:3 4dBm N  ov 17, 2018 0 1:59:48.585900000  7
           114  6 8.3504932:32:32:32:32:3 6dBm N  ov 17, 2018 0 1:59:48.656081000  7
           115  68.52947832:32:32:32:32:3 3dBm N  ov 17, 2018 0 1:59:48.835069000  7
           116  68.85785432:32:32:32:32:3 2dBm N  ov 17, 2018 0 1:59:49.163445000  7
           117  6 9.2450532:32:32:32:32:3 6dBm N  ov 17, 2018 0 1:59:49.550641000  7
           118  70.46757132:32:32:32:32:3 5dBm N  ov 17, 2018 0 1:59:50.773162000  7
           119  70.66883932:32:32:32:32:3 6dBm N  ov 17, 2018 0 1:59:50.974430000  7
           120  70.80440232:32:32:32:32:3 6dBm N  ov 17, 2018 0 1:59:51.109993000  7
           121  70.98481732:32:32:32:32:3 4dBm N  ov 17, 2018 0 1:59:51.290408000  7
           122  71.13755932:32:32:32:32:3 4dBm N  ov 17, 2018 0 1:59:51.443150000  7
           123  71.24262132:32:32:32:32:3 6dBm N  ov 17, 2018 0 1:59:51.548212000  7
           124  71.39155432:32:32:32:32:3 6dBm N  ov 17, 2018 0 1:59:51.697145000  7
           125  71.50814232:32:32:32:32:3 5dBm N  ov 17, 2018 0 1:59:51.813733000  7
           126  71.53528932:32:32:32:32:3 6dBm N  ov 17, 2018 0 1:59:51.840880000  7
           127  7 1.5734132:32:32:32:32:3 6dBm N  ov 17, 2018 0 1:59:51.879001000  7
           128  71.62738932:32:32:32:32:3 5dBm N  ov 17, 2018 0 1:59:51.932980000  7
           129  72.31750332:32:32:32:32:3 4dBm N  ov 17, 2018 0 1:59:52.623094000  7
           130  72.40186332:32:32:32:32:3 6dBm N  ov 17, 2018 0 1:59:52.707454000  7
           131  7 2.6458532:32:32:32:32:3 6dBm N  ov 17, 2018 0 1:59:52.951441000  7
           132  72.78057132:32:32:32:32:3 4dBm N  ov 17, 2018 0 1:59:53.086162000  7
           133  72.99800732:32:32:32:32:3 4dBm N  ov 17, 2018 0 1:59:53.303598000  7
           134  7 3.6412932:32:32:32:32:3 4dBm N  ov 17, 2018 0 1:59:53.946881000  7
           135  74.15917332:32:32:32:32:3 4dBm N  ov 17, 2018 0 1:59:54.464764000  7
           136  75.95381232:32:32:32:32:3 5dBm N  ov 17, 2018 0 1:59:56.259403000  7
           137  76.01179132:32:32:32:32:3 4dBm N  ov 17, 2018 0 1:59:56.317382000  7
           138  76.37330232:32:32:32:32:3 6dBm N  ov 17, 2018 0 1:59:56.678893000  7
           139  77.02051532:32:32:32:32:3 5dBm N  ov 17, 2018 0 1:59:57.326106000  7
           140  90.00472532:32:32:32:32:3 4dBm N  ov 17, 2018 0 2:00:10.310316000  7
           141  91.60178632:32:32:32:32:3 2dBm N  ov 17, 2018 0 2:00:11.907377000  7
           142  91.68425432:32:32:32:32:3 2dBm N  ov 17, 2018 0 2:00:11.989845000  7
           143  92.64334432:32:32:32:32:3 4dBm N  ov 17, 2018 0 2:00:12.948935000  7
           144  92.91095932:32:32:32:32:3 5dBm N  ov 17, 2018 0 2:00:13.216550000  7
           145  9 3.2699932:32:32:32:32:3 3dBm N  ov 17, 2018 0 2:00:13.575581000  7
           146  93.96911132:32:32:32:32:3 2dBm N  ov 17, 2018 0 2:00:14.274702000  7
           147  96.32559832:32:32:32:32:3 4dBm N  ov 17, 2018 0 2:00:16.631189000  7
           148  96.47197432:32:32:32:32:3 5dBm N  ov 17, 2018 0 2:00:16.777565000  7
           149  96.65153232:32:32:32:32:3 7dBm N  ov 17, 2018 0 2:00:16.957123000  7
           150  96.73352332:32:32:32:32:3 4dBm N  ov 17, 2018 0 2:00:17.039114000  7
           151  97.17337932:32:32:32:32:3 5dBm N  ov 17, 2018 0 2:00:17.478970000  7
           152 110.64559232:32:32:32:32:3 5dBm N  ov 17, 2018 0 2:00:30.951183000  7
           153 110.77689932:32:32:32:32:3 4dBm N  ov 17, 2018 0 2:00:31.082490000  7
           154 110.83515732:32:32:32:32:3 6dBm N  ov 17, 2018 0 2:00:31.140748000  7
           155 111.04077832:32:32:32:32:3 4dBm N  ov 17, 2018 0 2:00:31.346369000  7
           156 111.08596732:32:32:32:32:3 5dBm N  ov 17, 2018 0 2:00:31.391558000  7
           157 111.29372732:32:32:32:32:3 4dBm N  ov 17, 2018 0 2:00:31.599318000  7
           158 111.67818432:32:32:32:32:3 5dBm N  ov 17, 2018 0 2:00:31.983775000  7
           159 111.74407332:32:32:32:32:3 5dBm N  ov 17, 2018 0 2:00:32.049664000  7
           160 111.86289332:32:32:32:32:3 3dBm N  ov 17, 2018 0 2:00:32.168484000  7
           161 113.51704632:32:32:32:32:3 5dBm N  ov 17, 2018 0 2:00:33.822637000  7
           162 114.32296332:32:32:32:32:3 6dBm N  ov 17, 2018 0 2:00:34.628554000  7
           163 11 4.8398632:32:32:32:32:3 4dBm N  ov 17, 2018 0 2:00:35.145451000  7
           164 114.92025932:32:32:32:32:3 4dBm N  ov 17, 2018 0 2:00:35.225850000  7
           165 115.37745632:32:32:32:32:3 3dBm N  ov 17, 2018 0 2:00:35.683047000  7
           166 115.69065732:32:32:32:32:3 6dBm N  ov 17, 2018 0 2:00:35.996248000  7
           167 115.88421532:32:32:32:32:3 4dBm N  ov 17, 2018 0 2:00:36.189806000  7
           168 116.05290632:32:32:32:32:3 4dBm N  ov 17, 2018 0 2:00:36.358497000  7
           169 116.15467332:32:32:32:32:3 6dBm N  ov 17, 2018 0 2:00:36.460264000  7
           170 116.19301732:32:32:32:32:3 5dBm N  ov 17, 2018 0 2:00:36.498608000  7
           171 11 6.6246132:32:32:32:32:3 6dBm N  ov 17, 2018 0 2:00:36.930201000  7
           172 116.95251632:32:32:32:32:3 4dBm N  ov 17, 2018 0 2:00:37.258107000  7
           173 117.13922232:32:32:32:32:3 4dBm N  ov 17, 2018 0 2:00:37.444813000  7
           174 117.17042732:32:32:32:32:3 7dBm N  ov 17, 2018 0 2:00:37.476018000  7
           175 117.23873232:32:32:32:32:3 5dBm N  ov 17, 2018 0 2:00:37.544323000  7
           176 117.35625532:32:32:32:32:3 4dBm N  ov 17, 2018 0 2:00:37.661846000  7
           177 117.38973532:32:32:32:32:3 5dBm N  ov 17, 2018 0 2:00:37.695326000  7
           178 117.67930432:32:32:32:32:3 7dBm N  ov 17, 2018 0 2:00:37.984895000  7
           179 117.79586932:32:32:32:32:3 4dBm N  ov 17, 2018 0 2:00:38.101460000  7
           180 117.94105132:32:32:32:32:3 4dBm N  ov 17, 2018 0 2:00:38.246642000  7
           181 118.07450432:32:32:32:32:3 4dBm N  ov 17, 2018 0 2:00:38.380095000  7
           182 118.13221432:32:32:32:32:3 6dBm N  ov 17, 2018 0 2:00:38.437805000  7
           183 118.17127132:32:32:32:32:3 5dBm N  ov 17, 2018 0 2:00:38.476862000  7
           184 118.18917132:32:32:32:32:3 5dBm N  ov 17, 2018 0 2:00:38.494762000  7
           185 118.56652532:32:32:32:32:3 5dBm N  ov 17, 2018 0 2:00:38.872116000  7
           186 11 8.6404732:32:32:32:32:3 5dBm N  ov 17, 2018 0 2:00:38.946061000  7
           187 118.73046532:32:32:32:32:3 5dBm N  ov 17, 2018 0 2:00:39.036056000  7
           188 119.24507532:32:32:32:32:3 4dBm N  ov 17, 2018 0 2:00:39.550666000  7
           189 119.33327932:32:32:32:32:3 5dBm N  ov 17, 2018 0 2:00:39.638870000  7
           190 119.45863832:32:32:32:32:3 5dBm N  ov 17, 2018 0 2:00:39.764229000  7
           191 119.68958132:32:32:32:32:3 6dBm N  ov 17, 2018 0 2:00:39.995172000  7
           192 119.75753232:32:32:32:32:3 5dBm N  ov 17, 2018 0 2:00:40.063123000  7
           193 119.96760432:32:32:32:32:3 5dBm N  ov 17, 2018 0 2:00:40.273195000  7
           194 120.34930932:32:32:32:32:3 5dBm N  ov 17, 2018 0 2:00:40.654900000  7
           195 121.03848232:32:32:32:32:3 7dBm N  ov 17, 2018 0 2:00:41.344073000  7
           196 121.27337132:32:32:32:32:3 4dBm N  ov 17, 2018 0 2:00:41.578962000  7
           197 121.39682432:32:32:32:32:3 5dBm N  ov 17, 2018 0 2:00:41.702415000  7
           198 121.53589932:32:32:32:32:3 7dBm N  ov 17, 2018 0 2:00:41.841490000  7
           199 121.56749232:32:32:32:32:3 4dBm N  ov 17, 2018 0 2:00:41.873083000  7
           200 121.75443232:32:32:32:32:3 5dBm N  ov 17, 2018 0 2:00:42.060023000  7
           201 122.03943132:32:32:32:32:3 5dBm N  ov 17, 2018 0 2:00:42.345022000  7
           202 122.58225332:32:32:32:32:3 5dBm N  ov 17, 2018 0 2:00:42.887844000  7
           203 12 2.7046932:32:32:32:32:3 6dBm N  ov 17, 2018 0 2:00:43.010281000  7
           204 12 2.7328532:32:32:32:32:3 5dBm N  ov 17, 2018 0 2:00:43.038441000  7
           205 123.19763532:32:32:32:32:3 6dBm N  ov 17, 2018 0 2:00:43.503226000  7
           206 123.29397732:32:32:32:32:3 6dBm N  ov 17, 2018 0 2:00:43.599568000  7
           207 123.42255632:32:32:32:32:3 6dBm N  ov 17, 2018 0 2:00:43.728147000  7
           208 12 3.6892632:32:32:32:32:3 5dBm N  ov 17, 2018 0 2:00:43.994851000  7
           209 124.39337132:32:32:32:32:3 5dBm N  ov 17, 2018 0 2:00:44.698962000  7
           210 124.47369532:32:32:32:32:3 5dBm N  ov 17, 2018 0 2:00:44.779286000  7
           211 124.66713532:32:32:32:32:3 3dBm N  ov 17, 2018 0 2:00:44.972726000  7
           212 124.73247632:32:32:32:32:3 5dBm N  ov 17, 2018 0 2:00:45.038067000  7
           213 125.15545432:32:32:32:32:3 2dBm N  ov 17, 2018 0 2:00:45.461045000  7
           214 125.23429632:32:32:32:32:3 5dBm N  ov 17, 2018 0 2:00:45.539887000  7
           215 12 5.5737232:32:32:32:32:3 5dBm N  ov 17, 2018 0 2:00:45.879311000  7
           216 12 6.7325732:32:32:32:32:3 6dBm N  ov 17, 2018 0 2:00:47.038161000  7
           217 129.46151432:32:32:32:32:3 5dBm N  ov 17, 2018 0 2:00:49.767105000  7
           218 129.55918532:32:32:32:32:3 5dBm N  ov 17, 2018 0 2:00:49.864776000  7
           219 129.59223932:32:32:32:32:3 4dBm N  ov 17, 2018 0 2:00:49.897830000  7
           220 129.87343432:32:32:32:32:3 7dBm N  ov 17, 2018 0 2:00:50.179025000  7
           221 130.58794432:32:32:32:32:3 5dBm N  ov 17, 2018 0 2:00:50.893535000  7
           222 131.07575432:32:32:32:32:3 3dBm N  ov 17, 2018 0 2:00:51.381345000  7
           223 131.17140532:32:32:32:32:3 5dBm N  ov 17, 2018 0 2:00:51.476996000  7
           224 131.19181232:32:32:32:32:3 5dBm N  ov 17, 2018 0 2:00:51.497403000  7
           225 131.21095432:32:32:32:32:3 6dBm N  ov 17, 2018 0 2:00:51.516545000  7
           226 131.39948432:32:32:32:32:3 5dBm N  ov 17, 2018 0 2:00:51.705075000  7
           227 131.47616432:32:32:32:32:3 6dBm N  ov 17, 2018 0 2:00:51.781755000  7
           228 131.56386532:32:32:32:32:3 7dBm N  ov 17, 2018 0 2:00:51.869456000  7
           229 131.67752332:32:32:32:32:3 5dBm N  ov 17, 2018 0 2:00:51.983114000  7
           230 131.70834932:32:32:32:32:3 4dBm N  ov 17, 2018 0 2:00:52.013940000  7
           231 131.99648932:32:32:32:32:3 4dBm N  ov 17, 2018 0 2:00:52.302080000  7
           232 132.71978132:32:32:32:32:3 5dBm N  ov 17, 2018 0 2:00:53.025372000  7
           233 133.24971432:32:32:32:32:3 5dBm N  ov 17, 2018 0 2:00:53.555305000  7
           234 133.46113132:32:32:32:32:3 6dBm N  ov 17, 2018 0 2:00:53.766722000  7
           235 13 4.1591832:32:32:32:32:3 5dBm N  ov 17, 2018 0 2:00:54.464771000  7
           236 137.87162232:32:32:32:32:3 6dBm N  ov 17, 2018 0 2:00:58.177213000  7
           237 138.00687732:32:32:32:32:3 4dBm N  ov 17, 2018 0 2:00:58.312468000  7
           238 138.83505532:32:32:32:32:3 3dBm N  ov 17, 2018 0 2:00:59.140646000  7
           239 138.95519832:32:32:32:32:3 6dBm N  ov 17, 2018 0 2:00:59.260789000  7
           240 13  9.781532:32:32:32:32:3 5dBm N  ov 17, 2018 0 2:01:00.087091000  7
           241 140.59846732:32:32:32:32:3 1dBm N  ov 17, 2018 0 2:01:00.904058000  7
           242 143.73519632:32:32:32:32:3 5dBm N  ov 17, 2018 0 2:01:04.040787000  7
           243 144.96044232:32:32:32:32:3 3dBm N  ov 17, 2018 0 2:01:05.266033000  7
           244 14 5.2556632:32:32:32:32:3 5dBm N  ov 17, 2018 0 2:01:05.561251000  7
           245 14 5.3164932:32:32:32:32:3 3dBm N  ov 17, 2018 0 2:01:05.622081000  7
           246 145.41268832:32:32:32:32:3 7dBm N  ov 17, 2018 0 2:01:05.718279000  7
           247 145.59388532:32:32:32:32:3 6dBm N  ov 17, 2018 0 2:01:05.899476000  7
           248 146.41707832:32:32:32:32:3 3dBm N  ov 17, 2018 0 2:01:06.722669000  7
           249 146.65601832:32:32:32:32:3 4dBm N  ov 17, 2018 0 2:01:06.961609000  7
           250 147.09003432:32:32:32:32:3 5dBm N  ov 17, 2018 0 2:01:07.395625000  7
           251 147.22988232:32:32:32:32:3 2dBm N  ov 17, 2018 0 2:01:07.535473000  7
           252 14 7.2530732:32:32:32:32:3 5dBm N  ov 17, 2018 0 2:01:07.558661000  7
           253 147.27056732:32:32:32:32:3 6dBm N  ov 17, 2018 0 2:01:07.576158000  7
           254 147.29252532:32:32:32:32:3 5dBm N  ov 17, 2018 0 2:01:07.598116000  7
           255 147.43406332:32:32:32:32:3 7dBm N  ov 17, 2018 0 2:01:07.739654000  7
           256 147.55362232:32:32:32:32:3 6dBm N  ov 17, 2018 0 2:01:07.859213000  7
           257 147.79084332:32:32:32:32:3 6dBm N  ov 17, 2018 0 2:01:08.096434000  7
           258 148.16644532:32:32:32:32:3 6dBm N  ov 17, 2018 0 2:01:08.472036000  7
           259 148.63437632:32:32:32:32:3 3dBm N  ov 17, 2018 0 2:01:08.939967000  7
           260 148.78895732:32:32:32:32:3 2dBm N  ov 17, 2018 0 2:01:09.094548000  7
           261 149.08304532:32:32:32:32:3 5dBm N  ov 17, 2018 0 2:01:09.388636000  7
           262 149.34805832:32:32:32:32:3 5dBm N  ov 17, 2018 0 2:01:09.653649000  7
           263 149.40781832:32:32:32:32:3 5dBm N  ov 17, 2018 0 2:01:09.713409000  7
           264 149.42561932:32:32:32:32:3 5dBm N  ov 17, 2018 0 2:01:09.731210000  7
           265 149.48000332:32:32:32:32:3 5dBm N  ov 17, 2018 0 2:01:09.785594000  7
           266 150.48954932:32:32:32:32:3 4dBm N  ov 17, 2018 0 2:01:10.795140000  7
           267 150.71680532:32:32:32:32:3 7dBm N  ov 17, 2018 0 2:01:11.022396000  7
           268 150.73437532:32:32:32:32:3 5dBm N  ov 17, 2018 0 2:01:11.039966000  7
           269 150.93418832:32:32:32:32:3 5dBm N  ov 17, 2018 0 2:01:11.239779000  7
           270 150.99018632:32:32:32:32:3 4dBm N  ov 17, 2018 0 2:01:11.295777000  7
           271 151.02555132:32:32:32:32:3 4dBm N  ov 17, 2018 0 2:01:11.331142000  7
           272 151.13712632:32:32:32:32:3 5dBm N  ov 17, 2018 0 2:01:11.442717000  7
           273 151.39875832:32:32:32:32:3 6dBm N  ov 17, 2018 0 2:01:11.704349000  7
           274 15  1.714432:32:32:32:32:3 7dBm N  ov 17, 2018 0 2:01:12.019991000  7
           275 151.89215232:32:32:32:32:3 5dBm N  ov 17, 2018 0 2:01:12.197743000  7
           276 152.73960832:32:32:32:32:3 4dBm N  ov 17, 2018 0 2:01:13.045199000  7
           277 152.94343932:32:32:32:32:3 5dBm N  ov 17, 2018 0 2:01:13.249030000  7
           278 157.37013632:32:32:32:32:3 5dBm N  ov 17, 2018 0 2:01:17.675727000  7
