    1   0.000000 32:32:32:32:32:32 5dBm Nov 17, 2018 01:30:49.007403000 +07
    2   0.874396 32:32:32:32:32:32 7dBm Nov 17, 2018 01:30:49.881799000 +07
    3   1.003820 32:32:32:32:32:32 6dBm Nov 17, 2018 01:30:50.011223000 +07
    4   1.064999 32:32:32:32:32:32 8dBm Nov 17, 2018 01:30:50.072402000 +07
    5   1.180215 32:32:32:32:32:32 6dBm Nov 17, 2018 01:30:50.187618000 +07
    6   1.215036 32:32:32:32:32:32 6dBm Nov 17, 2018 01:30:50.222439000 +07
    7   1.424659 32:32:32:32:32:32 7dBm Nov 17, 2018 01:30:50.432062000 +07
    8   1.516952 32:32:32:32:32:32 6dBm Nov 17, 2018 01:30:50.524355000 +07
    9   1.649667 32:32:32:32:32:32 7dBm Nov 17, 2018 01:30:50.657070000 +07
   10   1.709356 32:32:32:32:32:32 5dBm Nov 17, 2018 01:30:50.716759000 +07
   11   2.030028 32:32:32:32:32:32 6dBm Nov 17, 2018 01:30:51.037431000 +07
   12   2.240803 32:32:32:32:32:32 5dBm Nov 17, 2018 01:30:51.248206000 +07
   13   2.490008 32:32:32:32:32:32 6dBm Nov 17, 2018 01:30:51.497411000 +07
   14   2.659545 32:32:32:32:32:32 6dBm Nov 17, 2018 01:30:51.666948000 +07
   15   2.715225 32:32:32:32:32:32 4dBm Nov 17, 2018 01:30:51.722628000 +07
   16   4.336195 32:32:32:32:32:32 6dBm Nov 17, 2018 01:30:53.343598000 +07
   17   5.159129 32:32:32:32:32:32 4dBm Nov 17, 2018 01:30:54.166532000 +07
   18   5.463678 32:32:32:32:32:32 4dBm Nov 17, 2018 01:30:54.471081000 +07
   19   5.570236 32:32:32:32:32:32 5dBm Nov 17, 2018 01:30:54.577639000 +07
   20   5.846103 32:32:32:32:32:32 7dBm Nov 17, 2018 01:30:54.853506000 +07
   21   6.093036 32:32:32:32:32:32 6dBm Nov 17, 2018 01:30:55.100439000 +07
   22   6.543802 32:32:32:32:32:32 7dBm Nov 17, 2018 01:30:55.551205000 +07
   23   6.611352 32:32:32:32:32:32 5dBm Nov 17, 2018 01:30:55.618755000 +07
   24   6.968221 32:32:32:32:32:32 3dBm Nov 17, 2018 01:30:55.975624000 +07
   25   6.992351 32:32:32:32:32:32 5dBm Nov 17, 2018 01:30:55.999754000 +07
   26   7.067868 32:32:32:32:32:32 5dBm Nov 17, 2018 01:30:56.075271000 +07
   27   7.084010 32:32:32:32:32:32 6dBm Nov 17, 2018 01:30:56.091413000 +07
   28   7.098842 32:32:32:32:32:32 6dBm Nov 17, 2018 01:30:56.106245000 +07
   29   7.166146 32:32:32:32:32:32 6dBm Nov 17, 2018 01:30:56.173549000 +07
   30   7.195320 32:32:32:32:32:32 7dBm Nov 17, 2018 01:30:56.202723000 +07
   31   7.464373 32:32:32:32:32:32 8dBm Nov 17, 2018 01:30:56.471776000 +07
   32   7.501838 32:32:32:32:32:32 6dBm Nov 17, 2018 01:30:56.509241000 +07
   33   7.550899 32:32:32:32:32:32 7dBm Nov 17, 2018 01:30:56.558302000 +07
   34   7.649507 32:32:32:32:32:32 9dBm Nov 17, 2018 01:30:56.656910000 +07
   35   7.683885 32:32:32:32:32:32 9dBm Nov 17, 2018 01:30:56.691288000 +07
   36   7.711885 32:32:32:32:32:32 5dBm Nov 17, 2018 01:30:56.719288000 +07
   37   8.753070 32:32:32:32:32:32 4dBm Nov 17, 2018 01:30:57.760473000 +07
   38   8.962536 32:32:32:32:32:32 5dBm Nov 17, 2018 01:30:57.969939000 +07
   39   9.004835 32:32:32:32:32:32 5dBm Nov 17, 2018 01:30:58.012238000 +07
   40   9.079432 32:32:32:32:32:32 6dBm Nov 17, 2018 01:30:58.086835000 +07
   41   9.239349 32:32:32:32:32:32 5dBm Nov 17, 2018 01:30:58.246752000 +07
   42   9.733530 32:32:32:32:32:32 7dBm Nov 17, 2018 01:30:58.740933000 +07
   43   9.778231 32:32:32:32:32:32 6dBm Nov 17, 2018 01:30:58.785634000 +07
   44   9.850466 32:32:32:32:32:32 4dBm Nov 17, 2018 01:30:58.857869000 +07
   45  10.171888 32:32:32:32:32:32 6dBm Nov 17, 2018 01:30:59.179291000 +07
   46  10.277986 32:32:32:32:32:32 6dBm Nov 17, 2018 01:30:59.285389000 +07
   47  10.469854 32:32:32:32:32:32 4dBm Nov 17, 2018 01:30:59.477257000 +07
   48  10.488529 32:32:32:32:32:32 5dBm Nov 17, 2018 01:30:59.495932000 +07
   49  10.507854 32:32:32:32:32:32 5dBm Nov 17, 2018 01:30:59.515257000 +07
   50  10.550178 32:32:32:32:32:32 7dBm Nov 17, 2018 01:30:59.557581000 +07
   51  10.616330 32:32:32:32:32:32 6dBm Nov 17, 2018 01:30:59.623733000 +07
   52  10.726310 32:32:32:32:32:32 4dBm Nov 17, 2018 01:30:59.733713000 +07
   53  10.919693 32:32:32:32:32:32 4dBm Nov 17, 2018 01:30:59.927096000 +07
   54  11.314393 32:32:32:32:32:32 4dBm Nov 17, 2018 01:31:00.321796000 +07
   55  11.689488 32:32:32:32:32:32 4dBm Nov 17, 2018 01:31:00.696891000 +07
   56  12.710761 32:32:32:32:32:32 6dBm Nov 17, 2018 01:31:01.718164000 +07
   57  12.730606 32:32:32:32:32:32 5dBm Nov 17, 2018 01:31:01.738009000 +07
   58  12.755959 32:32:32:32:32:32 6dBm Nov 17, 2018 01:31:01.763362000 +07
   59  12.770299 32:32:32:32:32:32 5dBm Nov 17, 2018 01:31:01.777702000 +07
   60  12.798637 32:32:32:32:32:32 5dBm Nov 17, 2018 01:31:01.806040000 +07
   61  13.176792 32:32:32:32:32:32 5dBm Nov 17, 2018 01:31:02.184195000 +07
   62  13.286137 32:32:32:32:32:32 6dBm Nov 17, 2018 01:31:02.293540000 +07
   63  13.458303 32:32:32:32:32:32 6dBm Nov 17, 2018 01:31:02.465706000 +07
   64  13.621658 32:32:32:32:32:32 5dBm Nov 17, 2018 01:31:02.629061000 +07
   65  13.832826 32:32:32:32:32:32 5dBm Nov 17, 2018 01:31:02.840229000 +07
   66  14.270449 32:32:32:32:32:32 5dBm Nov 17, 2018 01:31:03.277852000 +07
   67  14.297236 32:32:32:32:32:32 7dBm Nov 17, 2018 01:31:03.304639000 +07
   68  14.322863 32:32:32:32:32:32 4dBm Nov 17, 2018 01:31:03.330266000 +07
   69  14.593636 32:32:32:32:32:32 6dBm Nov 17, 2018 01:31:03.601039000 +07
   70  14.648906 32:32:32:32:32:32 5dBm Nov 17, 2018 01:31:03.656309000 +07
   71  14.735486 32:32:32:32:32:32 6dBm Nov 17, 2018 01:31:03.742889000 +07
   72  15.010246 32:32:32:32:32:32 6dBm Nov 17, 2018 01:31:04.017649000 +07
   73  15.676158 32:32:32:32:32:32 8dBm Nov 17, 2018 01:31:04.683561000 +07
   74  16.359264 32:32:32:32:32:32 7dBm Nov 17, 2018 01:31:05.366667000 +07
   75  17.562688 32:32:32:32:32:32 6dBm Nov 17, 2018 01:31:06.570091000 +07
   76  17.905187 32:32:32:32:32:32 7dBm Nov 17, 2018 01:31:06.912590000 +07
   77  18.500987 32:32:32:32:32:32 6dBm Nov 17, 2018 01:31:07.508390000 +07
   78  18.615117 32:32:32:32:32:32 5dBm Nov 17, 2018 01:31:07.622520000 +07
   79  19.114155 32:32:32:32:32:32 6dBm Nov 17, 2018 01:31:08.121558000 +07
   80  19.625463 32:32:32:32:32:32 8dBm Nov 17, 2018 01:31:08.632866000 +07
   81  19.987384 32:32:32:32:32:32 5dBm Nov 17, 2018 01:31:08.994787000 +07
   82  20.074869 32:32:32:32:32:32 4dBm Nov 17, 2018 01:31:09.082272000 +07
   83  20.227481 32:32:32:32:32:32 6dBm Nov 17, 2018 01:31:09.234884000 +07
   84  20.916689 32:32:32:32:32:32 5dBm Nov 17, 2018 01:31:09.924092000 +07
   85  21.127425 32:32:32:32:32:32 4dBm Nov 17, 2018 01:31:10.134828000 +07
   86  21.174282 32:32:32:32:32:32 5dBm Nov 17, 2018 01:31:10.181685000 +07
   87  21.407834 32:32:32:32:32:32 6dBm Nov 17, 2018 01:31:10.415237000 +07
   88  21.623959 32:32:32:32:32:32 6dBm Nov 17, 2018 01:31:10.631362000 +07
   89  21.706924 32:32:32:32:32:32 5dBm Nov 17, 2018 01:31:10.714327000 +07
   90  22.660245 32:32:32:32:32:32 7dBm Nov 17, 2018 01:31:11.667648000 +07
   91  22.790539 32:32:32:32:32:32 5dBm Nov 17, 2018 01:31:11.797942000 +07
   92  22.915615 32:32:32:32:32:32 5dBm Nov 17, 2018 01:31:11.923018000 +07
   93  23.369712 32:32:32:32:32:32 5dBm Nov 17, 2018 01:31:12.377115000 +07
   94  23.867869 32:32:32:32:32:32 7dBm Nov 17, 2018 01:31:12.875272000 +07
   95  23.980912 32:32:32:32:32:32 5dBm Nov 17, 2018 01:31:12.988315000 +07
   96  24.005747 32:32:32:32:32:32 5dBm Nov 17, 2018 01:31:13.013150000 +07
   97  24.811412 32:32:32:32:32:32 4dBm Nov 17, 2018 01:31:13.818815000 +07
   98  24.921581 32:32:32:32:32:32 1dBm Nov 17, 2018 01:31:13.928984000 +07
   99  24.998557 32:32:32:32:32:32 5dBm Nov 17, 2018 01:31:14.005960000 +07
  100  25.397238 32:32:32:32:32:32 4dBm Nov 17, 2018 01:31:14.404641000 +07
  101  25.496706 32:32:32:32:32:32 5dBm Nov 17, 2018 01:31:14.504109000 +07
  102  25.700165 32:32:32:32:32:32 2dBm Nov 17, 2018 01:31:14.707568000 +07
  103  25.904111 32:32:32:32:32:32 5dBm Nov 17, 2018 01:31:14.911514000 +07
  104  26.254256 32:32:32:32:32:32 4dBm Nov 17, 2018 01:31:15.261659000 +07
  105  26.378217 32:32:32:32:32:32 5dBm Nov 17, 2018 01:31:15.385620000 +07
  106  26.394922 32:32:32:32:32:32 5dBm Nov 17, 2018 01:31:15.402325000 +07
  107  27.978620 32:32:32:32:32:32 6dBm Nov 17, 2018 01:31:16.986023000 +07
  108  28.775830 32:32:32:32:32:32 7dBm Nov 17, 2018 01:31:17.783233000 +07
  109  32.032975 32:32:32:32:32:32 5dBm Nov 17, 2018 01:31:21.040378000 +07
  110  32.266639 32:32:32:32:32:32 5dBm Nov 17, 2018 01:31:21.274042000 +07
  111  34.579266 32:32:32:32:32:32 6dBm Nov 17, 2018 01:31:23.586669000 +07
  112  37.733593 32:32:32:32:32:32 6dBm Nov 17, 2018 01:31:26.740996000 +07
  113  38.498634 32:32:32:32:32:32 5dBm Nov 17, 2018 01:31:27.506037000 +07
  114  42.737512 32:32:32:32:32:32 6dBm Nov 17, 2018 01:31:31.744915000 +07
  115  44.285296 32:32:32:32:32:32 6dBm Nov 17, 2018 01:31:33.292699000 +07
  116  44.590474 32:32:32:32:32:32 7dBm Nov 17, 2018 01:31:33.597877000 +07
  117  44.641776 32:32:32:32:32:32 5dBm Nov 17, 2018 01:31:33.649179000 +07
  118  44.776600 32:32:32:32:32:32 6dBm Nov 17, 2018 01:31:33.784003000 +07
  119  44.914927 32:32:32:32:32:32 7dBm Nov 17, 2018 01:31:33.922330000 +07
  120  45.243042 32:32:32:32:32:32 8dBm Nov 17, 2018 01:31:34.250445000 +07
  121  45.601901 32:32:32:32:32:32 6dBm Nov 17, 2018 01:31:34.609304000 +07
  122  45.730610 32:32:32:32:32:32 4dBm Nov 17, 2018 01:31:34.738013000 +07
  123  46.153662 32:32:32:32:32:32 6dBm Nov 17, 2018 01:31:35.161065000 +07
  124  46.319045 32:32:32:32:32:32 6dBm Nov 17, 2018 01:31:35.326448000 +07
  125  46.380441 32:32:32:32:32:32 7dBm Nov 17, 2018 01:31:35.387844000 +07
  126  46.731600 32:32:32:32:32:32 6dBm Nov 17, 2018 01:31:35.739003000 +07
