1
0.3410236
0.2394402
0.3233129
0.3044072
0.3026166
0.2794528
0.3268919
0.3315484
0.5082225
0.4101177
0.4351554
0.4374586
0.4379917
0.4392094
0.4033338
0.4738594
0.4414732
0.5193320
0.4840309
0.5697756
0.5307781
0.4844641
0.3756614
0.6683931
1.2665421
1.1193873
1.2011189
0.5070806
0.5902898
0.6292794
1.1528869
0.7359541
0.9840841
0.7856116
0.7051695
1.1631047
0.9541227
0.7877583
0.5084291
0.6430989
0.8212081
0.8373102
0.6016064
0.5925381
0.8144792
1.1816241
1.1138834
0.7943674
0.8417435
0.9093232
0.7761168
0.8300232
1.0070509
0.7277849
0.5470486
0.6275549
0.6343627
0.6901969
0.5883893
0.7503773
0.7683008
0.7639120
0.8324320
0.8952772
1.1770208
0.8775260
0.9144506
0.7814007
0.9898218
0.9313881
1.3189056
0.8127434
1.0095515
0.6714223
0.6071771
0.6886798
0.6949524
0.5924938
0.6325027
0.5835668
0.6004890
0.6898275
0.7591917
0.9054638
0.8466476
0.8429314
0.9149393
0.7831981
0.9025100
0.8452013
0.9073726
0.9238896
1.1957048
1.0335832
0.7483346
0.6540044
0.6403887
1.0697502
1.3504259
1.2429398
1.0425355
1.1023187
1.2080107
1.1616136
1.1878965
1.2135993
0.9547735
0.8460044
0.7323061
0.6535089
0.8425624
1.0801266
1.0860334
0.6483537
0.7056415
0.9946803
1.1950015
0.7440200
0.9068320
0.7851764
0.9601494
0.9286544
0.8481628
0.9943196
1.0902128
1.2220617
1.1558132
1.1297515
1.2152822
1.0469177
1.2730339
1.4474011
1.2356127
1.1334967
1.0300510
1.0135569
0.9527345
0.9987641
0.8582860
0.9099861
1.4031857
1.0849354
1.3334659
1.4503672
1.3496066
0.9702461
0.7830296
0.7673766
0.9957299
1.0340274
1.0985035
1.0205375
1.2376805
1.6640618
1.3144506
1.1349554
1.1208320
0.8775262
0.9308129
0.7927362
0.8375823
0.7287462
0.7749834
0.8656630
0.7145637
0.8037100
0.7873990
0.7180490
0.8273987
0.7255764
0.7690363
0.9167778
1.3075027
1.0402810
1.2195420
1.3163623
1.2252414
1.2608834
1.3634551
1.0325351
0.9558272
1.0022462
0.9327495
1.3629727
1.0612521
0.9277363
0.9241020
1.1425077
1.1095395
1.0170725
1.3045066
1.3627082
1.2583023
1.2070952
1.0427662
1.2335566
1.1187471
2.6663260
1.4128854
1.3562709
0.9645709
1.1047692
1.1231072
1.1113582
3.0758719
1.5430033
1.5193493
1.4177182
1.2341980
1.3565188
1.2667084
1.2611930
1.1384159
1.1476491
1.4269103
1.2559177
1.0313690
1.3054809
1.4475596
1.2550676
1.1339755
1.2083191
1.2641854
1.2431321
1.2953020
1.2206387
1.3623081
1.3843641
1.1451354
1.3899985
1.1515575
1.1484589
1.0995135
1.1083297
1.2014138
1.1761701
1.1172972
1.2823509
1.2220318
1.1439123
1.2281235
1.2198717
1.3305757
1.6583819
1.3739878
1.3016533
1.2260810
1.2182492
1.1448849
1.2054812
1.1485249
1.2852859
1.2486493
1.1663099
1.1357016
1.6365356
1.4269198
1.4539831
1.3399276
1.3520409
1.3973078
1.1587851
1.3753038
1.1341441
1.2939871
1.2169762
1.3371908
1.2254141
