0
1.46216381196
1.94929286959
1.38552245331
0.0
16.5876581366
2.30458454917
0.0
2.83804354989
6.20330770907
1.69524125372
0.0
0.0
0.0
0.661852153473
1.88547935277
0.789497210387
2.01356571863
0.68466768162
2.21839106488
2.67591249317
1.15693676655
0.871624675207
2.1425652696
3.49937188279
1.66432954847
3.35825741023
1.50566161926
4.7485301076
3.88843551088
19.8330473706
4.83686689811
3.48946987044
3.90750800147
1.05939141331
1.880301889
1.99393699753
8.09523289834
0.926558172952
2.11530254538
2.73927665602
0.0
1.36687145782
0.0
1.551364982
3.49100792797
2.94205474477
2.22128216327
2.34535674426
2.25932567963
5.7372219712
0.300780558928
2.3317286353
8.90807591741
4.82791916321
3.51094745018
0.0
3.18754354432
1.9083541849
1.94778318995
0.0
0.0
0.116981607611
0.0
2.91041485166
8.88189378188
1.10016647457
2.00948726596
2.32501442713
0.317439324709
17.9835677249
2.81741952638
5.49908039317
2.11885048601
2.0124198698
5.93659424981
0.0
3.72765102731
3.27978488781
0.319238925306
0.0
2.71778367384
1.5191336705
2.96236728842
1.26502603193
0.0
1.3199503642
24.0650579487
5.15506777883
53.1419698878
1.45991239635
0.0
4.05006035496
0.529632222561
6.57051244434
0.0
0.0
1.84315812749
1.79336192992
1.26227624561
4.55543515122
1.52903241547
0.414079572859
0.262538007708
0.0
0.250428632505
1.10919439655
0.583923691198
1.07972417041
0.496236293175
8.08466609685
0.718389150301
0.784947785202
5.35603028123
1.26886323688
6.88227593851
7.83040272011
13.584933753
4.21183128237
0.624428759911
3.23495672748
0.0
3.04670149283
26.3537865345
0.199100443897
0.0
0.0
0.0
0.0
0.29254231743
3.21913652112
0.31402043735
0.579476286344
1.29458151581
2.24482750423
0.0
0.262879485174
0.0
11.7833492404
4.824706285
2.92004728993
3.31725424446
0.198049368416
4.62366438838
5.01617512454
25.736812298
7.63082153403
0.0
2.06257743177
0.0
2.6139226392
0.116431907919
0.0
1.0085576124
7.86436418484
0.0
0.0
3.5975913799
1.2954768875
5.25774572021
0.915836674053
2.20626762678
0.50708098468
3.3752784982
0.837673381605
0.804283800663
0.0
3.95811469943
1.97716024856
3.26772326541
1.18273429309
1.9397895195
10.8094474866
3.25696095043
11.6226993373
3.21375902373
0.655344043147
0.0
0.459575323124
3.95360222353
0.0
2.36727154415
0.149830268612
3.8082221423
60.3113567459
3.29528519818
0.0
8.82070124333
0.0
2.99422679159
2.64151903473
0.0
0.447042302988
1.67875613313
0.806252359657
8.63648340951
0.0264701376591
0.483972918775
0.0
0.0
5.43799642638
2.6468550225
0.0
0.0
0.358121544502
0.333089154008
0.0
0.348378384237
1.61202739889
1.44925394568
0.716753604741
0.0
0.728206940718
0.0
3.56659364235
11.2559748973
5.89903110663
8.21287011447
1.46821633024
3.76498715021
3.31900723745
0.595691010185
0.0
0.0
0.0
0.0
0.633520451642
0.0
0.855240222816
2.67954767882
1.59576336661
0.0
3.11963892582
5.16896243657
0.511694445402
2.84272555691
0.0
3.15002667507
0.0
1.18340238167
2.52606116989
0.0
0.11304483497
0.0
0.209225725916
0.308161457491
0.0
0.940866912204
4.86710458007
0.827366720115
0.391040841779
0.896814808026
0.0
1.0557755836
0.0
0.418443901381
0.287434044915
0.0
0.0
0.0
0.0
0.382470787995
2.82332801066
0.328513067838
0.310664123746
0.136932185939
0.0
1.82148158234
0.749683608012
