    1   0.000000 32:32:32:32:32:32 5dBm Nov 18, 2018 02:45:48.590797000 +07
    2   0.122436 32:32:32:32:32:32 6dBm Nov 18, 2018 02:45:48.713233000 +07
    3   0.219526 32:32:32:32:32:32 5dBm Nov 18, 2018 02:45:48.810323000 +07
    4   0.245499 32:32:32:32:32:32 4dBm Nov 18, 2018 02:45:48.836296000 +07
    5   0.461369 32:32:32:32:32:32 4dBm Nov 18, 2018 02:45:49.052166000 +07
    6   0.745095 32:32:32:32:32:32 4dBm Nov 18, 2018 02:45:49.335892000 +07
    7   0.814474 32:32:32:32:32:32 4dBm Nov 18, 2018 02:45:49.405271000 +07
    8   0.964260 32:32:32:32:32:32 6dBm Nov 18, 2018 02:45:49.555057000 +07
    9   1.020059 32:32:32:32:32:32 4dBm Nov 18, 2018 02:45:49.610856000 +07
   10   1.203320 32:32:32:32:32:32 7dBm Nov 18, 2018 02:45:49.794117000 +07
   11   1.316784 32:32:32:32:32:32 5dBm Nov 18, 2018 02:45:49.907581000 +07
   12   2.589924 32:32:32:32:32:32 7dBm Nov 18, 2018 02:45:51.180721000 +07
   13   3.040842 32:32:32:32:32:32 5dBm Nov 18, 2018 02:45:51.631639000 +07
   14   4.167510 32:32:32:32:32:32 8dBm Nov 18, 2018 02:45:52.758307000 +07
   15   4.676469 32:32:32:32:32:32 6dBm Nov 18, 2018 02:45:53.267266000 +07
   16   4.806884 32:32:32:32:32:32 5dBm Nov 18, 2018 02:45:53.397681000 +07
   17   5.385470 32:32:32:32:32:32 7dBm Nov 18, 2018 02:45:53.976267000 +07
   18   5.643147 32:32:32:32:32:32 5dBm Nov 18, 2018 02:45:54.233944000 +07
   19   6.316210 32:32:32:32:32:32 4dBm Nov 18, 2018 02:45:54.907007000 +07
   20   6.795642 32:32:32:32:32:32 6dBm Nov 18, 2018 02:45:55.386439000 +07
   21   7.025430 32:32:32:32:32:32 6dBm Nov 18, 2018 02:45:55.616227000 +07
   22   7.145174 32:32:32:32:32:32 6dBm Nov 18, 2018 02:45:55.735971000 +07
   23   7.244221 32:32:32:32:32:32 7dBm Nov 18, 2018 02:45:55.835018000 +07
   24   7.566246 32:32:32:32:32:32 6dBm Nov 18, 2018 02:45:56.157043000 +07
   25   7.603928 32:32:32:32:32:32 6dBm Nov 18, 2018 02:45:56.194725000 +07
   26   7.672462 32:32:32:32:32:32 7dBm Nov 18, 2018 02:45:56.263259000 +07
   27   7.779024 32:32:32:32:32:32 5dBm Nov 18, 2018 02:45:56.369821000 +07
   28   7.804224 32:32:32:32:32:32 5dBm Nov 18, 2018 02:45:56.395021000 +07
   29   8.088176 32:32:32:32:32:32 6dBm Nov 18, 2018 02:45:56.678973000 +07
   30   8.150479 32:32:32:32:32:32 6dBm Nov 18, 2018 02:45:56.741276000 +07
   31   8.185320 32:32:32:32:32:32 6dBm Nov 18, 2018 02:45:56.776117000 +07
   32   8.303225 32:32:32:32:32:32 5dBm Nov 18, 2018 02:45:56.894022000 +07
   33   8.324118 32:32:32:32:32:32 6dBm Nov 18, 2018 02:45:56.914915000 +07
   34   8.376537 32:32:32:32:32:32 7dBm Nov 18, 2018 02:45:56.967334000 +07
   35   8.564723 32:32:32:32:32:32 6dBm Nov 18, 2018 02:45:57.155520000 +07
   36   8.668058 32:32:32:32:32:32 7dBm Nov 18, 2018 02:45:57.258855000 +07
   37   8.736746 32:32:32:32:32:32 6dBm Nov 18, 2018 02:45:57.327543000 +07
   38   8.840047 32:32:32:32:32:32 5dBm Nov 18, 2018 02:45:57.430844000 +07
   39   8.953555 32:32:32:32:32:32 4dBm Nov 18, 2018 02:45:57.544352000 +07
   40   8.987441 32:32:32:32:32:32 6dBm Nov 18, 2018 02:45:57.578238000 +07
   41   9.018671 32:32:32:32:32:32 5dBm Nov 18, 2018 02:45:57.609468000 +07
   42   9.071691 32:32:32:32:32:32 6dBm Nov 18, 2018 02:45:57.662488000 +07
   43   9.422768 32:32:32:32:32:32 6dBm Nov 18, 2018 02:45:58.013565000 +07
   44   9.527706 32:32:32:32:32:32 6dBm Nov 18, 2018 02:45:58.118503000 +07
   45   9.652891 32:32:32:32:32:32 7dBm Nov 18, 2018 02:45:58.243688000 +07
   46   9.683034 32:32:32:32:32:32 7dBm Nov 18, 2018 02:45:58.273831000 +07
   47   9.875737 32:32:32:32:32:32 5dBm Nov 18, 2018 02:45:58.466534000 +07
   48   9.935901 32:32:32:32:32:32 5dBm Nov 18, 2018 02:45:58.526698000 +07
   49   9.971949 32:32:32:32:32:32 6dBm Nov 18, 2018 02:45:58.562746000 +07
   50  10.063978 32:32:32:32:32:32 3dBm Nov 18, 2018 02:45:58.654775000 +07
   51  10.102071 32:32:32:32:32:32 6dBm Nov 18, 2018 02:45:58.692868000 +07
   52  10.180171 32:32:32:32:32:32 6dBm Nov 18, 2018 02:45:58.770968000 +07
   53  10.273906 32:32:32:32:32:32 7dBm Nov 18, 2018 02:45:58.864703000 +07
   54  10.336883 32:32:32:32:32:32 6dBm Nov 18, 2018 02:45:58.927680000 +07
   55  10.551174 32:32:32:32:32:32 6dBm Nov 18, 2018 02:45:59.141971000 +07
   56  10.597193 32:32:32:32:32:32 5dBm Nov 18, 2018 02:45:59.187990000 +07
   57  10.653939 32:32:32:32:32:32 6dBm Nov 18, 2018 02:45:59.244736000 +07
   58  10.699284 32:32:32:32:32:32 5dBm Nov 18, 2018 02:45:59.290081000 +07
   59  10.791506 32:32:32:32:32:32 5dBm Nov 18, 2018 02:45:59.382303000 +07
   60  10.994177 32:32:32:32:32:32 6dBm Nov 18, 2018 02:45:59.584974000 +07
   61  11.028675 32:32:32:32:32:32 5dBm Nov 18, 2018 02:45:59.619472000 +07
   62  11.057498 32:32:32:32:32:32 6dBm Nov 18, 2018 02:45:59.648295000 +07
   63  11.105708 32:32:32:32:32:32 6dBm Nov 18, 2018 02:45:59.696505000 +07
   64  11.162406 32:32:32:32:32:32 5dBm Nov 18, 2018 02:45:59.753203000 +07
   65  11.276793 32:32:32:32:32:32 5dBm Nov 18, 2018 02:45:59.867590000 +07
   66  11.309884 32:32:32:32:32:32 5dBm Nov 18, 2018 02:45:59.900681000 +07
   67  11.334421 32:32:32:32:32:32 5dBm Nov 18, 2018 02:45:59.925218000 +07
   68  11.401717 32:32:32:32:32:32 1dBm Nov 18, 2018 02:45:59.992514000 +07
   69  11.434051 32:32:32:32:32:32 6dBm Nov 18, 2018 02:46:00.024848000 +07
   70  11.479118 32:32:32:32:32:32 6dBm Nov 18, 2018 02:46:00.069915000 +07
   71  11.526768 32:32:32:32:32:32 5dBm Nov 18, 2018 02:46:00.117565000 +07
   72  11.647147 32:32:32:32:32:32 3dBm Nov 18, 2018 02:46:00.237944000 +07
   73  11.675362 32:32:32:32:32:32 5dBm Nov 18, 2018 02:46:00.266159000 +07
   74  11.727029 32:32:32:32:32:32 5dBm Nov 18, 2018 02:46:00.317826000 +07
   75  11.751406 32:32:32:32:32:32 3dBm Nov 18, 2018 02:46:00.342203000 +07
   76  11.974564 32:32:32:32:32:32 7dBm Nov 18, 2018 02:46:00.565361000 +07
   77  12.108965 32:32:32:32:32:32 3dBm Nov 18, 2018 02:46:00.699762000 +07
   78  12.254377 32:32:32:32:32:32 5dBm Nov 18, 2018 02:46:00.845174000 +07
   79  12.381218 32:32:32:32:32:32 6dBm Nov 18, 2018 02:46:00.972015000 +07
   80  12.442305 32:32:32:32:32:32 5dBm Nov 18, 2018 02:46:01.033102000 +07
   81  12.468539 32:32:32:32:32:32 6dBm Nov 18, 2018 02:46:01.059336000 +07
   82  12.497639 32:32:32:32:32:32 6dBm Nov 18, 2018 02:46:01.088436000 +07
   83  12.543820 32:32:32:32:32:32 6dBm Nov 18, 2018 02:46:01.134617000 +07
   84  12.557007 32:32:32:32:32:32 7dBm Nov 18, 2018 02:46:01.147804000 +07
   85  12.609808 32:32:32:32:32:32 7dBm Nov 18, 2018 02:46:01.200605000 +07
   86  12.632649 32:32:32:32:32:32 6dBm Nov 18, 2018 02:46:01.223446000 +07
   87  12.695624 32:32:32:32:32:32 3dBm Nov 18, 2018 02:46:01.286421000 +07
   88  12.729273 32:32:32:32:32:32 7dBm Nov 18, 2018 02:46:01.320070000 +07
   89  12.792287 32:32:32:32:32:32 4dBm Nov 18, 2018 02:46:01.383084000 +07
   90  12.947334 32:32:32:32:32:32 5dBm Nov 18, 2018 02:46:01.538131000 +07
   91  13.005176 32:32:32:32:32:32 4dBm Nov 18, 2018 02:46:01.595973000 +07
   92  13.050098 32:32:32:32:32:32 6dBm Nov 18, 2018 02:46:01.640895000 +07
   93  13.139646 32:32:32:32:32:32 5dBm Nov 18, 2018 02:46:01.730443000 +07
   94  13.157133 32:32:32:32:32:32 6dBm Nov 18, 2018 02:46:01.747930000 +07
   95  13.236642 32:32:32:32:32:32 5dBm Nov 18, 2018 02:46:01.827439000 +07
   96  13.407612 32:32:32:32:32:32 5dBm Nov 18, 2018 02:46:01.998409000 +07
   97  13.445539 32:32:32:32:32:32 6dBm Nov 18, 2018 02:46:02.036336000 +07
   98  13.473627 32:32:32:32:32:32 6dBm Nov 18, 2018 02:46:02.064424000 +07
   99  13.487989 32:32:32:32:32:32 5dBm Nov 18, 2018 02:46:02.078786000 +07
  100  13.507853 32:32:32:32:32:32 5dBm Nov 18, 2018 02:46:02.098650000 +07
  101  13.693555 32:32:32:32:32:32 7dBm Nov 18, 2018 02:46:02.284352000 +07
  102  13.792362 32:32:32:32:32:32 5dBm Nov 18, 2018 02:46:02.383159000 +07
  103  13.953825 32:32:32:32:32:32 6dBm Nov 18, 2018 02:46:02.544622000 +07
  104  14.200551 32:32:32:32:32:32 7dBm Nov 18, 2018 02:46:02.791348000 +07
  105  14.240212 32:32:32:32:32:32 6dBm Nov 18, 2018 02:46:02.831009000 +07
  106  14.337073 32:32:32:32:32:32 6dBm Nov 18, 2018 02:46:02.927870000 +07
  107  14.373493 32:32:32:32:32:32 7dBm Nov 18, 2018 02:46:02.964290000 +07
  108  14.405081 32:32:32:32:32:32 5dBm Nov 18, 2018 02:46:02.995878000 +07
  109  14.446228 32:32:32:32:32:32 5dBm Nov 18, 2018 02:46:03.037025000 +07
  110  14.470876 32:32:32:32:32:32 5dBm Nov 18, 2018 02:46:03.061673000 +07
  111  14.490965 32:32:32:32:32:32 2dBm Nov 18, 2018 02:46:03.081762000 +07
  112  14.543046 32:32:32:32:32:32 6dBm Nov 18, 2018 02:46:03.133843000 +07
  113  14.828669 32:32:32:32:32:32 6dBm Nov 18, 2018 02:46:03.419466000 +07
  114  14.870438 32:32:32:32:32:32 6dBm Nov 18, 2018 02:46:03.461235000 +07
  115  14.882436 32:32:32:32:32:32 5dBm Nov 18, 2018 02:46:03.473233000 +07
  116  15.005435 32:32:32:32:32:32 5dBm Nov 18, 2018 02:46:03.596232000 +07
  117  16.020296 32:32:32:32:32:32 7dBm Nov 18, 2018 02:46:04.611093000 +07
  118  17.609295 32:32:32:32:32:32 5dBm Nov 18, 2018 02:46:06.200092000 +07
  119  17.627050 32:32:32:32:32:32 6dBm Nov 18, 2018 02:46:06.217847000 +07
  120  17.814620 32:32:32:32:32:32 7dBm Nov 18, 2018 02:46:06.405417000 +07
  121  18.035217 32:32:32:32:32:32 6dBm Nov 18, 2018 02:46:06.626014000 +07
  122  18.391428 32:32:32:32:32:32 5dBm Nov 18, 2018 02:46:06.982225000 +07
  123  18.637759 32:32:32:32:32:32 5dBm Nov 18, 2018 02:46:07.228556000 +07
  124  18.707916 32:32:32:32:32:32 6dBm Nov 18, 2018 02:46:07.298713000 +07
  125  20.316194 32:32:32:32:32:32 7dBm Nov 18, 2018 02:46:08.906991000 +07
  126  20.355550 32:32:32:32:32:32 7dBm Nov 18, 2018 02:46:08.946347000 +07
  127  21.687207 32:32:32:32:32:32 5dBm Nov 18, 2018 02:46:10.278004000 +07
  128  22.002679 32:32:32:32:32:32 5dBm Nov 18, 2018 02:46:10.593476000 +07
  129  22.113311 32:32:32:32:32:32 6dBm Nov 18, 2018 02:46:10.704108000 +07
  130  23.850443 32:32:32:32:32:32 5dBm Nov 18, 2018 02:46:12.441240000 +07
  131  23.925758 32:32:32:32:32:32 5dBm Nov 18, 2018 02:46:12.516555000 +07
  132  24.061779 32:32:32:32:32:32 4dBm Nov 18, 2018 02:46:12.652576000 +07
  133  24.113499 32:32:32:32:32:32 4dBm Nov 18, 2018 02:46:12.704296000 +07
  134  24.159492 32:32:32:32:32:32 6dBm Nov 18, 2018 02:46:12.750289000 +07
  135  24.185037 32:32:32:32:32:32 4dBm Nov 18, 2018 02:46:12.775834000 +07
  136  24.200078 32:32:32:32:32:32 5dBm Nov 18, 2018 02:46:12.790875000 +07
  137  24.492859 32:32:32:32:32:32 5dBm Nov 18, 2018 02:46:13.083656000 +07
  138  26.505953 32:32:32:32:32:32 4dBm Nov 18, 2018 02:46:15.096750000 +07
  139  26.583699 32:32:32:32:32:32 3dBm Nov 18, 2018 02:46:15.174496000 +07
  140  26.810833 32:32:32:32:32:32 6dBm Nov 18, 2018 02:46:15.401630000 +07
  141  26.888560 32:32:32:32:32:32 6dBm Nov 18, 2018 02:46:15.479357000 +07
  142  27.306005 32:32:32:32:32:32 4dBm Nov 18, 2018 02:46:15.896802000 +07
  143  27.589475 32:32:32:32:32:32 5dBm Nov 18, 2018 02:46:16.180272000 +07
  144  27.707698 32:32:32:32:32:32 6dBm Nov 18, 2018 02:46:16.298495000 +07
  145  27.872157 32:32:32:32:32:32 7dBm Nov 18, 2018 02:46:16.462954000 +07
  146  27.895392 32:32:32:32:32:32 5dBm Nov 18, 2018 02:46:16.486189000 +07
  147  27.990500 32:32:32:32:32:32 6dBm Nov 18, 2018 02:46:16.581297000 +07
  148  28.049662 32:32:32:32:32:32 7dBm Nov 18, 2018 02:46:16.640459000 +07
  149  28.072195 32:32:32:32:32:32 5dBm Nov 18, 2018 02:46:16.662992000 +07
  150  28.108304 32:32:32:32:32:32 5dBm Nov 18, 2018 02:46:16.699101000 +07
  151  28.142880 32:32:32:32:32:32 8dBm Nov 18, 2018 02:46:16.733677000 +07
  152  28.143648 32:32:32:32:32:32 6dBm Nov 18, 2018 02:46:16.734445000 +07
  153  28.242314 32:32:32:32:32:32 6dBm Nov 18, 2018 02:46:16.833111000 +07
  154  28.278531 32:32:32:32:32:32 7dBm Nov 18, 2018 02:46:16.869328000 +07
  155  28.342374 32:32:32:32:32:32 6dBm Nov 18, 2018 02:46:16.933171000 +07
  156  28.369963 32:32:32:32:32:32 4dBm Nov 18, 2018 02:46:16.960760000 +07
  157  28.918480 32:32:32:32:32:32 5dBm Nov 18, 2018 02:46:17.509277000 +07
  158  28.963281 32:32:32:32:32:32 7dBm Nov 18, 2018 02:46:17.554078000 +07
  159  29.261885 32:32:32:32:32:32 6dBm Nov 18, 2018 02:46:17.852682000 +07
  160  29.360796 32:32:32:32:32:32 6dBm Nov 18, 2018 02:46:17.951593000 +07
  161  29.416594 32:32:32:32:32:32 6dBm Nov 18, 2018 02:46:18.007391000 +07
  162  29.462035 32:32:32:32:32:32 6dBm Nov 18, 2018 02:46:18.052832000 +07
  163  29.481704 32:32:32:32:32:32 5dBm Nov 18, 2018 02:46:18.072501000 +07
  164  29.701273 32:32:32:32:32:32 4dBm Nov 18, 2018 02:46:18.292070000 +07
  165  29.759505 32:32:32:32:32:32 4dBm Nov 18, 2018 02:46:18.350302000 +07
  166  29.783977 32:32:32:32:32:32 1dBm Nov 18, 2018 02:46:18.374774000 +07
  167  29.818808 32:32:32:32:32:32 6dBm Nov 18, 2018 02:46:18.409605000 +07
  168  29.835596 32:32:32:32:32:32 7dBm Nov 18, 2018 02:46:18.426393000 +07
  169  30.131404 32:32:32:32:32:32 3dBm Nov 18, 2018 02:46:18.722201000 +07
  170  30.196212 32:32:32:32:32:32 6dBm Nov 18, 2018 02:46:18.787009000 +07
  171  30.307216 32:32:32:32:32:32 6dBm Nov 18, 2018 02:46:18.898013000 +07
  172  30.488086 32:32:32:32:32:32 7dBm Nov 18, 2018 02:46:19.078883000 +07
  173  30.501096 32:32:32:32:32:32 6dBm Nov 18, 2018 02:46:19.091893000 +07
  174  30.551925 32:32:32:32:32:32 6dBm Nov 18, 2018 02:46:19.142722000 +07
  175  30.565466 32:32:32:32:32:32 5dBm Nov 18, 2018 02:46:19.156263000 +07
  176  30.592760 32:32:32:32:32:32 6dBm Nov 18, 2018 02:46:19.183557000 +07
  177  30.618595 32:32:32:32:32:32 6dBm Nov 18, 2018 02:46:19.209392000 +07
  178  31.034557 32:32:32:32:32:32 4dBm Nov 18, 2018 02:46:19.625354000 +07
  179  31.120687 32:32:32:32:32:32 5dBm Nov 18, 2018 02:46:19.711484000 +07
  180  31.275346 32:32:32:32:32:32 5dBm Nov 18, 2018 02:46:19.866143000 +07
  181  32.791715 32:32:32:32:32:32 7dBm Nov 18, 2018 02:46:21.382512000 +07
  182  33.359008 32:32:32:32:32:32 8dBm Nov 18, 2018 02:46:21.949805000 +07
  183  33.938783 32:32:32:32:32:32 4dBm Nov 18, 2018 02:46:22.529580000 +07
  184  34.252481 32:32:32:32:32:32 2dBm Nov 18, 2018 02:46:22.843278000 +07
  185  34.397141 32:32:32:32:32:32 6dBm Nov 18, 2018 02:46:22.987938000 +07
  186  34.530934 32:32:32:32:32:32 7dBm Nov 18, 2018 02:46:23.121731000 +07
  187  35.523324 32:32:32:32:32:32 6dBm Nov 18, 2018 02:46:24.114121000 +07
  188  35.584794 32:32:32:32:32:32 6dBm Nov 18, 2018 02:46:24.175591000 +07
  189  36.111045 32:32:32:32:32:32 6dBm Nov 18, 2018 02:46:24.701842000 +07
  190  36.238195 32:32:32:32:32:32 4dBm Nov 18, 2018 02:46:24.828992000 +07
  191  36.269246 32:32:32:32:32:32 8dBm Nov 18, 2018 02:46:24.860043000 +07
  192  36.303697 32:32:32:32:32:32 6dBm Nov 18, 2018 02:46:24.894494000 +07
  193  36.360159 32:32:32:32:32:32 8dBm Nov 18, 2018 02:46:24.950956000 +07
  194  36.382440 32:32:32:32:32:32 7dBm Nov 18, 2018 02:46:24.973237000 +07
  195  36.462979 32:32:32:32:32:32 5dBm Nov 18, 2018 02:46:25.053776000 +07
  196  36.775583 32:32:32:32:32:32 3dBm Nov 18, 2018 02:46:25.366380000 +07
  197  37.639026 32:32:32:32:32:32 4dBm Nov 18, 2018 02:46:26.229823000 +07
  198  37.967909 32:32:32:32:32:32 7dBm Nov 18, 2018 02:46:26.558706000 +07
  199  38.786766 32:32:32:32:32:32 6dBm Nov 18, 2018 02:46:27.377563000 +07
  200  38.833976 32:32:32:32:32:32 6dBm Nov 18, 2018 02:46:27.424773000 +07
  201  38.857486 32:32:32:32:32:32 5dBm Nov 18, 2018 02:46:27.448283000 +07
  202  39.117639 32:32:32:32:32:32 4dBm Nov 18, 2018 02:46:27.708436000 +07
  203  39.167462 32:32:32:32:32:32 5dBm Nov 18, 2018 02:46:27.758259000 +07
  204  39.845834 32:32:32:32:32:32 4dBm Nov 18, 2018 02:46:28.436631000 +07
  205  39.934815 32:32:32:32:32:32 9dBm Nov 18, 2018 02:46:28.525612000 +07
  206  39.975267 32:32:32:32:32:32 4dBm Nov 18, 2018 02:46:28.566064000 +07
  207  39.999763 32:32:32:32:32:32 7dBm Nov 18, 2018 02:46:28.590560000 +07
  208  40.316643 32:32:32:32:32:32 4dBm Nov 18, 2018 02:46:28.907440000 +07
  209  40.523024 32:32:32:32:32:32 6dBm Nov 18, 2018 02:46:29.113821000 +07
  210  40.551864 32:32:32:32:32:32 6dBm Nov 18, 2018 02:46:29.142661000 +07
  211  40.634407 32:32:32:32:32:32 5dBm Nov 18, 2018 02:46:29.225204000 +07
  212  41.903334 32:32:32:32:32:32 7dBm Nov 18, 2018 02:46:30.494131000 +07
  213  41.992895 32:32:32:32:32:32 8dBm Nov 18, 2018 02:46:30.583692000 +07
  214  42.053952 32:32:32:32:32:32 8dBm Nov 18, 2018 02:46:30.644749000 +07
  215  42.092080 32:32:32:32:32:32 9dBm Nov 18, 2018 02:46:30.682877000 +07
  216  42.175695 32:32:32:32:32:32 9dBm Nov 18, 2018 02:46:30.766492000 +07
  217  42.229549 32:32:32:32:32:32 7dBm Nov 18, 2018 02:46:30.820346000 +07
  218  42.292433 32:32:32:32:32:32 6dBm Nov 18, 2018 02:46:30.883230000 +07
  219  42.327607 32:32:32:32:32:32 6dBm Nov 18, 2018 02:46:30.918404000 +07
  220  42.347701 32:32:32:32:32:32 6dBm Nov 18, 2018 02:46:30.938498000 +07
  221  42.478557 32:32:32:32:32:32 5dBm Nov 18, 2018 02:46:31.069354000 +07
  222  42.510793 32:32:32:32:32:32 6dBm Nov 18, 2018 02:46:31.101590000 +07
  223  42.554355 32:32:32:32:32:32 3dBm Nov 18, 2018 02:46:31.145152000 +07
  224  42.737794 32:32:32:32:32:32 5dBm Nov 18, 2018 02:46:31.328591000 +07
  225  42.822667 32:32:32:32:32:32 3dBm Nov 18, 2018 02:46:31.413464000 +07
  226  42.950843 32:32:32:32:32:32 6dBm Nov 18, 2018 02:46:31.541640000 +07
  227  42.984298 32:32:32:32:32:32 5dBm Nov 18, 2018 02:46:31.575095000 +07
  228  43.003223 32:32:32:32:32:32 6dBm Nov 18, 2018 02:46:31.594020000 +07
  229  43.023037 32:32:32:32:32:32 6dBm Nov 18, 2018 02:46:31.613834000 +07
  230  43.078427 32:32:32:32:32:32 6dBm Nov 18, 2018 02:46:31.669224000 +07
  231  43.096513 32:32:32:32:32:32 5dBm Nov 18, 2018 02:46:31.687310000 +07
  232  43.117831 32:32:32:32:32:32 6dBm Nov 18, 2018 02:46:31.708628000 +07
  233  43.183159 32:32:32:32:32:32 6dBm Nov 18, 2018 02:46:31.773956000 +07
  234  43.212432 32:32:32:32:32:32 5dBm Nov 18, 2018 02:46:31.803229000 +07
  235  43.309837 32:32:32:32:32:32 4dBm Nov 18, 2018 02:46:31.900634000 +07
  236  43.386824 32:32:32:32:32:32 5dBm Nov 18, 2018 02:46:31.977621000 +07
  237  43.444237 32:32:32:32:32:32 5dBm Nov 18, 2018 02:46:32.035034000 +07
  238  43.522214 32:32:32:32:32:32 5dBm Nov 18, 2018 02:46:32.113011000 +07
  239  43.567553 32:32:32:32:32:32 4dBm Nov 18, 2018 02:46:32.158350000 +07
  240  43.785377 32:32:32:32:32:32 7dBm Nov 18, 2018 02:46:32.376174000 +07
  241  43.821708 32:32:32:32:32:32 7dBm Nov 18, 2018 02:46:32.412505000 +07
  242  43.948192 32:32:32:32:32:32 4dBm Nov 18, 2018 02:46:32.538989000 +07
  243  43.987068 32:32:32:32:32:32 6dBm Nov 18, 2018 02:46:32.577865000 +07
  244  44.110701 32:32:32:32:32:32 5dBm Nov 18, 2018 02:46:32.701498000 +07
  245  44.145146 32:32:32:32:32:32 5dBm Nov 18, 2018 02:46:32.735943000 +07
  246  44.276588 32:32:32:32:32:32 5dBm Nov 18, 2018 02:46:32.867385000 +07
  247  44.362133 32:32:32:32:32:32 6dBm Nov 18, 2018 02:46:32.952930000 +07
  248  44.455596 32:32:32:32:32:32 7dBm Nov 18, 2018 02:46:33.046393000 +07
  249  44.525826 32:32:32:32:32:32 7dBm Nov 18, 2018 02:46:33.116623000 +07
  250  44.577005 32:32:32:32:32:32 3dBm Nov 18, 2018 02:46:33.167802000 +07
  251  44.825550 32:32:32:32:32:32 6dBm Nov 18, 2018 02:46:33.416347000 +07
  252  45.942437 32:32:32:32:32:32 5dBm Nov 18, 2018 02:46:34.533234000 +07
  253  45.991497 32:32:32:32:32:32 6dBm Nov 18, 2018 02:46:34.582294000 +07
  254  46.011350 32:32:32:32:32:32 6dBm Nov 18, 2018 02:46:34.602147000 +07
  255  46.058155 32:32:32:32:32:32 4dBm Nov 18, 2018 02:46:34.648952000 +07
  256  46.256503 32:32:32:32:32:32 4dBm Nov 18, 2018 02:46:34.847300000 +07
  257  46.368788 32:32:32:32:32:32 6dBm Nov 18, 2018 02:46:34.959585000 +07
  258  46.392353 32:32:32:32:32:32 5dBm Nov 18, 2018 02:46:34.983150000 +07
  259  46.591937 32:32:32:32:32:32 9dBm Nov 18, 2018 02:46:35.182734000 +07
  260  46.627886 32:32:32:32:32:32 7dBm Nov 18, 2018 02:46:35.218683000 +07
  261  46.754801 32:32:32:32:32:32 6dBm Nov 18, 2018 02:46:35.345598000 +07
  262  46.834451 32:32:32:32:32:32 6dBm Nov 18, 2018 02:46:35.425248000 +07
  263  46.857888 32:32:32:32:32:32 6dBm Nov 18, 2018 02:46:35.448685000 +07
  264  46.958292 32:32:32:32:32:32 7dBm Nov 18, 2018 02:46:35.549089000 +07
  265  46.973670 32:32:32:32:32:32 7dBm Nov 18, 2018 02:46:35.564467000 +07
  266  46.998363 32:32:32:32:32:32 7dBm Nov 18, 2018 02:46:35.589160000 +07
  267  47.089340 32:32:32:32:32:32 6dBm Nov 18, 2018 02:46:35.680137000 +07
  268  47.170732 32:32:32:32:32:32 7dBm Nov 18, 2018 02:46:35.761529000 +07
  269  47.209623 32:32:32:32:32:32 6dBm Nov 18, 2018 02:46:35.800420000 +07
  270  47.294249 32:32:32:32:32:32 6dBm Nov 18, 2018 02:46:35.885046000 +07
  271  47.345388 32:32:32:32:32:32 5dBm Nov 18, 2018 02:46:35.936185000 +07
  272  47.389122 32:32:32:32:32:32 7dBm Nov 18, 2018 02:46:35.979919000 +07
  273  47.437977 32:32:32:32:32:32 4dBm Nov 18, 2018 02:46:36.028774000 +07
  274  47.514020 32:32:32:32:32:32 7dBm Nov 18, 2018 02:46:36.104817000 +07
  275  47.593691 32:32:32:32:32:32 6dBm Nov 18, 2018 02:46:36.184488000 +07
  276  47.669296 32:32:32:32:32:32 7dBm Nov 18, 2018 02:46:36.260093000 +07
  277  47.769499 32:32:32:32:32:32 6dBm Nov 18, 2018 02:46:36.360296000 +07
  278  48.095289 32:32:32:32:32:32 2dBm Nov 18, 2018 02:46:36.686086000 +07
  279  49.342926 32:32:32:32:32:32 7dBm Nov 18, 2018 02:46:37.933723000 +07
  280  49.377811 32:32:32:32:32:32 7dBm Nov 18, 2018 02:46:37.968608000 +07
  281  49.386170 32:32:32:32:32:32 7dBm Nov 18, 2018 02:46:37.976967000 +07
  282  49.437844 32:32:32:32:32:32 4dBm Nov 18, 2018 02:46:38.028641000 +07
  283  49.462894 32:32:32:32:32:32 8dBm Nov 18, 2018 02:46:38.053691000 +07
  284  49.482376 32:32:32:32:32:32 6dBm Nov 18, 2018 02:46:38.073173000 +07
  285  49.542869 32:32:32:32:32:32 7dBm Nov 18, 2018 02:46:38.133666000 +07
  286  49.598585 32:32:32:32:32:32 7dBm Nov 18, 2018 02:46:38.189382000 +07
  287  49.755185 32:32:32:32:32:32 6dBm Nov 18, 2018 02:46:38.345982000 +07
  288  49.794919 32:32:32:32:32:32 8dBm Nov 18, 2018 02:46:38.385716000 +07
  289  49.827497 32:32:32:32:32:32 8dBm Nov 18, 2018 02:46:38.418294000 +07
  290  49.833608 32:32:32:32:32:32 7dBm Nov 18, 2018 02:46:38.424405000 +07
  291  50.007315 32:32:32:32:32:32 5dBm Nov 18, 2018 02:46:38.598112000 +07
  292  50.639410 32:32:32:32:32:32 6dBm Nov 18, 2018 02:46:39.230207000 +07
  293  50.746948 32:32:32:32:32:32 5dBm Nov 18, 2018 02:46:39.337745000 +07
  294  50.786307 32:32:32:32:32:32 7dBm Nov 18, 2018 02:46:39.377104000 +07
  295  50.905546 32:32:32:32:32:32 9dBm Nov 18, 2018 02:46:39.496343000 +07
  296  51.188371 32:32:32:32:32:32 6dBm Nov 18, 2018 02:46:39.779168000 +07
  297  51.408681 32:32:32:32:32:32 7dBm Nov 18, 2018 02:46:39.999478000 +07
  298  51.438166 32:32:32:32:32:32 7dBm Nov 18, 2018 02:46:40.028963000 +07
  299  51.470957 32:32:32:32:32:32 8dBm Nov 18, 2018 02:46:40.061754000 +07
  300  51.488609 32:32:32:32:32:32 6dBm Nov 18, 2018 02:46:40.079406000 +07
  301  51.620856 32:32:32:32:32:32 7dBm Nov 18, 2018 02:46:40.211653000 +07
  302  51.657095 32:32:32:32:32:32 7dBm Nov 18, 2018 02:46:40.247892000 +07
  303  51.695454 32:32:32:32:32:32 7dBm Nov 18, 2018 02:46:40.286251000 +07
  304  51.725386 32:32:32:32:32:32 6dBm Nov 18, 2018 02:46:40.316183000 +07
  305  51.772450 32:32:32:32:32:32 8dBm Nov 18, 2018 02:46:40.363247000 +07
  306  51.842314 32:32:32:32:32:32 6dBm Nov 18, 2018 02:46:40.433111000 +07
  307  51.905913 32:32:32:32:32:32 7dBm Nov 18, 2018 02:46:40.496710000 +07
  308  52.039494 32:32:32:32:32:32 7dBm Nov 18, 2018 02:46:40.630291000 +07
  309  52.122639 32:32:32:32:32:32 5dBm Nov 18, 2018 02:46:40.713436000 +07
  310  52.186871 32:32:32:32:32:32 5dBm Nov 18, 2018 02:46:40.777668000 +07
  311  52.229136 32:32:32:32:32:32 7dBm Nov 18, 2018 02:46:40.819933000 +07
  312  52.473504 32:32:32:32:32:32 4dBm Nov 18, 2018 02:46:41.064301000 +07
  313  52.586812 32:32:32:32:32:32 4dBm Nov 18, 2018 02:46:41.177609000 +07
  314  53.943119 32:32:32:32:32:32 6dBm Nov 18, 2018 02:46:42.533916000 +07
  315  53.984910 32:32:32:32:32:32 5dBm Nov 18, 2018 02:46:42.575707000 +07
  316  54.155264 32:32:32:32:32:32 5dBm Nov 18, 2018 02:46:42.746061000 +07
  317  54.182224 32:32:32:32:32:32 6dBm Nov 18, 2018 02:46:42.773021000 +07
  318  54.239676 32:32:32:32:32:32 6dBm Nov 18, 2018 02:46:42.830473000 +07
  319  54.336021 32:32:32:32:32:32 6dBm Nov 18, 2018 02:46:42.926818000 +07
  320  54.544538 32:32:32:32:32:32 8dBm Nov 18, 2018 02:46:43.135335000 +07
  321  54.608017 32:32:32:32:32:32 7dBm Nov 18, 2018 02:46:43.198814000 +07
  322  54.701630 32:32:32:32:32:32 7dBm Nov 18, 2018 02:46:43.292427000 +07
  323  54.811782 32:32:32:32:32:32 6dBm Nov 18, 2018 02:46:43.402579000 +07
  324  54.888540 32:32:32:32:32:32 5dBm Nov 18, 2018 02:46:43.479337000 +07
  325  54.954150 32:32:32:32:32:32 4dBm Nov 18, 2018 02:46:43.544947000 +07
  326  55.311747 32:32:32:32:32:32 5dBm Nov 18, 2018 02:46:43.902544000 +07
  327  55.357573 32:32:32:32:32:32 7dBm Nov 18, 2018 02:46:43.948370000 +07
  328  55.363608 32:32:32:32:32:32 5dBm Nov 18, 2018 02:46:43.954405000 +07
  329  55.492142 32:32:32:32:32:32 6dBm Nov 18, 2018 02:46:44.082939000 +07
  330  55.565980 32:32:32:32:32:32 7dBm Nov 18, 2018 02:46:44.156777000 +07
  331  55.758188 32:32:32:32:32:32 6dBm Nov 18, 2018 02:46:44.348985000 +07
  332  56.126266 32:32:32:32:32:32 8dBm Nov 18, 2018 02:46:44.717063000 +07
  333  56.319903 32:32:32:32:32:32 6dBm Nov 18, 2018 02:46:44.910700000 +07
  334  56.339507 32:32:32:32:32:32 7dBm Nov 18, 2018 02:46:44.930304000 +07
  335  56.442038 32:32:32:32:32:32 7dBm Nov 18, 2018 02:46:45.032835000 +07
  336  56.702538 32:32:32:32:32:32 6dBm Nov 18, 2018 02:46:45.293335000 +07
  337  56.733598 32:32:32:32:32:32 3dBm Nov 18, 2018 02:46:45.324395000 +07
  338  56.742390 32:32:32:32:32:32 6dBm Nov 18, 2018 02:46:45.333187000 +07
  339  56.845260 32:32:32:32:32:32 8dBm Nov 18, 2018 02:46:45.436057000 +07
  340  56.900340 32:32:32:32:32:32 7dBm Nov 18, 2018 02:46:45.491137000 +07
  341  56.951828 32:32:32:32:32:32 8dBm Nov 18, 2018 02:46:45.542625000 +07
  342  56.968708 32:32:32:32:32:32 7dBm Nov 18, 2018 02:46:45.559505000 +07
  343  57.066404 32:32:32:32:32:32 5dBm Nov 18, 2018 02:46:45.657201000 +07
  344  57.623697 32:32:32:32:32:32 3dBm Nov 18, 2018 02:46:46.214494000 +07
  345  57.868561 32:32:32:32:32:32 5dBm Nov 18, 2018 02:46:46.459358000 +07
  346  58.038230 32:32:32:32:32:32 7dBm Nov 18, 2018 02:46:46.629027000 +07
  347  58.088605 32:32:32:32:32:32 3dBm Nov 18, 2018 02:46:46.679402000 +07
  348  58.151574 32:32:32:32:32:32 7dBm Nov 18, 2018 02:46:46.742371000 +07
  349  58.175625 32:32:32:32:32:32 8dBm Nov 18, 2018 02:46:46.766422000 +07
  350  58.191162 32:32:32:32:32:32 8dBm Nov 18, 2018 02:46:46.781959000 +07
  351  58.266714 32:32:32:32:32:32 9dBm Nov 18, 2018 02:46:46.857511000 +07
  352  58.375074 32:32:32:32:32:32 7dBm Nov 18, 2018 02:46:46.965871000 +07
  353  58.480947 32:32:32:32:32:32 4dBm Nov 18, 2018 02:46:47.071744000 +07
  354  58.548904 32:32:32:32:32:32 4dBm Nov 18, 2018 02:46:47.139701000 +07
  355  58.702213 32:32:32:32:32:32 6dBm Nov 18, 2018 02:46:47.293010000 +07
  356  58.765768 32:32:32:32:32:32 8dBm Nov 18, 2018 02:46:47.356565000 +07
  357  59.292073 32:32:32:32:32:32 7dBm Nov 18, 2018 02:46:47.882870000 +07
  358  59.576201 32:32:32:32:32:32 6dBm Nov 18, 2018 02:46:48.166998000 +07
  359  59.629467 32:32:32:32:32:32 5dBm Nov 18, 2018 02:46:48.220264000 +07
  360  59.706350 32:32:32:32:32:32 4dBm Nov 18, 2018 02:46:48.297147000 +07
  361  60.389933 32:32:32:32:32:32 5dBm Nov 18, 2018 02:46:48.980730000 +07
  362  60.573594 32:32:32:32:32:32 4dBm Nov 18, 2018 02:46:49.164391000 +07
  363  62.194577 32:32:32:32:32:32 3dBm Nov 18, 2018 02:46:50.785374000 +07
  364  62.804243 32:32:32:32:32:32 5dBm Nov 18, 2018 02:46:51.395040000 +07
  365  63.101598 32:32:32:32:32:32 4dBm Nov 18, 2018 02:46:51.692395000 +07
  366  63.326038 32:32:32:32:32:32 4dBm Nov 18, 2018 02:46:51.916835000 +07
  367  63.350828 32:32:32:32:32:32 5dBm Nov 18, 2018 02:46:51.941625000 +07
  368  63.422573 32:32:32:32:32:32 6dBm Nov 18, 2018 02:46:52.013370000 +07
  369  63.918976 32:32:32:32:32:32 6dBm Nov 18, 2018 02:46:52.509773000 +07
  370  64.455225 32:32:32:32:32:32 5dBm Nov 18, 2018 02:46:53.046022000 +07
  371  64.545300 32:32:32:32:32:32 5dBm Nov 18, 2018 02:46:53.136097000 +07
  372  64.877432 32:32:32:32:32:32 5dBm Nov 18, 2018 02:46:53.468229000 +07
  373  64.943588 32:32:32:32:32:32 2dBm Nov 18, 2018 02:46:53.534385000 +07
  374  65.655858 32:32:32:32:32:32 5dBm Nov 18, 2018 02:46:54.246655000 +07
  375  65.950186 32:32:32:32:32:32 4dBm Nov 18, 2018 02:46:54.540983000 +07
  376  65.992392 32:32:32:32:32:32 5dBm Nov 18, 2018 02:46:54.583189000 +07
  377  66.899686 32:32:32:32:32:32 4dBm Nov 18, 2018 02:46:55.490483000 +07
  378  66.973180 32:32:32:32:32:32 2dBm Nov 18, 2018 02:46:55.563977000 +07
  379  67.399238 32:32:32:32:32:32 6dBm Nov 18, 2018 02:46:55.990035000 +07
  380  67.502431 32:32:32:32:32:32 4dBm Nov 18, 2018 02:46:56.093228000 +07
  381  67.608419 32:32:32:32:32:32 4dBm Nov 18, 2018 02:46:56.199216000 +07
  382  67.673471 32:32:32:32:32:32 2dBm Nov 18, 2018 02:46:56.264268000 +07
  383  67.870281 32:32:32:32:32:32 5dBm Nov 18, 2018 02:46:56.461078000 +07
  384  67.891997 32:32:32:32:32:32 6dBm Nov 18, 2018 02:46:56.482794000 +07
  385  68.164390 32:32:32:32:32:32 5dBm Nov 18, 2018 02:46:56.755187000 +07
  386  68.317999 32:32:32:32:32:32 6dBm Nov 18, 2018 02:46:56.908796000 +07
  387  69.478126 32:32:32:32:32:32 6dBm Nov 18, 2018 02:46:58.068923000 +07
  388  69.773796 32:32:32:32:32:32 5dBm Nov 18, 2018 02:46:58.364593000 +07
  389  70.127851 32:32:32:32:32:32 4dBm Nov 18, 2018 02:46:58.718648000 +07
  390  70.311281 32:32:32:32:32:32 1dBm Nov 18, 2018 02:46:58.902078000 +07
  391  70.355252 32:32:32:32:32:32 6dBm Nov 18, 2018 02:46:58.946049000 +07
  392  70.560414 32:32:32:32:32:32 6dBm Nov 18, 2018 02:46:59.151211000 +07
  393  70.715818 32:32:32:32:32:32 4dBm Nov 18, 2018 02:46:59.306615000 +07
  394  70.985425 32:32:32:32:32:32 5dBm Nov 18, 2018 02:46:59.576222000 +07
  395  71.017652 32:32:32:32:32:32 6dBm Nov 18, 2018 02:46:59.608449000 +07
  396  71.083692 32:32:32:32:32:32 8dBm Nov 18, 2018 02:46:59.674489000 +07
  397  71.137962 32:32:32:32:32:32 5dBm Nov 18, 2018 02:46:59.728759000 +07
  398  71.368962 32:32:32:32:32:32 8dBm Nov 18, 2018 02:46:59.959759000 +07
  399  71.524375 32:32:32:32:32:32 6dBm Nov 18, 2018 02:47:00.115172000 +07
  400  71.550403 32:32:32:32:32:32 9dBm Nov 18, 2018 02:47:00.141200000 +07
  401  72.440844 32:32:32:32:32:32 6dBm Nov 18, 2018 02:47:01.031641000 +07
  402  72.535602 32:32:32:32:32:32 7dBm Nov 18, 2018 02:47:01.126399000 +07
  403  72.660840 32:32:32:32:32:32 3dBm Nov 18, 2018 02:47:01.251637000 +07
  404  73.183666 32:32:32:32:32:32 7dBm Nov 18, 2018 02:47:01.774463000 +07
  405  73.292396 32:32:32:32:32:32 7dBm Nov 18, 2018 02:47:01.883193000 +07
  406  73.356632 32:32:32:32:32:32 8dBm Nov 18, 2018 02:47:01.947429000 +07
  407  73.378336 32:32:32:32:32:32 7dBm Nov 18, 2018 02:47:01.969133000 +07
  408  73.384766 32:32:32:32:32:32 6dBm Nov 18, 2018 02:47:01.975563000 +07
  409  73.515281 32:32:32:32:32:32 5dBm Nov 18, 2018 02:47:02.106078000 +07
  410  73.825656 32:32:32:32:32:32 4dBm Nov 18, 2018 02:47:02.416453000 +07
  411  73.975531 32:32:32:32:32:32 8dBm Nov 18, 2018 02:47:02.566328000 +07
  412  74.154168 32:32:32:32:32:32 6dBm Nov 18, 2018 02:47:02.744965000 +07
  413  74.211019 32:32:32:32:32:32 6dBm Nov 18, 2018 02:47:02.801816000 +07
  414  74.284643 32:32:32:32:32:32 7dBm Nov 18, 2018 02:47:02.875440000 +07
  415  74.289625 32:32:32:32:32:32 8dBm Nov 18, 2018 02:47:02.880422000 +07
  416  74.488876 32:32:32:32:32:32 9dBm Nov 18, 2018 02:47:03.079673000 +07
  417  74.738466 32:32:32:32:32:32 7dBm Nov 18, 2018 02:47:03.329263000 +07
  418  74.766136 32:32:32:32:32:32 6dBm Nov 18, 2018 02:47:03.356933000 +07
  419  74.963180 32:32:32:32:32:32 9dBm Nov 18, 2018 02:47:03.553977000 +07
  420  74.992309 32:32:32:32:32:32 9dBm Nov 18, 2018 02:47:03.583106000 +07
  421  75.040888 32:32:32:32:32:32 7dBm Nov 18, 2018 02:47:03.631685000 +07
  422  75.147520 32:32:32:32:32:32 8dBm Nov 18, 2018 02:47:03.738317000 +07
  423  75.158933 32:32:32:32:32:32 8dBm Nov 18, 2018 02:47:03.749730000 +07
  424  75.446868 32:32:32:32:32:32 9dBm Nov 18, 2018 02:47:04.037665000 +07
  425  75.471606 32:32:32:32:32:32 8dBm Nov 18, 2018 02:47:04.062403000 +07
  426  75.507487 32:32:32:32:32:32 8dBm Nov 18, 2018 02:47:04.098284000 +07
  427  75.624843 32:32:32:32:32:32 8dBm Nov 18, 2018 02:47:04.215640000 +07
  428  75.796746 32:32:32:32:32:32 9dBm Nov 18, 2018 02:47:04.387543000 +07
  429  75.857433 32:32:32:32:32:32 8dBm Nov 18, 2018 02:47:04.448230000 +07
  430  75.866568 32:32:32:32:32:32 9dBm Nov 18, 2018 02:47:04.457365000 +07
  431  75.887673 32:32:32:32:32:32 7dBm Nov 18, 2018 02:47:04.478470000 +07
  432  76.001544 32:32:32:32:32:32 9dBm Nov 18, 2018 02:47:04.592341000 +07
  433  76.092575 32:32:32:32:32:32 7dBm Nov 18, 2018 02:47:04.683372000 +07
  434  76.117426 32:32:32:32:32:32 11dBm Nov 18, 2018 02:47:04.708223000 +07
  435  76.177873 32:32:32:32:32:32 9dBm Nov 18, 2018 02:47:04.768670000 +07
  436  76.193677 32:32:32:32:32:32 10dBm Nov 18, 2018 02:47:04.784474000 +07
  437  76.222193 32:32:32:32:32:32 7dBm Nov 18, 2018 02:47:04.812990000 +07
  438  76.236496 32:32:32:32:32:32 8dBm Nov 18, 2018 02:47:04.827293000 +07
  439  76.257394 32:32:32:32:32:32 8dBm Nov 18, 2018 02:47:04.848191000 +07
  440  76.425890 32:32:32:32:32:32 8dBm Nov 18, 2018 02:47:05.016687000 +07
  441  76.444704 32:32:32:32:32:32 7dBm Nov 18, 2018 02:47:05.035501000 +07
  442  76.505363 32:32:32:32:32:32 8dBm Nov 18, 2018 02:47:05.096160000 +07
  443  76.523569 32:32:32:32:32:32 8dBm Nov 18, 2018 02:47:05.114366000 +07
  444  76.559170 32:32:32:32:32:32 8dBm Nov 18, 2018 02:47:05.149967000 +07
  445  76.628409 32:32:32:32:32:32 7dBm Nov 18, 2018 02:47:05.219206000 +07
  446  76.657272 32:32:32:32:32:32 7dBm Nov 18, 2018 02:47:05.248069000 +07
  447  76.830437 32:32:32:32:32:32 7dBm Nov 18, 2018 02:47:05.421234000 +07
  448  76.912374 32:32:32:32:32:32 6dBm Nov 18, 2018 02:47:05.503171000 +07
  449  76.943443 32:32:32:32:32:32 8dBm Nov 18, 2018 02:47:05.534240000 +07
  450  76.967738 32:32:32:32:32:32 5dBm Nov 18, 2018 02:47:05.558535000 +07
  451  77.006275 32:32:32:32:32:32 6dBm Nov 18, 2018 02:47:05.597072000 +07
  452  77.040718 32:32:32:32:32:32 7dBm Nov 18, 2018 02:47:05.631515000 +07
  453  77.087959 32:32:32:32:32:32 4dBm Nov 18, 2018 02:47:05.678756000 +07
  454  77.139743 32:32:32:32:32:32 7dBm Nov 18, 2018 02:47:05.730540000 +07
  455  77.370848 32:32:32:32:32:32 7dBm Nov 18, 2018 02:47:05.961645000 +07
  456  77.557709 32:32:32:32:32:32 6dBm Nov 18, 2018 02:47:06.148506000 +07
  457  77.652706 32:32:32:32:32:32 4dBm Nov 18, 2018 02:47:06.243503000 +07
  458  77.718343 32:32:32:32:32:32 6dBm Nov 18, 2018 02:47:06.309140000 +07
  459  77.791185 32:32:32:32:32:32 7dBm Nov 18, 2018 02:47:06.381982000 +07
  460  77.866129 32:32:32:32:32:32 6dBm Nov 18, 2018 02:47:06.456926000 +07
  461  77.887610 32:32:32:32:32:32 8dBm Nov 18, 2018 02:47:06.478407000 +07
  462  77.911660 32:32:32:32:32:32 8dBm Nov 18, 2018 02:47:06.502457000 +07
  463  77.936973 32:32:32:32:32:32 6dBm Nov 18, 2018 02:47:06.527770000 +07
  464  77.973860 32:32:32:32:32:32 7dBm Nov 18, 2018 02:47:06.564657000 +07
  465  77.991714 32:32:32:32:32:32 8dBm Nov 18, 2018 02:47:06.582511000 +07
  466  78.012705 32:32:32:32:32:32 6dBm Nov 18, 2018 02:47:06.603502000 +07
  467  78.035964 32:32:32:32:32:32 6dBm Nov 18, 2018 02:47:06.626761000 +07
  468  78.091957 32:32:32:32:32:32 8dBm Nov 18, 2018 02:47:06.682754000 +07
  469  78.120461 32:32:32:32:32:32 7dBm Nov 18, 2018 02:47:06.711258000 +07
  470  78.770482 32:32:32:32:32:32 5dBm Nov 18, 2018 02:47:07.361279000 +07
  471  78.895984 32:32:32:32:32:32 7dBm Nov 18, 2018 02:47:07.486781000 +07
  472  78.915676 32:32:32:32:32:32 8dBm Nov 18, 2018 02:47:07.506473000 +07
  473  78.942361 32:32:32:32:32:32 7dBm Nov 18, 2018 02:47:07.533158000 +07
  474  78.972546 32:32:32:32:32:32 6dBm Nov 18, 2018 02:47:07.563343000 +07
  475  79.106263 32:32:32:32:32:32 5dBm Nov 18, 2018 02:47:07.697060000 +07
  476  79.897253 32:32:32:32:32:32 2dBm Nov 18, 2018 02:47:08.488050000 +07
  477  80.214967 32:32:32:32:32:32 6dBm Nov 18, 2018 02:47:08.805764000 +07
  478  82.085525 32:32:32:32:32:32 6dBm Nov 18, 2018 02:47:10.676322000 +07
  479  82.237268 32:32:32:32:32:32 7dBm Nov 18, 2018 02:47:10.828065000 +07
  480  82.266910 32:32:32:32:32:32 7dBm Nov 18, 2018 02:47:10.857707000 +07
  481  82.737850 32:32:32:32:32:32 6dBm Nov 18, 2018 02:47:11.328647000 +07
  482  83.413745 32:32:32:32:32:32 6dBm Nov 18, 2018 02:47:12.004542000 +07
  483  83.617484 32:32:32:32:32:32 6dBm Nov 18, 2018 02:47:12.208281000 +07
  484  83.663085 32:32:32:32:32:32 4dBm Nov 18, 2018 02:47:12.253882000 +07
  485  84.371044 32:32:32:32:32:32 6dBm Nov 18, 2018 02:47:12.961841000 +07
  486  84.804639 32:32:32:32:32:32 4dBm Nov 18, 2018 02:47:13.395436000 +07
  487  85.699268 32:32:32:32:32:32 5dBm Nov 18, 2018 02:47:14.290065000 +07
  488  85.875361 32:32:32:32:32:32 5dBm Nov 18, 2018 02:47:14.466158000 +07
  489  86.695356 32:32:32:32:32:32 3dBm Nov 18, 2018 02:47:15.286153000 +07
  490  86.800473 32:32:32:32:32:32 5dBm Nov 18, 2018 02:47:15.391270000 +07
  491  86.826234 32:32:32:32:32:32 6dBm Nov 18, 2018 02:47:15.417031000 +07
  492  87.157970 32:32:32:32:32:32 4dBm Nov 18, 2018 02:47:15.748767000 +07
  493  87.256448 32:32:32:32:32:32 5dBm Nov 18, 2018 02:47:15.847245000 +07
  494  87.330872 32:32:32:32:32:32 6dBm Nov 18, 2018 02:47:15.921669000 +07
  495  87.350611 32:32:32:32:32:32 7dBm Nov 18, 2018 02:47:15.941408000 +07
  496  88.157903 32:32:32:32:32:32 5dBm Nov 18, 2018 02:47:16.748700000 +07
  497  88.210547 32:32:32:32:32:32 6dBm Nov 18, 2018 02:47:16.801344000 +07
  498  88.337463 32:32:32:32:32:32 5dBm Nov 18, 2018 02:47:16.928260000 +07
  499  88.809770 32:32:32:32:32:32 5dBm Nov 18, 2018 02:47:17.400567000 +07
  500  89.106118 32:32:32:32:32:32 5dBm Nov 18, 2018 02:47:17.696915000 +07
  501  89.612570 32:32:32:32:32:32 6dBm Nov 18, 2018 02:47:18.203367000 +07
  502  90.227807 32:32:32:32:32:32 5dBm Nov 18, 2018 02:47:18.818604000 +07
  503  90.520819 32:32:32:32:32:32 7dBm Nov 18, 2018 02:47:19.111616000 +07
  504  90.694748 32:32:32:32:32:32 5dBm Nov 18, 2018 02:47:19.285545000 +07
  505  90.979822 32:32:32:32:32:32 3dBm Nov 18, 2018 02:47:19.570619000 +07
  506  91.386163 32:32:32:32:32:32 3dBm Nov 18, 2018 02:47:19.976960000 +07
  507  91.562707 32:32:32:32:32:32 5dBm Nov 18, 2018 02:47:20.153504000 +07
  508  91.760518 32:32:32:32:32:32 6dBm Nov 18, 2018 02:47:20.351315000 +07
  509  92.552245 32:32:32:32:32:32 7dBm Nov 18, 2018 02:47:21.143042000 +07
  510  92.617148 32:32:32:32:32:32 6dBm Nov 18, 2018 02:47:21.207945000 +07
  511  92.713436 32:32:32:32:32:32 5dBm Nov 18, 2018 02:47:21.304233000 +07
  512  92.730873 32:32:32:32:32:32 5dBm Nov 18, 2018 02:47:21.321670000 +07
  513  92.750977 32:32:32:32:32:32 6dBm Nov 18, 2018 02:47:21.341774000 +07
  514  92.806110 32:32:32:32:32:32 5dBm Nov 18, 2018 02:47:21.396907000 +07
  515  92.841383 32:32:32:32:32:32 6dBm Nov 18, 2018 02:47:21.432180000 +07
  516  92.884645 32:32:32:32:32:32 5dBm Nov 18, 2018 02:47:21.475442000 +07
  517  92.913932 32:32:32:32:32:32 6dBm Nov 18, 2018 02:47:21.504729000 +07
  518  92.941069 32:32:32:32:32:32 4dBm Nov 18, 2018 02:47:21.531866000 +07
  519  92.968119 32:32:32:32:32:32 8dBm Nov 18, 2018 02:47:21.558916000 +07
  520  93.061285 32:32:32:32:32:32 5dBm Nov 18, 2018 02:47:21.652082000 +07
  521  93.246385 32:32:32:32:32:32 7dBm Nov 18, 2018 02:47:21.837182000 +07
  522  93.280250 32:32:32:32:32:32 7dBm Nov 18, 2018 02:47:21.871047000 +07
  523  93.552499 32:32:32:32:32:32 7dBm Nov 18, 2018 02:47:22.143296000 +07
  524  93.665907 32:32:32:32:32:32 7dBm Nov 18, 2018 02:47:22.256704000 +07
  525  93.722797 32:32:32:32:32:32 6dBm Nov 18, 2018 02:47:22.313594000 +07
  526  93.806346 32:32:32:32:32:32 8dBm Nov 18, 2018 02:47:22.397143000 +07
  527  93.818926 32:32:32:32:32:32 6dBm Nov 18, 2018 02:47:22.409723000 +07
  528  93.875772 32:32:32:32:32:32 5dBm Nov 18, 2018 02:47:22.466569000 +07
  529  93.942846 32:32:32:32:32:32 6dBm Nov 18, 2018 02:47:22.533643000 +07
  530  94.128811 32:32:32:32:32:32 7dBm Nov 18, 2018 02:47:22.719608000 +07
  531  94.135721 32:32:32:32:32:32 8dBm Nov 18, 2018 02:47:22.726518000 +07
  532  94.211767 32:32:32:32:32:32 6dBm Nov 18, 2018 02:47:22.802564000 +07
  533  94.280125 32:32:32:32:32:32 8dBm Nov 18, 2018 02:47:22.870922000 +07
  534  94.288026 32:32:32:32:32:32 5dBm Nov 18, 2018 02:47:22.878823000 +07
  535  94.309094 32:32:32:32:32:32 7dBm Nov 18, 2018 02:47:22.899891000 +07
  536  94.361191 32:32:32:32:32:32 5dBm Nov 18, 2018 02:47:22.951988000 +07
  537  94.377878 32:32:32:32:32:32 6dBm Nov 18, 2018 02:47:22.968675000 +07
  538  94.392516 32:32:32:32:32:32 5dBm Nov 18, 2018 02:47:22.983313000 +07
  539  94.571717 32:32:32:32:32:32 7dBm Nov 18, 2018 02:47:23.162514000 +07
  540  94.659723 32:32:32:32:32:32 7dBm Nov 18, 2018 02:47:23.250520000 +07
  541  94.706445 32:32:32:32:32:32 8dBm Nov 18, 2018 02:47:23.297242000 +07
  542  94.740321 32:32:32:32:32:32 5dBm Nov 18, 2018 02:47:23.331118000 +07
  543  94.813683 32:32:32:32:32:32 6dBm Nov 18, 2018 02:47:23.404480000 +07
  544  94.853029 32:32:32:32:32:32 7dBm Nov 18, 2018 02:47:23.443826000 +07
  545  94.934878 32:32:32:32:32:32 8dBm Nov 18, 2018 02:47:23.525675000 +07
  546  95.060253 32:32:32:32:32:32 6dBm Nov 18, 2018 02:47:23.651050000 +07
  547  95.102378 32:32:32:32:32:32 6dBm Nov 18, 2018 02:47:23.693175000 +07
  548  95.279634 32:32:32:32:32:32 8dBm Nov 18, 2018 02:47:23.870431000 +07
  549  95.396821 32:32:32:32:32:32 5dBm Nov 18, 2018 02:47:23.987618000 +07
  550  95.456539 32:32:32:32:32:32 7dBm Nov 18, 2018 02:47:24.047336000 +07
  551  95.571840 32:32:32:32:32:32 7dBm Nov 18, 2018 02:47:24.162637000 +07
  552  95.621232 32:32:32:32:32:32 7dBm Nov 18, 2018 02:47:24.212029000 +07
  553  95.640102 32:32:32:32:32:32 8dBm Nov 18, 2018 02:47:24.230899000 +07
  554  95.691808 32:32:32:32:32:32 6dBm Nov 18, 2018 02:47:24.282605000 +07
  555  95.710236 32:32:32:32:32:32 7dBm Nov 18, 2018 02:47:24.301033000 +07
  556  95.731440 32:32:32:32:32:32 8dBm Nov 18, 2018 02:47:24.322237000 +07
  557  95.752605 32:32:32:32:32:32 8dBm Nov 18, 2018 02:47:24.343402000 +07
  558  95.781290 32:32:32:32:32:32 7dBm Nov 18, 2018 02:47:24.372087000 +07
  559  95.858708 32:32:32:32:32:32 7dBm Nov 18, 2018 02:47:24.449505000 +07
  560  95.933424 32:32:32:32:32:32 9dBm Nov 18, 2018 02:47:24.524221000 +07
  561  95.968080 32:32:32:32:32:32 7dBm Nov 18, 2018 02:47:24.558877000 +07
  562  96.067845 32:32:32:32:32:32 5dBm Nov 18, 2018 02:47:24.658642000 +07
  563  96.128624 32:32:32:32:32:32 8dBm Nov 18, 2018 02:47:24.719421000 +07
  564  96.149926 32:32:32:32:32:32 9dBm Nov 18, 2018 02:47:24.740723000 +07
  565  96.179863 32:32:32:32:32:32 7dBm Nov 18, 2018 02:47:24.770660000 +07
  566  96.206018 32:32:32:32:32:32 8dBm Nov 18, 2018 02:47:24.796815000 +07
  567  96.303085 32:32:32:32:32:32 6dBm Nov 18, 2018 02:47:24.893882000 +07
  568  96.437841 32:32:32:32:32:32 7dBm Nov 18, 2018 02:47:25.028638000 +07
  569  96.458309 32:32:32:32:32:32 7dBm Nov 18, 2018 02:47:25.049106000 +07
  570  96.512715 32:32:32:32:32:32 7dBm Nov 18, 2018 02:47:25.103512000 +07
  571  96.554740 32:32:32:32:32:32 7dBm Nov 18, 2018 02:47:25.145537000 +07
  572  96.574422 32:32:32:32:32:32 7dBm Nov 18, 2018 02:47:25.165219000 +07
  573  96.595622 32:32:32:32:32:32 7dBm Nov 18, 2018 02:47:25.186419000 +07
  574  96.614782 32:32:32:32:32:32 7dBm Nov 18, 2018 02:47:25.205579000 +07
  575  96.619956 32:32:32:32:32:32 7dBm Nov 18, 2018 02:47:25.210753000 +07
  576  96.655280 32:32:32:32:32:32 6dBm Nov 18, 2018 02:47:25.246077000 +07
  577  96.742161 32:32:32:32:32:32 5dBm Nov 18, 2018 02:47:25.332958000 +07
  578  96.760929 32:32:32:32:32:32 6dBm Nov 18, 2018 02:47:25.351726000 +07
  579  96.802053 32:32:32:32:32:32 7dBm Nov 18, 2018 02:47:25.392850000 +07
  580  96.849370 32:32:32:32:32:32 4dBm Nov 18, 2018 02:47:25.440167000 +07
  581  96.901876 32:32:32:32:32:32 6dBm Nov 18, 2018 02:47:25.492673000 +07
  582  96.939372 32:32:32:32:32:32 7dBm Nov 18, 2018 02:47:25.530169000 +07
  583  97.015296 32:32:32:32:32:32 7dBm Nov 18, 2018 02:47:25.606093000 +07
  584  97.059441 32:32:32:32:32:32 7dBm Nov 18, 2018 02:47:25.650238000 +07
  585  97.081109 32:32:32:32:32:32 4dBm Nov 18, 2018 02:47:25.671906000 +07
  586  97.172608 32:32:32:32:32:32 9dBm Nov 18, 2018 02:47:25.763405000 +07
  587  97.232010 32:32:32:32:32:32 7dBm Nov 18, 2018 02:47:25.822807000 +07
  588  97.269624 32:32:32:32:32:32 9dBm Nov 18, 2018 02:47:25.860421000 +07
  589  97.321610 32:32:32:32:32:32 8dBm Nov 18, 2018 02:47:25.912407000 +07
  590  97.378528 32:32:32:32:32:32 6dBm Nov 18, 2018 02:47:25.969325000 +07
  591  97.393094 32:32:32:32:32:32 7dBm Nov 18, 2018 02:47:25.983891000 +07
  592  97.508591 32:32:32:32:32:32 7dBm Nov 18, 2018 02:47:26.099388000 +07
  593  97.572001 32:32:32:32:32:32 6dBm Nov 18, 2018 02:47:26.162798000 +07
  594  97.597375 32:32:32:32:32:32 7dBm Nov 18, 2018 02:47:26.188172000 +07
  595  97.615605 32:32:32:32:32:32 6dBm Nov 18, 2018 02:47:26.206402000 +07
  596  97.636874 32:32:32:32:32:32 5dBm Nov 18, 2018 02:47:26.227671000 +07
  597  97.655894 32:32:32:32:32:32 7dBm Nov 18, 2018 02:47:26.246691000 +07
  598  97.673263 32:32:32:32:32:32 7dBm Nov 18, 2018 02:47:26.264060000 +07
  599  97.702501 32:32:32:32:32:32 7dBm Nov 18, 2018 02:47:26.293298000 +07
  600  97.822166 32:32:32:32:32:32 6dBm Nov 18, 2018 02:47:26.412963000 +07
  601  97.989937 32:32:32:32:32:32 6dBm Nov 18, 2018 02:47:26.580734000 +07
  602  97.995525 32:32:32:32:32:32 7dBm Nov 18, 2018 02:47:26.586322000 +07
  603  98.020908 32:32:32:32:32:32 6dBm Nov 18, 2018 02:47:26.611705000 +07
  604  98.043113 32:32:32:32:32:32 6dBm Nov 18, 2018 02:47:26.633910000 +07
  605  98.205768 32:32:32:32:32:32 6dBm Nov 18, 2018 02:47:26.796565000 +07
  606  98.223658 32:32:32:32:32:32 6dBm Nov 18, 2018 02:47:26.814455000 +07
  607  98.435338 32:32:32:32:32:32 4dBm Nov 18, 2018 02:47:27.026135000 +07
  608  98.778547 32:32:32:32:32:32 8dBm Nov 18, 2018 02:47:27.369344000 +07
  609  98.918684 32:32:32:32:32:32 7dBm Nov 18, 2018 02:47:27.509481000 +07
  610  98.939183 32:32:32:32:32:32 7dBm Nov 18, 2018 02:47:27.529980000 +07
  611  98.958578 32:32:32:32:32:32 6dBm Nov 18, 2018 02:47:27.549375000 +07
  612  99.057617 32:32:32:32:32:32 7dBm Nov 18, 2018 02:47:27.648414000 +07
  613  99.242893 32:32:32:32:32:32 7dBm Nov 18, 2018 02:47:27.833690000 +07
  614  99.371097 32:32:32:32:32:32 6dBm Nov 18, 2018 02:47:27.961894000 +07
  615  99.391139 32:32:32:32:32:32 8dBm Nov 18, 2018 02:47:27.981936000 +07
  616  99.594605 32:32:32:32:32:32 6dBm Nov 18, 2018 02:47:28.185402000 +07
  617  99.635310 32:32:32:32:32:32 7dBm Nov 18, 2018 02:47:28.226107000 +07
  618  99.682624 32:32:32:32:32:32 5dBm Nov 18, 2018 02:47:28.273421000 +07
  619  99.744386 32:32:32:32:32:32 6dBm Nov 18, 2018 02:47:28.335183000 +07
  620  99.833722 32:32:32:32:32:32 5dBm Nov 18, 2018 02:47:28.424519000 +07
  621  99.924595 32:32:32:32:32:32 7dBm Nov 18, 2018 02:47:28.515392000 +07
  622  99.940615 32:32:32:32:32:32 6dBm Nov 18, 2018 02:47:28.531412000 +07
  623 100.049550 32:32:32:32:32:32 4dBm Nov 18, 2018 02:47:28.640347000 +07
  624 100.087527 32:32:32:32:32:32 6dBm Nov 18, 2018 02:47:28.678324000 +07
  625 100.092922 32:32:32:32:32:32 8dBm Nov 18, 2018 02:47:28.683719000 +07
  626 100.121052 32:32:32:32:32:32 7dBm Nov 18, 2018 02:47:28.711849000 +07
  627 100.288690 32:32:32:32:32:32 6dBm Nov 18, 2018 02:47:28.879487000 +07
  628 100.310085 32:32:32:32:32:32 6dBm Nov 18, 2018 02:47:28.900882000 +07
  629 100.331882 32:32:32:32:32:32 3dBm Nov 18, 2018 02:47:28.922679000 +07
  630 100.351650 32:32:32:32:32:32 7dBm Nov 18, 2018 02:47:28.942447000 +07
  631 100.369594 32:32:32:32:32:32 7dBm Nov 18, 2018 02:47:28.960391000 +07
  632 100.445384 32:32:32:32:32:32 6dBm Nov 18, 2018 02:47:29.036181000 +07
  633 100.497201 32:32:32:32:32:32 7dBm Nov 18, 2018 02:47:29.087998000 +07
  634 100.560347 32:32:32:32:32:32 6dBm Nov 18, 2018 02:47:29.151144000 +07
  635 100.640641 32:32:32:32:32:32 5dBm Nov 18, 2018 02:47:29.231438000 +07
  636 101.098626 32:32:32:32:32:32 5dBm Nov 18, 2018 02:47:29.689423000 +07
  637 101.196206 32:32:32:32:32:32 6dBm Nov 18, 2018 02:47:29.787003000 +07
  638 101.215638 32:32:32:32:32:32 6dBm Nov 18, 2018 02:47:29.806435000 +07
  639 101.252702 32:32:32:32:32:32 7dBm Nov 18, 2018 02:47:29.843499000 +07
  640 101.408879 32:32:32:32:32:32 6dBm Nov 18, 2018 02:47:29.999676000 +07
  641 101.447338 32:32:32:32:32:32 6dBm Nov 18, 2018 02:47:30.038135000 +07
  642 101.513811 32:32:32:32:32:32 3dBm Nov 18, 2018 02:47:30.104608000 +07
  643 101.582204 32:32:32:32:32:32 8dBm Nov 18, 2018 02:47:30.173001000 +07
  644 101.593290 32:32:32:32:32:32 6dBm Nov 18, 2018 02:47:30.184087000 +07
  645 101.659724 32:32:32:32:32:32 7dBm Nov 18, 2018 02:47:30.250521000 +07
  646 101.743066 32:32:32:32:32:32 6dBm Nov 18, 2018 02:47:30.333863000 +07
  647 101.887734 32:32:32:32:32:32 6dBm Nov 18, 2018 02:47:30.478531000 +07
  648 101.891006 32:32:32:32:32:32 4dBm Nov 18, 2018 02:47:30.481803000 +07
  649 101.988865 32:32:32:32:32:32 6dBm Nov 18, 2018 02:47:30.579662000 +07
  650 102.210915 32:32:32:32:32:32 6dBm Nov 18, 2018 02:47:30.801712000 +07
  651 102.272773 32:32:32:32:32:32 6dBm Nov 18, 2018 02:47:30.863570000 +07
  652 102.337625 32:32:32:32:32:32 6dBm Nov 18, 2018 02:47:30.928422000 +07
  653 102.363369 32:32:32:32:32:32 6dBm Nov 18, 2018 02:47:30.954166000 +07
  654 102.891060 32:32:32:32:32:32 5dBm Nov 18, 2018 02:47:31.481857000 +07
  655 103.361343 32:32:32:32:32:32 5dBm Nov 18, 2018 02:47:31.952140000 +07
  656 103.507721 32:32:32:32:32:32 6dBm Nov 18, 2018 02:47:32.098518000 +07
  657 103.699436 32:32:32:32:32:32 4dBm Nov 18, 2018 02:47:32.290233000 +07
  658 103.794470 32:32:32:32:32:32 8dBm Nov 18, 2018 02:47:32.385267000 +07
  659 103.822662 32:32:32:32:32:32 5dBm Nov 18, 2018 02:47:32.413459000 +07
  660 103.865763 32:32:32:32:32:32 6dBm Nov 18, 2018 02:47:32.456560000 +07
  661 103.992280 32:32:32:32:32:32 7dBm Nov 18, 2018 02:47:32.583077000 +07
  662 104.016808 32:32:32:32:32:32 7dBm Nov 18, 2018 02:47:32.607605000 +07
  663 104.195619 32:32:32:32:32:32 6dBm Nov 18, 2018 02:47:32.786416000 +07
  664 104.937229 32:32:32:32:32:32 2dBm Nov 18, 2018 02:47:33.528026000 +07
  665 105.066178 32:32:32:32:32:32 5dBm Nov 18, 2018 02:47:33.656975000 +07
  666 105.300590 32:32:32:32:32:32 6dBm Nov 18, 2018 02:47:33.891387000 +07
  667 105.331534 32:32:32:32:32:32 7dBm Nov 18, 2018 02:47:33.922331000 +07
  668 105.424919 32:32:32:32:32:32 7dBm Nov 18, 2018 02:47:34.015716000 +07
  669 105.445990 32:32:32:32:32:32 7dBm Nov 18, 2018 02:47:34.036787000 +07
  670 105.527996 32:32:32:32:32:32 6dBm Nov 18, 2018 02:47:34.118793000 +07
  671 106.167992 32:32:32:32:32:32 5dBm Nov 18, 2018 02:47:34.758789000 +07
  672 106.382814 32:32:32:32:32:32 6dBm Nov 18, 2018 02:47:34.973611000 +07
  673 106.410561 32:32:32:32:32:32 6dBm Nov 18, 2018 02:47:35.001358000 +07
  674 106.481892 32:32:32:32:32:32 6dBm Nov 18, 2018 02:47:35.072689000 +07
  675 106.517958 32:32:32:32:32:32 7dBm Nov 18, 2018 02:47:35.108755000 +07
  676 106.556560 32:32:32:32:32:32 7dBm Nov 18, 2018 02:47:35.147357000 +07
  677 106.582885 32:32:32:32:32:32 7dBm Nov 18, 2018 02:47:35.173682000 +07
  678 106.606674 32:32:32:32:32:32 4dBm Nov 18, 2018 02:47:35.197471000 +07
  679 106.741165 32:32:32:32:32:32 7dBm Nov 18, 2018 02:47:35.331962000 +07
  680 106.846237 32:32:32:32:32:32 5dBm Nov 18, 2018 02:47:35.437034000 +07
  681 106.864124 32:32:32:32:32:32 7dBm Nov 18, 2018 02:47:35.454921000 +07
  682 106.909781 32:32:32:32:32:32 6dBm Nov 18, 2018 02:47:35.500578000 +07
  683 106.934818 32:32:32:32:32:32 6dBm Nov 18, 2018 02:47:35.525615000 +07
  684 107.026485 32:32:32:32:32:32 6dBm Nov 18, 2018 02:47:35.617282000 +07
  685 107.073797 32:32:32:32:32:32 5dBm Nov 18, 2018 02:47:35.664594000 +07
  686 107.133527 32:32:32:32:32:32 5dBm Nov 18, 2018 02:47:35.724324000 +07
  687 107.234600 32:32:32:32:32:32 6dBm Nov 18, 2018 02:47:35.825397000 +07
  688 107.253130 32:32:32:32:32:32 6dBm Nov 18, 2018 02:47:35.843927000 +07
  689 107.874064 32:32:32:32:32:32 5dBm Nov 18, 2018 02:47:36.464861000 +07
  690 108.019855 32:32:32:32:32:32 5dBm Nov 18, 2018 02:47:36.610652000 +07
  691 108.324564 32:32:32:32:32:32 3dBm Nov 18, 2018 02:47:36.915361000 +07
  692 108.585108 32:32:32:32:32:32 5dBm Nov 18, 2018 02:47:37.175905000 +07
  693 109.429797 32:32:32:32:32:32 4dBm Nov 18, 2018 02:47:38.020594000 +07
  694 109.645084 32:32:32:32:32:32 3dBm Nov 18, 2018 02:47:38.235881000 +07
  695 109.904262 32:32:32:32:32:32 4dBm Nov 18, 2018 02:47:38.495059000 +07
  696 112.913282 32:32:32:32:32:32 5dBm Nov 18, 2018 02:47:41.504079000 +07
  697 113.318673 32:32:32:32:32:32 5dBm Nov 18, 2018 02:47:41.909470000 +07
  698 113.375414 32:32:32:32:32:32 7dBm Nov 18, 2018 02:47:41.966211000 +07
  699 113.443964 32:32:32:32:32:32 5dBm Nov 18, 2018 02:47:42.034761000 +07
  700 113.652400 32:32:32:32:32:32 5dBm Nov 18, 2018 02:47:42.243197000 +07
  701 113.783103 32:32:32:32:32:32 5dBm Nov 18, 2018 02:47:42.373900000 +07
  702 114.251841 32:32:32:32:32:32 6dBm Nov 18, 2018 02:47:42.842638000 +07
  703 114.310371 32:32:32:32:32:32 7dBm Nov 18, 2018 02:47:42.901168000 +07
  704 114.373531 32:32:32:32:32:32 4dBm Nov 18, 2018 02:47:42.964328000 +07
  705 114.392576 32:32:32:32:32:32 6dBm Nov 18, 2018 02:47:42.983373000 +07
  706 114.430010 32:32:32:32:32:32 5dBm Nov 18, 2018 02:47:43.020807000 +07
  707 114.472373 32:32:32:32:32:32 5dBm Nov 18, 2018 02:47:43.063170000 +07
  708 114.490849 32:32:32:32:32:32 6dBm Nov 18, 2018 02:47:43.081646000 +07
  709 115.375018 32:32:32:32:32:32 6dBm Nov 18, 2018 02:47:43.965815000 +07
  710 115.435300 32:32:32:32:32:32 5dBm Nov 18, 2018 02:47:44.026097000 +07
  711 115.745842 32:32:32:32:32:32 4dBm Nov 18, 2018 02:47:44.336639000 +07
  712 115.887608 32:32:32:32:32:32 6dBm Nov 18, 2018 02:47:44.478405000 +07
  713 115.919046 32:32:32:32:32:32 7dBm Nov 18, 2018 02:47:44.509843000 +07
  714 116.545871 32:32:32:32:32:32 4dBm Nov 18, 2018 02:47:45.136668000 +07
  715 116.831698 32:32:32:32:32:32 5dBm Nov 18, 2018 02:47:45.422495000 +07
  716 117.510192 32:32:32:32:32:32 5dBm Nov 18, 2018 02:47:46.100989000 +07
  717 117.671968 32:32:32:32:32:32 6dBm Nov 18, 2018 02:47:46.262765000 +07
  718 117.681305 32:32:32:32:32:32 6dBm Nov 18, 2018 02:47:46.272102000 +07
  719 117.717208 32:32:32:32:32:32 6dBm Nov 18, 2018 02:47:46.308005000 +07
  720 117.811906 32:32:32:32:32:32 6dBm Nov 18, 2018 02:47:46.402703000 +07
  721 117.863327 32:32:32:32:32:32 5dBm Nov 18, 2018 02:47:46.454124000 +07
  722 118.081689 32:32:32:32:32:32 6dBm Nov 18, 2018 02:47:46.672486000 +07
  723 118.158318 32:32:32:32:32:32 4dBm Nov 18, 2018 02:47:46.749115000 +07
  724 118.174345 32:32:32:32:32:32 5dBm Nov 18, 2018 02:47:46.765142000 +07
  725 118.186680 32:32:32:32:32:32 7dBm Nov 18, 2018 02:47:46.777477000 +07
  726 118.251854 32:32:32:32:32:32 6dBm Nov 18, 2018 02:47:46.842651000 +07
  727 118.322881 32:32:32:32:32:32 7dBm Nov 18, 2018 02:47:46.913678000 +07
  728 118.592876 32:32:32:32:32:32 4dBm Nov 18, 2018 02:47:47.183673000 +07
  729 119.687756 32:32:32:32:32:32 5dBm Nov 18, 2018 02:47:48.278553000 +07
  730 120.326754 32:32:32:32:32:32 4dBm Nov 18, 2018 02:47:48.917551000 +07
  731 120.437244 32:32:32:32:32:32 4dBm Nov 18, 2018 02:47:49.028041000 +07
  732 121.040884 32:32:32:32:32:32 4dBm Nov 18, 2018 02:47:49.631681000 +07
  733 121.084548 32:32:32:32:32:32 6dBm Nov 18, 2018 02:47:49.675345000 +07
  734 121.123894 32:32:32:32:32:32 4dBm Nov 18, 2018 02:47:49.714691000 +07
  735 121.166721 32:32:32:32:32:32 8dBm Nov 18, 2018 02:47:49.757518000 +07
  736 121.265054 32:32:32:32:32:32 4dBm Nov 18, 2018 02:47:49.855851000 +07
  737 121.335906 32:32:32:32:32:32 3dBm Nov 18, 2018 02:47:49.926703000 +07
  738 121.363913 32:32:32:32:32:32 6dBm Nov 18, 2018 02:47:49.954710000 +07
  739 121.382590 32:32:32:32:32:32 3dBm Nov 18, 2018 02:47:49.973387000 +07
  740 121.482338 32:32:32:32:32:32 7dBm Nov 18, 2018 02:47:50.073135000 +07
  741 121.572131 32:32:32:32:32:32 5dBm Nov 18, 2018 02:47:50.162928000 +07
  742 121.716339 32:32:32:32:32:32 6dBm Nov 18, 2018 02:47:50.307136000 +07
  743 121.755540 32:32:32:32:32:32 5dBm Nov 18, 2018 02:47:50.346337000 +07
  744 121.815952 32:32:32:32:32:32 7dBm Nov 18, 2018 02:47:50.406749000 +07
  745 122.044893 32:32:32:32:32:32 6dBm Nov 18, 2018 02:47:50.635690000 +07
  746 122.063121 32:32:32:32:32:32 5dBm Nov 18, 2018 02:47:50.653918000 +07
  747 122.330659 32:32:32:32:32:32 4dBm Nov 18, 2018 02:47:50.921456000 +07
  748 122.392104 32:32:32:32:32:32 6dBm Nov 18, 2018 02:47:50.982901000 +07
  749 122.452260 32:32:32:32:32:32 6dBm Nov 18, 2018 02:47:51.043057000 +07
  750 122.779600 32:32:32:32:32:32 6dBm Nov 18, 2018 02:47:51.370397000 +07
  751 122.829723 32:32:32:32:32:32 6dBm Nov 18, 2018 02:47:51.420520000 +07
  752 122.856324 32:32:32:32:32:32 6dBm Nov 18, 2018 02:47:51.447121000 +07
  753 122.998989 32:32:32:32:32:32 3dBm Nov 18, 2018 02:47:51.589786000 +07
  754 123.040645 32:32:32:32:32:32 6dBm Nov 18, 2018 02:47:51.631442000 +07
  755 123.062418 32:32:32:32:32:32 6dBm Nov 18, 2018 02:47:51.653215000 +07
