    1   0.000000 32:32:32:32:32:32 14dBm
    2   0.139830 32:32:32:32:32:32 12dBm
    3   0.204667 32:32:32:32:32:32 13dBm
    4   0.230378 32:32:32:32:32:32 12dBm
    5   0.326786 32:32:32:32:32:32 15dBm
    6   0.405552 32:32:32:32:32:32 13dBm
    7   0.439715 32:32:32:32:32:32 10dBm
    8   0.502754 32:32:32:32:32:32 14dBm
    9   0.583044 32:32:32:32:32:32 12dBm
   10   0.645378 32:32:32:32:32:32 12dBm
   11   0.709098 32:32:32:32:32:32 14dBm
   12   0.749541 32:32:32:32:32:32 13dBm
   13   0.919715 32:32:32:32:32:32 15dBm
   14   0.988103 32:32:32:32:32:32 15dBm
   15   1.019888 32:32:32:32:32:32 14dBm
   16   1.047213 32:32:32:32:32:32 14dBm
   17   1.189646 32:32:32:32:32:32 14dBm
   18   1.210673 32:32:32:32:32:32 14dBm
   19   1.268035 32:32:32:32:32:32 15dBm
   20   1.346576 32:32:32:32:32:32 15dBm
   21   1.522480 32:32:32:32:32:32 14dBm
   22   1.608435 32:32:32:32:32:32 14dBm
   23   1.644504 32:32:32:32:32:32 14dBm
   24   1.906251 32:32:32:32:32:32 14dBm
   25   1.956989 32:32:32:32:32:32 13dBm
   26   1.995455 32:32:32:32:32:32 14dBm
   27   2.039029 32:32:32:32:32:32 12dBm
   28   2.069860 32:32:32:32:32:32 14dBm
   29   2.091923 32:32:32:32:32:32 14dBm
   30   2.103214 32:32:32:32:32:32 15dBm
   31   2.118015 32:32:32:32:32:32 14dBm
   32   2.163893 32:32:32:32:32:32 16dBm
   33   2.196156 32:32:32:32:32:32 13dBm
   34   2.268401 32:32:32:32:32:32 15dBm
   35   2.293119 32:32:32:32:32:32 13dBm
   36   2.328071 32:32:32:32:32:32 13dBm
   37   2.349510 32:32:32:32:32:32 12dBm
   38   2.412180 32:32:32:32:32:32 14dBm
   39   2.458479 32:32:32:32:32:32 13dBm
   40   2.499481 32:32:32:32:32:32 14dBm
   41   2.581832 32:32:32:32:32:32 15dBm
   42   2.623933 32:32:32:32:32:32 13dBm
   43   2.634920 32:32:32:32:32:32 14dBm
   44   2.657546 32:32:32:32:32:32 15dBm
   45   2.667679 32:32:32:32:32:32 14dBm
   46   2.712780 32:32:32:32:32:32 13dBm
   47   2.781182 32:32:32:32:32:32 14dBm
   48   2.796020 32:32:32:32:32:32 13dBm
   49   2.816197 32:32:32:32:32:32 14dBm
   50   2.853521 32:32:32:32:32:32 13dBm
   51   2.877582 32:32:32:32:32:32 14dBm
   52   3.050022 32:32:32:32:32:32 15dBm
   53   3.080002 32:32:32:32:32:32 14dBm
   54   3.177711 32:32:32:32:32:32 14dBm
   55   3.202610 32:32:32:32:32:32 14dBm
   56   3.336078 32:32:32:32:32:32 12dBm
   57   3.451896 32:32:32:32:32:32 15dBm
   58   3.542232 32:32:32:32:32:32 14dBm
   59   3.566511 32:32:32:32:32:32 14dBm
   60   3.589986 32:32:32:32:32:32 14dBm
   61   3.760646 32:32:32:32:32:32 13dBm
   62   3.810468 32:32:32:32:32:32 12dBm
   63   3.982011 32:32:32:32:32:32 14dBm
   64   4.051995 32:32:32:32:32:32 14dBm
   65   4.140381 32:32:32:32:32:32 14dBm
   66   4.165121 32:32:32:32:32:32 14dBm
   67   4.214704 32:32:32:32:32:32 14dBm
   68   4.289041 32:32:32:32:32:32 15dBm
   69   4.397456 32:32:32:32:32:32 15dBm
   70   4.456564 32:32:32:32:32:32 15dBm
   71   4.471544 32:32:32:32:32:32 15dBm
   72   4.569656 32:32:32:32:32:32 13dBm
   73   4.591567 32:32:32:32:32:32 14dBm
   74   4.611663 32:32:32:32:32:32 12dBm
   75   4.865117 32:32:32:32:32:32 12dBm
   76   4.959937 32:32:32:32:32:32 15dBm
   77   5.029534 32:32:32:32:32:32 14dBm
   78   5.108855 32:32:32:32:32:32 14dBm
   79   5.129849 32:32:32:32:32:32 13dBm
   80   5.192716 32:32:32:32:32:32 14dBm
   81   5.221510 32:32:32:32:32:32 14dBm
   82   5.301716 32:32:32:32:32:32 12dBm
   83   5.380547 32:32:32:32:32:32 13dBm
   84   5.402749 32:32:32:32:32:32 12dBm
   85   5.452905 32:32:32:32:32:32 13dBm
   86   5.492154 32:32:32:32:32:32 12dBm
   87   5.512942 32:32:32:32:32:32 12dBm
   88   5.651291 32:32:32:32:32:32 14dBm
   89   5.758000 32:32:32:32:32:32 14dBm
   90   5.794239 32:32:32:32:32:32 14dBm
   91   5.812948 32:32:32:32:32:32 14dBm
   92   5.919685 32:32:32:32:32:32 12dBm
   93   5.965678 32:32:32:32:32:32 14dBm
   94   5.977076 32:32:32:32:32:32 14dBm
   95   6.058328 32:32:32:32:32:32 14dBm
   96   6.096961 32:32:32:32:32:32 13dBm
   97   6.183148 32:32:32:32:32:32 13dBm
   98   6.317163 32:32:32:32:32:32 13dBm
   99   6.355902 32:32:32:32:32:32 12dBm
  100   6.564813 32:32:32:32:32:32 14dBm
  101   6.596197 32:32:32:32:32:32 13dBm
  102   6.601361 32:32:32:32:32:32 15dBm
  103   6.642074 32:32:32:32:32:32 15dBm
  104   6.672071 32:32:32:32:32:32 13dBm
  105   6.731391 32:32:32:32:32:32 12dBm
  106   6.800371 32:32:32:32:32:32 14dBm
  107   6.832194 32:32:32:32:32:32 14dBm
  108   6.849304 32:32:32:32:32:32 13dBm
  109   6.884960 32:32:32:32:32:32 13dBm
  110   6.945494 32:32:32:32:32:32 13dBm
  111   7.085090 32:32:32:32:32:32 13dBm
  112   7.100402 32:32:32:32:32:32 13dBm
  113   7.137483 32:32:32:32:32:32 14dBm
  114   7.157066 32:32:32:32:32:32 14dBm
  115   7.196550 32:32:32:32:32:32 13dBm
  116   7.282118 32:32:32:32:32:32 14dBm
  117   7.306232 32:32:32:32:32:32 14dBm
  118   7.342823 32:32:32:32:32:32 14dBm
  119   7.396994 32:32:32:32:32:32 14dBm
  120   7.502675 32:32:32:32:32:32 13dBm
  121   7.618728 32:32:32:32:32:32 12dBm
  122   7.663703 32:32:32:32:32:32 12dBm
  123   7.746274 32:32:32:32:32:32 15dBm
  124   7.785349 32:32:32:32:32:32 16dBm
  125   7.845560 32:32:32:32:32:32 14dBm
  126   7.937647 32:32:32:32:32:32 15dBm
  127   7.974402 32:32:32:32:32:32 15dBm
  128   8.063662 32:32:32:32:32:32 11dBm
  129   8.105150 32:32:32:32:32:32 14dBm
  130   8.195295 32:32:32:32:32:32 10dBm
  131   8.381448 32:32:32:32:32:32 14dBm
  132   8.451812 32:32:32:32:32:32 14dBm
  133   8.473546 32:32:32:32:32:32 15dBm
  134   8.508951 32:32:32:32:32:32 13dBm
  135   8.575771 32:32:32:32:32:32 15dBm
  136   8.594752 32:32:32:32:32:32 14dBm
  137   8.739200 32:32:32:32:32:32 13dBm
  138   8.763608 32:32:32:32:32:32 13dBm
  139   8.889458 32:32:32:32:32:32 14dBm
  140   8.921505 32:32:32:32:32:32 15dBm
  141   9.015286 32:32:32:32:32:32 15dBm
  142   9.053922 32:32:32:32:32:32 15dBm
  143   9.081761 32:32:32:32:32:32 15dBm
  144   9.108579 32:32:32:32:32:32 13dBm
  145   9.123764 32:32:32:32:32:32 15dBm
  146   9.543389 32:32:32:32:32:32 15dBm
  147   9.578966 32:32:32:32:32:32 15dBm
  148   9.628879 32:32:32:32:32:32 13dBm
  149   9.686967 32:32:32:32:32:32 14dBm
  150   9.789669 32:32:32:32:32:32 14dBm
  151   9.809814 32:32:32:32:32:32 13dBm
  152   9.839730 32:32:32:32:32:32 15dBm
  153   9.858110 32:32:32:32:32:32 14dBm
  154   9.958698 32:32:32:32:32:32 13dBm
  155   9.978478 32:32:32:32:32:32 14dBm
  156  10.047540 32:32:32:32:32:32 14dBm
  157  10.131156 32:32:32:32:32:32 14dBm
  158  10.209575 32:32:32:32:32:32 13dBm
  159  10.327022 32:32:32:32:32:32 16dBm
  160  10.396902 32:32:32:32:32:32 14dBm
  161  10.441610 32:32:32:32:32:32 15dBm
  162  10.490493 32:32:32:32:32:32 14dBm
  163  10.549432 32:32:32:32:32:32 10dBm
  164  10.649716 32:32:32:32:32:32 11dBm
  165  10.702228 32:32:32:32:32:32 14dBm
  166  10.707900 32:32:32:32:32:32 13dBm
  167  10.765660 32:32:32:32:32:32 14dBm
  168  10.984357 32:32:32:32:32:32 15dBm
  169  11.025368 32:32:32:32:32:32 13dBm
  170  11.087742 32:32:32:32:32:32 14dBm
  171  11.117948 32:32:32:32:32:32 16dBm
  172  11.225445 32:32:32:32:32:32 14dBm
  173  11.243339 32:32:32:32:32:32 13dBm
  174  11.324290 32:32:32:32:32:32 14dBm
  175  11.373144 32:32:32:32:32:32 13dBm
  176  11.423342 32:32:32:32:32:32 14dBm
  177  11.525603 32:32:32:32:32:32 14dBm
  178  11.637223 32:32:32:32:32:32 13dBm
  179  11.664316 32:32:32:32:32:32 11dBm
  180  11.710162 32:32:32:32:32:32 14dBm
  181  11.746491 32:32:32:32:32:32 13dBm
  182  11.800524 32:32:32:32:32:32 14dBm
  183  11.842410 32:32:32:32:32:32 14dBm
  184  11.897753 32:32:32:32:32:32 13dBm
  185  11.945231 32:32:32:32:32:32 13dBm
  186  12.021507 32:32:32:32:32:32 13dBm
  187  12.044309 32:32:32:32:32:32 14dBm
  188  12.074125 32:32:32:32:32:32 15dBm
  189  12.243338 32:32:32:32:32:32 13dBm
  190  12.512646 32:32:32:32:32:32 14dBm
  191  12.604234 32:32:32:32:32:32 14dBm
  192  12.716563 32:32:32:32:32:32 12dBm
  193  12.756480 32:32:32:32:32:32 14dBm
  194  12.765261 32:32:32:32:32:32 14dBm
  195  12.784387 32:32:32:32:32:32 14dBm
  196  12.853152 32:32:32:32:32:32 14dBm
  197  12.905316 32:32:32:32:32:32 15dBm
  198  12.981249 32:32:32:32:32:32 13dBm
  199  13.082041 32:32:32:32:32:32 13dBm
  200  13.123314 32:32:32:32:32:32 14dBm
  201  13.182047 32:32:32:32:32:32 12dBm
  202  13.284675 32:32:32:32:32:32 15dBm
  203  13.440437 32:32:32:32:32:32 13dBm
  204  13.724452 32:32:32:32:32:32 15dBm
  205  13.821347 32:32:32:32:32:32 13dBm
  206  13.852284 32:32:32:32:32:32 15dBm
  207  13.905327 32:32:32:32:32:32 15dBm
  208  13.962627 32:32:32:32:32:32 17dBm
  209  14.043742 32:32:32:32:32:32 14dBm
  210  14.079718 32:32:32:32:32:32 15dBm
  211  14.092554 32:32:32:32:32:32 14dBm
  212  14.143897 32:32:32:32:32:32 13dBm
  213  14.203725 32:32:32:32:32:32 14dBm
  214  14.275512 32:32:32:32:32:32 14dBm
  215  14.299899 32:32:32:32:32:32 12dBm
  216  14.348448 32:32:32:32:32:32 13dBm
  217  14.388901 32:32:32:32:32:32 13dBm
  218  14.426224 32:32:32:32:32:32 14dBm
  219  14.437947 32:32:32:32:32:32 12dBm
  220  14.456525 32:32:32:32:32:32 15dBm
  221  14.471307 32:32:32:32:32:32 14dBm
  222  14.489469 32:32:32:32:32:32 13dBm
  223  14.524267 32:32:32:32:32:32 11dBm
  224  14.600017 32:32:32:32:32:32 15dBm
  225  14.637991 32:32:32:32:32:32 15dBm
  226  14.701700 32:32:32:32:32:32 14dBm
  227  14.720064 32:32:32:32:32:32 14dBm
  228  14.758971 32:32:32:32:32:32 14dBm
  229  14.780431 32:32:32:32:32:32 14dBm
  230  14.809086 32:32:32:32:32:32 14dBm
  231  14.959067 32:32:32:32:32:32 14dBm
  232  15.011044 32:32:32:32:32:32 14dBm
  233  15.080087 32:32:32:32:32:32 14dBm
  234  15.138172 32:32:32:32:32:32 15dBm
  235  15.156900 32:32:32:32:32:32 14dBm
  236  15.213017 32:32:32:32:32:32 12dBm
  237  15.224110 32:32:32:32:32:32 14dBm
  238  15.241252 32:32:32:32:32:32 14dBm
  239  15.272654 32:32:32:32:32:32 13dBm
  240  15.316977 32:32:32:32:32:32 14dBm
  241  15.371812 32:32:32:32:32:32 14dBm
  242  15.435947 32:32:32:32:32:32 15dBm
  243  15.467297 32:32:32:32:32:32 15dBm
  244  15.572939 32:32:32:32:32:32 15dBm
  245  15.612425 32:32:32:32:32:32 13dBm
  246  15.643449 32:32:32:32:32:32 13dBm
  247  15.686365 32:32:32:32:32:32 12dBm
  248  15.738696 32:32:32:32:32:32 14dBm
  249  15.758285 32:32:32:32:32:32 15dBm
  250  15.903540 32:32:32:32:32:32 13dBm
  251  15.918825 32:32:32:32:32:32 14dBm
  252  15.972261 32:32:32:32:32:32 13dBm
  253  16.184776 32:32:32:32:32:32 13dBm
  254  16.219113 32:32:32:32:32:32 11dBm
  255  16.322270 32:32:32:32:32:32 12dBm
  256  16.385382 32:32:32:32:32:32 13dBm
  257  16.580530 32:32:32:32:32:32 15dBm
  258  16.661641 32:32:32:32:32:32 13dBm
  259  16.687162 32:32:32:32:32:32 11dBm
  260  16.853500 32:32:32:32:32:32 15dBm
  261  16.859734 32:32:32:32:32:32 15dBm
  262  16.907009 32:32:32:32:32:32 15dBm
  263  16.953202 32:32:32:32:32:32 15dBm
  264  16.976097 32:32:32:32:32:32 15dBm
  265  17.016521 32:32:32:32:32:32 15dBm
  266  17.035716 32:32:32:32:32:32 14dBm
  267  17.124697 32:32:32:32:32:32 14dBm
  268  17.150824 32:32:32:32:32:32 12dBm
  269  17.252765 32:32:32:32:32:32 12dBm
  270  17.300869 32:32:32:32:32:32 12dBm
  271  17.405391 32:32:32:32:32:32 14dBm
  272  17.524182 32:32:32:32:32:32 14dBm
  273  17.609202 32:32:32:32:32:32 14dBm
  274  17.823226 32:32:32:32:32:32 11dBm
  275  17.849934 32:32:32:32:32:32 14dBm
  276  17.922653 32:32:32:32:32:32 14dBm
  277  18.089076 32:32:32:32:32:32 14dBm
  278  18.368628 32:32:32:32:32:32 14dBm
  279  18.387750 32:32:32:32:32:32 15dBm
  280  18.476996 32:32:32:32:32:32 12dBm
  281  18.644722 32:32:32:32:32:32 14dBm
  282  18.660766 32:32:32:32:32:32 14dBm
  283  18.664130 32:32:32:32:32:32 14dBm
  284  18.691002 32:32:32:32:32:32 14dBm
  285  18.783812 32:32:32:32:32:32 15dBm
  286  18.946381 32:32:32:32:32:32 14dBm
  287  19.103632 32:32:32:32:32:32 15dBm
  288  19.162124 32:32:32:32:32:32 11dBm
  289  19.222011 32:32:32:32:32:32 12dBm
  290  19.317886 32:32:32:32:32:32 14dBm
  291  19.353825 32:32:32:32:32:32 12dBm
  292  19.396753 32:32:32:32:32:32 13dBm
  293  19.518173 32:32:32:32:32:32 14dBm
  294  19.592461 32:32:32:32:32:32 14dBm
  295  19.601373 32:32:32:32:32:32 14dBm
  296  19.675742 32:32:32:32:32:32 15dBm
  297  19.740347 32:32:32:32:32:32 13dBm
  298  19.775447 32:32:32:32:32:32 15dBm
  299  19.831304 32:32:32:32:32:32 15dBm
  300  19.836255 32:32:32:32:32:32 14dBm
  301  20.008796 32:32:32:32:32:32 13dBm
  302  20.034989 32:32:32:32:32:32 14dBm
  303  20.062690 32:32:32:32:32:32 14dBm
  304  20.119411 32:32:32:32:32:32 12dBm
  305  20.211290 32:32:32:32:32:32 12dBm
  306  20.284012 32:32:32:32:32:32 12dBm
  307  20.301668 32:32:32:32:32:32 13dBm
  308  20.396064 32:32:32:32:32:32 11dBm
  309  20.445748 32:32:32:32:32:32 14dBm
  310  20.534908 32:32:32:32:32:32 13dBm
  311  20.555059 32:32:32:32:32:32 13dBm
  312  20.660456 32:32:32:32:32:32 15dBm
  313  20.688374 32:32:32:32:32:32 13dBm
  314  20.710022 32:32:32:32:32:32 12dBm
  315  20.755533 32:32:32:32:32:32 11dBm
  316  20.866225 32:32:32:32:32:32 14dBm
  317  20.964447 32:32:32:32:32:32 12dBm
  318  20.997168 32:32:32:32:32:32 13dBm
  319  21.071887 32:32:32:32:32:32 13dBm
  320  21.174909 32:32:32:32:32:32 14dBm
  321  21.301673 32:32:32:32:32:32 14dBm
  322  21.349636 32:32:32:32:32:32 15dBm
  323  21.405166 32:32:32:32:32:32 14dBm
  324  21.432886 32:32:32:32:32:32 13dBm
  325  21.556049 32:32:32:32:32:32 14dBm
  326  21.572886 32:32:32:32:32:32 14dBm
  327  21.658612 32:32:32:32:32:32 14dBm
  328  21.738697 32:32:32:32:32:32 14dBm
  329  21.780883 32:32:32:32:32:32 13dBm
  330  21.797162 32:32:32:32:32:32 12dBm
  331  21.866239 32:32:32:32:32:32 14dBm
  332  21.931155 32:32:32:32:32:32 12dBm
  333  21.957265 32:32:32:32:32:32 14dBm
  334  21.998557 32:32:32:32:32:32 14dBm
  335  22.015430 32:32:32:32:32:32 12dBm
  336  22.049048 32:32:32:32:32:32 14dBm
  337  22.068084 32:32:32:32:32:32 14dBm
  338  22.112050 32:32:32:32:32:32 13dBm
  339  22.220813 32:32:32:32:32:32 14dBm
  340  22.247020 32:32:32:32:32:32 14dBm
  341  22.262359 32:32:32:32:32:32 14dBm
  342  22.283285 32:32:32:32:32:32 12dBm
  343  22.331810 32:32:32:32:32:32 12dBm
  344  22.337174 32:32:32:32:32:32 12dBm
  345  22.547092 32:32:32:32:32:32 13dBm
  346  22.626353 32:32:32:32:32:32 16dBm
  347  22.684451 32:32:32:32:32:32 15dBm
  348  22.763741 32:32:32:32:32:32 13dBm
  349  22.804264 32:32:32:32:32:32 14dBm
  350  22.818551 32:32:32:32:32:32 14dBm
  351  22.860642 32:32:32:32:32:32 14dBm
  352  22.954812 32:32:32:32:32:32 16dBm
  353  22.987834 32:32:32:32:32:32 13dBm
  354  23.054453 32:32:32:32:32:32 14dBm
  355  23.081240 32:32:32:32:32:32 14dBm
  356  23.099614 32:32:32:32:32:32 15dBm
  357  23.234636 32:32:32:32:32:32 13dBm
  358  23.260221 32:32:32:32:32:32 14dBm
  359  23.288792 32:32:32:32:32:32 12dBm
  360  23.325850 32:32:32:32:32:32 13dBm
  361  23.552358 32:32:32:32:32:32 13dBm
  362  23.601701 32:32:32:32:32:32 13dBm
  363  23.723427 32:32:32:32:32:32 14dBm
  364  23.784406 32:32:32:32:32:32 14dBm
  365  23.852121 32:32:32:32:32:32 13dBm
  366  23.885609 32:32:32:32:32:32 13dBm
  367  23.941222 32:32:32:32:32:32 14dBm
  368  23.959799 32:32:32:32:32:32 13dBm
  369  23.984394 32:32:32:32:32:32 14dBm
  370  24.035439 32:32:32:32:32:32 14dBm
  371  24.080274 32:32:32:32:32:32 15dBm
  372  24.135403 32:32:32:32:32:32 14dBm
  373  24.165790 32:32:32:32:32:32 13dBm
  374  24.265814 32:32:32:32:32:32 13dBm
  375  24.404290 32:32:32:32:32:32 11dBm
  376  24.445099 32:32:32:32:32:32 14dBm
  377  24.484159 32:32:32:32:32:32 14dBm
  378  24.596474 32:32:32:32:32:32 12dBm
  379  24.639020 32:32:32:32:32:32 14dBm
  380  24.750144 32:32:32:32:32:32 13dBm
  381  24.775235 32:32:32:32:32:32 13dBm
  382  24.843434 32:32:32:32:32:32 14dBm
  383  24.867074 32:32:32:32:32:32 13dBm
  384  24.998351 32:32:32:32:32:32 15dBm
  385  25.041618 32:32:32:32:32:32 14dBm
  386  25.257540 32:32:32:32:32:32 12dBm
  387  25.311260 32:32:32:32:32:32 14dBm
  388  25.388858 32:32:32:32:32:32 14dBm
  389  25.497782 32:32:32:32:32:32 14dBm
  390  25.606679 32:32:32:32:32:32 14dBm
  391  25.883546 32:32:32:32:32:32 12dBm
  392  25.944168 32:32:32:32:32:32 12dBm
  393  26.155074 32:32:32:32:32:32 13dBm
  394  26.195821 32:32:32:32:32:32 15dBm
  395  26.247522 32:32:32:32:32:32 14dBm
  396  26.374303 32:32:32:32:32:32 15dBm
  397  26.510101 32:32:32:32:32:32 14dBm
  398  26.551574 32:32:32:32:32:32 14dBm
  399  26.574417 32:32:32:32:32:32 14dBm
  400  26.652846 32:32:32:32:32:32 12dBm
  401  26.743705 32:32:32:32:32:32 12dBm
  402  26.842425 32:32:32:32:32:32 14dBm
  403  26.879804 32:32:32:32:32:32 13dBm
  404  26.975528 32:32:32:32:32:32 13dBm
  405  26.992418 32:32:32:32:32:32 13dBm
  406  27.089846 32:32:32:32:32:32 14dBm
  407  27.112231 32:32:32:32:32:32 15dBm
  408  27.220763 32:32:32:32:32:32 15dBm
  409  27.248876 32:32:32:32:32:32 14dBm
  410  27.314557 32:32:32:32:32:32 14dBm
  411  27.486292 32:32:32:32:32:32 11dBm
  412  27.565976 32:32:32:32:32:32 14dBm
  413  27.603560 32:32:32:32:32:32 14dBm
  414  27.626704 32:32:32:32:32:32 14dBm
  415  27.656483 32:32:32:32:32:32 15dBm
  416  27.740058 32:32:32:32:32:32 15dBm
  417  27.791074 32:32:32:32:32:32 15dBm
  418  27.992932 32:32:32:32:32:32 13dBm
  419  28.208280 32:32:32:32:32:32 14dBm
  420  28.267027 32:32:32:32:32:32 14dBm
  421  28.285633 32:32:32:32:32:32 12dBm
  422  28.322939 32:32:32:32:32:32 14dBm
  423  28.608961 32:32:32:32:32:32 14dBm
  424  28.632575 32:32:32:32:32:32 11dBm
  425  28.696423 32:32:32:32:32:32 12dBm
  426  28.715043 32:32:32:32:32:32 14dBm
  427  28.740827 32:32:32:32:32:32 13dBm
  428  28.799685 32:32:32:32:32:32 14dBm
  429  28.834177 32:32:32:32:32:32 13dBm
  430  28.850860 32:32:32:32:32:32 13dBm
  431  28.903867 32:32:32:32:32:32 13dBm
  432  29.012251 32:32:32:32:32:32 15dBm
  433  29.035191 32:32:32:32:32:32 15dBm
  434  29.075970 32:32:32:32:32:32 14dBm
  435  29.095771 32:32:32:32:32:32 14dBm
  436  29.130739 32:32:32:32:32:32 14dBm
  437  29.157413 32:32:32:32:32:32 14dBm
  438  29.229928 32:32:32:32:32:32 13dBm
  439  29.266613 32:32:32:32:32:32 14dBm
  440  29.346525 32:32:32:32:32:32 15dBm
  441  29.386231 32:32:32:32:32:32 15dBm
  442  29.415209 32:32:32:32:32:32 13dBm
  443  29.593310 32:32:32:32:32:32 13dBm
  444  29.653495 32:32:32:32:32:32 12dBm
  445  29.690572 32:32:32:32:32:32 12dBm
  446  29.737531 32:32:32:32:32:32 14dBm
  447  29.804267 32:32:32:32:32:32 14dBm
  448  29.846362 32:32:32:32:32:32 11dBm
  449  29.856851 32:32:32:32:32:32 15dBm
  450  29.937814 32:32:32:32:32:32 13dBm
  451  29.957560 32:32:32:32:32:32 13dBm
  452  29.994372 32:32:32:32:32:32 15dBm
  453  30.070543 32:32:32:32:32:32 12dBm
  454  30.090630 32:32:32:32:32:32 15dBm
  455  30.112587 32:32:32:32:32:32 11dBm
  456  30.160898 32:32:32:32:32:32 14dBm
  457  30.201255 32:32:32:32:32:32 14dBm
  458  30.295142 32:32:32:32:32:32 14dBm
  459  30.334638 32:32:32:32:32:32 14dBm
  460  30.351962 32:32:32:32:32:32 14dBm
  461  30.365904 32:32:32:32:32:32 12dBm
  462  30.776413 32:32:32:32:32:32 14dBm
  463  30.807282 32:32:32:32:32:32 13dBm
  464  30.880386 32:32:32:32:32:32 14dBm
  465  30.980731 32:32:32:32:32:32 12dBm
  466  31.155510 32:32:32:32:32:32 14dBm
  467  31.222708 32:32:32:32:32:32 14dBm
  468  31.260243 32:32:32:32:32:32 13dBm
  469  31.349721 32:32:32:32:32:32 12dBm
  470  31.383189 32:32:32:32:32:32 14dBm
  471  31.402231 32:32:32:32:32:32 13dBm
  472  31.451180 32:32:32:32:32:32 13dBm
  473  31.486104 32:32:32:32:32:32 14dBm
  474  31.519722 32:32:32:32:32:32 13dBm
  475  31.542397 32:32:32:32:32:32 13dBm
  476  31.557864 32:32:32:32:32:32 13dBm
  477  31.615812 32:32:32:32:32:32 13dBm
  478  31.687690 32:32:32:32:32:32 14dBm
  479  31.733624 32:32:32:32:32:32 13dBm
  480  31.812023 32:32:32:32:32:32 14dBm
  481  31.896516 32:32:32:32:32:32 13dBm
  482  31.925592 32:32:32:32:32:32 14dBm
  483  32.009503 32:32:32:32:32:32 14dBm
  484  32.063684 32:32:32:32:32:32 14dBm
  485  32.113164 32:32:32:32:32:32 15dBm
  486  32.173611 32:32:32:32:32:32 14dBm
  487  32.220109 32:32:32:32:32:32 13dBm
  488  32.273133 32:32:32:32:32:32 14dBm
  489  32.338331 32:32:32:32:32:32 13dBm
  490  32.355393 32:32:32:32:32:32 13dBm
  491  32.391378 32:32:32:32:32:32 14dBm
  492  32.424795 32:32:32:32:32:32 13dBm
  493  32.463457 32:32:32:32:32:32 12dBm
  494  32.484409 32:32:32:32:32:32 14dBm
  495  32.552930 32:32:32:32:32:32 15dBm
  496  32.571630 32:32:32:32:32:32 14dBm
  497  32.597745 32:32:32:32:32:32 13dBm
  498  32.625000 32:32:32:32:32:32 14dBm
  499  32.659461 32:32:32:32:32:32 15dBm
  500  32.703340 32:32:32:32:32:32 15dBm
  501  32.718712 32:32:32:32:32:32 13dBm
  502  32.737918 32:32:32:32:32:32 14dBm
  503  32.772257 32:32:32:32:32:32 13dBm
  504  32.915821 32:32:32:32:32:32 13dBm
  505  32.967128 32:32:32:32:32:32 13dBm
  506  33.150259 32:32:32:32:32:32 13dBm
  507  33.177905 32:32:32:32:32:32 14dBm
  508  33.233250 32:32:32:32:32:32 12dBm
  509  33.291244 32:32:32:32:32:32 13dBm
  510  33.330430 32:32:32:32:32:32 13dBm
  511  33.347017 32:32:32:32:32:32 12dBm
  512  33.387554 32:32:32:32:32:32 12dBm
  513  33.471031 32:32:32:32:32:32 13dBm
  514  33.503895 32:32:32:32:32:32 11dBm
  515  33.756228 32:32:32:32:32:32 16dBm
  516  33.800944 32:32:32:32:32:32 12dBm
  517  33.816785 32:32:32:32:32:32 16dBm
  518  33.824992 32:32:32:32:32:32 15dBm
  519  33.839266 32:32:32:32:32:32 16dBm
  520  33.849424 32:32:32:32:32:32 15dBm
  521  33.951663 32:32:32:32:32:32 14dBm
  522  33.968461 32:32:32:32:32:32 15dBm
  523  34.012744 32:32:32:32:32:32 11dBm
  524  34.027218 32:32:32:32:32:32 13dBm
  525  34.043138 32:32:32:32:32:32 12dBm
  526  34.174141 32:32:32:32:32:32 12dBm
  527  34.214212 32:32:32:32:32:32 13dBm
  528  34.241030 32:32:32:32:32:32 12dBm
  529  34.418273 32:32:32:32:32:32 14dBm
  530  34.627035 32:32:32:32:32:32 13dBm
  531  34.662261 32:32:32:32:32:32 12dBm
  532  34.798226 32:32:32:32:32:32 13dBm
  533  34.878929 32:32:32:32:32:32 14dBm
  534  34.905530 32:32:32:32:32:32 15dBm
  535  34.991550 32:32:32:32:32:32 13dBm
  536  35.029414 32:32:32:32:32:32 15dBm
  537  35.137632 32:32:32:32:32:32 14dBm
  538  35.159825 32:32:32:32:32:32 14dBm
  539  35.172751 32:32:32:32:32:32 14dBm
  540  35.259024 32:32:32:32:32:32 13dBm
  541  35.323555 32:32:32:32:32:32 14dBm
  542  35.393205 32:32:32:32:32:32 14dBm
  543  35.411623 32:32:32:32:32:32 12dBm
  544  35.477068 32:32:32:32:32:32 14dBm
  545  35.724664 32:32:32:32:32:32 14dBm
  546  35.945970 32:32:32:32:32:32 12dBm
  547  35.975859 32:32:32:32:32:32 14dBm
  548  36.025852 32:32:32:32:32:32 14dBm
  549  36.117651 32:32:32:32:32:32 13dBm
  550  36.156118 32:32:32:32:32:32 12dBm
  551  36.191306 32:32:32:32:32:32 13dBm
  552  36.215633 32:32:32:32:32:32 14dBm
  553  36.281055 32:32:32:32:32:32 13dBm
  554  36.394416 32:32:32:32:32:32 12dBm
  555  36.478778 32:32:32:32:32:32 13dBm
  556  36.528122 32:32:32:32:32:32 13dBm
  557  36.619899 32:32:32:32:32:32 12dBm
  558  36.646173 32:32:32:32:32:32 13dBm
  559  36.680288 32:32:32:32:32:32 12dBm
  560  36.703044 32:32:32:32:32:32 13dBm
  561  36.762660 32:32:32:32:32:32 13dBm
  562  36.897233 32:32:32:32:32:32 13dBm
  563  36.968884 32:32:32:32:32:32 14dBm
  564  36.984541 32:32:32:32:32:32 14dBm
  565  37.013637 32:32:32:32:32:32 15dBm
  566  37.033644 32:32:32:32:32:32 13dBm
  567  37.159995 32:32:32:32:32:32 13dBm
  568  37.195174 32:32:32:32:32:32 14dBm
  569  37.233730 32:32:32:32:32:32 14dBm
  570  37.307370 32:32:32:32:32:32 14dBm
  571  37.325744 32:32:32:32:32:32 14dBm
  572  37.335803 32:32:32:32:32:32 14dBm
  573  37.399470 32:32:32:32:32:32 13dBm
  574  37.425081 32:32:32:32:32:32 14dBm
  575  37.432317 32:32:32:32:32:32 15dBm
  576  37.580415 32:32:32:32:32:32 15dBm
  577  37.779339 32:32:32:32:32:32 10dBm
  578  37.869060 32:32:32:32:32:32 13dBm
  579  37.933749 32:32:32:32:32:32 11dBm
  580  37.973543 32:32:32:32:32:32 14dBm
  581  38.128042 32:32:32:32:32:32 12dBm
  582  38.134014 32:32:32:32:32:32 15dBm
  583  38.149337 32:32:32:32:32:32 14dBm
  584  38.311151 32:32:32:32:32:32 14dBm
  585  38.353199 32:32:32:32:32:32 13dBm
  586  38.456623 32:32:32:32:32:32 13dBm
  587  38.618217 32:32:32:32:32:32 14dBm
  588  38.649020 32:32:32:32:32:32 14dBm
  589  38.696989 32:32:32:32:32:32 15dBm
  590  38.708406 32:32:32:32:32:32 14dBm
  591  39.106827 32:32:32:32:32:32 14dBm
  592  39.280408 32:32:32:32:32:32 13dBm
  593  39.454024 32:32:32:32:32:32 14dBm
  594  39.480104 32:32:32:32:32:32 14dBm
  595  39.526277 32:32:32:32:32:32 13dBm
  596  39.560702 32:32:32:32:32:32 13dBm
  597  39.647433 32:32:32:32:32:32 13dBm
  598  39.731374 32:32:32:32:32:32 13dBm
  599  39.900016 32:32:32:32:32:32 13dBm
  600  39.950738 32:32:32:32:32:32 13dBm
  601  39.992315 32:32:32:32:32:32 12dBm
  602  40.010990 32:32:32:32:32:32 14dBm
  603  40.038817 32:32:32:32:32:32 14dBm
  604  40.103758 32:32:32:32:32:32 13dBm
  605  40.162915 32:32:32:32:32:32 13dBm
  606  40.227074 32:32:32:32:32:32 14dBm
  607  40.292280 32:32:32:32:32:32 13dBm
  608  40.314973 32:32:32:32:32:32 13dBm
  609  40.368327 32:32:32:32:32:32 14dBm
  610  40.419534 32:32:32:32:32:32 13dBm
  611  40.447600 32:32:32:32:32:32 14dBm
  612  40.635856 32:32:32:32:32:32 13dBm
  613  40.673738 32:32:32:32:32:32 13dBm
  614  40.719662 32:32:32:32:32:32 13dBm
  615  40.778004 32:32:32:32:32:32 13dBm
  616  40.795103 32:32:32:32:32:32 12dBm
  617  40.836436 32:32:32:32:32:32 12dBm
  618  40.880382 32:32:32:32:32:32 13dBm
  619  40.935688 32:32:32:32:32:32 14dBm
  620  41.009160 32:32:32:32:32:32 14dBm
  621  41.077483 32:32:32:32:32:32 14dBm
  622  41.096274 32:32:32:32:32:32 14dBm
  623  41.138725 32:32:32:32:32:32 13dBm
  624  41.160052 32:32:32:32:32:32 11dBm
  625  41.307700 32:32:32:32:32:32 13dBm
  626  41.363650 32:32:32:32:32:32 13dBm
  627  41.372631 32:32:32:32:32:32 15dBm
  628  41.395251 32:32:32:32:32:32 15dBm
  629  41.442660 32:32:32:32:32:32 14dBm
  630  41.511135 32:32:32:32:32:32 14dBm
  631  41.551373 32:32:32:32:32:32 13dBm
  632  41.624561 32:32:32:32:32:32 12dBm
  633  41.660236 32:32:32:32:32:32 14dBm
  634  41.689949 32:32:32:32:32:32 13dBm
  635  41.742382 32:32:32:32:32:32 14dBm
  636  41.816919 32:32:32:32:32:32 15dBm
  637  41.848394 32:32:32:32:32:32 13dBm
  638  41.916134 32:32:32:32:32:32 13dBm
  639  41.952370 32:32:32:32:32:32 14dBm
  640  42.030318 32:32:32:32:32:32 12dBm
  641  42.111413 32:32:32:32:32:32 14dBm
  642  42.305496 32:32:32:32:32:32 13dBm
  643  42.484925 32:32:32:32:32:32 13dBm
  644  42.513547 32:32:32:32:32:32 13dBm
  645  42.584403 32:32:32:32:32:32 13dBm
  646  42.602950 32:32:32:32:32:32 14dBm
  647  42.758744 32:32:32:32:32:32 14dBm
  648  42.827073 32:32:32:32:32:32 13dBm
  649  42.883295 32:32:32:32:32:32 12dBm
  650  42.943528 32:32:32:32:32:32 13dBm
  651  43.268333 32:32:32:32:32:32 13dBm
  652  43.387228 32:32:32:32:32:32 13dBm
  653  43.470870 32:32:32:32:32:32 13dBm
  654  43.572514 32:32:32:32:32:32 14dBm
  655  43.647766 32:32:32:32:32:32 13dBm
  656  43.749293 32:32:32:32:32:32 13dBm
  657  43.823409 32:32:32:32:32:32 12dBm
  658  43.829659 32:32:32:32:32:32 13dBm
  659  43.840293 32:32:32:32:32:32 11dBm
  660  43.877746 32:32:32:32:32:32 14dBm
  661  43.998756 32:32:32:32:32:32 14dBm
  662  44.029604 32:32:32:32:32:32 12dBm
  663  44.064855 32:32:32:32:32:32 14dBm
  664  44.142679 32:32:32:32:32:32 13dBm
  665  44.230926 32:32:32:32:32:32 14dBm
  666  44.291193 32:32:32:32:32:32 13dBm
  667  44.335566 32:32:32:32:32:32 13dBm
  668  44.354189 32:32:32:32:32:32 15dBm
  669  44.366270 32:32:32:32:32:32 14dBm
  670  44.445655 32:32:32:32:32:32 12dBm
  671  44.539964 32:32:32:32:32:32 15dBm
  672  44.607460 32:32:32:32:32:32 13dBm
  673  44.636671 32:32:32:32:32:32 14dBm
  674  44.763420 32:32:32:32:32:32 14dBm
  675  44.795924 32:32:32:32:32:32 11dBm
  676  44.839229 32:32:32:32:32:32 14dBm
  677  44.859287 32:32:32:32:32:32 15dBm
  678  44.881441 32:32:32:32:32:32 13dBm
  679  44.904630 32:32:32:32:32:32 12dBm
  680  44.980179 32:32:32:32:32:32 12dBm
  681  45.396584 32:32:32:32:32:32 15dBm
  682  45.402897 32:32:32:32:32:32 16dBm
  683  45.435756 32:32:32:32:32:32 12dBm
  684  45.463329 32:32:32:32:32:32 14dBm
  685  45.482394 32:32:32:32:32:32 12dBm
  686  45.505666 32:32:32:32:32:32 10dBm
  687  45.551240 32:32:32:32:32:32 14dBm
  688  45.563019 32:32:32:32:32:32 13dBm
  689  45.584516 32:32:32:32:32:32 14dBm
  690  45.611062 32:32:32:32:32:32 12dBm
  691  45.628096 32:32:32:32:32:32 13dBm
  692  45.654574 32:32:32:32:32:32 13dBm
  693  45.699598 32:32:32:32:32:32 12dBm
  694  45.824897 32:32:32:32:32:32 13dBm
  695  45.869759 32:32:32:32:32:32 14dBm
  696  45.893003 32:32:32:32:32:32 14dBm
  697  45.931971 32:32:32:32:32:32 15dBm
  698  45.968311 32:32:32:32:32:32 14dBm
  699  46.128094 32:32:32:32:32:32 15dBm
  700  46.235141 32:32:32:32:32:32 14dBm
  701  46.357385 32:32:32:32:32:32 12dBm
  702  46.420788 32:32:32:32:32:32 14dBm
  703  46.509332 32:32:32:32:32:32 11dBm
  704  46.530391 32:32:32:32:32:32 13dBm
  705  46.588233 32:32:32:32:32:32 12dBm
  706  46.659245 32:32:32:32:32:32 13dBm
  707  46.676366 32:32:32:32:32:32 12dBm
  708  46.691123 32:32:32:32:32:32 12dBm
  709  46.722227 32:32:32:32:32:32 13dBm
  710  46.781421 32:32:32:32:32:32 14dBm
  711  46.825988 32:32:32:32:32:32 11dBm
  712  46.841788 32:32:32:32:32:32 12dBm
  713  46.909317 32:32:32:32:32:32 13dBm
  714  47.028328 32:32:32:32:32:32 13dBm
  715  47.273071 32:32:32:32:32:32 14dBm
  716  47.385539 32:32:32:32:32:32 14dBm
  717  47.525675 32:32:32:32:32:32 13dBm
  718  47.568012 32:32:32:32:32:32 13dBm
  719  47.688514 32:32:32:32:32:32 13dBm
  720  47.713972 32:32:32:32:32:32 14dBm
  721  47.825861 32:32:32:32:32:32 13dBm
  722  47.963086 32:32:32:32:32:32 12dBm
  723  48.112819 32:32:32:32:32:32 12dBm
  724  48.168074 32:32:32:32:32:32 14dBm
  725  48.353998 32:32:32:32:32:32 12dBm
  726  48.388432 32:32:32:32:32:32 14dBm
  727  48.411507 32:32:32:32:32:32 14dBm
  728  48.457156 32:32:32:32:32:32 14dBm
  729  48.537739 32:32:32:32:32:32 14dBm
  730  48.555527 32:32:32:32:32:32 15dBm
  731  48.617943 32:32:32:32:32:32 13dBm
  732  48.622253 32:32:32:32:32:32 14dBm
  733  48.691584 32:32:32:32:32:32 14dBm
  734  48.709432 32:32:32:32:32:32 15dBm
  735  48.787339 32:32:32:32:32:32 15dBm
  736  48.842369 32:32:32:32:32:32 13dBm
  737  48.963187 32:32:32:32:32:32 13dBm
  738  49.073234 32:32:32:32:32:32 13dBm
  739  49.095674 32:32:32:32:32:32 13dBm
  740  49.130770 32:32:32:32:32:32 13dBm
  741  49.158154 32:32:32:32:32:32 12dBm
  742  49.176682 32:32:32:32:32:32 14dBm
  743  49.235719 32:32:32:32:32:32 14dBm
  744  49.301701 32:32:32:32:32:32 14dBm
  745  49.365852 32:32:32:32:32:32 13dBm
  746  49.412189 32:32:32:32:32:32 10dBm
  747  49.439335 32:32:32:32:32:32 6dBm
  748  49.462573 32:32:32:32:32:32 15dBm
  749  49.504813 32:32:32:32:32:32 13dBm
  750  49.549109 32:32:32:32:32:32 13dBm
  751  49.556129 32:32:32:32:32:32 13dBm
  752  49.586529 32:32:32:32:32:32 12dBm
  753  49.635147 32:32:32:32:32:32 13dBm
  754  49.674470 32:32:32:32:32:32 13dBm
  755  49.716154 32:32:32:32:32:32 13dBm
  756  49.772837 32:32:32:32:32:32 14dBm
  757  49.776985 32:32:32:32:32:32 13dBm
  758  49.810176 32:32:32:32:32:32 13dBm
  759  49.841273 32:32:32:32:32:32 13dBm
  760  49.869206 32:32:32:32:32:32 15dBm
  761  49.887954 32:32:32:32:32:32 13dBm
  762  49.941826 32:32:32:32:32:32 14dBm
  763  49.972457 32:32:32:32:32:32 14dBm
  764  50.058319 32:32:32:32:32:32 14dBm
  765  50.089938 32:32:32:32:32:32 14dBm
  766  50.179498 32:32:32:32:32:32 13dBm
  767  50.198536 32:32:32:32:32:32 13dBm
  768  50.295768 32:32:32:32:32:32 14dBm
  769  50.351594 32:32:32:32:32:32 12dBm
  770  50.397159 32:32:32:32:32:32 14dBm
  771  50.411206 32:32:32:32:32:32 14dBm
  772  50.443046 32:32:32:32:32:32 15dBm
  773  50.481672 32:32:32:32:32:32 13dBm
  774  50.530290 32:32:32:32:32:32 13dBm
  775  50.600378 32:32:32:32:32:32 8dBm
  776  50.690020 32:32:32:32:32:32 13dBm
  777  50.713487 32:32:32:32:32:32 13dBm
  778  50.760786 32:32:32:32:32:32 13dBm
  779  50.777962 32:32:32:32:32:32 13dBm
  780  50.909806 32:32:32:32:32:32 15dBm
  781  51.090645 32:32:32:32:32:32 13dBm
  782  51.109042 32:32:32:32:32:32 13dBm
  783  51.129330 32:32:32:32:32:32 12dBm
  784  51.320717 32:32:32:32:32:32 14dBm
  785  51.537563 32:32:32:32:32:32 13dBm
  786  51.583193 32:32:32:32:32:32 11dBm
  787  51.650474 32:32:32:32:32:32 14dBm
  788  51.758742 32:32:32:32:32:32 14dBm
  789  52.237877 32:32:32:32:32:32 13dBm
  790  52.270549 32:32:32:32:32:32 12dBm
  791  52.310507 32:32:32:32:32:32 14dBm
  792  52.323801 32:32:32:32:32:32 13dBm
  793  52.379802 32:32:32:32:32:32 12dBm
  794  52.457428 32:32:32:32:32:32 14dBm
  795  52.475368 32:32:32:32:32:32 14dBm
  796  52.481272 32:32:32:32:32:32 13dBm
  797  52.508528 32:32:32:32:32:32 12dBm
  798  52.696282 32:32:32:32:32:32 13dBm
  799  52.792058 32:32:32:32:32:32 10dBm
  800  52.814759 32:32:32:32:32:32 13dBm
  801  52.867949 32:32:32:32:32:32 12dBm
  802  52.940961 32:32:32:32:32:32 15dBm
  803  52.989334 32:32:32:32:32:32 13dBm
  804  53.075732 32:32:32:32:32:32 14dBm
  805  53.154879 32:32:32:32:32:32 13dBm
  806  53.186596 32:32:32:32:32:32 15dBm
  807  53.225445 32:32:32:32:32:32 13dBm
  808  53.324371 32:32:32:32:32:32 14dBm
  809  53.387830 32:32:32:32:32:32 16dBm
  810  53.516613 32:32:32:32:32:32 12dBm
  811  53.538982 32:32:32:32:32:32 12dBm
  812  53.602865 32:32:32:32:32:32 14dBm
  813  53.768082 32:32:32:32:32:32 15dBm
  814  53.916974 32:32:32:32:32:32 13dBm
  815  54.012876 32:32:32:32:32:32 13dBm
  816  54.050826 32:32:32:32:32:32 14dBm
  817  54.173494 32:32:32:32:32:32 14dBm
  818  54.213666 32:32:32:32:32:32 14dBm
  819  54.232104 32:32:32:32:32:32 15dBm
  820  54.250586 32:32:32:32:32:32 12dBm
  821  54.326428 32:32:32:32:32:32 13dBm
  822  54.329784 32:32:32:32:32:32 14dBm
  823  54.351820 32:32:32:32:32:32 13dBm
  824  54.366107 32:32:32:32:32:32 13dBm
  825  54.387610 32:32:32:32:32:32 13dBm
  826  54.411542 32:32:32:32:32:32 14dBm
  827  54.436708 32:32:32:32:32:32 13dBm
  828  54.520592 32:32:32:32:32:32 14dBm
  829  54.604670 32:32:32:32:32:32 14dBm
  830  54.806960 32:32:32:32:32:32 14dBm
  831  54.866573 32:32:32:32:32:32 15dBm
  832  54.930255 32:32:32:32:32:32 14dBm
  833  54.994116 32:32:32:32:32:32 13dBm
  834  54.999322 32:32:32:32:32:32 15dBm
  835  55.082319 32:32:32:32:32:32 12dBm
  836  55.103271 32:32:32:32:32:32 13dBm
  837  55.182580 32:32:32:32:32:32 13dBm
  838  55.224900 32:32:32:32:32:32 14dBm
  839  55.230113 32:32:32:32:32:32 13dBm
  840  55.292344 32:32:32:32:32:32 15dBm
  841  55.338712 32:32:32:32:32:32 14dBm
  842  55.493772 32:32:32:32:32:32 15dBm
  843  55.585897 32:32:32:32:32:32 13dBm
  844  55.641590 32:32:32:32:32:32 14dBm
  845  55.680487 32:32:32:32:32:32 14dBm
  846  55.712360 32:32:32:32:32:32 14dBm
  847  55.784955 32:32:32:32:32:32 14dBm
  848  56.183247 32:32:32:32:32:32 13dBm
  849  56.215400 32:32:32:32:32:32 14dBm
  850  56.256408 32:32:32:32:32:32 15dBm
  851  56.293457 32:32:32:32:32:32 14dBm
  852  56.371204 32:32:32:32:32:32 14dBm
  853  56.482368 32:32:32:32:32:32 14dBm
  854  56.569202 32:32:32:32:32:32 11dBm
  855  56.588136 32:32:32:32:32:32 11dBm
  856  56.622477 32:32:32:32:32:32 14dBm
  857  56.641628 32:32:32:32:32:32 13dBm
  858  56.702964 32:32:32:32:32:32 13dBm
  859  56.715178 32:32:32:32:32:32 14dBm
  860  56.826679 32:32:32:32:32:32 13dBm
  861  56.929976 32:32:32:32:32:32 14dBm
  862  56.956329 32:32:32:32:32:32 12dBm
  863  57.019808 32:32:32:32:32:32 12dBm
  864  57.054692 32:32:32:32:32:32 13dBm
  865  57.085968 32:32:32:32:32:32 13dBm
  866  57.207023 32:32:32:32:32:32 14dBm
  867  57.229221 32:32:32:32:32:32 12dBm
  868  57.283498 32:32:32:32:32:32 14dBm
  869  57.401073 32:32:32:32:32:32 15dBm
  870  57.508082 32:32:32:32:32:32 14dBm
  871  57.547856 32:32:32:32:32:32 14dBm
  872  57.718071 32:32:32:32:32:32 14dBm
  873  57.769448 32:32:32:32:32:32 14dBm
  874  57.775972 32:32:32:32:32:32 13dBm
  875  57.838775 32:32:32:32:32:32 13dBm
  876  57.874319 32:32:32:32:32:32 14dBm
  877  58.004070 32:32:32:32:32:32 12dBm
  878  58.067213 32:32:32:32:32:32 14dBm
  879  58.110394 32:32:32:32:32:32 14dBm
  880  58.162265 32:32:32:32:32:32 14dBm
  881  58.200071 32:32:32:32:32:32 12dBm
  882  58.236965 32:32:32:32:32:32 12dBm
  883  58.276580 32:32:32:32:32:32 13dBm
  884  58.377909 32:32:32:32:32:32 13dBm
  885  58.427318 32:32:32:32:32:32 14dBm
  886  58.456943 32:32:32:32:32:32 14dBm
  887  58.496067 32:32:32:32:32:32 15dBm
  888  58.571751 32:32:32:32:32:32 12dBm
  889  58.609099 32:32:32:32:32:32 13dBm
  890  58.720348 32:32:32:32:32:32 13dBm
  891  58.764777 32:32:32:32:32:32 15dBm
  892  58.845259 32:32:32:32:32:32 13dBm
  893  58.866460 32:32:32:32:32:32 14dBm
  894  58.922214 32:32:32:32:32:32 13dBm
  895  58.974453 32:32:32:32:32:32 12dBm
  896  58.997792 32:32:32:32:32:32 13dBm
  897  59.080473 32:32:32:32:32:32 13dBm
  898  59.097397 32:32:32:32:32:32 13dBm
  899  59.119591 32:32:32:32:32:32 11dBm
  900  59.185748 32:32:32:32:32:32 13dBm
  901  59.248154 32:32:32:32:32:32 11dBm
  902  59.284166 32:32:32:32:32:32 12dBm
  903  59.383697 32:32:32:32:32:32 12dBm
  904  59.536875 32:32:32:32:32:32 13dBm
  905  59.696661 32:32:32:32:32:32 12dBm
  906  59.722701 32:32:32:32:32:32 12dBm
  907  59.827250 32:32:32:32:32:32 14dBm
  908  59.850920 32:32:32:32:32:32 13dBm
  909  59.970030 32:32:32:32:32:32 13dBm
  910  59.994409 32:32:32:32:32:32 13dBm
  911  60.040678 32:32:32:32:32:32 14dBm
  912  60.339857 32:32:32:32:32:32 13dBm
  913  60.453702 32:32:32:32:32:32 13dBm
  914  60.498859 32:32:32:32:32:32 12dBm
  915  60.618469 32:32:32:32:32:32 13dBm
  916  60.697615 32:32:32:32:32:32 15dBm
  917  60.726696 32:32:32:32:32:32 13dBm
  918  60.787713 32:32:32:32:32:32 14dBm
  919  60.874187 32:32:32:32:32:32 14dBm
  920  61.004384 32:32:32:32:32:32 13dBm
  921  61.047154 32:32:32:32:32:32 13dBm
  922  61.218861 32:32:32:32:32:32 14dBm
  923  61.230933 32:32:32:32:32:32 14dBm
  924  61.241276 32:32:32:32:32:32 14dBm
  925  61.335815 32:32:32:32:32:32 12dBm
  926  61.472417 32:32:32:32:32:32 14dBm
  927  61.539989 32:32:32:32:32:32 13dBm
  928  61.586983 32:32:32:32:32:32 11dBm
  929  61.606598 32:32:32:32:32:32 13dBm
  930  61.631328 32:32:32:32:32:32 13dBm
  931  61.673493 32:32:32:32:32:32 13dBm
  932  61.733670 32:32:32:32:32:32 14dBm
  933  61.760044 32:32:32:32:32:32 12dBm
  934  61.834758 32:32:32:32:32:32 13dBm
  935  61.857961 32:32:32:32:32:32 13dBm
  936  61.907053 32:32:32:32:32:32 14dBm
  937  61.990505 32:32:32:32:32:32 13dBm
  938  62.051356 32:32:32:32:32:32 13dBm
  939  62.132866 32:32:32:32:32:32 14dBm
  940  62.192766 32:32:32:32:32:32 14dBm
  941  62.302896 32:32:32:32:32:32 14dBm
  942  62.332753 32:32:32:32:32:32 14dBm
  943  62.356086 32:32:32:32:32:32 13dBm
  944  62.375118 32:32:32:32:32:32 12dBm
  945  62.383583 32:32:32:32:32:32 12dBm
  946  62.477374 32:32:32:32:32:32 14dBm
  947  62.625463 32:32:32:32:32:32 12dBm
  948  62.673894 32:32:32:32:32:32 12dBm
  949  62.723326 32:32:32:32:32:32 14dBm
  950  62.752615 32:32:32:32:32:32 15dBm
  951  62.999431 32:32:32:32:32:32 13dBm
  952  63.031952 32:32:32:32:32:32 13dBm
  953  63.048596 32:32:32:32:32:32 12dBm
  954  63.104574 32:32:32:32:32:32 13dBm
  955  63.205731 32:32:32:32:32:32 12dBm
  956  63.230161 32:32:32:32:32:32 12dBm
  957  63.268057 32:32:32:32:32:32 14dBm
  958  63.438780 32:32:32:32:32:32 12dBm
  959  63.461239 32:32:32:32:32:32 13dBm
  960  63.479858 32:32:32:32:32:32 11dBm
  961  63.498258 32:32:32:32:32:32 14dBm
  962  63.526202 32:32:32:32:32:32 15dBm
  963  63.550926 32:32:32:32:32:32 12dBm
  964  63.589567 32:32:32:32:32:32 12dBm
  965  63.649134 32:32:32:32:32:32 14dBm
  966  63.676758 32:32:32:32:32:32 14dBm
  967  63.722253 32:32:32:32:32:32 13dBm
  968  63.779881 32:32:32:32:32:32 12dBm
  969  63.847904 32:32:32:32:32:32 12dBm
  970  63.900431 32:32:32:32:32:32 15dBm
  971  63.931980 32:32:32:32:32:32 13dBm
  972  63.955570 32:32:32:32:32:32 14dBm
  973  64.031458 32:32:32:32:32:32 13dBm
  974  64.173206 32:32:32:32:32:32 14dBm
  975  64.188294 32:32:32:32:32:32 12dBm
  976  64.204865 32:32:32:32:32:32 12dBm
  977  64.283325 32:32:32:32:32:32 13dBm
  978  64.368974 32:32:32:32:32:32 13dBm
  979  64.407232 32:32:32:32:32:32 14dBm
  980  64.449376 32:32:32:32:32:32 15dBm
  981  64.696607 32:32:32:32:32:32 13dBm
  982  64.706023 32:32:32:32:32:32 14dBm
  983  64.747554 32:32:32:32:32:32 12dBm
  984  64.812709 32:32:32:32:32:32 13dBm
  985  64.831356 32:32:32:32:32:32 13dBm
  986  64.899289 32:32:32:32:32:32 14dBm
  987  64.922450 32:32:32:32:32:32 12dBm
  988  64.943931 32:32:32:32:32:32 11dBm
  989  64.965351 32:32:32:32:32:32 13dBm
  990  64.986662 32:32:32:32:32:32 12dBm
  991  65.043166 32:32:32:32:32:32 13dBm
  992  65.062364 32:32:32:32:32:32 14dBm
  993  65.093814 32:32:32:32:32:32 13dBm
  994  65.154883 32:32:32:32:32:32 13dBm
  995  65.202793 32:32:32:32:32:32 13dBm
  996  65.303410 32:32:32:32:32:32 13dBm
  997  65.328014 32:32:32:32:32:32 14dBm
  998  65.425367 32:32:32:32:32:32 12dBm
  999  65.454639 32:32:32:32:32:32 12dBm
 1000  65.480228 32:32:32:32:32:32 11dBm
 1001  65.530045 32:32:32:32:32:32 13dBm
 1002  65.559022 32:32:32:32:32:32 13dBm
 1003  65.575486 32:32:32:32:32:32 12dBm
 1004  65.617255 32:32:32:32:32:32 14dBm
 1005  65.657628 32:32:32:32:32:32 14dBm
 1006  65.674828 32:32:32:32:32:32 12dBm
 1007  65.714042 32:32:32:32:32:32 12dBm
 1008  66.009058 32:32:32:32:32:32 13dBm
 1009  66.025600 32:32:32:32:32:32 12dBm
 1010  66.227852 32:32:32:32:32:32 13dBm
 1011  66.295600 32:32:32:32:32:32 12dBm
 1012  66.322005 32:32:32:32:32:32 14dBm
 1013  66.358807 32:32:32:32:32:32 11dBm
 1014  66.427428 32:32:32:32:32:32 13dBm
 1015  66.457000 32:32:32:32:32:32 14dBm
 1016  66.565053 32:32:32:32:32:32 12dBm
 1017  66.580926 32:32:32:32:32:32 12dBm
 1018  66.603198 32:32:32:32:32:32 14dBm
 1019  66.628598 32:32:32:32:32:32 12dBm
 1020  66.776622 32:32:32:32:32:32 13dBm
 1021  66.852817 32:32:32:32:32:32 13dBm
 1022  66.906483 32:32:32:32:32:32 13dBm
 1023  66.925460 32:32:32:32:32:32 13dBm
 1024  66.947254 32:32:32:32:32:32 14dBm
 1025  67.047181 32:32:32:32:32:32 12dBm
 1026  67.065647 32:32:32:32:32:32 13dBm
 1027  67.087962 32:32:32:32:32:32 12dBm
 1028  67.104454 32:32:32:32:32:32 13dBm
 1029  67.293101 32:32:32:32:32:32 11dBm
 1030  67.375872 32:32:32:32:32:32 13dBm
 1031  67.380703 32:32:32:32:32:32 13dBm
 1032  67.472690 32:32:32:32:32:32 13dBm
 1033  67.512320 32:32:32:32:32:32 14dBm
 1034  67.569902 32:32:32:32:32:32 11dBm
 1035  67.600568 32:32:32:32:32:32 13dBm
 1036  67.707420 32:32:32:32:32:32 14dBm
 1037  67.758443 32:32:32:32:32:32 12dBm
 1038  67.785385 32:32:32:32:32:32 13dBm
 1039  67.828771 32:32:32:32:32:32 12dBm
 1040  67.908596 32:32:32:32:32:32 12dBm
 1041  67.950763 32:32:32:32:32:32 14dBm
 1042  67.963258 32:32:32:32:32:32 12dBm
 1043  68.023600 32:32:32:32:32:32 13dBm
 1044  68.166573 32:32:32:32:32:32 12dBm
 1045  68.309361 32:32:32:32:32:32 14dBm
 1046  68.398030 32:32:32:32:32:32 11dBm
 1047  68.547492 32:32:32:32:32:32 13dBm
 1048  68.650190 32:32:32:32:32:32 14dBm
 1049  68.695196 32:32:32:32:32:32 15dBm
 1050  68.716725 32:32:32:32:32:32 10dBm
 1051  68.917413 32:32:32:32:32:32 13dBm
 1052  68.938523 32:32:32:32:32:32 12dBm
 1053  68.961759 32:32:32:32:32:32 14dBm
 1054  68.999261 32:32:32:32:32:32 13dBm
 1055  69.015083 32:32:32:32:32:32 9dBm
 1056  69.110609 32:32:32:32:32:32 13dBm
 1057  69.126323 32:32:32:32:32:32 13dBm
 1058  69.182508 32:32:32:32:32:32 11dBm
 1059  69.214595 32:32:32:32:32:32 13dBm
 1060  69.326374 32:32:32:32:32:32 13dBm
 1061  69.346865 32:32:32:32:32:32 14dBm
 1062  69.427161 32:32:32:32:32:32 14dBm
 1063  69.441795 32:32:32:32:32:32 13dBm
 1064  69.513599 32:32:32:32:32:32 12dBm
 1065  69.588795 32:32:32:32:32:32 12dBm
 1066  69.623012 32:32:32:32:32:32 13dBm
 1067  69.650213 32:32:32:32:32:32 11dBm
 1068  69.681270 32:32:32:32:32:32 14dBm
 1069  69.725044 32:32:32:32:32:32 12dBm
 1070  69.876230 32:32:32:32:32:32 14dBm
 1071  69.905651 32:32:32:32:32:32 14dBm
 1072  70.088376 32:32:32:32:32:32 13dBm
 1073  70.127563 32:32:32:32:32:32 13dBm
 1074  70.322068 32:32:32:32:32:32 11dBm
 1075  70.481563 32:32:32:32:32:32 13dBm
 1076  70.509439 32:32:32:32:32:32 12dBm
 1077  70.535802 32:32:32:32:32:32 14dBm
 1078  70.573010 32:32:32:32:32:32 13dBm
 1079  70.654278 32:32:32:32:32:32 13dBm
 1080  70.692465 32:32:32:32:32:32 13dBm
 1081  70.758722 32:32:32:32:32:32 13dBm
 1082  70.782281 32:32:32:32:32:32 13dBm
 1083  70.804393 32:32:32:32:32:32 14dBm
 1084  70.864973 32:32:32:32:32:32 13dBm
 1085  70.885988 32:32:32:32:32:32 13dBm
 1086  70.943205 32:32:32:32:32:32 13dBm
 1087  71.039868 32:32:32:32:32:32 13dBm
 1088  71.059563 32:32:32:32:32:32 14dBm
 1089  71.146469 32:32:32:32:32:32 14dBm
 1090  71.167794 32:32:32:32:32:32 13dBm
 1091  71.203567 32:32:32:32:32:32 13dBm
 1092  71.247265 32:32:32:32:32:32 13dBm
 1093  71.287319 32:32:32:32:32:32 13dBm
 1094  71.392705 32:32:32:32:32:32 13dBm
 1095  71.409324 32:32:32:32:32:32 14dBm
 1096  71.450463 32:32:32:32:32:32 13dBm
 1097  71.552240 32:32:32:32:32:32 13dBm
 1098  71.611764 32:32:32:32:32:32 14dBm
 1099  71.642901 32:32:32:32:32:32 13dBm
 1100  71.661049 32:32:32:32:32:32 12dBm
 1101  71.679309 32:32:32:32:32:32 14dBm
 1102  71.715562 32:32:32:32:32:32 12dBm
 1103  72.105199 32:32:32:32:32:32 12dBm
 1104  72.141337 32:32:32:32:32:32 15dBm
 1105  72.174621 32:32:32:32:32:32 13dBm
 1106  72.270811 32:32:32:32:32:32 13dBm
 1107  72.294490 32:32:32:32:32:32 12dBm
 1108  72.384793 32:32:32:32:32:32 15dBm
 1109  72.553201 32:32:32:32:32:32 14dBm
 1110  72.643860 32:32:32:32:32:32 12dBm
 1111  72.667267 32:32:32:32:32:32 15dBm
 1112  72.831500 32:32:32:32:32:32 13dBm
 1113  72.862499 32:32:32:32:32:32 11dBm
 1114  72.903747 32:32:32:32:32:32 13dBm
 1115  72.989108 32:32:32:32:32:32 14dBm
 1116  73.079599 32:32:32:32:32:32 12dBm
 1117  73.181754 32:32:32:32:32:32 14dBm
 1118  73.202154 32:32:32:32:32:32 12dBm
 1119  73.287819 32:32:32:32:32:32 14dBm
 1120  73.395511 32:32:32:32:32:32 13dBm
 1121  73.434081 32:32:32:32:32:32 13dBm
 1122  73.796786 32:32:32:32:32:32 13dBm
 1123  73.881354 32:32:32:32:32:32 12dBm
 1124  73.957097 32:32:32:32:32:32 13dBm
 1125  74.040155 32:32:32:32:32:32 14dBm
 1126  74.230387 32:32:32:32:32:32 12dBm
 1127  74.271048 32:32:32:32:32:32 13dBm
 1128  74.281865 32:32:32:32:32:32 13dBm
 1129  74.340838 32:32:32:32:32:32 14dBm
 1130  74.383196 32:32:32:32:32:32 13dBm
 1131  74.424137 32:32:32:32:32:32 14dBm
 1132  74.568064 32:32:32:32:32:32 13dBm
 1133  74.721299 32:32:32:32:32:32 15dBm
 1134  74.783247 32:32:32:32:32:32 14dBm
 1135  75.008928 32:32:32:32:32:32 13dBm
 1136  75.033660 32:32:32:32:32:32 13dBm
 1137  75.096266 32:32:32:32:32:32 12dBm
 1138  75.153460 32:32:32:32:32:32 13dBm
 1139  75.207471 32:32:32:32:32:32 13dBm
 1140  75.288425 32:32:32:32:32:32 13dBm
 1141  75.396263 32:32:32:32:32:32 13dBm
 1142  75.442468 32:32:32:32:32:32 14dBm
 1143  75.490918 32:32:32:32:32:32 11dBm
 1144  75.515667 32:32:32:32:32:32 14dBm
 1145  75.520659 32:32:32:32:32:32 13dBm
 1146  75.551041 32:32:32:32:32:32 12dBm
 1147  75.658257 32:32:32:32:32:32 13dBm
 1148  75.688332 32:32:32:32:32:32 13dBm
 1149  75.744358 32:32:32:32:32:32 11dBm
 1150  75.766434 32:32:32:32:32:32 13dBm
 1151  75.793280 32:32:32:32:32:32 11dBm
 1152  76.006117 32:32:32:32:32:32 14dBm
 1153  76.062583 32:32:32:32:32:32 13dBm
 1154  76.133388 32:32:32:32:32:32 15dBm
 1155  76.173937 32:32:32:32:32:32 13dBm
 1156  76.215758 32:32:32:32:32:32 14dBm
 1157  76.325224 32:32:32:32:32:32 12dBm
 1158  76.348226 32:32:32:32:32:32 13dBm
 1159  76.368452 32:32:32:32:32:32 14dBm
 1160  76.388002 32:32:32:32:32:32 13dBm
 1161  76.447188 32:32:32:32:32:32 14dBm
 1162  76.496769 32:32:32:32:32:32 15dBm
 1163  76.576666 32:32:32:32:32:32 13dBm
 1164  76.616215 32:32:32:32:32:32 12dBm
 1165  76.697956 32:32:32:32:32:32 13dBm
 1166  76.754191 32:32:32:32:32:32 14dBm
 1167  77.003270 32:32:32:32:32:32 14dBm
 1168  77.056132 32:32:32:32:32:32 14dBm
 1169  77.172787 32:32:32:32:32:32 14dBm
 1170  77.235674 32:32:32:32:32:32 14dBm
 1171  77.333036 32:32:32:32:32:32 12dBm
 1172  77.357245 32:32:32:32:32:32 14dBm
 1173  77.423004 32:32:32:32:32:32 13dBm
 1174  77.477281 32:32:32:32:32:32 14dBm
 1175  77.540148 32:32:32:32:32:32 13dBm
 1176  77.625267 32:32:32:32:32:32 13dBm
 1177  77.683809 32:32:32:32:32:32 14dBm
 1178  77.787454 32:32:32:32:32:32 11dBm
 1179  77.821435 32:32:32:32:32:32 13dBm
 1180  77.843300 32:32:32:32:32:32 14dBm
 1181  77.874865 32:32:32:32:32:32 13dBm
 1182  77.927734 32:32:32:32:32:32 14dBm
 1183  78.076789 32:32:32:32:32:32 14dBm
 1184  78.086239 32:32:32:32:32:32 14dBm
 1185  78.126341 32:32:32:32:32:32 13dBm
 1186  78.147871 32:32:32:32:32:32 12dBm
 1187  78.183257 32:32:32:32:32:32 12dBm
 1188  78.345089 32:32:32:32:32:32 11dBm
 1189  78.550747 32:32:32:32:32:32 13dBm
 1190  78.646063 32:32:32:32:32:32 13dBm
 1191  78.884342 32:32:32:32:32:32 12dBm
 1192  79.030501 32:32:32:32:32:32 13dBm
 1193  79.129076 32:32:32:32:32:32 13dBm
 1194  79.339947 32:32:32:32:32:32 14dBm
 1195  79.384722 32:32:32:32:32:32 13dBm
 1196  79.507280 32:32:32:32:32:32 13dBm
 1197  79.633276 32:32:32:32:32:32 13dBm
 1198  79.965228 32:32:32:32:32:32 12dBm
 1199  80.148107 32:32:32:32:32:32 13dBm
 1200  80.196649 32:32:32:32:32:32 13dBm
 1201  80.280640 32:32:32:32:32:32 12dBm
 1202  80.592949 32:32:32:32:32:32 12dBm
 1203  80.642725 32:32:32:32:32:32 12dBm
 1204  80.740796 32:32:32:32:32:32 13dBm
 1205  80.826830 32:32:32:32:32:32 11dBm
 1206  80.865308 32:32:32:32:32:32 13dBm
 1207  80.974975 32:32:32:32:32:32 13dBm
 1208  81.034992 32:32:32:32:32:32 14dBm
 1209  81.090970 32:32:32:32:32:32 14dBm
 1210  81.117063 32:32:32:32:32:32 12dBm
 1211  81.162400 32:32:32:32:32:32 13dBm
 1212  81.199276 32:32:32:32:32:32 12dBm
 1213  81.259588 32:32:32:32:32:32 14dBm
 1214  81.344764 32:32:32:32:32:32 13dBm
 1215  81.447697 32:32:32:32:32:32 14dBm
 1216  81.521714 32:32:32:32:32:32 14dBm
 1217  81.537293 32:32:32:32:32:32 14dBm
 1218  81.557153 32:32:32:32:32:32 12dBm
 1219  81.714774 32:32:32:32:32:32 12dBm
 1220  81.773371 32:32:32:32:32:32 12dBm
 1221  81.917521 32:32:32:32:32:32 12dBm
 1222  82.152431 32:32:32:32:32:32 12dBm
 1223  82.225194 32:32:32:32:32:32 13dBm
 1224  82.356135 32:32:32:32:32:32 14dBm
 1225  82.571627 32:32:32:32:32:32 13dBm
 1226  82.658015 32:32:32:32:32:32 13dBm
 1227  82.676258 32:32:32:32:32:32 12dBm
 1228  82.709662 32:32:32:32:32:32 12dBm
 1229  82.746916 32:32:32:32:32:32 13dBm
 1230  82.896364 32:32:32:32:32:32 12dBm
 1231  82.925956 32:32:32:32:32:32 14dBm
 1232  82.956399 32:32:32:32:32:32 15dBm
 1233  83.079252 32:32:32:32:32:32 14dBm
 1234  83.121253 32:32:32:32:32:32 10dBm
 1235  83.352392 32:32:32:32:32:32 12dBm
 1236  83.486177 32:32:32:32:32:32 14dBm
 1237  83.507288 32:32:32:32:32:32 13dBm
 1238  83.539638 32:32:32:32:32:32 13dBm
 1239  83.618026 32:32:32:32:32:32 14dBm
 1240  83.658584 32:32:32:32:32:32 13dBm
 1241  83.682285 32:32:32:32:32:32 14dBm
 1242  83.712117 32:32:32:32:32:32 15dBm
 1243  83.741193 32:32:32:32:32:32 12dBm
 1244  83.832078 32:32:32:32:32:32 13dBm
 1245  83.873217 32:32:32:32:32:32 13dBm
 1246  83.948462 32:32:32:32:32:32 13dBm
 1247  83.967811 32:32:32:32:32:32 13dBm
 1248  84.103169 32:32:32:32:32:32 14dBm
 1249  84.122337 32:32:32:32:32:32 14dBm
 1250  84.202160 32:32:32:32:32:32 13dBm
 1251  84.222657 32:32:32:32:32:32 13dBm
 1252  84.319310 32:32:32:32:32:32 13dBm
 1253  84.339491 32:32:32:32:32:32 14dBm
 1254  84.414500 32:32:32:32:32:32 12dBm
 1255  84.433124 32:32:32:32:32:32 14dBm
 1256  84.534253 32:32:32:32:32:32 15dBm
 1257  84.597610 32:32:32:32:32:32 13dBm
 1258  84.610101 32:32:32:32:32:32 14dBm
 1259  84.649564 32:32:32:32:32:32 14dBm
 1260  84.716729 32:32:32:32:32:32 15dBm
 1261  84.755784 32:32:32:32:32:32 11dBm
 1262  84.817585 32:32:32:32:32:32 14dBm
 1263  84.941201 32:32:32:32:32:32 13dBm
 1264  84.982489 32:32:32:32:32:32 12dBm
 1265  85.030166 32:32:32:32:32:32 14dBm
 1266  85.050324 32:32:32:32:32:32 14dBm
 1267  85.113332 32:32:32:32:32:32 13dBm
 1268  85.139589 32:32:32:32:32:32 13dBm
 1269  85.245620 32:32:32:32:32:32 13dBm
 1270  85.336711 32:32:32:32:32:32 15dBm
 1271  85.363668 32:32:32:32:32:32 14dBm
 1272  85.415816 32:32:32:32:32:32 15dBm
 1273  85.444064 32:32:32:32:32:32 14dBm
 1274  85.469400 32:32:32:32:32:32 12dBm
 1275  85.561244 32:32:32:32:32:32 13dBm
 1276  85.656936 32:32:32:32:32:32 11dBm
 1277  85.857038 32:32:32:32:32:32 15dBm
 1278  85.885954 32:32:32:32:32:32 13dBm
 1279  85.942519 32:32:32:32:32:32 15dBm
 1280  85.996484 32:32:32:32:32:32 14dBm
 1281  86.057086 32:32:32:32:32:32 13dBm
 1282  86.081383 32:32:32:32:32:32 13dBm
 1283  86.112221 32:32:32:32:32:32 14dBm
 1284  86.251698 32:32:32:32:32:32 12dBm
 1285  86.415887 32:32:32:32:32:32 12dBm
 1286  86.521930 32:32:32:32:32:32 11dBm
 1287  86.595744 32:32:32:32:32:32 13dBm
 1288  86.613946 32:32:32:32:32:32 13dBm
 1289  86.632754 32:32:32:32:32:32 13dBm
 1290  86.715405 32:32:32:32:32:32 12dBm
 1291  86.774995 32:32:32:32:32:32 14dBm
 1292  86.831167 32:32:32:32:32:32 12dBm
 1293  87.028065 32:32:32:32:32:32 12dBm
 1294  87.102475 32:32:32:32:32:32 11dBm
 1295  87.147504 32:32:32:32:32:32 13dBm
 1296  87.225739 32:32:32:32:32:32 13dBm
 1297  87.259433 32:32:32:32:32:32 10dBm
 1298  87.310867 32:32:32:32:32:32 12dBm
 1299  87.329259 32:32:32:32:32:32 13dBm
 1300  87.353113 32:32:32:32:32:32 13dBm
 1301  87.375270 32:32:32:32:32:32 12dBm
 1302  87.409031 32:32:32:32:32:32 13dBm
 1303  87.428673 32:32:32:32:32:32 13dBm
 1304  87.451756 32:32:32:32:32:32 13dBm
 1305  87.499991 32:32:32:32:32:32 13dBm
 1306  87.755317 32:32:32:32:32:32 13dBm
 1307  87.908747 32:32:32:32:32:32 14dBm
 1308  87.967588 32:32:32:32:32:32 14dBm
 1309  88.024040 32:32:32:32:32:32 15dBm
 1310  88.088664 32:32:32:32:32:32 14dBm
 1311  88.161492 32:32:32:32:32:32 13dBm
 1312  88.181930 32:32:32:32:32:32 12dBm
 1313  88.205504 32:32:32:32:32:32 13dBm
 1314  88.334212 32:32:32:32:32:32 14dBm
 1315  88.439097 32:32:32:32:32:32 13dBm
 1316  88.554211 32:32:32:32:32:32 13dBm
 1317  88.626359 32:32:32:32:32:32 12dBm
 1318  88.663245 32:32:32:32:32:32 13dBm
 1319  88.771336 32:32:32:32:32:32 12dBm
 1320  88.821036 32:32:32:32:32:32 11dBm
 1321  88.872861 32:32:32:32:32:32 13dBm
 1322  88.926698 32:32:32:32:32:32 15dBm
 1323  88.974787 32:32:32:32:32:32 12dBm
 1324  89.051707 32:32:32:32:32:32 12dBm
 1325  89.105324 32:32:32:32:32:32 14dBm
 1326  89.124540 32:32:32:32:32:32 14dBm
 1327  89.387514 32:32:32:32:32:32 12dBm
 1328  89.547344 32:32:32:32:32:32 13dBm
 1329  89.573152 32:32:32:32:32:32 14dBm
 1330  89.609906 32:32:32:32:32:32 12dBm
 1331  89.648491 32:32:32:32:32:32 13dBm
 1332  89.667597 32:32:32:32:32:32 13dBm
 1333  89.961540 32:32:32:32:32:32 13dBm
 1334  90.121301 32:32:32:32:32:32 13dBm
 1335  90.160160 32:32:32:32:32:32 15dBm
 1336  90.233221 32:32:32:32:32:32 14dBm
 1337  90.252570 32:32:32:32:32:32 13dBm
 1338  90.282968 32:32:32:32:32:32 12dBm
 1339  90.364792 32:32:32:32:32:32 13dBm
 1340  90.427530 32:32:32:32:32:32 12dBm
 1341  90.454425 32:32:32:32:32:32 14dBm
 1342  90.575742 32:32:32:32:32:32 14dBm
 1343  90.675508 32:32:32:32:32:32 14dBm
 1344  90.701423 32:32:32:32:32:32 12dBm
 1345  90.715579 32:32:32:32:32:32 13dBm
 1346  90.863441 32:32:32:32:32:32 12dBm
 1347  91.168024 32:32:32:32:32:32 14dBm
 1348  91.440552 32:32:32:32:32:32 13dBm
 1349  91.506366 32:32:32:32:32:32 14dBm
 1350  91.588163 32:32:32:32:32:32 12dBm
 1351  91.655315 32:32:32:32:32:32 15dBm
 1352  91.785754 32:32:32:32:32:32 15dBm
 1353  91.833408 32:32:32:32:32:32 13dBm
 1354  91.852426 32:32:32:32:32:32 15dBm
 1355  91.923441 32:32:32:32:32:32 13dBm
 1356  92.021798 32:32:32:32:32:32 12dBm
 1357  92.041149 32:32:32:32:32:32 13dBm
 1358  92.156036 32:32:32:32:32:32 13dBm
 1359  92.272457 32:32:32:32:32:32 14dBm
 1360  92.304902 32:32:32:32:32:32 13dBm
 1361  92.356798 32:32:32:32:32:32 14dBm
 1362  92.466809 32:32:32:32:32:32 15dBm
 1363  92.645666 32:32:32:32:32:32 14dBm
 1364  92.735515 32:32:32:32:32:32 14dBm
 1365  92.826532 32:32:32:32:32:32 16dBm
 1366  92.843657 32:32:32:32:32:32 13dBm
 1367  92.874271 32:32:32:32:32:32 13dBm
 1368  92.981062 32:32:32:32:32:32 14dBm
 1369  93.120014 32:32:32:32:32:32 16dBm
 1370  93.143251 32:32:32:32:32:32 12dBm
 1371  93.219435 32:32:32:32:32:32 15dBm
 1372  93.351545 32:32:32:32:32:32 12dBm
 1373  93.369569 32:32:32:32:32:32 13dBm
 1374  93.432229 32:32:32:32:32:32 13dBm
 1375  93.492857 32:32:32:32:32:32 13dBm
 1376  93.673493 32:32:32:32:32:32 14dBm
 1377  93.741467 32:32:32:32:32:32 14dBm
 1378  93.843396 32:32:32:32:32:32 13dBm
 1379  93.920546 32:32:32:32:32:32 15dBm
 1380  93.956711 32:32:32:32:32:32 11dBm
 1381  94.021049 32:32:32:32:32:32 12dBm
 1382  94.059537 32:32:32:32:32:32 13dBm
 1383  94.075562 32:32:32:32:32:32 13dBm
 1384  94.111941 32:32:32:32:32:32 13dBm
 1385  94.125084 32:32:32:32:32:32 13dBm
 1386  94.219466 32:32:32:32:32:32 13dBm
 1387  94.338321 32:32:32:32:32:32 13dBm
 1388  94.340996 32:32:32:32:32:32 13dBm
 1389  94.420780 32:32:32:32:32:32 13dBm
 1390  94.448097 32:32:32:32:32:32 12dBm
 1391  94.459184 32:32:32:32:32:32 13dBm
 1392  94.506340 32:32:32:32:32:32 11dBm
 1393  94.577799 32:32:32:32:32:32 14dBm
 1394  94.618299 32:32:32:32:32:32 12dBm
 1395  94.724455 32:32:32:32:32:32 14dBm
 1396  94.761417 32:32:32:32:32:32 13dBm
 1397  94.839604 32:32:32:32:32:32 13dBm
 1398  94.914164 32:32:32:32:32:32 14dBm
 1399  94.934172 32:32:32:32:32:32 13dBm
 1400  95.213255 32:32:32:32:32:32 13dBm
 1401  95.350626 32:32:32:32:32:32 15dBm
 1402  95.405123 32:32:32:32:32:32 13dBm
 1403  95.473823 32:32:32:32:32:32 12dBm
 1404  95.480764 32:32:32:32:32:32 12dBm
 1405  95.535859 32:32:32:32:32:32 13dBm
 1406  95.581075 32:32:32:32:32:32 14dBm
 1407  95.604153 32:32:32:32:32:32 14dBm
 1408  95.702902 32:32:32:32:32:32 14dBm
 1409  95.737239 32:32:32:32:32:32 12dBm
 1410  95.770396 32:32:32:32:32:32 14dBm
 1411  95.787172 32:32:32:32:32:32 14dBm
 1412  95.905186 32:32:32:32:32:32 13dBm
 1413  95.974982 32:32:32:32:32:32 12dBm
 1414  96.003895 32:32:32:32:32:32 13dBm
 1415  96.039560 32:32:32:32:32:32 13dBm
 1416  96.089568 32:32:32:32:32:32 11dBm
 1417  96.104265 32:32:32:32:32:32 10dBm
 1418  96.123039 32:32:32:32:32:32 13dBm
 1419  96.171334 32:32:32:32:32:32 14dBm
 1420  96.259727 32:32:32:32:32:32 14dBm
 1421  96.568474 32:32:32:32:32:32 13dBm
 1422  96.602626 32:32:32:32:32:32 14dBm
 1423  96.628329 32:32:32:32:32:32 14dBm
 1424  96.718638 32:32:32:32:32:32 12dBm
 1425  96.803585 32:32:32:32:32:32 14dBm
 1426  96.908848 32:32:32:32:32:32 12dBm
 1427  96.945566 32:32:32:32:32:32 15dBm
 1428  97.048929 32:32:32:32:32:32 13dBm
 1429  97.356248 32:32:32:32:32:32 11dBm
 1430  97.472009 32:32:32:32:32:32 14dBm
 1431  97.489223 32:32:32:32:32:32 14dBm
 1432  97.583835 32:32:32:32:32:32 13dBm
 1433  97.758979 32:32:32:32:32:32 14dBm
 1434  97.763637 32:32:32:32:32:32 14dBm
 1435  97.780713 32:32:32:32:32:32 15dBm
 1436  97.958170 32:32:32:32:32:32 14dBm
 1437  98.005512 32:32:32:32:32:32 13dBm
 1438  98.031613 32:32:32:32:32:32 14dBm
 1439  98.065665 32:32:32:32:32:32 13dBm
 1440  98.165272 32:32:32:32:32:32 14dBm
 1441  98.180256 32:32:32:32:32:32 15dBm
 1442  98.213214 32:32:32:32:32:32 12dBm
 1443  98.491014 32:32:32:32:32:32 14dBm
 1444  98.674211 32:32:32:32:32:32 15dBm
 1445  98.817794 32:32:32:32:32:32 15dBm
 1446  98.890604 32:32:32:32:32:32 14dBm
 1447  98.997655 32:32:32:32:32:32 14dBm
 1448  99.077589 32:32:32:32:32:32 14dBm
 1449  99.171118 32:32:32:32:32:32 13dBm
 1450  99.193162 32:32:32:32:32:32 13dBm
 1451  99.235541 32:32:32:32:32:32 15dBm
 1452  99.300969 32:32:32:32:32:32 13dBm
 1453  99.316434 32:32:32:32:32:32 12dBm
 1454  99.335362 32:32:32:32:32:32 13dBm
 1455  99.354773 32:32:32:32:32:32 13dBm
 1456  99.361873 32:32:32:32:32:32 14dBm
 1457  99.376684 32:32:32:32:32:32 14dBm
 1458  99.589701 32:32:32:32:32:32 14dBm
 1459  99.615301 32:32:32:32:32:32 13dBm
 1460  99.738948 32:32:32:32:32:32 13dBm
 1461  99.802965 32:32:32:32:32:32 13dBm
 1462  99.844914 32:32:32:32:32:32 14dBm
 1463  99.905033 32:32:32:32:32:32 13dBm
 1464 100.170547 32:32:32:32:32:32 14dBm
 1465 100.237142 32:32:32:32:32:32 12dBm
 1466 100.251276 32:32:32:32:32:32 12dBm
 1467 100.304638 32:32:32:32:32:32 15dBm
 1468 100.363133 32:32:32:32:32:32 14dBm
 1469 100.397928 32:32:32:32:32:32 14dBm
 1470 100.428279 32:32:32:32:32:32 14dBm
 1471 100.518976 32:32:32:32:32:32 13dBm
 1472 100.593347 32:32:32:32:32:32 14dBm
 1473 100.623430 32:32:32:32:32:32 14dBm
 1474 100.636694 32:32:32:32:32:32 14dBm
 1475 100.724966 32:32:32:32:32:32 15dBm
 1476 100.727939 32:32:32:32:32:32 16dBm
 1477 100.757187 32:32:32:32:32:32 14dBm
 1478 100.808619 32:32:32:32:32:32 14dBm
 1479 100.877313 32:32:32:32:32:32 15dBm
 1480 100.889630 32:32:32:32:32:32 13dBm
 1481 100.924387 32:32:32:32:32:32 14dBm
 1482 100.928251 32:32:32:32:32:32 15dBm
 1483 101.164818 32:32:32:32:32:32 12dBm
 1484 101.206046 32:32:32:32:32:32 15dBm
 1485 101.245880 32:32:32:32:32:32 15dBm
 1486 101.371250 32:32:32:32:32:32 14dBm
 1487 101.402220 32:32:32:32:32:32 13dBm
 1488 101.428875 32:32:32:32:32:32 14dBm
 1489 101.433509 32:32:32:32:32:32 14dBm
 1490 101.520321 32:32:32:32:32:32 14dBm
 1491 101.558384 32:32:32:32:32:32 11dBm
 1492 101.630673 32:32:32:32:32:32 13dBm
 1493 101.653504 32:32:32:32:32:32 13dBm
 1494 101.655427 32:32:32:32:32:32 14dBm
 1495 101.713676 32:32:32:32:32:32 15dBm
 1496 101.830394 32:32:32:32:32:32 11dBm
 1497 101.883767 32:32:32:32:32:32 14dBm
 1498 102.085664 32:32:32:32:32:32 11dBm
 1499 102.126654 32:32:32:32:32:32 14dBm
 1500 102.167417 32:32:32:32:32:32 14dBm
 1501 102.188840 32:32:32:32:32:32 14dBm
 1502 102.411929 32:32:32:32:32:32 14dBm
 1503 102.466460 32:32:32:32:32:32 14dBm
 1504 102.489923 32:32:32:32:32:32 14dBm
 1505 102.510317 32:32:32:32:32:32 14dBm
 1506 102.532644 32:32:32:32:32:32 14dBm
 1507 102.558494 32:32:32:32:32:32 13dBm
 1508 102.595340 32:32:32:32:32:32 14dBm
 1509 102.627999 32:32:32:32:32:32 14dBm
 1510 102.646696 32:32:32:32:32:32 15dBm
 1511 102.692406 32:32:32:32:32:32 14dBm
 1512 102.712070 32:32:32:32:32:32 13dBm
 1513 102.817829 32:32:32:32:32:32 14dBm
 1514 102.833430 32:32:32:32:32:32 15dBm
 1515 102.864425 32:32:32:32:32:32 14dBm
 1516 102.932335 32:32:32:32:32:32 15dBm
 1517 103.014578 32:32:32:32:32:32 13dBm
 1518 103.059507 32:32:32:32:32:32 14dBm
 1519 103.134496 32:32:32:32:32:32 14dBm
 1520 103.157011 32:32:32:32:32:32 14dBm
 1521 103.234624 32:32:32:32:32:32 15dBm
 1522 103.274601 32:32:32:32:32:32 15dBm
 1523 103.290628 32:32:32:32:32:32 14dBm
 1524 103.421579 32:32:32:32:32:32 13dBm
 1525 103.433756 32:32:32:32:32:32 14dBm
 1526 103.525505 32:32:32:32:32:32 14dBm
 1527 103.588157 32:32:32:32:32:32 13dBm
 1528 103.621726 32:32:32:32:32:32 15dBm
 1529 103.705243 32:32:32:32:32:32 13dBm
 1530 103.737129 32:32:32:32:32:32 13dBm
 1531 103.780235 32:32:32:32:32:32 13dBm
 1532 103.819261 32:32:32:32:32:32 14dBm
 1533 103.835496 32:32:32:32:32:32 13dBm
 1534 103.875408 32:32:32:32:32:32 12dBm
 1535 103.908282 32:32:32:32:32:32 15dBm
 1536 104.014172 32:32:32:32:32:32 14dBm
 1537 104.047718 32:32:32:32:32:32 13dBm
 1538 104.065711 32:32:32:32:32:32 13dBm
 1539 104.130850 32:32:32:32:32:32 15dBm
 1540 104.322563 32:32:32:32:32:32 14dBm
 1541 104.434994 32:32:32:32:32:32 14dBm
 1542 104.501766 32:32:32:32:32:32 14dBm
 1543 104.572348 32:32:32:32:32:32 15dBm
 1544 104.616850 32:32:32:32:32:32 14dBm
 1545 104.632286 32:32:32:32:32:32 14dBm
 1546 104.675818 32:32:32:32:32:32 14dBm
 1547 104.690761 32:32:32:32:32:32 13dBm
 1548 104.727045 32:32:32:32:32:32 13dBm
 1549 104.827445 32:32:32:32:32:32 15dBm
 1550 104.891708 32:32:32:32:32:32 12dBm
 1551 104.912361 32:32:32:32:32:32 11dBm
 1552 105.012361 32:32:32:32:32:32 13dBm
 1553 105.043208 32:32:32:32:32:32 14dBm
 1554 105.191013 32:32:32:32:32:32 13dBm
 1555 105.247662 32:32:32:32:32:32 14dBm
 1556 105.282816 32:32:32:32:32:32 15dBm
 1557 105.389182 32:32:32:32:32:32 14dBm
 1558 105.425496 32:32:32:32:32:32 14dBm
 1559 105.466590 32:32:32:32:32:32 14dBm
 1560 105.515583 32:32:32:32:32:32 14dBm
 1561 105.552436 32:32:32:32:32:32 14dBm
 1562 105.641809 32:32:32:32:32:32 14dBm
 1563 105.746488 32:32:32:32:32:32 14dBm
 1564 105.763657 32:32:32:32:32:32 14dBm
 1565 105.790387 32:32:32:32:32:32 14dBm
 1566 105.843065 32:32:32:32:32:32 15dBm
 1567 105.866930 32:32:32:32:32:32 14dBm
 1568 105.893071 32:32:32:32:32:32 15dBm
 1569 105.909724 32:32:32:32:32:32 13dBm
 1570 105.973956 32:32:32:32:32:32 14dBm
 1571 106.055843 32:32:32:32:32:32 15dBm
 1572 106.207467 32:32:32:32:32:32 12dBm
 1573 106.309203 32:32:32:32:32:32 15dBm
 1574 106.385546 32:32:32:32:32:32 13dBm
 1575 106.445397 32:32:32:32:32:32 13dBm
 1576 106.478898 32:32:32:32:32:32 13dBm
 1577 106.508102 32:32:32:32:32:32 13dBm
 1578 106.523108 32:32:32:32:32:32 14dBm
 1579 106.581045 32:32:32:32:32:32 15dBm
 1580 106.611851 32:32:32:32:32:32 14dBm
 1581 106.650142 32:32:32:32:32:32 15dBm
 1582 106.684810 32:32:32:32:32:32 13dBm
 1583 106.734273 32:32:32:32:32:32 14dBm
 1584 106.790804 32:32:32:32:32:32 15dBm
 1585 106.855776 32:32:32:32:32:32 14dBm
 1586 107.007980 32:32:32:32:32:32 14dBm
 1587 107.032267 32:32:32:32:32:32 15dBm
 1588 107.141400 32:32:32:32:32:32 14dBm
 1589 107.165492 32:32:32:32:32:32 15dBm
 1590 107.321455 32:32:32:32:32:32 13dBm
 1591 107.421628 32:32:32:32:32:32 13dBm
 1592 107.465818 32:32:32:32:32:32 12dBm
 1593 107.513789 32:32:32:32:32:32 13dBm
 1594 107.548653 32:32:32:32:32:32 14dBm
 1595 107.698417 32:32:32:32:32:32 13dBm
 1596 107.742612 32:32:32:32:32:32 13dBm
 1597 107.833777 32:32:32:32:32:32 15dBm
 1598 107.877329 32:32:32:32:32:32 14dBm
 1599 108.157126 32:32:32:32:32:32 14dBm
 1600 108.231985 32:32:32:32:32:32 15dBm
 1601 108.360202 32:32:32:32:32:32 15dBm
 1602 108.488991 32:32:32:32:32:32 13dBm
 1603 108.510217 32:32:32:32:32:32 12dBm
 1604 108.577566 32:32:32:32:32:32 10dBm
 1605 108.611691 32:32:32:32:32:32 13dBm
 1606 108.653104 32:32:32:32:32:32 14dBm
 1607 108.678717 32:32:32:32:32:32 14dBm
 1608 108.693395 32:32:32:32:32:32 13dBm
 1609 108.719936 32:32:32:32:32:32 13dBm
 1610 108.752197 32:32:32:32:32:32 13dBm
 1611 108.833532 32:32:32:32:32:32 14dBm
 1612 108.873129 32:32:32:32:32:32 12dBm
 1613 108.973291 32:32:32:32:32:32 15dBm
 1614 109.091899 32:32:32:32:32:32 12dBm
 1615 109.208437 32:32:32:32:32:32 14dBm
 1616 109.354702 32:32:32:32:32:32 14dBm
 1617 109.423694 32:32:32:32:32:32 15dBm
 1618 109.444934 32:32:32:32:32:32 14dBm
 1619 109.618603 32:32:32:32:32:32 13dBm
 1620 109.668507 32:32:32:32:32:32 13dBm
 1621 109.689537 32:32:32:32:32:32 11dBm
 1622 109.760634 32:32:32:32:32:32 14dBm
 1623 109.873165 32:32:32:32:32:32 13dBm
 1624 109.890276 32:32:32:32:32:32 14dBm
 1625 109.926275 32:32:32:32:32:32 12dBm
 1626 109.954279 32:32:32:32:32:32 14dBm
 1627 109.971569 32:32:32:32:32:32 13dBm
 1628 110.222548 32:32:32:32:32:32 14dBm
 1629 110.245856 32:32:32:32:32:32 13dBm
 1630 110.352125 32:32:32:32:32:32 14dBm
 1631 110.382535 32:32:32:32:32:32 14dBm
 1632 110.510010 32:32:32:32:32:32 14dBm
 1633 110.537527 32:32:32:32:32:32 10dBm
 1634 110.587809 32:32:32:32:32:32 14dBm
 1635 110.637802 32:32:32:32:32:32 14dBm
 1636 110.656248 32:32:32:32:32:32 13dBm
 1637 110.753401 32:32:32:32:32:32 15dBm
 1638 110.788244 32:32:32:32:32:32 15dBm
 1639 110.821287 32:32:32:32:32:32 13dBm
 1640 110.873389 32:32:32:32:32:32 14dBm
 1641 110.895960 32:32:32:32:32:32 15dBm
 1642 110.919733 32:32:32:32:32:32 14dBm
 1643 110.963564 32:32:32:32:32:32 13dBm
 1644 111.001511 32:32:32:32:32:32 14dBm
 1645 111.038958 32:32:32:32:32:32 12dBm
 1646 111.062231 32:32:32:32:32:32 13dBm
 1647 111.119829 32:32:32:32:32:32 15dBm
 1648 111.180101 32:32:32:32:32:32 12dBm
 1649 111.270215 32:32:32:32:32:32 14dBm
 1650 111.459098 32:32:32:32:32:32 14dBm
 1651 111.648792 32:32:32:32:32:32 10dBm
 1652 111.694153 32:32:32:32:32:32 14dBm
 1653 111.735038 32:32:32:32:32:32 14dBm
 1654 111.770228 32:32:32:32:32:32 14dBm
 1655 111.810459 32:32:32:32:32:32 13dBm
 1656 111.946957 32:32:32:32:32:32 15dBm
 1657 112.045532 32:32:32:32:32:32 14dBm
 1658 112.088848 32:32:32:32:32:32 14dBm
 1659 112.107480 32:32:32:32:32:32 12dBm
 1660 112.191580 32:32:32:32:32:32 14dBm
 1661 112.246024 32:32:32:32:32:32 14dBm
 1662 112.448071 32:32:32:32:32:32 12dBm
 1663 112.530921 32:32:32:32:32:32 12dBm
 1664 112.559616 32:32:32:32:32:32 14dBm
 1665 112.657953 32:32:32:32:32:32 13dBm
 1666 112.687227 32:32:32:32:32:32 15dBm
 1667 112.704635 32:32:32:32:32:32 13dBm
 1668 112.761830 32:32:32:32:32:32 14dBm
 1669 112.811458 32:32:32:32:32:32 13dBm
 1670 112.972564 32:32:32:32:32:32 15dBm
 1671 113.206437 32:32:32:32:32:32 14dBm
 1672 113.263054 32:32:32:32:32:32 13dBm
 1673 113.267652 32:32:32:32:32:32 14dBm
 1674 113.297697 32:32:32:32:32:32 14dBm
 1675 113.321767 32:32:32:32:32:32 13dBm
 1676 113.360667 32:32:32:32:32:32 13dBm
 1677 113.549858 32:32:32:32:32:32 13dBm
 1678 113.584267 32:32:32:32:32:32 10dBm
 1679 113.749238 32:32:32:32:32:32 13dBm
 1680 113.857630 32:32:32:32:32:32 14dBm
 1681 113.919428 32:32:32:32:32:32 14dBm
 1682 113.974005 32:32:32:32:32:32 15dBm
 1683 114.050173 32:32:32:32:32:32 13dBm
 1684 114.070361 32:32:32:32:32:32 14dBm
 1685 114.151102 32:32:32:32:32:32 13dBm
 1686 114.170583 32:32:32:32:32:32 14dBm
 1687 114.202123 32:32:32:32:32:32 13dBm
 1688 114.239831 32:32:32:32:32:32 13dBm
 1689 114.304779 32:32:32:32:32:32 12dBm
 1690 114.335500 32:32:32:32:32:32 13dBm
 1691 114.412425 32:32:32:32:32:32 13dBm
 1692 114.437313 32:32:32:32:32:32 13dBm
 1693 114.496882 32:32:32:32:32:32 14dBm
 1694 114.534078 32:32:32:32:32:32 13dBm
 1695 114.552303 32:32:32:32:32:32 12dBm
 1696 114.662368 32:32:32:32:32:32 14dBm
 1697 114.723473 32:32:32:32:32:32 13dBm
 1698 114.766611 32:32:32:32:32:32 16dBm
 1699 114.786976 32:32:32:32:32:32 14dBm
 1700 114.835343 32:32:32:32:32:32 14dBm
 1701 114.866533 32:32:32:32:32:32 14dBm
 1702 114.881506 32:32:32:32:32:32 13dBm
 1703 114.909185 32:32:32:32:32:32 14dBm
 1704 114.915521 32:32:32:32:32:32 13dBm
 1705 114.943258 32:32:32:32:32:32 14dBm
 1706 115.153655 32:32:32:32:32:32 14dBm
 1707 115.241419 32:32:32:32:32:32 14dBm
 1708 115.401671 32:32:32:32:32:32 12dBm
 1709 115.421916 32:32:32:32:32:32 11dBm
 1710 115.442491 32:32:32:32:32:32 11dBm
 1711 115.507649 32:32:32:32:32:32 13dBm
 1712 115.612434 32:32:32:32:32:32 14dBm
 1713 115.672663 32:32:32:32:32:32 15dBm
 1714 115.720629 32:32:32:32:32:32 13dBm
 1715 115.738903 32:32:32:32:32:32 14dBm
 1716 115.759750 32:32:32:32:32:32 14dBm
 1717 115.784226 32:32:32:32:32:32 14dBm
 1718 115.811989 32:32:32:32:32:32 14dBm
 1719 115.813077 32:32:32:32:32:32 14dBm
 1720 116.165936 32:32:32:32:32:32 15dBm
 1721 116.213617 32:32:32:32:32:32 14dBm
 1722 116.272917 32:32:32:32:32:32 13dBm
 1723 116.335626 32:32:32:32:32:32 13dBm
 1724 116.368862 32:32:32:32:32:32 13dBm
 1725 116.487146 32:32:32:32:32:32 14dBm
 1726 116.501753 32:32:32:32:32:32 14dBm
 1727 116.617432 32:32:32:32:32:32 14dBm
 1728 116.653313 32:32:32:32:32:32 13dBm
 1729 116.685160 32:32:32:32:32:32 14dBm
 1730 116.771647 32:32:32:32:32:32 13dBm
 1731 116.915108 32:32:32:32:32:32 13dBm
 1732 116.995008 32:32:32:32:32:32 15dBm
 1733 117.087971 32:32:32:32:32:32 15dBm
 1734 117.186690 32:32:32:32:32:32 12dBm
 1735 117.226498 32:32:32:32:32:32 13dBm
 1736 117.300757 32:32:32:32:32:32 12dBm
 1737 117.328055 32:32:32:32:32:32 11dBm
 1738 117.432352 32:32:32:32:32:32 14dBm
 1739 117.826973 32:32:32:32:32:32 13dBm
 1740 117.993757 32:32:32:32:32:32 12dBm
 1741 118.045860 32:32:32:32:32:32 11dBm
 1742 118.092567 32:32:32:32:32:32 14dBm
 1743 118.129964 32:32:32:32:32:32 14dBm
 1744 118.286113 32:32:32:32:32:32 14dBm
 1745 118.621519 32:32:32:32:32:32 13dBm
 1746 118.736756 32:32:32:32:32:32 15dBm
 1747 118.761890 32:32:32:32:32:32 14dBm
 1748 118.768577 32:32:32:32:32:32 12dBm
 1749 118.787963 32:32:32:32:32:32 13dBm
 1750 118.920240 32:32:32:32:32:32 15dBm
 1751 118.937295 32:32:32:32:32:32 13dBm
 1752 118.975821 32:32:32:32:32:32 12dBm
 1753 118.992601 32:32:32:32:32:32 13dBm
 1754 119.057330 32:32:32:32:32:32 14dBm
 1755 119.103812 32:32:32:32:32:32 14dBm
 1756 119.273408 32:32:32:32:32:32 13dBm
 1757 119.364849 32:32:32:32:32:32 14dBm
 1758 119.476852 32:32:32:32:32:32 15dBm
 1759 119.534201 32:32:32:32:32:32 15dBm
 1760 119.610338 32:32:32:32:32:32 14dBm
 1761 119.666352 32:32:32:32:32:32 14dBm
 1762 119.729247 32:32:32:32:32:32 14dBm
 1763 119.754992 32:32:32:32:32:32 14dBm
 1764 119.802509 32:32:32:32:32:32 14dBm
 1765 119.897728 32:32:32:32:32:32 13dBm
 1766 120.315915 32:32:32:32:32:32 12dBm
 1767 120.344398 32:32:32:32:32:32 14dBm
 1768 120.358647 32:32:32:32:32:32 14dBm
 1769 120.388843 32:32:32:32:32:32 15dBm
 1770 120.408746 32:32:32:32:32:32 14dBm
 1771 120.495471 32:32:32:32:32:32 13dBm
 1772 120.524276 32:32:32:32:32:32 14dBm
 1773 120.621606 32:32:32:32:32:32 13dBm
 1774 120.816342 32:32:32:32:32:32 11dBm
 1775 120.901967 32:32:32:32:32:32 13dBm
 1776 120.933500 32:32:32:32:32:32 14dBm
 1777 120.964490 32:32:32:32:32:32 14dBm
 1778 121.020034 32:32:32:32:32:32 15dBm
 1779 121.180493 32:32:32:32:32:32 11dBm
 1780 121.312677 32:32:32:32:32:32 14dBm
 1781 121.333701 32:32:32:32:32:32 13dBm
 1782 121.410630 32:32:32:32:32:32 14dBm
 1783 121.620011 32:32:32:32:32:32 15dBm
 1784 121.731487 32:32:32:32:32:32 14dBm
 1785 121.844023 32:32:32:32:32:32 13dBm
 1786 121.954906 32:32:32:32:32:32 14dBm
 1787 121.997038 32:32:32:32:32:32 14dBm
 1788 122.023042 32:32:32:32:32:32 13dBm
 1789 122.052050 32:32:32:32:32:32 15dBm
