    1   0.000000 32:32:32:32:32:32 11dBm Nov 18, 2018 16:34:28.835558000 +07
    2   0.078876 32:32:32:32:32:32 11dBm Nov 18, 2018 16:34:28.914434000 +07
    3   0.105858 32:32:32:32:32:32 12dBm Nov 18, 2018 16:34:28.941416000 +07
    4   0.215242 32:32:32:32:32:32 11dBm Nov 18, 2018 16:34:29.050800000 +07
    5   0.281027 32:32:32:32:32:32 10dBm Nov 18, 2018 16:34:29.116585000 +07
    6   0.307498 32:32:32:32:32:32 9dBm Nov 18, 2018 16:34:29.143056000 +07
    7   0.339066 32:32:32:32:32:32 10dBm Nov 18, 2018 16:34:29.174624000 +07
    8   0.357990 32:32:32:32:32:32 9dBm Nov 18, 2018 16:34:29.193548000 +07
    9   0.410737 32:32:32:32:32:32 6dBm Nov 18, 2018 16:34:29.246295000 +07
   10   0.484861 32:32:32:32:32:32 8dBm Nov 18, 2018 16:34:29.320419000 +07
   11   0.586246 32:32:32:32:32:32 8dBm Nov 18, 2018 16:34:29.421804000 +07
   12   0.805289 32:32:32:32:32:32 13dBm Nov 18, 2018 16:34:29.640847000 +07
   13   0.832456 32:32:32:32:32:32 11dBm Nov 18, 2018 16:34:29.668014000 +07
   14   1.056901 32:32:32:32:32:32 9dBm Nov 18, 2018 16:34:29.892459000 +07
   15   1.313337 32:32:32:32:32:32 10dBm Nov 18, 2018 16:34:30.148895000 +07
   16   1.510200 32:32:32:32:32:32 15dBm Nov 18, 2018 16:34:30.345758000 +07
   17   1.552250 32:32:32:32:32:32 14dBm Nov 18, 2018 16:34:30.387808000 +07
   18   1.678727 32:32:32:32:32:32 13dBm Nov 18, 2018 16:34:30.514285000 +07
   19   1.790637 32:32:32:32:32:32 9dBm Nov 18, 2018 16:34:30.626195000 +07
   20   1.812031 32:32:32:32:32:32 11dBm Nov 18, 2018 16:34:30.647589000 +07
   21   1.853308 32:32:32:32:32:32 11dBm Nov 18, 2018 16:34:30.688866000 +07
   22   1.892642 32:32:32:32:32:32 13dBm Nov 18, 2018 16:34:30.728200000 +07
   23   1.909381 32:32:32:32:32:32 12dBm Nov 18, 2018 16:34:30.744939000 +07
   24   2.112219 32:32:32:32:32:32 14dBm Nov 18, 2018 16:34:30.947777000 +07
   25   2.130500 32:32:32:32:32:32 12dBm Nov 18, 2018 16:34:30.966058000 +07
   26   2.209676 32:32:32:32:32:32 10dBm Nov 18, 2018 16:34:31.045234000 +07
   27   2.348973 32:32:32:32:32:32 13dBm Nov 18, 2018 16:34:31.184531000 +07
   28   2.424047 32:32:32:32:32:32 15dBm Nov 18, 2018 16:34:31.259605000 +07
   29   2.539893 32:32:32:32:32:32 15dBm Nov 18, 2018 16:34:31.375451000 +07
   30   2.660562 32:32:32:32:32:32 4dBm Nov 18, 2018 16:34:31.496120000 +07
   31   2.698128 32:32:32:32:32:32 9dBm Nov 18, 2018 16:34:31.533686000 +07
   32   2.959354 32:32:32:32:32:32 12dBm Nov 18, 2018 16:34:31.794912000 +07
   33   3.092642 32:32:32:32:32:32 8dBm Nov 18, 2018 16:34:31.928200000 +07
   34   3.170562 32:32:32:32:32:32 11dBm Nov 18, 2018 16:34:32.006120000 +07
   35   3.306579 32:32:32:32:32:32 10dBm Nov 18, 2018 16:34:32.142137000 +07
   36   3.348127 32:32:32:32:32:32 8dBm Nov 18, 2018 16:34:32.183685000 +07
   37   3.676251 32:32:32:32:32:32 13dBm Nov 18, 2018 16:34:32.511809000 +07
   38   3.743579 32:32:32:32:32:32 14dBm Nov 18, 2018 16:34:32.579137000 +07
   39   3.770413 32:32:32:32:32:32 11dBm Nov 18, 2018 16:34:32.605971000 +07
   40   3.790926 32:32:32:32:32:32 13dBm Nov 18, 2018 16:34:32.626484000 +07
   41   3.833560 32:32:32:32:32:32 11dBm Nov 18, 2018 16:34:32.669118000 +07
   42   3.865849 32:32:32:32:32:32 13dBm Nov 18, 2018 16:34:32.701407000 +07
   43   3.954299 32:32:32:32:32:32 10dBm Nov 18, 2018 16:34:32.789857000 +07
   44   3.980073 32:32:32:32:32:32 12dBm Nov 18, 2018 16:34:32.815631000 +07
   45   4.025470 32:32:32:32:32:32 14dBm Nov 18, 2018 16:34:32.861028000 +07
   46   4.349245 32:32:32:32:32:32 15dBm Nov 18, 2018 16:34:33.184803000 +07
   47   4.370652 32:32:32:32:32:32 14dBm Nov 18, 2018 16:34:33.206210000 +07
   48   4.387344 32:32:32:32:32:32 15dBm Nov 18, 2018 16:34:33.222902000 +07
   49   4.426659 32:32:32:32:32:32 14dBm Nov 18, 2018 16:34:33.262217000 +07
   50   4.839589 32:32:32:32:32:32 14dBm Nov 18, 2018 16:34:33.675147000 +07
   51   4.988782 32:32:32:32:32:32 13dBm Nov 18, 2018 16:34:33.824340000 +07
   52   5.077391 32:32:32:32:32:32 15dBm Nov 18, 2018 16:34:33.912949000 +07
   53   5.127964 32:32:32:32:32:32 9dBm Nov 18, 2018 16:34:33.963522000 +07
   54   5.195038 32:32:32:32:32:32 13dBm Nov 18, 2018 16:34:34.030596000 +07
   55   5.331910 32:32:32:32:32:32 13dBm Nov 18, 2018 16:34:34.167468000 +07
   56   5.472098 32:32:32:32:32:32 14dBm Nov 18, 2018 16:34:34.307656000 +07
   57   5.623116 32:32:32:32:32:32 9dBm Nov 18, 2018 16:34:34.458674000 +07
   58   5.884173 32:32:32:32:32:32 13dBm Nov 18, 2018 16:34:34.719731000 +07
   59   6.000525 32:32:32:32:32:32 9dBm Nov 18, 2018 16:34:34.836083000 +07
   60   6.120554 32:32:32:32:32:32 10dBm Nov 18, 2018 16:34:34.956112000 +07
   61   6.193598 32:32:32:32:32:32 15dBm Nov 18, 2018 16:34:35.029156000 +07
   62   6.250477 32:32:32:32:32:32 13dBm Nov 18, 2018 16:34:35.086035000 +07
   63   6.258953 32:32:32:32:32:32 10dBm Nov 18, 2018 16:34:35.094511000 +07
   64   6.274715 32:32:32:32:32:32 12dBm Nov 18, 2018 16:34:35.110273000 +07
   65   6.286110 32:32:32:32:32:32 14dBm Nov 18, 2018 16:34:35.121668000 +07
   66   6.337519 32:32:32:32:32:32 14dBm Nov 18, 2018 16:34:35.173077000 +07
   67   6.477923 32:32:32:32:32:32 13dBm Nov 18, 2018 16:34:35.313481000 +07
   68   6.517087 32:32:32:32:32:32 14dBm Nov 18, 2018 16:34:35.352645000 +07
   69   6.775772 32:32:32:32:32:32 16dBm Nov 18, 2018 16:34:35.611330000 +07
   70   7.150571 32:32:32:32:32:32 14dBm Nov 18, 2018 16:34:35.986129000 +07
   71   7.216391 32:32:32:32:32:32 13dBm Nov 18, 2018 16:34:36.051949000 +07
   72   7.263128 32:32:32:32:32:32 12dBm Nov 18, 2018 16:34:36.098686000 +07
   73   7.283434 32:32:32:32:32:32 12dBm Nov 18, 2018 16:34:36.118992000 +07
   74   7.300405 32:32:32:32:32:32 12dBm Nov 18, 2018 16:34:36.135963000 +07
   75   7.315280 32:32:32:32:32:32 9dBm Nov 18, 2018 16:34:36.150838000 +07
   76   7.371603 32:32:32:32:32:32 13dBm Nov 18, 2018 16:34:36.207161000 +07
   77   7.382496 32:32:32:32:32:32 8dBm Nov 18, 2018 16:34:36.218054000 +07
   78   7.453751 32:32:32:32:32:32 14dBm Nov 18, 2018 16:34:36.289309000 +07
   79   7.473426 32:32:32:32:32:32 10dBm Nov 18, 2018 16:34:36.308984000 +07
   80   7.510804 32:32:32:32:32:32 12dBm Nov 18, 2018 16:34:36.346362000 +07
   81   7.601534 32:32:32:32:32:32 12dBm Nov 18, 2018 16:34:36.437092000 +07
   82   7.617093 32:32:32:32:32:32 13dBm Nov 18, 2018 16:34:36.452651000 +07
   83   7.642790 32:32:32:32:32:32 11dBm Nov 18, 2018 16:34:36.478348000 +07
   84   7.899137 32:32:32:32:32:32 15dBm Nov 18, 2018 16:34:36.734695000 +07
   85   8.101112 32:32:32:32:32:32 15dBm Nov 18, 2018 16:34:36.936670000 +07
   86   8.118659 32:32:32:32:32:32 15dBm Nov 18, 2018 16:34:36.954217000 +07
   87   8.592687 32:32:32:32:32:32 14dBm Nov 18, 2018 16:34:37.428245000 +07
   88   8.606934 32:32:32:32:32:32 12dBm Nov 18, 2018 16:34:37.442492000 +07
   89   8.620782 32:32:32:32:32:32 9dBm Nov 18, 2018 16:34:37.456340000 +07
   90   8.634364 32:32:32:32:32:32 12dBm Nov 18, 2018 16:34:37.469922000 +07
   91   8.743624 32:32:32:32:32:32 12dBm Nov 18, 2018 16:34:37.579182000 +07
   92   8.772105 32:32:32:32:32:32 13dBm Nov 18, 2018 16:34:37.607663000 +07
   93   8.795155 32:32:32:32:32:32 14dBm Nov 18, 2018 16:34:37.630713000 +07
   94   8.884218 32:32:32:32:32:32 13dBm Nov 18, 2018 16:34:37.719776000 +07
   95   8.985809 32:32:32:32:32:32 13dBm Nov 18, 2018 16:34:37.821367000 +07
   96   9.044571 32:32:32:32:32:32 13dBm Nov 18, 2018 16:34:37.880129000 +07
   97   9.116049 32:32:32:32:32:32 13dBm Nov 18, 2018 16:34:37.951607000 +07
   98   9.138235 32:32:32:32:32:32 14dBm Nov 18, 2018 16:34:37.973793000 +07
   99   9.247788 32:32:32:32:32:32 14dBm Nov 18, 2018 16:34:38.083346000 +07
  100   9.572790 32:32:32:32:32:32 13dBm Nov 18, 2018 16:34:38.408348000 +07
  101   9.604749 32:32:32:32:32:32 14dBm Nov 18, 2018 16:34:38.440307000 +07
  102   9.756142 32:32:32:32:32:32 14dBm Nov 18, 2018 16:34:38.591700000 +07
  103   9.789585 32:32:32:32:32:32 12dBm Nov 18, 2018 16:34:38.625143000 +07
  104   9.821328 32:32:32:32:32:32 11dBm Nov 18, 2018 16:34:38.656886000 +07
  105   9.855904 32:32:32:32:32:32 13dBm Nov 18, 2018 16:34:38.691462000 +07
  106  10.170844 32:32:32:32:32:32 12dBm Nov 18, 2018 16:34:39.006402000 +07
  107  10.224764 32:32:32:32:32:32 12dBm Nov 18, 2018 16:34:39.060322000 +07
  108  10.322106 32:32:32:32:32:32 11dBm Nov 18, 2018 16:34:39.157664000 +07
  109  10.368782 32:32:32:32:32:32 14dBm Nov 18, 2018 16:34:39.204340000 +07
  110  10.380890 32:32:32:32:32:32 12dBm Nov 18, 2018 16:34:39.216448000 +07
  111  10.500782 32:32:32:32:32:32 14dBm Nov 18, 2018 16:34:39.336340000 +07
  112  10.540161 32:32:32:32:32:32 12dBm Nov 18, 2018 16:34:39.375719000 +07
  113  10.618690 32:32:32:32:32:32 14dBm Nov 18, 2018 16:34:39.454248000 +07
  114  10.766845 32:32:32:32:32:32 14dBm Nov 18, 2018 16:34:39.602403000 +07
  115  10.889250 32:32:32:32:32:32 13dBm Nov 18, 2018 16:34:39.724808000 +07
  116  10.914647 32:32:32:32:32:32 14dBm Nov 18, 2018 16:34:39.750205000 +07
  117  10.922464 32:32:32:32:32:32 12dBm Nov 18, 2018 16:34:39.758022000 +07
  118  10.971375 32:32:32:32:32:32 12dBm Nov 18, 2018 16:34:39.806933000 +07
  119  11.069095 32:32:32:32:32:32 13dBm Nov 18, 2018 16:34:39.904653000 +07
  120  11.218478 32:32:32:32:32:32 11dBm Nov 18, 2018 16:34:40.054036000 +07
  121  11.274984 32:32:32:32:32:32 9dBm Nov 18, 2018 16:34:40.110542000 +07
  122  11.295075 32:32:32:32:32:32 12dBm Nov 18, 2018 16:34:40.130633000 +07
  123  11.313984 32:32:32:32:32:32 7dBm Nov 18, 2018 16:34:40.149542000 +07
  124  11.324443 32:32:32:32:32:32 12dBm Nov 18, 2018 16:34:40.160001000 +07
  125  11.716078 32:32:32:32:32:32 14dBm Nov 18, 2018 16:34:40.551636000 +07
  126  11.738710 32:32:32:32:32:32 8dBm Nov 18, 2018 16:34:40.574268000 +07
  127  11.859075 32:32:32:32:32:32 12dBm Nov 18, 2018 16:34:40.694633000 +07
  128  11.924813 32:32:32:32:32:32 13dBm Nov 18, 2018 16:34:40.760371000 +07
  129  11.936709 32:32:32:32:32:32 14dBm Nov 18, 2018 16:34:40.772267000 +07
  130  11.959255 32:32:32:32:32:32 9dBm Nov 18, 2018 16:34:40.794813000 +07
  131  12.064361 32:32:32:32:32:32 12dBm Nov 18, 2018 16:34:40.899919000 +07
  132  12.165657 32:32:32:32:32:32 14dBm Nov 18, 2018 16:34:41.001215000 +07
  133  12.201667 32:32:32:32:32:32 13dBm Nov 18, 2018 16:34:41.037225000 +07
  134  12.231506 32:32:32:32:32:32 13dBm Nov 18, 2018 16:34:41.067064000 +07
  135  12.255629 32:32:32:32:32:32 10dBm Nov 18, 2018 16:34:41.091187000 +07
  136  12.351098 32:32:32:32:32:32 11dBm Nov 18, 2018 16:34:41.186656000 +07
  137  12.431179 32:32:32:32:32:32 11dBm Nov 18, 2018 16:34:41.266737000 +07
  138  12.482957 32:32:32:32:32:32 15dBm Nov 18, 2018 16:34:41.318515000 +07
  139  12.539222 32:32:32:32:32:32 12dBm Nov 18, 2018 16:34:41.374780000 +07
  140  12.571724 32:32:32:32:32:32 11dBm Nov 18, 2018 16:34:41.407282000 +07
  141  12.597890 32:32:32:32:32:32 11dBm Nov 18, 2018 16:34:41.433448000 +07
  142  12.613658 32:32:32:32:32:32 13dBm Nov 18, 2018 16:34:41.449216000 +07
  143  12.651829 32:32:32:32:32:32 15dBm Nov 18, 2018 16:34:41.487387000 +07
  144  12.943084 32:32:32:32:32:32 15dBm Nov 18, 2018 16:34:41.778642000 +07
  145  13.119713 32:32:32:32:32:32 11dBm Nov 18, 2018 16:34:41.955271000 +07
  146  13.232710 32:32:32:32:32:32 14dBm Nov 18, 2018 16:34:42.068268000 +07
  147  13.304629 32:32:32:32:32:32 14dBm Nov 18, 2018 16:34:42.140187000 +07
  148  13.333857 32:32:32:32:32:32 11dBm Nov 18, 2018 16:34:42.169415000 +07
  149  13.531129 32:32:32:32:32:32 14dBm Nov 18, 2018 16:34:42.366687000 +07
  150  13.621838 32:32:32:32:32:32 13dBm Nov 18, 2018 16:34:42.457396000 +07
  151  13.644833 32:32:32:32:32:32 15dBm Nov 18, 2018 16:34:42.480391000 +07
  152  13.648501 32:32:32:32:32:32 13dBm Nov 18, 2018 16:34:42.484059000 +07
  153  13.680925 32:32:32:32:32:32 13dBm Nov 18, 2018 16:34:42.516483000 +07
  154  13.705561 32:32:32:32:32:32 13dBm Nov 18, 2018 16:34:42.541119000 +07
  155  13.719734 32:32:32:32:32:32 13dBm Nov 18, 2018 16:34:42.555292000 +07
  156  13.860838 32:32:32:32:32:32 11dBm Nov 18, 2018 16:34:42.696396000 +07
  157  13.885621 32:32:32:32:32:32 11dBm Nov 18, 2018 16:34:42.721179000 +07
  158  14.093107 32:32:32:32:32:32 14dBm Nov 18, 2018 16:34:42.928665000 +07
  159  14.128511 32:32:32:32:32:32 13dBm Nov 18, 2018 16:34:42.964069000 +07
  160  14.371373 32:32:32:32:32:32 9dBm Nov 18, 2018 16:34:43.206931000 +07
  161  14.498372 32:32:32:32:32:32 14dBm Nov 18, 2018 16:34:43.333930000 +07
  162  14.556732 32:32:32:32:32:32 12dBm Nov 18, 2018 16:34:43.392290000 +07
  163  14.650337 32:32:32:32:32:32 14dBm Nov 18, 2018 16:34:43.485895000 +07
  164  14.749381 32:32:32:32:32:32 13dBm Nov 18, 2018 16:34:43.584939000 +07
  165  14.782582 32:32:32:32:32:32 13dBm Nov 18, 2018 16:34:43.618140000 +07
  166  14.917222 32:32:32:32:32:32 11dBm Nov 18, 2018 16:34:43.752780000 +07
  167  14.966181 32:32:32:32:32:32 12dBm Nov 18, 2018 16:34:43.801739000 +07
  168  15.026670 32:32:32:32:32:32 10dBm Nov 18, 2018 16:34:43.862228000 +07
  169  15.085038 32:32:32:32:32:32 10dBm Nov 18, 2018 16:34:43.920596000 +07
  170  15.330255 32:32:32:32:32:32 13dBm Nov 18, 2018 16:34:44.165813000 +07
  171  15.383806 32:32:32:32:32:32 14dBm Nov 18, 2018 16:34:44.219364000 +07
  172  15.483377 32:32:32:32:32:32 13dBm Nov 18, 2018 16:34:44.318935000 +07
  173  15.563247 32:32:32:32:32:32 12dBm Nov 18, 2018 16:34:44.398805000 +07
  174  15.689597 32:32:32:32:32:32 12dBm Nov 18, 2018 16:34:44.525155000 +07
  175  15.936844 32:32:32:32:32:32 14dBm Nov 18, 2018 16:34:44.772402000 +07
  176  16.099491 32:32:32:32:32:32 14dBm Nov 18, 2018 16:34:44.935049000 +07
  177  16.144548 32:32:32:32:32:32 12dBm Nov 18, 2018 16:34:44.980106000 +07
  178  16.311365 32:32:32:32:32:32 8dBm Nov 18, 2018 16:34:45.146923000 +07
  179  16.343946 32:32:32:32:32:32 10dBm Nov 18, 2018 16:34:45.179504000 +07
  180  16.410173 32:32:32:32:32:32 12dBm Nov 18, 2018 16:34:45.245731000 +07
  181  16.531691 32:32:32:32:32:32 15dBm Nov 18, 2018 16:34:45.367249000 +07
  182  16.599759 32:32:32:32:32:32 14dBm Nov 18, 2018 16:34:45.435317000 +07
  183  16.618772 32:32:32:32:32:32 15dBm Nov 18, 2018 16:34:45.454330000 +07
  184  16.659829 32:32:32:32:32:32 14dBm Nov 18, 2018 16:34:45.495387000 +07
  185  16.677226 32:32:32:32:32:32 14dBm Nov 18, 2018 16:34:45.512784000 +07
  186  16.706073 32:32:32:32:32:32 13dBm Nov 18, 2018 16:34:45.541631000 +07
  187  16.738502 32:32:32:32:32:32 12dBm Nov 18, 2018 16:34:45.574060000 +07
  188  16.760785 32:32:32:32:32:32 12dBm Nov 18, 2018 16:34:45.596343000 +07
  189  16.875292 32:32:32:32:32:32 14dBm Nov 18, 2018 16:34:45.710850000 +07
  190  16.965519 32:32:32:32:32:32 13dBm Nov 18, 2018 16:34:45.801077000 +07
  191  17.025253 32:32:32:32:32:32 14dBm Nov 18, 2018 16:34:45.860811000 +07
  192  17.326895 32:32:32:32:32:32 14dBm Nov 18, 2018 16:34:46.162453000 +07
  193  17.480174 32:32:32:32:32:32 12dBm Nov 18, 2018 16:34:46.315732000 +07
  194  17.573854 32:32:32:32:32:32 12dBm Nov 18, 2018 16:34:46.409412000 +07
  195  17.618977 32:32:32:32:32:32 12dBm Nov 18, 2018 16:34:46.454535000 +07
  196  17.638288 32:32:32:32:32:32 8dBm Nov 18, 2018 16:34:46.473846000 +07
  197  17.722368 32:32:32:32:32:32 10dBm Nov 18, 2018 16:34:46.557926000 +07
  198  17.779026 32:32:32:32:32:32 13dBm Nov 18, 2018 16:34:46.614584000 +07
  199  17.799780 32:32:32:32:32:32 12dBm Nov 18, 2018 16:34:46.635338000 +07
  200  17.910863 32:32:32:32:32:32 8dBm Nov 18, 2018 16:34:46.746421000 +07
  201  18.001012 32:32:32:32:32:32 15dBm Nov 18, 2018 16:34:46.836570000 +07
  202  18.019068 32:32:32:32:32:32 11dBm Nov 18, 2018 16:34:46.854626000 +07
  203  18.027825 32:32:32:32:32:32 13dBm Nov 18, 2018 16:34:46.863383000 +07
  204  18.053627 32:32:32:32:32:32 12dBm Nov 18, 2018 16:34:46.889185000 +07
  205  18.065129 32:32:32:32:32:32 12dBm Nov 18, 2018 16:34:46.900687000 +07
  206  18.111526 32:32:32:32:32:32 15dBm Nov 18, 2018 16:34:46.947084000 +07
  207  18.160056 32:32:32:32:32:32 13dBm Nov 18, 2018 16:34:46.995614000 +07
  208  18.177468 32:32:32:32:32:32 14dBm Nov 18, 2018 16:34:47.013026000 +07
  209  18.197397 32:32:32:32:32:32 14dBm Nov 18, 2018 16:34:47.032955000 +07
  210  18.232396 32:32:32:32:32:32 13dBm Nov 18, 2018 16:34:47.067954000 +07
  211  18.483976 32:32:32:32:32:32 13dBm Nov 18, 2018 16:34:47.319534000 +07
  212  18.565817 32:32:32:32:32:32 14dBm Nov 18, 2018 16:34:47.401375000 +07
  213  18.701301 32:32:32:32:32:32 13dBm Nov 18, 2018 16:34:47.536859000 +07
  214  18.907974 32:32:32:32:32:32 13dBm Nov 18, 2018 16:34:47.743532000 +07
  215  19.000073 32:32:32:32:32:32 10dBm Nov 18, 2018 16:34:47.835631000 +07
  216  19.016765 32:32:32:32:32:32 11dBm Nov 18, 2018 16:34:47.852323000 +07
  217  19.118770 32:32:32:32:32:32 14dBm Nov 18, 2018 16:34:47.954328000 +07
  218  19.347305 32:32:32:32:32:32 11dBm Nov 18, 2018 16:34:48.182863000 +07
  219  19.387690 32:32:32:32:32:32 13dBm Nov 18, 2018 16:34:48.223248000 +07
  220  19.415125 32:32:32:32:32:32 12dBm Nov 18, 2018 16:34:48.250683000 +07
  221  19.443130 32:32:32:32:32:32 13dBm Nov 18, 2018 16:34:48.278688000 +07
  222  19.598703 32:32:32:32:32:32 14dBm Nov 18, 2018 16:34:48.434261000 +07
  223  19.678390 32:32:32:32:32:32 12dBm Nov 18, 2018 16:34:48.513948000 +07
  224  19.807090 32:32:32:32:32:32 11dBm Nov 18, 2018 16:34:48.642648000 +07
  225  19.916460 32:32:32:32:32:32 14dBm Nov 18, 2018 16:34:48.752018000 +07
  226  19.957030 32:32:32:32:32:32 15dBm Nov 18, 2018 16:34:48.792588000 +07
  227  20.419087 32:32:32:32:32:32 13dBm Nov 18, 2018 16:34:49.254645000 +07
  228  20.514770 32:32:32:32:32:32 12dBm Nov 18, 2018 16:34:49.350328000 +07
  229  20.536736 32:32:32:32:32:32 13dBm Nov 18, 2018 16:34:49.372294000 +07
  230  20.590156 32:32:32:32:32:32 14dBm Nov 18, 2018 16:34:49.425714000 +07
  231  20.779039 32:32:32:32:32:32 13dBm Nov 18, 2018 16:34:49.614597000 +07
  232  20.889217 32:32:32:32:32:32 14dBm Nov 18, 2018 16:34:49.724775000 +07
  233  21.113634 32:32:32:32:32:32 12dBm Nov 18, 2018 16:34:49.949192000 +07
  234  21.199411 32:32:32:32:32:32 10dBm Nov 18, 2018 16:34:50.034969000 +07
  235  21.293567 32:32:32:32:32:32 14dBm Nov 18, 2018 16:34:50.129125000 +07
  236  21.328038 32:32:32:32:32:32 15dBm Nov 18, 2018 16:34:50.163596000 +07
  237  21.369355 32:32:32:32:32:32 13dBm Nov 18, 2018 16:34:50.204913000 +07
  238  21.406553 32:32:32:32:32:32 9dBm Nov 18, 2018 16:34:50.242111000 +07
  239  21.441872 32:32:32:32:32:32 10dBm Nov 18, 2018 16:34:50.277430000 +07
  240  21.458772 32:32:32:32:32:32 11dBm Nov 18, 2018 16:34:50.294330000 +07
  241  21.595069 32:32:32:32:32:32 15dBm Nov 18, 2018 16:34:50.430627000 +07
  242  21.953984 32:32:32:32:32:32 15dBm Nov 18, 2018 16:34:50.789542000 +07
  243  21.978882 32:32:32:32:32:32 13dBm Nov 18, 2018 16:34:50.814440000 +07
  244  21.994082 32:32:32:32:32:32 12dBm Nov 18, 2018 16:34:50.829640000 +07
  245  22.027354 32:32:32:32:32:32 14dBm Nov 18, 2018 16:34:50.862912000 +07
  246  22.119429 32:32:32:32:32:32 14dBm Nov 18, 2018 16:34:50.954987000 +07
  247  22.312677 32:32:32:32:32:32 11dBm Nov 18, 2018 16:34:51.148235000 +07
  248  22.401051 32:32:32:32:32:32 14dBm Nov 18, 2018 16:34:51.236609000 +07
  249  22.543405 32:32:32:32:32:32 15dBm Nov 18, 2018 16:34:51.378963000 +07
  250  22.688845 32:32:32:32:32:32 14dBm Nov 18, 2018 16:34:51.524403000 +07
  251  22.722087 32:32:32:32:32:32 14dBm Nov 18, 2018 16:34:51.557645000 +07
  252  22.735293 32:32:32:32:32:32 15dBm Nov 18, 2018 16:34:51.570851000 +07
  253  22.747503 32:32:32:32:32:32 12dBm Nov 18, 2018 16:34:51.583061000 +07
  254  22.877276 32:32:32:32:32:32 13dBm Nov 18, 2018 16:34:51.712834000 +07
  255  22.904951 32:32:32:32:32:32 13dBm Nov 18, 2018 16:34:51.740509000 +07
  256  23.013177 32:32:32:32:32:32 12dBm Nov 18, 2018 16:34:51.848735000 +07
  257  23.163478 32:32:32:32:32:32 11dBm Nov 18, 2018 16:34:51.999036000 +07
  258  23.318008 32:32:32:32:32:32 14dBm Nov 18, 2018 16:34:52.153566000 +07
  259  23.371905 32:32:32:32:32:32 15dBm Nov 18, 2018 16:34:52.207463000 +07
  260  23.376186 32:32:32:32:32:32 12dBm Nov 18, 2018 16:34:52.211744000 +07
  261  23.552122 32:32:32:32:32:32 14dBm Nov 18, 2018 16:34:52.387680000 +07
  262  23.637372 32:32:32:32:32:32 16dBm Nov 18, 2018 16:34:52.472930000 +07
  263  23.662861 32:32:32:32:32:32 16dBm Nov 18, 2018 16:34:52.498419000 +07
  264  23.991410 32:32:32:32:32:32 13dBm Nov 18, 2018 16:34:52.826968000 +07
  265  24.085731 32:32:32:32:32:32 11dBm Nov 18, 2018 16:34:52.921289000 +07
  266  24.115989 32:32:32:32:32:32 9dBm Nov 18, 2018 16:34:52.951547000 +07
  267  24.206091 32:32:32:32:32:32 12dBm Nov 18, 2018 16:34:53.041649000 +07
  268  24.394294 32:32:32:32:32:32 13dBm Nov 18, 2018 16:34:53.229852000 +07
  269  24.482552 32:32:32:32:32:32 12dBm Nov 18, 2018 16:34:53.318110000 +07
  270  24.505624 32:32:32:32:32:32 14dBm Nov 18, 2018 16:34:53.341182000 +07
  271  24.594078 32:32:32:32:32:32 14dBm Nov 18, 2018 16:34:53.429636000 +07
  272  24.612779 32:32:32:32:32:32 13dBm Nov 18, 2018 16:34:53.448337000 +07
  273  24.797164 32:32:32:32:32:32 13dBm Nov 18, 2018 16:34:53.632722000 +07
  274  24.814231 32:32:32:32:32:32 14dBm Nov 18, 2018 16:34:53.649789000 +07
  275  24.851455 32:32:32:32:32:32 15dBm Nov 18, 2018 16:34:53.687013000 +07
  276  24.921493 32:32:32:32:32:32 15dBm Nov 18, 2018 16:34:53.757051000 +07
  277  25.062803 32:32:32:32:32:32 12dBm Nov 18, 2018 16:34:53.898361000 +07
  278  25.091151 32:32:32:32:32:32 13dBm Nov 18, 2018 16:34:53.926709000 +07
  279  25.283357 32:32:32:32:32:32 14dBm Nov 18, 2018 16:34:54.118915000 +07
  280  25.306520 32:32:32:32:32:32 14dBm Nov 18, 2018 16:34:54.142078000 +07
  281  25.338013 32:32:32:32:32:32 12dBm Nov 18, 2018 16:34:54.173571000 +07
  282  25.693927 32:32:32:32:32:32 13dBm Nov 18, 2018 16:34:54.529485000 +07
  283  25.871887 32:32:32:32:32:32 14dBm Nov 18, 2018 16:34:54.707445000 +07
  284  25.949690 32:32:32:32:32:32 16dBm Nov 18, 2018 16:34:54.785248000 +07
  285  25.964923 32:32:32:32:32:32 12dBm Nov 18, 2018 16:34:54.800481000 +07
  286  26.009998 32:32:32:32:32:32 13dBm Nov 18, 2018 16:34:54.845556000 +07
  287  26.052727 32:32:32:32:32:32 14dBm Nov 18, 2018 16:34:54.888285000 +07
  288  26.122298 32:32:32:32:32:32 13dBm Nov 18, 2018 16:34:54.957856000 +07
  289  26.166501 32:32:32:32:32:32 14dBm Nov 18, 2018 16:34:55.002059000 +07
  290  26.204803 32:32:32:32:32:32 14dBm Nov 18, 2018 16:34:55.040361000 +07
  291  26.428418 32:32:32:32:32:32 9dBm Nov 18, 2018 16:34:55.263976000 +07
  292  26.536186 32:32:32:32:32:32 12dBm Nov 18, 2018 16:34:55.371744000 +07
  293  26.565496 32:32:32:32:32:32 14dBm Nov 18, 2018 16:34:55.401054000 +07
  294  26.595000 32:32:32:32:32:32 14dBm Nov 18, 2018 16:34:55.430558000 +07
  295  26.777951 32:32:32:32:32:32 15dBm Nov 18, 2018 16:34:55.613509000 +07
  296  26.807179 32:32:32:32:32:32 10dBm Nov 18, 2018 16:34:55.642737000 +07
  297  26.823617 32:32:32:32:32:32 10dBm Nov 18, 2018 16:34:55.659175000 +07
  298  26.881532 32:32:32:32:32:32 14dBm Nov 18, 2018 16:34:55.717090000 +07
  299  26.926013 32:32:32:32:32:32 12dBm Nov 18, 2018 16:34:55.761571000 +07
  300  27.122301 32:32:32:32:32:32 12dBm Nov 18, 2018 16:34:55.957859000 +07
  301  27.197129 32:32:32:32:32:32 13dBm Nov 18, 2018 16:34:56.032687000 +07
  302  27.297019 32:32:32:32:32:32 11dBm Nov 18, 2018 16:34:56.132577000 +07
  303  27.372175 32:32:32:32:32:32 10dBm Nov 18, 2018 16:34:56.207733000 +07
  304  27.563318 32:32:32:32:32:32 13dBm Nov 18, 2018 16:34:56.398876000 +07
  305  27.572437 32:32:32:32:32:32 12dBm Nov 18, 2018 16:34:56.407995000 +07
  306  27.584546 32:32:32:32:32:32 9dBm Nov 18, 2018 16:34:56.420104000 +07
  307  27.609920 32:32:32:32:32:32 15dBm Nov 18, 2018 16:34:56.445478000 +07
  308  27.767293 32:32:32:32:32:32 15dBm Nov 18, 2018 16:34:56.602851000 +07
  309  27.794816 32:32:32:32:32:32 12dBm Nov 18, 2018 16:34:56.630374000 +07
  310  27.813580 32:32:32:32:32:32 10dBm Nov 18, 2018 16:34:56.649138000 +07
  311  27.948345 32:32:32:32:32:32 12dBm Nov 18, 2018 16:34:56.783903000 +07
  312  28.000265 32:32:32:32:32:32 12dBm Nov 18, 2018 16:34:56.835823000 +07
  313  28.016467 32:32:32:32:32:32 5dBm Nov 18, 2018 16:34:56.852025000 +07
  314  28.107375 32:32:32:32:32:32 14dBm Nov 18, 2018 16:34:56.942933000 +07
  315  28.126056 32:32:32:32:32:32 10dBm Nov 18, 2018 16:34:56.961614000 +07
  316  28.185892 32:32:32:32:32:32 12dBm Nov 18, 2018 16:34:57.021450000 +07
  317  28.198964 32:32:32:32:32:32 13dBm Nov 18, 2018 16:34:57.034522000 +07
  318  28.295307 32:32:32:32:32:32 14dBm Nov 18, 2018 16:34:57.130865000 +07
  319  28.360758 32:32:32:32:32:32 9dBm Nov 18, 2018 16:34:57.196316000 +07
  320  28.452708 32:32:32:32:32:32 13dBm Nov 18, 2018 16:34:57.288266000 +07
  321  28.635087 32:32:32:32:32:32 12dBm Nov 18, 2018 16:34:57.470645000 +07
  322  28.898683 32:32:32:32:32:32 13dBm Nov 18, 2018 16:34:57.734241000 +07
  323  28.937209 32:32:32:32:32:32 15dBm Nov 18, 2018 16:34:57.772767000 +07
  324  29.053573 32:32:32:32:32:32 14dBm Nov 18, 2018 16:34:57.889131000 +07
  325  29.207414 32:32:32:32:32:32 11dBm Nov 18, 2018 16:34:58.042972000 +07
  326  29.239869 32:32:32:32:32:32 15dBm Nov 18, 2018 16:34:58.075427000 +07
  327  29.287637 32:32:32:32:32:32 13dBm Nov 18, 2018 16:34:58.123195000 +07
  328  29.404248 32:32:32:32:32:32 14dBm Nov 18, 2018 16:34:58.239806000 +07
  329  29.518201 32:32:32:32:32:32 13dBm Nov 18, 2018 16:34:58.353759000 +07
  330  29.799325 32:32:32:32:32:32 14dBm Nov 18, 2018 16:34:58.634883000 +07
  331  29.929107 32:32:32:32:32:32 15dBm Nov 18, 2018 16:34:58.764665000 +07
  332  30.052472 32:32:32:32:32:32 14dBm Nov 18, 2018 16:34:58.888030000 +07
  333  30.368642 32:32:32:32:32:32 16dBm Nov 18, 2018 16:34:59.204200000 +07
  334  30.950201 32:32:32:32:32:32 12dBm Nov 18, 2018 16:34:59.785759000 +07
  335  31.031972 32:32:32:32:32:32 14dBm Nov 18, 2018 16:34:59.867530000 +07
  336  31.134926 32:32:32:32:32:32 14dBm Nov 18, 2018 16:34:59.970484000 +07
  337  31.512199 32:32:32:32:32:32 15dBm Nov 18, 2018 16:35:00.347757000 +07
  338  31.571516 32:32:32:32:32:32 14dBm Nov 18, 2018 16:35:00.407074000 +07
  339  31.603828 32:32:32:32:32:32 12dBm Nov 18, 2018 16:35:00.439386000 +07
  340  31.616996 32:32:32:32:32:32 15dBm Nov 18, 2018 16:35:00.452554000 +07
  341  31.635230 32:32:32:32:32:32 12dBm Nov 18, 2018 16:35:00.470788000 +07
  342  31.670368 32:32:32:32:32:32 11dBm Nov 18, 2018 16:35:00.505926000 +07
  343  31.745568 32:32:32:32:32:32 15dBm Nov 18, 2018 16:35:00.581126000 +07
  344  31.838189 32:32:32:32:32:32 15dBm Nov 18, 2018 16:35:00.673747000 +07
  345  31.902823 32:32:32:32:32:32 14dBm Nov 18, 2018 16:35:00.738381000 +07
  346  31.953084 32:32:32:32:32:32 15dBm Nov 18, 2018 16:35:00.788642000 +07
  347  31.986284 32:32:32:32:32:32 15dBm Nov 18, 2018 16:35:00.821842000 +07
  348  32.170796 32:32:32:32:32:32 16dBm Nov 18, 2018 16:35:01.006354000 +07
  349  32.219214 32:32:32:32:32:32 13dBm Nov 18, 2018 16:35:01.054772000 +07
  350  32.356185 32:32:32:32:32:32 14dBm Nov 18, 2018 16:35:01.191743000 +07
  351  32.428093 32:32:32:32:32:32 12dBm Nov 18, 2018 16:35:01.263651000 +07
  352  32.606363 32:32:32:32:32:32 15dBm Nov 18, 2018 16:35:01.441921000 +07
  353  32.667483 32:32:32:32:32:32 15dBm Nov 18, 2018 16:35:01.503041000 +07
  354  32.893509 32:32:32:32:32:32 15dBm Nov 18, 2018 16:35:01.729067000 +07
  355  32.988741 32:32:32:32:32:32 13dBm Nov 18, 2018 16:35:01.824299000 +07
  356  33.282330 32:32:32:32:32:32 15dBm Nov 18, 2018 16:35:02.117888000 +07
  357  33.331399 32:32:32:32:32:32 16dBm Nov 18, 2018 16:35:02.166957000 +07
  358  33.466340 32:32:32:32:32:32 15dBm Nov 18, 2018 16:35:02.301898000 +07
  359  33.623626 32:32:32:32:32:32 15dBm Nov 18, 2018 16:35:02.459184000 +07
  360  33.670380 32:32:32:32:32:32 11dBm Nov 18, 2018 16:35:02.505938000 +07
  361  33.694836 32:32:32:32:32:32 12dBm Nov 18, 2018 16:35:02.530394000 +07
  362  33.711460 32:32:32:32:32:32 12dBm Nov 18, 2018 16:35:02.547018000 +07
  363  33.775615 32:32:32:32:32:32 15dBm Nov 18, 2018 16:35:02.611173000 +07
  364  33.799763 32:32:32:32:32:32 14dBm Nov 18, 2018 16:35:02.635321000 +07
  365  33.841578 32:32:32:32:32:32 14dBm Nov 18, 2018 16:35:02.677136000 +07
  366  34.029776 32:32:32:32:32:32 15dBm Nov 18, 2018 16:35:02.865334000 +07
  367  34.102519 32:32:32:32:32:32 13dBm Nov 18, 2018 16:35:02.938077000 +07
  368  34.122873 32:32:32:32:32:32 15dBm Nov 18, 2018 16:35:02.958431000 +07
  369  34.242800 32:32:32:32:32:32 15dBm Nov 18, 2018 16:35:03.078358000 +07
  370  34.350145 32:32:32:32:32:32 12dBm Nov 18, 2018 16:35:03.185703000 +07
  371  34.455805 32:32:32:32:32:32 15dBm Nov 18, 2018 16:35:03.291363000 +07
  372  34.506827 32:32:32:32:32:32 14dBm Nov 18, 2018 16:35:03.342385000 +07
  373  34.519937 32:32:32:32:32:32 14dBm Nov 18, 2018 16:35:03.355495000 +07
  374  34.539481 32:32:32:32:32:32 11dBm Nov 18, 2018 16:35:03.375039000 +07
  375  34.659287 32:32:32:32:32:32 15dBm Nov 18, 2018 16:35:03.494845000 +07
  376  34.686085 32:32:32:32:32:32 14dBm Nov 18, 2018 16:35:03.521643000 +07
  377  34.744760 32:32:32:32:32:32 17dBm Nov 18, 2018 16:35:03.580318000 +07
  378  34.799385 32:32:32:32:32:32 13dBm Nov 18, 2018 16:35:03.634943000 +07
  379  34.835773 32:32:32:32:32:32 13dBm Nov 18, 2018 16:35:03.671331000 +07
  380  34.856504 32:32:32:32:32:32 13dBm Nov 18, 2018 16:35:03.692062000 +07
  381  34.871401 32:32:32:32:32:32 15dBm Nov 18, 2018 16:35:03.706959000 +07
  382  35.075700 32:32:32:32:32:32 13dBm Nov 18, 2018 16:35:03.911258000 +07
  383  35.142412 32:32:32:32:32:32 13dBm Nov 18, 2018 16:35:03.977970000 +07
  384  35.339261 32:32:32:32:32:32 14dBm Nov 18, 2018 16:35:04.174819000 +07
  385  35.581857 32:32:32:32:32:32 14dBm Nov 18, 2018 16:35:04.417415000 +07
  386  35.637560 32:32:32:32:32:32 14dBm Nov 18, 2018 16:35:04.473118000 +07
  387  35.694980 32:32:32:32:32:32 10dBm Nov 18, 2018 16:35:04.530538000 +07
  388  35.763279 32:32:32:32:32:32 11dBm Nov 18, 2018 16:35:04.598837000 +07
  389  35.812243 32:32:32:32:32:32 13dBm Nov 18, 2018 16:35:04.647801000 +07
  390  35.857050 32:32:32:32:32:32 15dBm Nov 18, 2018 16:35:04.692608000 +07
  391  35.911229 32:32:32:32:32:32 13dBm Nov 18, 2018 16:35:04.746787000 +07
  392  35.948383 32:32:32:32:32:32 15dBm Nov 18, 2018 16:35:04.783941000 +07
  393  35.984517 32:32:32:32:32:32 14dBm Nov 18, 2018 16:35:04.820075000 +07
  394  36.435655 32:32:32:32:32:32 11dBm Nov 18, 2018 16:35:05.271213000 +07
  395  36.458938 32:32:32:32:32:32 13dBm Nov 18, 2018 16:35:05.294496000 +07
  396  36.508106 32:32:32:32:32:32 15dBm Nov 18, 2018 16:35:05.343664000 +07
  397  36.630238 32:32:32:32:32:32 14dBm Nov 18, 2018 16:35:05.465796000 +07
  398  36.863053 32:32:32:32:32:32 14dBm Nov 18, 2018 16:35:05.698611000 +07
  399  37.092852 32:32:32:32:32:32 14dBm Nov 18, 2018 16:35:05.928410000 +07
  400  37.177169 32:32:32:32:32:32 12dBm Nov 18, 2018 16:35:06.012727000 +07
  401  37.385714 32:32:32:32:32:32 13dBm Nov 18, 2018 16:35:06.221272000 +07
  402  37.534849 32:32:32:32:32:32 15dBm Nov 18, 2018 16:35:06.370407000 +07
  403  37.892225 32:32:32:32:32:32 14dBm Nov 18, 2018 16:35:06.727783000 +07
  404  37.912326 32:32:32:32:32:32 11dBm Nov 18, 2018 16:35:06.747884000 +07
  405  37.953812 32:32:32:32:32:32 15dBm Nov 18, 2018 16:35:06.789370000 +07
  406  37.974687 32:32:32:32:32:32 11dBm Nov 18, 2018 16:35:06.810245000 +07
  407  38.015631 32:32:32:32:32:32 13dBm Nov 18, 2018 16:35:06.851189000 +07
  408  38.089438 32:32:32:32:32:32 13dBm Nov 18, 2018 16:35:06.924996000 +07
  409  38.114122 32:32:32:32:32:32 14dBm Nov 18, 2018 16:35:06.949680000 +07
  410  38.124819 32:32:32:32:32:32 14dBm Nov 18, 2018 16:35:06.960377000 +07
  411  38.246255 32:32:32:32:32:32 11dBm Nov 18, 2018 16:35:07.081813000 +07
  412  38.365419 32:32:32:32:32:32 15dBm Nov 18, 2018 16:35:07.200977000 +07
  413  38.494346 32:32:32:32:32:32 14dBm Nov 18, 2018 16:35:07.329904000 +07
  414  38.868465 32:32:32:32:32:32 15dBm Nov 18, 2018 16:35:07.704023000 +07
  415  39.015015 32:32:32:32:32:32 13dBm Nov 18, 2018 16:35:07.850573000 +07
  416  39.102672 32:32:32:32:32:32 12dBm Nov 18, 2018 16:35:07.938230000 +07
  417  39.175451 32:32:32:32:32:32 14dBm Nov 18, 2018 16:35:08.011009000 +07
  418  39.205612 32:32:32:32:32:32 12dBm Nov 18, 2018 16:35:08.041170000 +07
  419  39.459715 32:32:32:32:32:32 15dBm Nov 18, 2018 16:35:08.295273000 +07
  420  39.606805 32:32:32:32:32:32 15dBm Nov 18, 2018 16:35:08.442363000 +07
  421  39.672623 32:32:32:32:32:32 15dBm Nov 18, 2018 16:35:08.508181000 +07
  422  39.805351 32:32:32:32:32:32 13dBm Nov 18, 2018 16:35:08.640909000 +07
  423  39.909899 32:32:32:32:32:32 16dBm Nov 18, 2018 16:35:08.745457000 +07
  424  39.948525 32:32:32:32:32:32 16dBm Nov 18, 2018 16:35:08.784083000 +07
  425  40.053222 32:32:32:32:32:32 15dBm Nov 18, 2018 16:35:08.888780000 +07
  426  40.154041 32:32:32:32:32:32 13dBm Nov 18, 2018 16:35:08.989599000 +07
  427  40.234911 32:32:32:32:32:32 15dBm Nov 18, 2018 16:35:09.070469000 +07
  428  40.313739 32:32:32:32:32:32 14dBm Nov 18, 2018 16:35:09.149297000 +07
  429  40.360811 32:32:32:32:32:32 15dBm Nov 18, 2018 16:35:09.196369000 +07
  430  40.532463 32:32:32:32:32:32 15dBm Nov 18, 2018 16:35:09.368021000 +07
  431  40.610811 32:32:32:32:32:32 12dBm Nov 18, 2018 16:35:09.446369000 +07
  432  40.707993 32:32:32:32:32:32 13dBm Nov 18, 2018 16:35:09.543551000 +07
  433  40.840909 32:32:32:32:32:32 13dBm Nov 18, 2018 16:35:09.676467000 +07
  434  40.880847 32:32:32:32:32:32 15dBm Nov 18, 2018 16:35:09.716405000 +07
  435  40.906798 32:32:32:32:32:32 14dBm Nov 18, 2018 16:35:09.742356000 +07
  436  40.945781 32:32:32:32:32:32 13dBm Nov 18, 2018 16:35:09.781339000 +07
  437  41.024732 32:32:32:32:32:32 15dBm Nov 18, 2018 16:35:09.860290000 +07
  438  41.102958 32:32:32:32:32:32 15dBm Nov 18, 2018 16:35:09.938516000 +07
  439  41.153208 32:32:32:32:32:32 14dBm Nov 18, 2018 16:35:09.988766000 +07
  440  41.231652 32:32:32:32:32:32 15dBm Nov 18, 2018 16:35:10.067210000 +07
  441  41.254508 32:32:32:32:32:32 16dBm Nov 18, 2018 16:35:10.090066000 +07
  442  41.395366 32:32:32:32:32:32 16dBm Nov 18, 2018 16:35:10.230924000 +07
  443  41.408624 32:32:32:32:32:32 15dBm Nov 18, 2018 16:35:10.244182000 +07
  444  41.485201 32:32:32:32:32:32 16dBm Nov 18, 2018 16:35:10.320759000 +07
  445  41.632544 32:32:32:32:32:32 14dBm Nov 18, 2018 16:35:10.468102000 +07
  446  41.673797 32:32:32:32:32:32 15dBm Nov 18, 2018 16:35:10.509355000 +07
  447  41.704849 32:32:32:32:32:32 15dBm Nov 18, 2018 16:35:10.540407000 +07
  448  41.732389 32:32:32:32:32:32 15dBm Nov 18, 2018 16:35:10.567947000 +07
  449  41.772138 32:32:32:32:32:32 15dBm Nov 18, 2018 16:35:10.607696000 +07
  450  41.789313 32:32:32:32:32:32 13dBm Nov 18, 2018 16:35:10.624871000 +07
  451  41.908304 32:32:32:32:32:32 13dBm Nov 18, 2018 16:35:10.743862000 +07
  452  41.962227 32:32:32:32:32:32 14dBm Nov 18, 2018 16:35:10.797785000 +07
  453  42.065266 32:32:32:32:32:32 11dBm Nov 18, 2018 16:35:10.900824000 +07
  454  42.186516 32:32:32:32:32:32 14dBm Nov 18, 2018 16:35:11.022074000 +07
  455  42.245198 32:32:32:32:32:32 11dBm Nov 18, 2018 16:35:11.080756000 +07
  456  42.380695 32:32:32:32:32:32 10dBm Nov 18, 2018 16:35:11.216253000 +07
  457  42.428811 32:32:32:32:32:32 13dBm Nov 18, 2018 16:35:11.264369000 +07
  458  42.526916 32:32:32:32:32:32 15dBm Nov 18, 2018 16:35:11.362474000 +07
  459  42.576303 32:32:32:32:32:32 14dBm Nov 18, 2018 16:35:11.411861000 +07
  460  42.741087 32:32:32:32:32:32 14dBm Nov 18, 2018 16:35:11.576645000 +07
  461  42.877698 32:32:32:32:32:32 14dBm Nov 18, 2018 16:35:11.713256000 +07
  462  42.940390 32:32:32:32:32:32 14dBm Nov 18, 2018 16:35:11.775948000 +07
  463  43.018403 32:32:32:32:32:32 15dBm Nov 18, 2018 16:35:11.853961000 +07
  464  43.077561 32:32:32:32:32:32 12dBm Nov 18, 2018 16:35:11.913119000 +07
  465  43.092314 32:32:32:32:32:32 15dBm Nov 18, 2018 16:35:11.927872000 +07
  466  43.161841 32:32:32:32:32:32 15dBm Nov 18, 2018 16:35:11.997399000 +07
  467  43.181793 32:32:32:32:32:32 15dBm Nov 18, 2018 16:35:12.017351000 +07
  468  43.358292 32:32:32:32:32:32 15dBm Nov 18, 2018 16:35:12.193850000 +07
  469  43.443105 32:32:32:32:32:32 14dBm Nov 18, 2018 16:35:12.278663000 +07
  470  43.799259 32:32:32:32:32:32 13dBm Nov 18, 2018 16:35:12.634817000 +07
  471  43.956810 32:32:32:32:32:32 13dBm Nov 18, 2018 16:35:12.792368000 +07
  472  44.229593 32:32:32:32:32:32 15dBm Nov 18, 2018 16:35:13.065151000 +07
  473  44.265093 32:32:32:32:32:32 13dBm Nov 18, 2018 16:35:13.100651000 +07
  474  44.409696 32:32:32:32:32:32 15dBm Nov 18, 2018 16:35:13.245254000 +07
  475  44.453175 32:32:32:32:32:32 15dBm Nov 18, 2018 16:35:13.288733000 +07
  476  44.600338 32:32:32:32:32:32 15dBm Nov 18, 2018 16:35:13.435896000 +07
  477  44.662932 32:32:32:32:32:32 13dBm Nov 18, 2018 16:35:13.498490000 +07
  478  44.681001 32:32:32:32:32:32 16dBm Nov 18, 2018 16:35:13.516559000 +07
  479  44.795879 32:32:32:32:32:32 12dBm Nov 18, 2018 16:35:13.631437000 +07
  480  44.931415 32:32:32:32:32:32 15dBm Nov 18, 2018 16:35:13.766973000 +07
  481  44.956989 32:32:32:32:32:32 13dBm Nov 18, 2018 16:35:13.792547000 +07
  482  45.037566 32:32:32:32:32:32 15dBm Nov 18, 2018 16:35:13.873124000 +07
  483  45.237827 32:32:32:32:32:32 13dBm Nov 18, 2018 16:35:14.073385000 +07
  484  45.476027 32:32:32:32:32:32 13dBm Nov 18, 2018 16:35:14.311585000 +07
  485  45.513025 32:32:32:32:32:32 16dBm Nov 18, 2018 16:35:14.348583000 +07
  486  45.606773 32:32:32:32:32:32 12dBm Nov 18, 2018 16:35:14.442331000 +07
  487  45.904509 32:32:32:32:32:32 14dBm Nov 18, 2018 16:35:14.740067000 +07
  488  46.102942 32:32:32:32:32:32 15dBm Nov 18, 2018 16:35:14.938500000 +07
  489  46.119299 32:32:32:32:32:32 14dBm Nov 18, 2018 16:35:14.954857000 +07
  490  46.309243 32:32:32:32:32:32 14dBm Nov 18, 2018 16:35:15.144801000 +07
  491  46.391582 32:32:32:32:32:32 15dBm Nov 18, 2018 16:35:15.227140000 +07
  492  46.468053 32:32:32:32:32:32 12dBm Nov 18, 2018 16:35:15.303611000 +07
  493  46.513234 32:32:32:32:32:32 12dBm Nov 18, 2018 16:35:15.348792000 +07
  494  46.576899 32:32:32:32:32:32 13dBm Nov 18, 2018 16:35:15.412457000 +07
  495  46.637264 32:32:32:32:32:32 11dBm Nov 18, 2018 16:35:15.472822000 +07
  496  46.655969 32:32:32:32:32:32 14dBm Nov 18, 2018 16:35:15.491527000 +07
  497  46.963268 32:32:32:32:32:32 14dBm Nov 18, 2018 16:35:15.798826000 +07
  498  47.056858 32:32:32:32:32:32 16dBm Nov 18, 2018 16:35:15.892416000 +07
  499  47.357337 32:32:32:32:32:32 15dBm Nov 18, 2018 16:35:16.192895000 +07
  500  47.384466 32:32:32:32:32:32 17dBm Nov 18, 2018 16:35:16.220024000 +07
  501  47.530787 32:32:32:32:32:32 13dBm Nov 18, 2018 16:35:16.366345000 +07
  502  47.547901 32:32:32:32:32:32 16dBm Nov 18, 2018 16:35:16.383459000 +07
  503  47.665722 32:32:32:32:32:32 9dBm Nov 18, 2018 16:35:16.501280000 +07
  504  47.706881 32:32:32:32:32:32 13dBm Nov 18, 2018 16:35:16.542439000 +07
  505  47.724807 32:32:32:32:32:32 13dBm Nov 18, 2018 16:35:16.560365000 +07
  506  47.900753 32:32:32:32:32:32 16dBm Nov 18, 2018 16:35:16.736311000 +07
  507  47.993429 32:32:32:32:32:32 15dBm Nov 18, 2018 16:35:16.828987000 +07
  508  48.022073 32:32:32:32:32:32 15dBm Nov 18, 2018 16:35:16.857631000 +07
  509  48.037520 32:32:32:32:32:32 15dBm Nov 18, 2018 16:35:16.873078000 +07
  510  48.073440 32:32:32:32:32:32 15dBm Nov 18, 2018 16:35:16.908998000 +07
  511  48.116338 32:32:32:32:32:32 16dBm Nov 18, 2018 16:35:16.951896000 +07
  512  48.175179 32:32:32:32:32:32 14dBm Nov 18, 2018 16:35:17.010737000 +07
  513  48.295062 32:32:32:32:32:32 16dBm Nov 18, 2018 16:35:17.130620000 +07
  514  48.441511 32:32:32:32:32:32 11dBm Nov 18, 2018 16:35:17.277069000 +07
  515  48.507499 32:32:32:32:32:32 13dBm Nov 18, 2018 16:35:17.343057000 +07
  516  48.538626 32:32:32:32:32:32 14dBm Nov 18, 2018 16:35:17.374184000 +07
  517  48.562579 32:32:32:32:32:32 14dBm Nov 18, 2018 16:35:17.398137000 +07
  518  48.581885 32:32:32:32:32:32 15dBm Nov 18, 2018 16:35:17.417443000 +07
  519  48.861175 32:32:32:32:32:32 13dBm Nov 18, 2018 16:35:17.696733000 +07
  520  48.872590 32:32:32:32:32:32 14dBm Nov 18, 2018 16:35:17.708148000 +07
  521  48.885787 32:32:32:32:32:32 16dBm Nov 18, 2018 16:35:17.721345000 +07
  522  49.229143 32:32:32:32:32:32 11dBm Nov 18, 2018 16:35:18.064701000 +07
  523  49.248013 32:32:32:32:32:32 13dBm Nov 18, 2018 16:35:18.083571000 +07
  524  49.446045 32:32:32:32:32:32 16dBm Nov 18, 2018 16:35:18.281603000 +07
  525  49.650324 32:32:32:32:32:32 14dBm Nov 18, 2018 16:35:18.485882000 +07
  526  49.796839 32:32:32:32:32:32 12dBm Nov 18, 2018 16:35:18.632397000 +07
  527  50.048317 32:32:32:32:32:32 15dBm Nov 18, 2018 16:35:18.883875000 +07
  528  50.077527 32:32:32:32:32:32 11dBm Nov 18, 2018 16:35:18.913085000 +07
  529  50.096217 32:32:32:32:32:32 10dBm Nov 18, 2018 16:35:18.931775000 +07
  530  50.338248 32:32:32:32:32:32 15dBm Nov 18, 2018 16:35:19.173806000 +07
  531  50.606647 32:32:32:32:32:32 10dBm Nov 18, 2018 16:35:19.442205000 +07
  532  50.635261 32:32:32:32:32:32 15dBm Nov 18, 2018 16:35:19.470819000 +07
  533  50.784441 32:32:32:32:32:32 11dBm Nov 18, 2018 16:35:19.619999000 +07
  534  50.831796 32:32:32:32:32:32 13dBm Nov 18, 2018 16:35:19.667354000 +07
  535  50.871431 32:32:32:32:32:32 14dBm Nov 18, 2018 16:35:19.706989000 +07
  536  50.927765 32:32:32:32:32:32 16dBm Nov 18, 2018 16:35:19.763323000 +07
  537  51.153724 32:32:32:32:32:32 16dBm Nov 18, 2018 16:35:19.989282000 +07
  538  51.256227 32:32:32:32:32:32 14dBm Nov 18, 2018 16:35:20.091785000 +07
  539  51.463574 32:32:32:32:32:32 15dBm Nov 18, 2018 16:35:20.299132000 +07
  540  51.518800 32:32:32:32:32:32 14dBm Nov 18, 2018 16:35:20.354358000 +07
  541  51.532937 32:32:32:32:32:32 15dBm Nov 18, 2018 16:35:20.368495000 +07
  542  51.673681 32:32:32:32:32:32 15dBm Nov 18, 2018 16:35:20.509239000 +07
  543  51.705791 32:32:32:32:32:32 11dBm Nov 18, 2018 16:35:20.541349000 +07
  544  51.744459 32:32:32:32:32:32 14dBm Nov 18, 2018 16:35:20.580017000 +07
  545  52.216476 32:32:32:32:32:32 8dBm Nov 18, 2018 16:35:21.052034000 +07
  546  52.288839 32:32:32:32:32:32 10dBm Nov 18, 2018 16:35:21.124397000 +07
  547  52.318939 32:32:32:32:32:32 10dBm Nov 18, 2018 16:35:21.154497000 +07
  548  52.355848 32:32:32:32:32:32 11dBm Nov 18, 2018 16:35:21.191406000 +07
  549  52.372998 32:32:32:32:32:32 13dBm Nov 18, 2018 16:35:21.208556000 +07
  550  52.395991 32:32:32:32:32:32 14dBm Nov 18, 2018 16:35:21.231549000 +07
  551  52.455535 32:32:32:32:32:32 11dBm Nov 18, 2018 16:35:21.291093000 +07
  552  52.550948 32:32:32:32:32:32 10dBm Nov 18, 2018 16:35:21.386506000 +07
  553  52.589690 32:32:32:32:32:32 13dBm Nov 18, 2018 16:35:21.425248000 +07
  554  52.655239 32:32:32:32:32:32 11dBm Nov 18, 2018 16:35:21.490797000 +07
  555  52.684606 32:32:32:32:32:32 13dBm Nov 18, 2018 16:35:21.520164000 +07
  556  52.718280 32:32:32:32:32:32 11dBm Nov 18, 2018 16:35:21.553838000 +07
  557  52.887791 32:32:32:32:32:32 14dBm Nov 18, 2018 16:35:21.723349000 +07
  558  52.961837 32:32:32:32:32:32 15dBm Nov 18, 2018 16:35:21.797395000 +07
  559  53.042161 32:32:32:32:32:32 14dBm Nov 18, 2018 16:35:21.877719000 +07
  560  53.119422 32:32:32:32:32:32 15dBm Nov 18, 2018 16:35:21.954980000 +07
  561  53.184227 32:32:32:32:32:32 12dBm Nov 18, 2018 16:35:22.019785000 +07
  562  53.221869 32:32:32:32:32:32 14dBm Nov 18, 2018 16:35:22.057427000 +07
  563  53.237239 32:32:32:32:32:32 15dBm Nov 18, 2018 16:35:22.072797000 +07
  564  53.255810 32:32:32:32:32:32 15dBm Nov 18, 2018 16:35:22.091368000 +07
  565  53.275862 32:32:32:32:32:32 14dBm Nov 18, 2018 16:35:22.111420000 +07
  566  53.398486 32:32:32:32:32:32 15dBm Nov 18, 2018 16:35:22.234044000 +07
  567  53.465383 32:32:32:32:32:32 12dBm Nov 18, 2018 16:35:22.300941000 +07
  568  53.483488 32:32:32:32:32:32 13dBm Nov 18, 2018 16:35:22.319046000 +07
  569  53.581201 32:32:32:32:32:32 13dBm Nov 18, 2018 16:35:22.416759000 +07
  570  53.742495 32:32:32:32:32:32 14dBm Nov 18, 2018 16:35:22.578053000 +07
  571  54.047475 32:32:32:32:32:32 12dBm Nov 18, 2018 16:35:22.883033000 +07
  572  54.063680 32:32:32:32:32:32 8dBm Nov 18, 2018 16:35:22.899238000 +07
  573  54.081655 32:32:32:32:32:32 8dBm Nov 18, 2018 16:35:22.917213000 +07
  574  54.103961 32:32:32:32:32:32 11dBm Nov 18, 2018 16:35:22.939519000 +07
  575  54.292145 32:32:32:32:32:32 12dBm Nov 18, 2018 16:35:23.127703000 +07
  576  54.325971 32:32:32:32:32:32 9dBm Nov 18, 2018 16:35:23.161529000 +07
  577  54.404155 32:32:32:32:32:32 11dBm Nov 18, 2018 16:35:23.239713000 +07
  578  54.439971 32:32:32:32:32:32 14dBm Nov 18, 2018 16:35:23.275529000 +07
  579  54.464873 32:32:32:32:32:32 14dBm Nov 18, 2018 16:35:23.300431000 +07
  580  54.649883 32:32:32:32:32:32 16dBm Nov 18, 2018 16:35:23.485441000 +07
  581  54.762405 32:32:32:32:32:32 13dBm Nov 18, 2018 16:35:23.597963000 +07
  582  54.787283 32:32:32:32:32:32 11dBm Nov 18, 2018 16:35:23.622841000 +07
  583  54.796122 32:32:32:32:32:32 13dBm Nov 18, 2018 16:35:23.631680000 +07
  584  54.820785 32:32:32:32:32:32 12dBm Nov 18, 2018 16:35:23.656343000 +07
  585  54.894871 32:32:32:32:32:32 11dBm Nov 18, 2018 16:35:23.730429000 +07
  586  55.083819 32:32:32:32:32:32 12dBm Nov 18, 2018 16:35:23.919377000 +07
  587  55.159228 32:32:32:32:32:32 12dBm Nov 18, 2018 16:35:23.994786000 +07
  588  55.380177 32:32:32:32:32:32 17dBm Nov 18, 2018 16:35:24.215735000 +07
  589  55.456138 32:32:32:32:32:32 12dBm Nov 18, 2018 16:35:24.291696000 +07
  590  55.475772 32:32:32:32:32:32 13dBm Nov 18, 2018 16:35:24.311330000 +07
  591  56.143796 32:32:32:32:32:32 17dBm Nov 18, 2018 16:35:24.979354000 +07
  592  56.400417 32:32:32:32:32:32 6dBm Nov 18, 2018 16:35:25.235975000 +07
  593  56.572239 32:32:32:32:32:32 8dBm Nov 18, 2018 16:35:25.407797000 +07
  594  56.715747 32:32:32:32:32:32 6dBm Nov 18, 2018 16:35:25.551305000 +07
  595  56.750519 32:32:32:32:32:32 12dBm Nov 18, 2018 16:35:25.586077000 +07
  596  56.801809 32:32:32:32:32:32 13dBm Nov 18, 2018 16:35:25.637367000 +07
  597  56.822877 32:32:32:32:32:32 11dBm Nov 18, 2018 16:35:25.658435000 +07
  598  56.841886 32:32:32:32:32:32 15dBm Nov 18, 2018 16:35:25.677444000 +07
  599  56.860931 32:32:32:32:32:32 14dBm Nov 18, 2018 16:35:25.696489000 +07
  600  56.901682 32:32:32:32:32:32 15dBm Nov 18, 2018 16:35:25.737240000 +07
  601  56.996227 32:32:32:32:32:32 14dBm Nov 18, 2018 16:35:25.831785000 +07
  602  57.105520 32:32:32:32:32:32 13dBm Nov 18, 2018 16:35:25.941078000 +07
  603  57.160756 32:32:32:32:32:32 13dBm Nov 18, 2018 16:35:25.996314000 +07
  604  57.199647 32:32:32:32:32:32 15dBm Nov 18, 2018 16:35:26.035205000 +07
  605  57.221417 32:32:32:32:32:32 15dBm Nov 18, 2018 16:35:26.056975000 +07
  606  57.323012 32:32:32:32:32:32 13dBm Nov 18, 2018 16:35:26.158570000 +07
  607  57.482290 32:32:32:32:32:32 14dBm Nov 18, 2018 16:35:26.317848000 +07
  608  57.504291 32:32:32:32:32:32 13dBm Nov 18, 2018 16:35:26.339849000 +07
  609  57.650561 32:32:32:32:32:32 15dBm Nov 18, 2018 16:35:26.486119000 +07
  610  57.750415 32:32:32:32:32:32 15dBm Nov 18, 2018 16:35:26.585973000 +07
  611  57.814922 32:32:32:32:32:32 16dBm Nov 18, 2018 16:35:26.650480000 +07
  612  57.857259 32:32:32:32:32:32 16dBm Nov 18, 2018 16:35:26.692817000 +07
  613  57.914601 32:32:32:32:32:32 14dBm Nov 18, 2018 16:35:26.750159000 +07
  614  58.150365 32:32:32:32:32:32 14dBm Nov 18, 2018 16:35:26.985923000 +07
  615  58.173460 32:32:32:32:32:32 12dBm Nov 18, 2018 16:35:27.009018000 +07
  616  58.190129 32:32:32:32:32:32 15dBm Nov 18, 2018 16:35:27.025687000 +07
  617  58.350620 32:32:32:32:32:32 12dBm Nov 18, 2018 16:35:27.186178000 +07
  618  58.449348 32:32:32:32:32:32 12dBm Nov 18, 2018 16:35:27.284906000 +07
  619  58.534285 32:32:32:32:32:32 13dBm Nov 18, 2018 16:35:27.369843000 +07
  620  58.953836 32:32:32:32:32:32 8dBm Nov 18, 2018 16:35:27.789394000 +07
  621  59.431782 32:32:32:32:32:32 13dBm Nov 18, 2018 16:35:28.267340000 +07
  622  59.492983 32:32:32:32:32:32 14dBm Nov 18, 2018 16:35:28.328541000 +07
  623  59.546898 32:32:32:32:32:32 13dBm Nov 18, 2018 16:35:28.382456000 +07
  624  59.665150 32:32:32:32:32:32 10dBm Nov 18, 2018 16:35:28.500708000 +07
  625  59.805888 32:32:32:32:32:32 15dBm Nov 18, 2018 16:35:28.641446000 +07
  626  59.840722 32:32:32:32:32:32 15dBm Nov 18, 2018 16:35:28.676280000 +07
  627  59.878874 32:32:32:32:32:32 14dBm Nov 18, 2018 16:35:28.714432000 +07
  628  59.909510 32:32:32:32:32:32 16dBm Nov 18, 2018 16:35:28.745068000 +07
  629  59.932894 32:32:32:32:32:32 15dBm Nov 18, 2018 16:35:28.768452000 +07
  630  59.973160 32:32:32:32:32:32 13dBm Nov 18, 2018 16:35:28.808718000 +07
  631  60.097798 32:32:32:32:32:32 14dBm Nov 18, 2018 16:35:28.933356000 +07
  632  60.295611 32:32:32:32:32:32 12dBm Nov 18, 2018 16:35:29.131169000 +07
  633  60.366718 32:32:32:32:32:32 12dBm Nov 18, 2018 16:35:29.202276000 +07
  634  60.391948 32:32:32:32:32:32 14dBm Nov 18, 2018 16:35:29.227506000 +07
  635  60.406893 32:32:32:32:32:32 16dBm Nov 18, 2018 16:35:29.242451000 +07
  636  60.470347 32:32:32:32:32:32 14dBm Nov 18, 2018 16:35:29.305905000 +07
  637  60.537618 32:32:32:32:32:32 15dBm Nov 18, 2018 16:35:29.373176000 +07
  638  60.684053 32:32:32:32:32:32 15dBm Nov 18, 2018 16:35:29.519611000 +07
  639  60.864571 32:32:32:32:32:32 14dBm Nov 18, 2018 16:35:29.700129000 +07
  640  60.924477 32:32:32:32:32:32 14dBm Nov 18, 2018 16:35:29.760035000 +07
  641  60.984230 32:32:32:32:32:32 13dBm Nov 18, 2018 16:35:29.819788000 +07
  642  61.152813 32:32:32:32:32:32 11dBm Nov 18, 2018 16:35:29.988371000 +07
  643  61.294486 32:32:32:32:32:32 13dBm Nov 18, 2018 16:35:30.130044000 +07
  644  61.333085 32:32:32:32:32:32 14dBm Nov 18, 2018 16:35:30.168643000 +07
  645  61.357686 32:32:32:32:32:32 15dBm Nov 18, 2018 16:35:30.193244000 +07
  646  61.599802 32:32:32:32:32:32 9dBm Nov 18, 2018 16:35:30.435360000 +07
  647  61.682475 32:32:32:32:32:32 11dBm Nov 18, 2018 16:35:30.518033000 +07
  648  61.750816 32:32:32:32:32:32 11dBm Nov 18, 2018 16:35:30.586374000 +07
  649  61.821210 32:32:32:32:32:32 9dBm Nov 18, 2018 16:35:30.656768000 +07
  650  62.126693 32:32:32:32:32:32 15dBm Nov 18, 2018 16:35:30.962251000 +07
  651  62.380314 32:32:32:32:32:32 12dBm Nov 18, 2018 16:35:31.215872000 +07
  652  62.429407 32:32:32:32:32:32 11dBm Nov 18, 2018 16:35:31.264965000 +07
  653  62.451159 32:32:32:32:32:32 14dBm Nov 18, 2018 16:35:31.286717000 +07
  654  62.473129 32:32:32:32:32:32 15dBm Nov 18, 2018 16:35:31.308687000 +07
  655  62.492635 32:32:32:32:32:32 15dBm Nov 18, 2018 16:35:31.328193000 +07
  656  62.509070 32:32:32:32:32:32 15dBm Nov 18, 2018 16:35:31.344628000 +07
  657  62.528034 32:32:32:32:32:32 14dBm Nov 18, 2018 16:35:31.363592000 +07
  658  62.591474 32:32:32:32:32:32 12dBm Nov 18, 2018 16:35:31.427032000 +07
  659  62.987634 32:32:32:32:32:32 13dBm Nov 18, 2018 16:35:31.823192000 +07
  660  63.020939 32:32:32:32:32:32 11dBm Nov 18, 2018 16:35:31.856497000 +07
  661  63.038012 32:32:32:32:32:32 14dBm Nov 18, 2018 16:35:31.873570000 +07
  662  63.151122 32:32:32:32:32:32 12dBm Nov 18, 2018 16:35:31.986680000 +07
  663  63.173120 32:32:32:32:32:32 13dBm Nov 18, 2018 16:35:32.008678000 +07
  664  63.277621 32:32:32:32:32:32 12dBm Nov 18, 2018 16:35:32.113179000 +07
  665  63.343588 32:32:32:32:32:32 13dBm Nov 18, 2018 16:35:32.179146000 +07
  666  63.389642 32:32:32:32:32:32 14dBm Nov 18, 2018 16:35:32.225200000 +07
  667  63.460646 32:32:32:32:32:32 16dBm Nov 18, 2018 16:35:32.296204000 +07
  668  63.538776 32:32:32:32:32:32 14dBm Nov 18, 2018 16:35:32.374334000 +07
  669  63.605724 32:32:32:32:32:32 15dBm Nov 18, 2018 16:35:32.441282000 +07
  670  63.686811 32:32:32:32:32:32 16dBm Nov 18, 2018 16:35:32.522369000 +07
  671  63.738549 32:32:32:32:32:32 15dBm Nov 18, 2018 16:35:32.574107000 +07
  672  63.925581 32:32:32:32:32:32 16dBm Nov 18, 2018 16:35:32.761139000 +07
  673  63.999239 32:32:32:32:32:32 16dBm Nov 18, 2018 16:35:32.834797000 +07
  674  64.085790 32:32:32:32:32:32 14dBm Nov 18, 2018 16:35:32.921348000 +07
  675  64.118594 32:32:32:32:32:32 15dBm Nov 18, 2018 16:35:32.954152000 +07
  676  64.153277 32:32:32:32:32:32 14dBm Nov 18, 2018 16:35:32.988835000 +07
  677  64.169847 32:32:32:32:32:32 14dBm Nov 18, 2018 16:35:33.005405000 +07
  678  64.621599 32:32:32:32:32:32 13dBm Nov 18, 2018 16:35:33.457157000 +07
  679  64.659312 32:32:32:32:32:32 15dBm Nov 18, 2018 16:35:33.494870000 +07
  680  64.677682 32:32:32:32:32:32 14dBm Nov 18, 2018 16:35:33.513240000 +07
  681  64.695623 32:32:32:32:32:32 15dBm Nov 18, 2018 16:35:33.531181000 +07
  682  64.708024 32:32:32:32:32:32 11dBm Nov 18, 2018 16:35:33.543582000 +07
  683  64.744548 32:32:32:32:32:32 13dBm Nov 18, 2018 16:35:33.580106000 +07
  684  64.770112 32:32:32:32:32:32 8dBm Nov 18, 2018 16:35:33.605670000 +07
  685  65.078055 32:32:32:32:32:32 8dBm Nov 18, 2018 16:35:33.913613000 +07
  686  65.107567 32:32:32:32:32:32 14dBm Nov 18, 2018 16:35:33.943125000 +07
  687  65.187550 32:32:32:32:32:32 15dBm Nov 18, 2018 16:35:34.023108000 +07
  688  65.397620 32:32:32:32:32:32 12dBm Nov 18, 2018 16:35:34.233178000 +07
  689  65.516320 32:32:32:32:32:32 13dBm Nov 18, 2018 16:35:34.351878000 +07
  690  65.586156 32:32:32:32:32:32 11dBm Nov 18, 2018 16:35:34.421714000 +07
  691  65.617046 32:32:32:32:32:32 15dBm Nov 18, 2018 16:35:34.452604000 +07
  692  65.739651 32:32:32:32:32:32 11dBm Nov 18, 2018 16:35:34.575209000 +07
  693  65.761114 32:32:32:32:32:32 15dBm Nov 18, 2018 16:35:34.596672000 +07
  694  65.773183 32:32:32:32:32:32 11dBm Nov 18, 2018 16:35:34.608741000 +07
  695  65.871842 32:32:32:32:32:32 13dBm Nov 18, 2018 16:35:34.707400000 +07
  696  65.927369 32:32:32:32:32:32 10dBm Nov 18, 2018 16:35:34.762927000 +07
  697  66.174702 32:32:32:32:32:32 13dBm Nov 18, 2018 16:35:35.010260000 +07
  698  66.256412 32:32:32:32:32:32 13dBm Nov 18, 2018 16:35:35.091970000 +07
  699  66.329121 32:32:32:32:32:32 12dBm Nov 18, 2018 16:35:35.164679000 +07
  700  66.353423 32:32:32:32:32:32 14dBm Nov 18, 2018 16:35:35.188981000 +07
  701  66.362291 32:32:32:32:32:32 13dBm Nov 18, 2018 16:35:35.197849000 +07
  702  66.389467 32:32:32:32:32:32 14dBm Nov 18, 2018 16:35:35.225025000 +07
  703  66.406295 32:32:32:32:32:32 14dBm Nov 18, 2018 16:35:35.241853000 +07
  704  66.651459 32:32:32:32:32:32 15dBm Nov 18, 2018 16:35:35.487017000 +07
  705  66.683366 32:32:32:32:32:32 14dBm Nov 18, 2018 16:35:35.518924000 +07
  706  66.810189 32:32:32:32:32:32 10dBm Nov 18, 2018 16:35:35.645747000 +07
  707  66.850292 32:32:32:32:32:32 11dBm Nov 18, 2018 16:35:35.685850000 +07
  708  66.869481 32:32:32:32:32:32 11dBm Nov 18, 2018 16:35:35.705039000 +07
  709  66.898491 32:32:32:32:32:32 12dBm Nov 18, 2018 16:35:35.734049000 +07
  710  66.959266 32:32:32:32:32:32 11dBm Nov 18, 2018 16:35:35.794824000 +07
  711  67.048143 32:32:32:32:32:32 12dBm Nov 18, 2018 16:35:35.883701000 +07
  712  67.104932 32:32:32:32:32:32 12dBm Nov 18, 2018 16:35:35.940490000 +07
  713  67.207375 32:32:32:32:32:32 10dBm Nov 18, 2018 16:35:36.042933000 +07
  714  67.328372 32:32:32:32:32:32 12dBm Nov 18, 2018 16:35:36.163930000 +07
  715  67.329712 32:32:32:32:32:32 16dBm Nov 18, 2018 16:35:36.165270000 +07
  716  67.403159 32:32:32:32:32:32 16dBm Nov 18, 2018 16:35:36.238717000 +07
  717  67.439548 32:32:32:32:32:32 13dBm Nov 18, 2018 16:35:36.275106000 +07
  718  67.452510 32:32:32:32:32:32 13dBm Nov 18, 2018 16:35:36.288068000 +07
  719  67.663725 32:32:32:32:32:32 12dBm Nov 18, 2018 16:35:36.499283000 +07
  720  67.776961 32:32:32:32:32:32 9dBm Nov 18, 2018 16:35:36.612519000 +07
  721  67.819220 32:32:32:32:32:32 14dBm Nov 18, 2018 16:35:36.654778000 +07
  722  67.834216 32:32:32:32:32:32 10dBm Nov 18, 2018 16:35:36.669774000 +07
  723  67.961729 32:32:32:32:32:32 14dBm Nov 18, 2018 16:35:36.797287000 +07
  724  68.020737 32:32:32:32:32:32 14dBm Nov 18, 2018 16:35:36.856295000 +07
  725  68.072402 32:32:32:32:32:32 13dBm Nov 18, 2018 16:35:36.907960000 +07
  726  68.237278 32:32:32:32:32:32 14dBm Nov 18, 2018 16:35:37.072836000 +07
  727  68.267161 32:32:32:32:32:32 13dBm Nov 18, 2018 16:35:37.102719000 +07
  728  68.272511 32:32:32:32:32:32 11dBm Nov 18, 2018 16:35:37.108069000 +07
  729  68.442530 32:32:32:32:32:32 14dBm Nov 18, 2018 16:35:37.278088000 +07
  730  68.462890 32:32:32:32:32:32 14dBm Nov 18, 2018 16:35:37.298448000 +07
  731  68.488522 32:32:32:32:32:32 12dBm Nov 18, 2018 16:35:37.324080000 +07
  732  68.534700 32:32:32:32:32:32 13dBm Nov 18, 2018 16:35:37.370258000 +07
  733  68.588093 32:32:32:32:32:32 11dBm Nov 18, 2018 16:35:37.423651000 +07
  734  68.691441 32:32:32:32:32:32 11dBm Nov 18, 2018 16:35:37.526999000 +07
  735  68.741622 32:32:32:32:32:32 12dBm Nov 18, 2018 16:35:37.577180000 +07
  736  68.754788 32:32:32:32:32:32 12dBm Nov 18, 2018 16:35:37.590346000 +07
  737  68.764670 32:32:32:32:32:32 12dBm Nov 18, 2018 16:35:37.600228000 +07
  738  68.838672 32:32:32:32:32:32 14dBm Nov 18, 2018 16:35:37.674230000 +07
  739  68.904254 32:32:32:32:32:32 11dBm Nov 18, 2018 16:35:37.739812000 +07
  740  68.931154 32:32:32:32:32:32 15dBm Nov 18, 2018 16:35:37.766712000 +07
  741  69.227573 32:32:32:32:32:32 15dBm Nov 18, 2018 16:35:38.063131000 +07
  742  69.353846 32:32:32:32:32:32 12dBm Nov 18, 2018 16:35:38.189404000 +07
  743  69.420574 32:32:32:32:32:32 14dBm Nov 18, 2018 16:35:38.256132000 +07
  744  69.559699 32:32:32:32:32:32 13dBm Nov 18, 2018 16:35:38.395257000 +07
  745  69.735331 32:32:32:32:32:32 15dBm Nov 18, 2018 16:35:38.570889000 +07
  746  69.926549 32:32:32:32:32:32 11dBm Nov 18, 2018 16:35:38.762107000 +07
  747  69.984154 32:32:32:32:32:32 10dBm Nov 18, 2018 16:35:38.819712000 +07
  748  70.190491 32:32:32:32:32:32 15dBm Nov 18, 2018 16:35:39.026049000 +07
  749  70.279601 32:32:32:32:32:32 16dBm Nov 18, 2018 16:35:39.115159000 +07
  750  70.515566 32:32:32:32:32:32 15dBm Nov 18, 2018 16:35:39.351124000 +07
  751  70.599941 32:32:32:32:32:32 11dBm Nov 18, 2018 16:35:39.435499000 +07
  752  70.742588 32:32:32:32:32:32 15dBm Nov 18, 2018 16:35:39.578146000 +07
  753  70.783430 32:32:32:32:32:32 13dBm Nov 18, 2018 16:35:39.618988000 +07
  754  71.075555 32:32:32:32:32:32 8dBm Nov 18, 2018 16:35:39.911113000 +07
  755  71.297907 32:32:32:32:32:32 13dBm Nov 18, 2018 16:35:40.133465000 +07
  756  71.348735 32:32:32:32:32:32 14dBm Nov 18, 2018 16:35:40.184293000 +07
  757  71.434014 32:32:32:32:32:32 15dBm Nov 18, 2018 16:35:40.269572000 +07
  758  71.518199 32:32:32:32:32:32 13dBm Nov 18, 2018 16:35:40.353757000 +07
  759  71.733812 32:32:32:32:32:32 14dBm Nov 18, 2018 16:35:40.569370000 +07
  760  71.885193 32:32:32:32:32:32 9dBm Nov 18, 2018 16:35:40.720751000 +07
  761  71.992703 32:32:32:32:32:32 13dBm Nov 18, 2018 16:35:40.828261000 +07
  762  72.009712 32:32:32:32:32:32 11dBm Nov 18, 2018 16:35:40.845270000 +07
  763  72.028605 32:32:32:32:32:32 13dBm Nov 18, 2018 16:35:40.864163000 +07
  764  72.046888 32:32:32:32:32:32 12dBm Nov 18, 2018 16:35:40.882446000 +07
  765  72.489400 32:32:32:32:32:32 14dBm Nov 18, 2018 16:35:41.324958000 +07
  766  72.567176 32:32:32:32:32:32 11dBm Nov 18, 2018 16:35:41.402734000 +07
  767  72.615435 32:32:32:32:32:32 14dBm Nov 18, 2018 16:35:41.450993000 +07
  768  72.773306 32:32:32:32:32:32 13dBm Nov 18, 2018 16:35:41.608864000 +07
  769  72.801150 32:32:32:32:32:32 14dBm Nov 18, 2018 16:35:41.636708000 +07
  770  72.838688 32:32:32:32:32:32 15dBm Nov 18, 2018 16:35:41.674246000 +07
  771  72.961713 32:32:32:32:32:32 15dBm Nov 18, 2018 16:35:41.797271000 +07
  772  73.051934 32:32:32:32:32:32 13dBm Nov 18, 2018 16:35:41.887492000 +07
  773  73.104384 32:32:32:32:32:32 14dBm Nov 18, 2018 16:35:41.939942000 +07
  774  73.163976 32:32:32:32:32:32 12dBm Nov 18, 2018 16:35:41.999534000 +07
  775  73.205214 32:32:32:32:32:32 13dBm Nov 18, 2018 16:35:42.040772000 +07
  776  73.546979 32:32:32:32:32:32 11dBm Nov 18, 2018 16:35:42.382537000 +07
  777  73.637765 32:32:32:32:32:32 11dBm Nov 18, 2018 16:35:42.473323000 +07
  778  73.765512 32:32:32:32:32:32 15dBm Nov 18, 2018 16:35:42.601070000 +07
  779  73.856751 32:32:32:32:32:32 15dBm Nov 18, 2018 16:35:42.692309000 +07
  780  74.113689 32:32:32:32:32:32 15dBm Nov 18, 2018 16:35:42.949247000 +07
  781  74.120495 32:32:32:32:32:32 14dBm Nov 18, 2018 16:35:42.956053000 +07
  782  74.140538 32:32:32:32:32:32 15dBm Nov 18, 2018 16:35:42.976096000 +07
  783  74.219379 32:32:32:32:32:32 14dBm Nov 18, 2018 16:35:43.054937000 +07
  784  74.383076 32:32:32:32:32:32 12dBm Nov 18, 2018 16:35:43.218634000 +07
  785  74.410759 32:32:32:32:32:32 13dBm Nov 18, 2018 16:35:43.246317000 +07
  786  74.433406 32:32:32:32:32:32 13dBm Nov 18, 2018 16:35:43.268964000 +07
  787  74.760826 32:32:32:32:32:32 14dBm Nov 18, 2018 16:35:43.596384000 +07
  788  74.832920 32:32:32:32:32:32 14dBm Nov 18, 2018 16:35:43.668478000 +07
  789  74.855971 32:32:32:32:32:32 13dBm Nov 18, 2018 16:35:43.691529000 +07
  790  74.927081 32:32:32:32:32:32 14dBm Nov 18, 2018 16:35:43.762639000 +07
  791  74.957667 32:32:32:32:32:32 13dBm Nov 18, 2018 16:35:43.793225000 +07
  792  75.155535 32:32:32:32:32:32 13dBm Nov 18, 2018 16:35:43.991093000 +07
  793  75.200237 32:32:32:32:32:32 12dBm Nov 18, 2018 16:35:44.035795000 +07
  794  75.507839 32:32:32:32:32:32 10dBm Nov 18, 2018 16:35:44.343397000 +07
  795  75.528177 32:32:32:32:32:32 11dBm Nov 18, 2018 16:35:44.363735000 +07
  796  75.842468 32:32:32:32:32:32 10dBm Nov 18, 2018 16:35:44.678026000 +07
  797  76.197414 32:32:32:32:32:32 10dBm Nov 18, 2018 16:35:45.032972000 +07
  798  76.227706 32:32:32:32:32:32 9dBm Nov 18, 2018 16:35:45.063264000 +07
  799  76.233302 32:32:32:32:32:32 10dBm Nov 18, 2018 16:35:45.068860000 +07
  800  76.247320 32:32:32:32:32:32 12dBm Nov 18, 2018 16:35:45.082878000 +07
  801  76.590689 32:32:32:32:32:32 11dBm Nov 18, 2018 16:35:45.426247000 +07
  802  76.741889 32:32:32:32:32:32 8dBm Nov 18, 2018 16:35:45.577447000 +07
  803  76.767022 32:32:32:32:32:32 10dBm Nov 18, 2018 16:35:45.602580000 +07
  804  76.792873 32:32:32:32:32:32 13dBm Nov 18, 2018 16:35:45.628431000 +07
  805  76.873824 32:32:32:32:32:32 11dBm Nov 18, 2018 16:35:45.709382000 +07
  806  77.129538 32:32:32:32:32:32 9dBm Nov 18, 2018 16:35:45.965096000 +07
  807  77.188988 32:32:32:32:32:32 12dBm Nov 18, 2018 16:35:46.024546000 +07
  808  77.217398 32:32:32:32:32:32 11dBm Nov 18, 2018 16:35:46.052956000 +07
  809  77.276031 32:32:32:32:32:32 14dBm Nov 18, 2018 16:35:46.111589000 +07
  810  77.449859 32:32:32:32:32:32 8dBm Nov 18, 2018 16:35:46.285417000 +07
  811  77.526080 32:32:32:32:32:32 13dBm Nov 18, 2018 16:35:46.361638000 +07
  812  77.554449 32:32:32:32:32:32 11dBm Nov 18, 2018 16:35:46.390007000 +07
  813  77.585694 32:32:32:32:32:32 12dBm Nov 18, 2018 16:35:46.421252000 +07
  814  77.933708 32:32:32:32:32:32 11dBm Nov 18, 2018 16:35:46.769266000 +07
  815  77.999718 32:32:32:32:32:32 9dBm Nov 18, 2018 16:35:46.835276000 +07
  816  78.112137 32:32:32:32:32:32 10dBm Nov 18, 2018 16:35:46.947695000 +07
  817  78.173584 32:32:32:32:32:32 9dBm Nov 18, 2018 16:35:47.009142000 +07
  818  78.481761 32:32:32:32:32:32 11dBm Nov 18, 2018 16:35:47.317319000 +07
  819  78.642390 32:32:32:32:32:32 11dBm Nov 18, 2018 16:35:47.477948000 +07
  820  78.706603 32:32:32:32:32:32 10dBm Nov 18, 2018 16:35:47.542161000 +07
  821  78.721271 32:32:32:32:32:32 11dBm Nov 18, 2018 16:35:47.556829000 +07
  822  78.925003 32:32:32:32:32:32 11dBm Nov 18, 2018 16:35:47.760561000 +07
  823  78.956921 32:32:32:32:32:32 11dBm Nov 18, 2018 16:35:47.792479000 +07
  824  79.092389 32:32:32:32:32:32 11dBm Nov 18, 2018 16:35:47.927947000 +07
  825  79.379827 32:32:32:32:32:32 12dBm Nov 18, 2018 16:35:48.215385000 +07
  826  79.535519 32:32:32:32:32:32 13dBm Nov 18, 2018 16:35:48.371077000 +07
  827  79.599749 32:32:32:32:32:32 13dBm Nov 18, 2018 16:35:48.435307000 +07
  828  79.720326 32:32:32:32:32:32 10dBm Nov 18, 2018 16:35:48.555884000 +07
  829  79.857671 32:32:32:32:32:32 11dBm Nov 18, 2018 16:35:48.693229000 +07
  830  79.910316 32:32:32:32:32:32 12dBm Nov 18, 2018 16:35:48.745874000 +07
  831  80.078613 32:32:32:32:32:32 10dBm Nov 18, 2018 16:35:48.914171000 +07
  832  80.135447 32:32:32:32:32:32 10dBm Nov 18, 2018 16:35:48.971005000 +07
  833  80.298031 32:32:32:32:32:32 10dBm Nov 18, 2018 16:35:49.133589000 +07
  834  80.522791 32:32:32:32:32:32 11dBm Nov 18, 2018 16:35:49.358349000 +07
  835  80.542749 32:32:32:32:32:32 11dBm Nov 18, 2018 16:35:49.378307000 +07
  836  80.563890 32:32:32:32:32:32 10dBm Nov 18, 2018 16:35:49.399448000 +07
  837  80.589128 32:32:32:32:32:32 11dBm Nov 18, 2018 16:35:49.424686000 +07
  838  80.737157 32:32:32:32:32:32 9dBm Nov 18, 2018 16:35:49.572715000 +07
  839  81.148276 32:32:32:32:32:32 13dBm Nov 18, 2018 16:35:49.983834000 +07
  840  81.207963 32:32:32:32:32:32 13dBm Nov 18, 2018 16:35:50.043521000 +07
  841  81.242763 32:32:32:32:32:32 16dBm Nov 18, 2018 16:35:50.078321000 +07
  842  81.258403 32:32:32:32:32:32 9dBm Nov 18, 2018 16:35:50.093961000 +07
  843  81.639112 32:32:32:32:32:32 9dBm Nov 18, 2018 16:35:50.474670000 +07
  844  81.840985 32:32:32:32:32:32 8dBm Nov 18, 2018 16:35:50.676543000 +07
  845  81.932378 32:32:32:32:32:32 12dBm Nov 18, 2018 16:35:50.767936000 +07
  846  82.037929 32:32:32:32:32:32 12dBm Nov 18, 2018 16:35:50.873487000 +07
  847  82.081968 32:32:32:32:32:32 13dBm Nov 18, 2018 16:35:50.917526000 +07
  848  82.098160 32:32:32:32:32:32 15dBm Nov 18, 2018 16:35:50.933718000 +07
  849  82.348290 32:32:32:32:32:32 15dBm Nov 18, 2018 16:35:51.183848000 +07
  850  82.475936 32:32:32:32:32:32 14dBm Nov 18, 2018 16:35:51.311494000 +07
  851  82.499077 32:32:32:32:32:32 15dBm Nov 18, 2018 16:35:51.334635000 +07
  852  82.527145 32:32:32:32:32:32 14dBm Nov 18, 2018 16:35:51.362703000 +07
  853  82.771037 32:32:32:32:32:32 15dBm Nov 18, 2018 16:35:51.606595000 +07
  854  82.840728 32:32:32:32:32:32 13dBm Nov 18, 2018 16:35:51.676286000 +07
  855  82.870775 32:32:32:32:32:32 15dBm Nov 18, 2018 16:35:51.706333000 +07
  856  83.011597 32:32:32:32:32:32 14dBm Nov 18, 2018 16:35:51.847155000 +07
  857  83.126524 32:32:32:32:32:32 13dBm Nov 18, 2018 16:35:51.962082000 +07
  858  83.382576 32:32:32:32:32:32 13dBm Nov 18, 2018 16:35:52.218134000 +07
  859  83.461667 32:32:32:32:32:32 14dBm Nov 18, 2018 16:35:52.297225000 +07
  860  83.518651 32:32:32:32:32:32 15dBm Nov 18, 2018 16:35:52.354209000 +07
  861  83.542992 32:32:32:32:32:32 15dBm Nov 18, 2018 16:35:52.378550000 +07
  862  83.672687 32:32:32:32:32:32 15dBm Nov 18, 2018 16:35:52.508245000 +07
  863  83.686936 32:32:32:32:32:32 14dBm Nov 18, 2018 16:35:52.522494000 +07
  864  83.754321 32:32:32:32:32:32 14dBm Nov 18, 2018 16:35:52.589879000 +07
  865  83.834665 32:32:32:32:32:32 13dBm Nov 18, 2018 16:35:52.670223000 +07
  866  83.871357 32:32:32:32:32:32 14dBm Nov 18, 2018 16:35:52.706915000 +07
  867  83.888312 32:32:32:32:32:32 15dBm Nov 18, 2018 16:35:52.723870000 +07
  868  84.597486 32:32:32:32:32:32 14dBm Nov 18, 2018 16:35:53.433044000 +07
  869  84.619173 32:32:32:32:32:32 14dBm Nov 18, 2018 16:35:53.454731000 +07
  870  85.274985 32:32:32:32:32:32 14dBm Nov 18, 2018 16:35:54.110543000 +07
  871  85.359114 32:32:32:32:32:32 13dBm Nov 18, 2018 16:35:54.194672000 +07
  872  85.698212 32:32:32:32:32:32 13dBm Nov 18, 2018 16:35:54.533770000 +07
  873  85.736287 32:32:32:32:32:32 14dBm Nov 18, 2018 16:35:54.571845000 +07
  874  85.809184 32:32:32:32:32:32 14dBm Nov 18, 2018 16:35:54.644742000 +07
  875  86.036616 32:32:32:32:32:32 14dBm Nov 18, 2018 16:35:54.872174000 +07
  876  86.134111 32:32:32:32:32:32 13dBm Nov 18, 2018 16:35:54.969669000 +07
  877  86.154616 32:32:32:32:32:32 14dBm Nov 18, 2018 16:35:54.990174000 +07
  878  86.215789 32:32:32:32:32:32 13dBm Nov 18, 2018 16:35:55.051347000 +07
  879  86.345450 32:32:32:32:32:32 12dBm Nov 18, 2018 16:35:55.181008000 +07
  880  86.362424 32:32:32:32:32:32 13dBm Nov 18, 2018 16:35:55.197982000 +07
  881  86.475682 32:32:32:32:32:32 13dBm Nov 18, 2018 16:35:55.311240000 +07
  882  86.527841 32:32:32:32:32:32 13dBm Nov 18, 2018 16:35:55.363399000 +07
  883  86.632503 32:32:32:32:32:32 14dBm Nov 18, 2018 16:35:55.468061000 +07
  884  86.669403 32:32:32:32:32:32 12dBm Nov 18, 2018 16:35:55.504961000 +07
  885  86.730905 32:32:32:32:32:32 15dBm Nov 18, 2018 16:35:55.566463000 +07
  886  86.799217 32:32:32:32:32:32 15dBm Nov 18, 2018 16:35:55.634775000 +07
  887  86.810102 32:32:32:32:32:32 13dBm Nov 18, 2018 16:35:55.645660000 +07
  888  87.251799 32:32:32:32:32:32 12dBm Nov 18, 2018 16:35:56.087357000 +07
  889  87.329785 32:32:32:32:32:32 14dBm Nov 18, 2018 16:35:56.165343000 +07
  890  87.350687 32:32:32:32:32:32 13dBm Nov 18, 2018 16:35:56.186245000 +07
  891  87.473916 32:32:32:32:32:32 13dBm Nov 18, 2018 16:35:56.309474000 +07
  892  87.611580 32:32:32:32:32:32 13dBm Nov 18, 2018 16:35:56.447138000 +07
  893  87.679871 32:32:32:32:32:32 14dBm Nov 18, 2018 16:35:56.515429000 +07
  894  87.789676 32:32:32:32:32:32 12dBm Nov 18, 2018 16:35:56.625234000 +07
  895  87.887223 32:32:32:32:32:32 14dBm Nov 18, 2018 16:35:56.722781000 +07
  896  87.951185 32:32:32:32:32:32 11dBm Nov 18, 2018 16:35:56.786743000 +07
  897  88.035138 32:32:32:32:32:32 14dBm Nov 18, 2018 16:35:56.870696000 +07
  898  88.045766 32:32:32:32:32:32 15dBm Nov 18, 2018 16:35:56.881324000 +07
  899  88.760047 32:32:32:32:32:32 14dBm Nov 18, 2018 16:35:57.595605000 +07
  900  89.039321 32:32:32:32:32:32 16dBm Nov 18, 2018 16:35:57.874879000 +07
  901  89.186131 32:32:32:32:32:32 13dBm Nov 18, 2018 16:35:58.021689000 +07
  902  89.223295 32:32:32:32:32:32 14dBm Nov 18, 2018 16:35:58.058853000 +07
  903  89.296802 32:32:32:32:32:32 14dBm Nov 18, 2018 16:35:58.132360000 +07
  904  89.530146 32:32:32:32:32:32 15dBm Nov 18, 2018 16:35:58.365704000 +07
  905  89.593182 32:32:32:32:32:32 13dBm Nov 18, 2018 16:35:58.428740000 +07
