       1       032:32:32:32:32:3 24dBm  Nov 18, 201816:36:21.90894000 7         13
       20.03891532:32:32:32:32:3 24dBm  Nov 18, 201816:36:21.94785500 7         25
       30.10651932:32:32:32:32:3 24dBm  Nov 18, 201816:36:22.01545900 7        ###
       40.15733932:32:32:32:32:3 22dBm  Nov 18, 201816:36:22.06627900 7        ###
       50.15889632:32:32:32:32:3 23dBm  Nov 18, 201816:36:22.06783600 7        ###
       60.20445532:32:32:32:32:3 23dBm  Nov 18, 201816:36:22.11339500 7
       70.35238232:32:32:32:32:3 24dBm  Nov 18, 201816:36:22.26132200 7
       80.37940932:32:32:32:32:3 25dBm  Nov 18, 201816:36:22.28834900 7
       90.48493432:32:32:32:32:3 22dBm  Nov 18, 201816:36:22.39387400 7
      100.51577432:32:32:32:32:3 21dBm  Nov 18, 201816:36:22.42471400 7
      110.58029332:32:32:32:32:3 16dBm  Nov 18, 201816:36:22.48923300 7
      120.76383532:32:32:32:32:3 19dBm  Nov 18, 201816:36:22.67277500 7
      130.79025532:32:32:32:32:3 16dBm  Nov 18, 201816:36:22.69919500 7
      140.94866532:32:32:32:32:3 21dBm  Nov 18, 201816:36:22.85760500 7
      151.06602332:32:32:32:32:3 20dBm  Nov 18, 201816:36:22.97496300 7
      161.09333432:32:32:32:32:3 19dBm  Nov 18, 201816:36:23.00227400 7
      171.13288532:32:32:32:32:3 23dBm  Nov 18, 201816:36:23.04182500 7
      181.16998332:32:32:32:32:3 21dBm  Nov 18, 201816:36:23.07892300 7
      191.30282232:32:32:32:32:3 23dBm  Nov 18, 201816:36:23.21176200 7
      201.31666832:32:32:32:32:3 21dBm  Nov 18, 201816:36:23.22560800 7
      211.39569432:32:32:32:32:3 23dBm  Nov 18, 201816:36:23.30463400 7
      221.41075332:32:32:32:32:3 22dBm  Nov 18, 201816:36:23.31969300 7
      231.44510932:32:32:32:32:3 19dBm  Nov 18, 201816:36:23.35404900 7
      241.47941132:32:32:32:32:3 22dBm  Nov 18, 201816:36:23.38835100 7
      251.50423132:32:32:32:32:3 21dBm  Nov 18, 201816:36:23.41317100 7
      261.55532832:32:32:32:32:3 21dBm  Nov 18, 201816:36:23.46426800 7
      271.66791732:32:32:32:32:3 19dBm  Nov 18, 201816:36:23.57685700 7
      281.91583532:32:32:32:32:3 20dBm  Nov 18, 201816:36:23.82477500 7
      291.97221632:32:32:32:32:3 20dBm  Nov 18, 201816:36:23.88115600 7
      301.97463132:32:32:32:32:3 20dBm  Nov 18, 201816:36:23.88357100 7
      312.04742732:32:32:32:32:3 21dBm  Nov 18, 201816:36:23.95636700 7
      322.09743332:32:32:32:32:3 21dBm  Nov 18, 201816:36:24.00637300 7
      332.21381932:32:32:32:32:3 19dBm  Nov 18, 201816:36:24.12275900 7
      342.28456632:32:32:32:32:3 19dBm  Nov 18, 201816:36:24.19350600 7
      352.35280932:32:32:32:32:3 20dBm  Nov 18, 201816:36:24.26174900 7
      362.43730832:32:32:32:32:3 13dBm  Nov 18, 201816:36:24.34624800 7
      372.48562332:32:32:32:32:3 20dBm  Nov 18, 201816:36:24.39456300 7
      38 2.5079632:32:32:32:32:3 18dBm  Nov 18, 201816:36:24.41690000 7
      392.64071932:32:32:32:32:3 20dBm  Nov 18, 201816:36:24.54965900 7
      402.70126532:32:32:32:32:3 20dBm  Nov 18, 201816:36:24.61020500 7
      412.89624532:32:32:32:32:3 22dBm  Nov 18, 201816:36:24.80518500 7
      423.09913532:32:32:32:32:3 23dBm  Nov 18, 201816:36:25.00807500 7
      433.23206332:32:32:32:32:3 22dBm  Nov 18, 201816:36:25.14100300 7
      44 3.3607532:32:32:32:32:3 21dBm  Nov 18, 201816:36:25.26969000 7
      453.45696632:32:32:32:32:3 23dBm  Nov 18, 201816:36:25.36590600 7
      463.52307532:32:32:32:32:3 23dBm  Nov 18, 201816:36:25.43201500 7
      473.55813932:32:32:32:32:3 21dBm  Nov 18, 201816:36:25.46707900 7
      483.57782132:32:32:32:32:3 22dBm  Nov 18, 201816:36:25.48676100 7
      493.60864332:32:32:32:32:3 21dBm  Nov 18, 201816:36:25.51758300 7
      503.77976832:32:32:32:32:3 22dBm  Nov 18, 201816:36:25.68870800 7
      51 3.7976832:32:32:32:32:3 22dBm  Nov 18, 201816:36:25.70662000 7
      523.92087432:32:32:32:32:3 21dBm  Nov 18, 201816:36:25.82981400 7
      534.09827332:32:32:32:32:3 24dBm  Nov 18, 201816:36:26.00721300 7
      544.18192732:32:32:32:32:3 23dBm  Nov 18, 201816:36:26.09086700 7
      554.22687432:32:32:32:32:3 23dBm  Nov 18, 201816:36:26.13581400 7
      56 4.4409532:32:32:32:32:3 22dBm  Nov 18, 201816:36:26.34989000 7
      574.46150432:32:32:32:32:3 20dBm  Nov 18, 201816:36:26.37044400 7
      584.48645932:32:32:32:32:3 22dBm  Nov 18, 201816:36:26.39539900 7
      594.50516832:32:32:32:32:3 22dBm  Nov 18, 201816:36:26.41410800 7
      604.65372532:32:32:32:32:3 22dBm  Nov 18, 201816:36:26.56266500 7
      614.69351432:32:32:32:32:3 20dBm  Nov 18, 201816:36:26.60245400 7
      624.70894632:32:32:32:32:3 22dBm  Nov 18, 201816:36:26.61788600 7
      634.98540532:32:32:32:32:3 22dBm  Nov 18, 201816:36:26.89434500 7
      645.01622832:32:32:32:32:3 20dBm  Nov 18, 201816:36:26.92516800 7
      655.14518332:32:32:32:32:3 22dBm  Nov 18, 201816:36:27.05412300 7
      665.25427132:32:32:32:32:3 21dBm  Nov 18, 201816:36:27.16321100 7
      675.38517132:32:32:32:32:3 22dBm  Nov 18, 201816:36:27.29411100 7
      685.41996232:32:32:32:32:3 23dBm  Nov 18, 201816:36:27.32890200 7
      695.50019832:32:32:32:32:3 21dBm  Nov 18, 201816:36:27.40913800 7
      705.57982732:32:32:32:32:3 21dBm  Nov 18, 201816:36:27.48876700 7
      715.65528132:32:32:32:32:3 21dBm  Nov 18, 201816:36:27.56422100 7
      725.68858832:32:32:32:32:3 21dBm  Nov 18, 201816:36:27.59752800 7
      735.70849832:32:32:32:32:3 20dBm  Nov 18, 201816:36:27.61743800 7
      745.73819532:32:32:32:32:3 20dBm  Nov 18, 201816:36:27.64713500 7
      755.79670832:32:32:32:32:3 21dBm  Nov 18, 201816:36:27.70564800 7
      765.87893132:32:32:32:32:3 22dBm  Nov 18, 201816:36:27.78787100 7
      775.91937132:32:32:32:32:3 21dBm  Nov 18, 201816:36:27.82831100 7
      785.95436632:32:32:32:32:3 21dBm  Nov 18, 201816:36:27.86330600 7
      796.01569532:32:32:32:32:3 22dBm  Nov 18, 201816:36:27.92463500 7
      806.14164932:32:32:32:32:3 21dBm  Nov 18, 201816:36:28.05058900 7
      816.27066232:32:32:32:32:3 21dBm  Nov 18, 201816:36:28.17960200 7
      826.29089132:32:32:32:32:3 22dBm  Nov 18, 201816:36:28.19983100 7
      836.35419232:32:32:32:32:3 21dBm  Nov 18, 201816:36:28.26313200 7
      846.45224932:32:32:32:32:3 22dBm  Nov 18, 201816:36:28.36118900 7
      856.50301932:32:32:32:32:3 20dBm  Nov 18, 201816:36:28.41195900 7
      866.57385332:32:32:32:32:3 21dBm  Nov 18, 201816:36:28.48279300 7
      876.59633932:32:32:32:32:3 20dBm  Nov 18, 201816:36:28.50527900 7
      886.71454932:32:32:32:32:3 19dBm  Nov 18, 201816:36:28.62348900 7
      896.79943232:32:32:32:32:3 21dBm  Nov 18, 201816:36:28.70837200 7
      906.80179232:32:32:32:32:3 23dBm  Nov 18, 201816:36:28.71073200 7
      916.82341832:32:32:32:32:3 22dBm  Nov 18, 201816:36:28.73235800 7
      926.83448432:32:32:32:32:3 22dBm  Nov 18, 201816:36:28.74342400 7
      936.90783932:32:32:32:32:3 20dBm  Nov 18, 201816:36:28.81677900 7
      946.97790732:32:32:32:32:3 21dBm  Nov 18, 201816:36:28.88684700 7
      956.98916732:32:32:32:32:3 22dBm  Nov 18, 201816:36:28.89810700 7
      967.00857532:32:32:32:32:3 22dBm  Nov 18, 201816:36:28.91751500 7
      977.08923232:32:32:32:32:3 21dBm  Nov 18, 201816:36:28.99817200 7
      987.14957732:32:32:32:32:3 23dBm  Nov 18, 201816:36:29.05851700 7
      997.15818232:32:32:32:32:3 20dBm  Nov 18, 201816:36:29.06712200 7
     1007.30117932:32:32:32:32:3 19dBm  Nov 18, 201816:36:29.21011900 7
     1017.41404732:32:32:32:32:3 20dBm  Nov 18, 201816:36:29.32298700 7
     1027.46554932:32:32:32:32:3 21dBm  Nov 18, 201816:36:29.37448900 7
     103 7.4842332:32:32:32:32:3 23dBm  Nov 18, 201816:36:29.39317000 7
     1047.50426932:32:32:32:32:3 23dBm  Nov 18, 201816:36:29.41320900 7
     1057.69567132:32:32:32:32:3 21dBm  Nov 18, 201816:36:29.60461100 7
     1067.80459732:32:32:32:32:3 22dBm  Nov 18, 201816:36:29.71353700 7
     1077.81702332:32:32:32:32:3 22dBm  Nov 18, 201816:36:29.72596300 7
     108 7.8415632:32:32:32:32:3 22dBm  Nov 18, 201816:36:29.75050000 7
     1097.86079732:32:32:32:32:3 21dBm  Nov 18, 201816:36:29.76973700 7
     1107.95630632:32:32:32:32:3 22dBm  Nov 18, 201816:36:29.86524600 7
     1118.01311132:32:32:32:32:3 21dBm  Nov 18, 201816:36:29.92205100 7
     112 8.1569932:32:32:32:32:3 21dBm  Nov 18, 201816:36:30.06593000 7
     1138.20929232:32:32:32:32:3 21dBm  Nov 18, 201816:36:30.11823200 7
     1148.23386532:32:32:32:32:3 21dBm  Nov 18, 201816:36:30.14280500 7
     1158.42178232:32:32:32:32:3 22dBm  Nov 18, 201816:36:30.33072200 7
     1168.43950832:32:32:32:32:3 21dBm  Nov 18, 201816:36:30.34844800 7
     1178.48060632:32:32:32:32:3 21dBm  Nov 18, 201816:36:30.38954600 7
     1188.49979732:32:32:32:32:3 19dBm  Nov 18, 201816:36:30.40873700 7
     1198.63472132:32:32:32:32:3 21dBm  Nov 18, 201816:36:30.54366100 7
     1208.65391332:32:32:32:32:3 21dBm  Nov 18, 201816:36:30.56285300 7
     1219.03788332:32:32:32:32:3 17dBm  Nov 18, 201816:36:30.94682300 7
     1229.16026732:32:32:32:32:3 21dBm  Nov 18, 201816:36:31.06920700 7
     1239.29462332:32:32:32:32:3 19dBm  Nov 18, 201816:36:31.20356300 7
     1249.35034332:32:32:32:32:3 21dBm  Nov 18, 201816:36:31.25928300 7
     1259.40577532:32:32:32:32:3 21dBm  Nov 18, 201816:36:31.31471500 7
     1269.42204532:32:32:32:32:3 22dBm  Nov 18, 201816:36:31.33098500 7
     1279.45105932:32:32:32:32:3 21dBm  Nov 18, 201816:36:31.35999900 7
     1289.65326232:32:32:32:32:3 21dBm  Nov 18, 201816:36:31.56220200 7
     129  9.709332:32:32:32:32:3 19dBm  Nov 18, 201816:36:31.61824000 7
     1309.80782132:32:32:32:32:3 20dBm  Nov 18, 201816:36:31.71676100 7
     1319.99122132:32:32:32:32:3 21dBm  Nov 18, 201816:36:31.90016100 7
  132  10.05826932:32:32:32:32:3 21dBm  Nov 18, 201816:36:31.96720900 7
  133  10.16507132:32:32:32:32:3 22dBm  Nov 18, 201816:36:32.07401100 7
  134  10.23770432:32:32:32:32:3 22dBm  Nov 18, 201816:36:32.14664400 7
  135  10.29995532:32:32:32:32:3 21dBm  Nov 18, 201816:36:32.20889500 7
  136  10.30993432:32:32:32:32:3 22dBm  Nov 18, 201816:36:32.21887400 7
  137  10.35453832:32:32:32:32:3 22dBm  Nov 18, 201816:36:32.26347800 7
  138  10.37233432:32:32:32:32:3 21dBm  Nov 18, 201816:36:32.28127400 7
  139  10.44915632:32:32:32:32:3 19dBm  Nov 18, 201816:36:32.35809600 7
  140  10.51514932:32:32:32:32:3 21dBm  Nov 18, 201816:36:32.42408900 7
  141  10.56342532:32:32:32:32:3 22dBm  Nov 18, 201816:36:32.47236500 7
  142  10.62366732:32:32:32:32:3 20dBm  Nov 18, 201816:36:32.53260700 7
  143  1 0.6494432:32:32:32:32:3 22dBm  Nov 18, 201816:36:32.55838000 7
  144  1 0.7631632:32:32:32:32:3 21dBm  Nov 18, 201816:36:32.67210000 7
  145  10.79458232:32:32:32:32:3 21dBm  Nov 18, 201816:36:32.70352200 7
  146  11.08200932:32:32:32:32:3 20dBm  Nov 18, 201816:36:32.99094900 7
  147  11.12543632:32:32:32:32:3 22dBm  Nov 18, 201816:36:33.03437600 7
  148  11.15538132:32:32:32:32:3 17dBm  Nov 18, 201816:36:33.06432100 7
  149  11.22648232:32:32:32:32:3 20dBm  Nov 18, 201816:36:33.13542200 7
  150  1 1.3829232:32:32:32:32:3 22dBm  Nov 18, 201816:36:33.29186000 7
  151  11.42965332:32:32:32:32:3 21dBm  Nov 18, 201816:36:33.33859300 7
  152  11.44823232:32:32:32:32:3 20dBm  Nov 18, 201816:36:33.35717200 7
  153  11.65798632:32:32:32:32:3 19dBm  Nov 18, 201816:36:33.56692600 7
  154  11.70406232:32:32:32:32:3 21dBm  Nov 18, 201816:36:33.61300200 7
  155  11.72970632:32:32:32:32:3 21dBm  Nov 18, 201816:36:33.63864600 7
  156  11.93203632:32:32:32:32:3 19dBm  Nov 18, 201816:36:33.84097600 7
  157  12.15993932:32:32:32:32:3 23dBm  Nov 18, 201816:36:34.06887900 7
  158  12.18461732:32:32:32:32:3 22dBm  Nov 18, 201816:36:34.09355700 7
  159  12.22977532:32:32:32:32:3 22dBm  Nov 18, 201816:36:34.13871500 7
  160  12.24248132:32:32:32:32:3 20dBm  Nov 18, 201816:36:34.15142100 7
  161  12.26268232:32:32:32:32:3 21dBm  Nov 18, 201816:36:34.17162200 7
  162  12.31336532:32:32:32:32:3 21dBm  Nov 18, 201816:36:34.22230500 7
  163  12.37029932:32:32:32:32:3 21dBm  Nov 18, 201816:36:34.27923900 7
  164  12.52557532:32:32:32:32:3 20dBm  Nov 18, 201816:36:34.43451500 7
  165  12.58848132:32:32:32:32:3 19dBm  Nov 18, 201816:36:34.49742100 7
  166  12.60800532:32:32:32:32:3 22dBm  Nov 18, 201816:36:34.51694500 7
  167  12.66078232:32:32:32:32:3 21dBm  Nov 18, 201816:36:34.56972200 7
  168  12.71586432:32:32:32:32:3 21dBm  Nov 18, 201816:36:34.62480400 7
  169  12.73685932:32:32:32:32:3 20dBm  Nov 18, 201816:36:34.64579900 7
  170  12.78420832:32:32:32:32:3 22dBm  Nov 18, 201816:36:34.69314800 7
  171  12.79276132:32:32:32:32:3 22dBm  Nov 18, 201816:36:34.70170100 7
  172  12.91803432:32:32:32:32:3 22dBm  Nov 18, 201816:36:34.82697400 7
  173  12.96965432:32:32:32:32:3 22dBm  Nov 18, 201816:36:34.87859400 7
  174  13.03756532:32:32:32:32:3 18dBm  Nov 18, 201816:36:34.94650500 7
  175  13.40351132:32:32:32:32:3 22dBm  Nov 18, 201816:36:35.31245100 7
  176  13.59266232:32:32:32:32:3 21dBm  Nov 18, 201816:36:35.50160200 7
  177  13.78197832:32:32:32:32:3 23dBm  Nov 18, 201816:36:35.69091800 7
  178  13.80464232:32:32:32:32:3 19dBm  Nov 18, 201816:36:35.71358200 7
  179  13.81848432:32:32:32:32:3 23dBm  Nov 18, 201816:36:35.72742400 7
  180  13.83024932:32:32:32:32:3 20dBm  Nov 18, 201816:36:35.73918900 7
  181  13.86295532:32:32:32:32:3 19dBm  Nov 18, 201816:36:35.77189500 7
  182  13.89350132:32:32:32:32:3 22dBm  Nov 18, 201816:36:35.80244100 7
  183  14.04479332:32:32:32:32:3 22dBm  Nov 18, 201816:36:35.95373300 7
  184  14.23714532:32:32:32:32:3 20dBm  Nov 18, 201816:36:36.14608500 7
  185  14.29540532:32:32:32:32:3 21dBm  Nov 18, 201816:36:36.20434500 7
  186  14.31413432:32:32:32:32:3 22dBm  Nov 18, 201816:36:36.22307400 7
  187  14.34166732:32:32:32:32:3 22dBm  Nov 18, 201816:36:36.25060700 7
  188  14.37697832:32:32:32:32:3 21dBm  Nov 18, 201816:36:36.28591800 7
  189  14.38890532:32:32:32:32:3 21dBm  Nov 18, 201816:36:36.29784500 7
  190  1 4.5491832:32:32:32:32:3 22dBm  Nov 18, 201816:36:36.45812000 7
  191  1 4.6147832:32:32:32:32:3 22dBm  Nov 18, 201816:36:36.52372000 7
  192  14.65972632:32:32:32:32:3 22dBm  Nov 18, 201816:36:36.56866600 7
  193  14.78292432:32:32:32:32:3 20dBm  Nov 18, 201816:36:36.69186400 7
  194  14.81155632:32:32:32:32:3 20dBm  Nov 18, 201816:36:36.72049600 7
  195  14.83013732:32:32:32:32:3 22dBm  Nov 18, 201816:36:36.73907700 7
  196  14.94147132:32:32:32:32:3 21dBm  Nov 18, 201816:36:36.85041100 7
  197  15.12679132:32:32:32:32:3 20dBm  Nov 18, 201816:36:37.03573100 7
  198  15.33945732:32:32:32:32:3 22dBm  Nov 18, 201816:36:37.24839700 7
  199  15.37258332:32:32:32:32:3 22dBm  Nov 18, 201816:36:37.28152300 7
  200  15.52589532:32:32:32:32:3 22dBm  Nov 18, 201816:36:37.43483500 7
  201  15.71129532:32:32:32:32:3 19dBm  Nov 18, 201816:36:37.62023500 7
  202  15.76595232:32:32:32:32:3 22dBm  Nov 18, 201816:36:37.67489200 7
  203  15.79144432:32:32:32:32:3 21dBm  Nov 18, 201816:36:37.70038400 7
  204  16.12832632:32:32:32:32:3 21dBm  Nov 18, 201816:36:38.03726600 7
  205  16.17943232:32:32:32:32:3 23dBm  Nov 18, 201816:36:38.08837200 7
  206  16.19499132:32:32:32:32:3 22dBm  Nov 18, 201816:36:38.10393100 7
  207  16.47504632:32:32:32:32:3 21dBm  Nov 18, 201816:36:38.38398600 7
  208  16.64697332:32:32:32:32:3 22dBm  Nov 18, 201816:36:38.55591300 7
  209  16.89711332:32:32:32:32:3 22dBm  Nov 18, 201816:36:38.80605300 7
  210  16.94913332:32:32:32:32:3 21dBm  Nov 18, 201816:36:38.85807300 7
  211  17.01525232:32:32:32:32:3 20dBm  Nov 18, 201816:36:38.92419200 7
  212  1 7.1401532:32:32:32:32:3 21dBm  Nov 18, 201816:36:39.04909000 7
  213  17.49366132:32:32:32:32:3 21dBm  Nov 18, 201816:36:39.40260100 7
  214  1 7.7090232:32:32:32:32:3 22dBm  Nov 18, 201816:36:39.61796000 7
  215  17.88117132:32:32:32:32:3 22dBm  Nov 18, 201816:36:39.79011100 7
  216  17.97674232:32:32:32:32:3 21dBm  Nov 18, 201816:36:39.88568200 7
  217  18.21355932:32:32:32:32:3 20dBm  Nov 18, 201816:36:40.12249900 7
  218  18.30339732:32:32:32:32:3 21dBm  Nov 18, 201816:36:40.21233700 7
  219  18.33502332:32:32:32:32:3 22dBm  Nov 18, 201816:36:40.24396300 7
  220  18.45198932:32:32:32:32:3 18dBm  Nov 18, 201816:36:40.36092900 7
  221  18.49993632:32:32:32:32:3 20dBm  Nov 18, 201816:36:40.40887600 7
  222  18.86505532:32:32:32:32:3 21dBm  Nov 18, 201816:36:40.77399500 7
  223  1 8.9940332:32:32:32:32:3 22dBm  Nov 18, 201816:36:40.90297000 7
  224  1 9.0448332:32:32:32:32:3 21dBm  Nov 18, 201816:36:40.95377000 7
  225  19.11015332:32:32:32:32:3 22dBm  Nov 18, 201816:36:41.01909300 7
  226  19.13037532:32:32:32:32:3 21dBm  Nov 18, 201816:36:41.03931500 7
  227  19.15409232:32:32:32:32:3 22dBm  Nov 18, 201816:36:41.06303200 7
  228  19.40245432:32:32:32:32:3 22dBm  Nov 18, 201816:36:41.31139400 7
  229  19.52275632:32:32:32:32:3 20dBm  Nov 18, 201816:36:41.43169600 7
  230  19.72472532:32:32:32:32:3 22dBm  Nov 18, 201816:36:41.63366500 7
  231  19.76522132:32:32:32:32:3 21dBm  Nov 18, 201816:36:41.67416100 7
  232  19.84358332:32:32:32:32:3 21dBm  Nov 18, 201816:36:41.75252300 7
  233  19.92827132:32:32:32:32:3 22dBm  Nov 18, 201816:36:41.83721100 7
  234  19.98547132:32:32:32:32:3 22dBm  Nov 18, 201816:36:41.89441100 7
  235  20.30322132:32:32:32:32:3 21dBm  Nov 18, 201816:36:42.21216100 7
  236  20.32161532:32:32:32:32:3 20dBm  Nov 18, 201816:36:42.23055500 7
  237  20.40043232:32:32:32:32:3 20dBm  Nov 18, 201816:36:42.30937200 7
  238  20.48942132:32:32:32:32:3 21dBm  Nov 18, 201816:36:42.39836100 7
  239  20.77212832:32:32:32:32:3 18dBm  Nov 18, 201816:36:42.68106800 7
  240  20.89998532:32:32:32:32:3 20dBm  Nov 18, 201816:36:42.80892500 7
  241  21.02279932:32:32:32:32:3 20dBm  Nov 18, 201816:36:42.93173900 7
  242  21.11016332:32:32:32:32:3 17dBm  Nov 18, 201816:36:43.01910300 7
  243  21.14165732:32:32:32:32:3 21dBm  Nov 18, 201816:36:43.05059700 7
  244  21.19344632:32:32:32:32:3 20dBm  Nov 18, 201816:36:43.10238600 7
  245  21.45671232:32:32:32:32:3 21dBm  Nov 18, 201816:36:43.36565200 7
  246  21.48379432:32:32:32:32:3 22dBm  Nov 18, 201816:36:43.39273400 7
  247  21.77096232:32:32:32:32:3 21dBm  Nov 18, 201816:36:43.67990200 7
  248  21.80009132:32:32:32:32:3 20dBm  Nov 18, 201816:36:43.70903100 7
  249  21.85875132:32:32:32:32:3 19dBm  Nov 18, 201816:36:43.76769100 7
  250  21.92660632:32:32:32:32:3 20dBm  Nov 18, 201816:36:43.83554600 7
  251  21.98886232:32:32:32:32:3 22dBm  Nov 18, 201816:36:43.89780200 7
  252  22.08375332:32:32:32:32:3 21dBm  Nov 18, 201816:36:43.99269300 7
  253  22.11813832:32:32:32:32:3 20dBm  Nov 18, 201816:36:44.02707800 7
  254  22.18222232:32:32:32:32:3 20dBm  Nov 18, 201816:36:44.09116200 7
  255  22.18487232:32:32:32:32:3 20dBm  Nov 18, 201816:36:44.09381200 7
  256  22.35726432:32:32:32:32:3 22dBm  Nov 18, 201816:36:44.26620400 7
  257  22.38371132:32:32:32:32:3 21dBm  Nov 18, 201816:36:44.29265100 7
  258  22.39074832:32:32:32:32:3 22dBm  Nov 18, 201816:36:44.29968800 7
  259  22.45480332:32:32:32:32:3 22dBm  Nov 18, 201816:36:44.36374300 7
  260  22.49543432:32:32:32:32:3 22dBm  Nov 18, 201816:36:44.40437400 7
  261  22.53564132:32:32:32:32:3 19dBm  Nov 18, 201816:36:44.44458100 7
  262  22.63386132:32:32:32:32:3 21dBm  Nov 18, 201816:36:44.54280100 7
  263  22.63891432:32:32:32:32:3 21dBm  Nov 18, 201816:36:44.54785400 7
  264  22.68655232:32:32:32:32:3 20dBm  Nov 18, 201816:36:44.59549200 7
  265  22.71872132:32:32:32:32:3 20dBm  Nov 18, 201816:36:44.62766100 7
  266  22.79776532:32:32:32:32:3 21dBm  Nov 18, 201816:36:44.70670500 7
  267  22.81119432:32:32:32:32:3 21dBm  Nov 18, 201816:36:44.72013400 7
  268  23.30834132:32:32:32:32:3 21dBm  Nov 18, 201816:36:45.21728100 7
  269  2 3.3304932:32:32:32:32:3 20dBm  Nov 18, 201816:36:45.23943000 7
  270  23.69521832:32:32:32:32:3 22dBm  Nov 18, 201816:36:45.60415800 7
  271  23.84441432:32:32:32:32:3 19dBm  Nov 18, 201816:36:45.75335400 7
  272  2 3.9284232:32:32:32:32:3 22dBm  Nov 18, 201816:36:45.83736000 7
  273  23.98204432:32:32:32:32:3 22dBm  Nov 18, 201816:36:45.89098400 7
  274  24.20847932:32:32:32:32:3 22dBm  Nov 18, 201816:36:46.11741900 7
  275  24.25157432:32:32:32:32:3 22dBm  Nov 18, 201816:36:46.16051400 7
  276  24.39936232:32:32:32:32:3 22dBm  Nov 18, 201816:36:46.30830200 7
  277  24.44171832:32:32:32:32:3 22dBm  Nov 18, 201816:36:46.35065800 7
  278  24.53330932:32:32:32:32:3 21dBm  Nov 18, 201816:36:46.44224900 7
  279  24.57238532:32:32:32:32:3 22dBm  Nov 18, 201816:36:46.48132500 7
  280  24.78916732:32:32:32:32:3 21dBm  Nov 18, 201816:36:46.69810700 7
  281  24.88789432:32:32:32:32:3 21dBm  Nov 18, 201816:36:46.79683400 7
  282  2 4.9026632:32:32:32:32:3 20dBm  Nov 18, 201816:36:46.81160000 7
  283  24.98048732:32:32:32:32:3 22dBm  Nov 18, 201816:36:46.88942700 7
  284  25.02282232:32:32:32:32:3 21dBm  Nov 18, 201816:36:46.93176200 7
  285  25.06413632:32:32:32:32:3 21dBm  Nov 18, 201816:36:46.97307600 7
  286  25.11806632:32:32:32:32:3 21dBm  Nov 18, 201816:36:47.02700600 7
  287  2 5.1654532:32:32:32:32:3 21dBm  Nov 18, 201816:36:47.07439000 7
  288  25.19151132:32:32:32:32:3 22dBm  Nov 18, 201816:36:47.10045100 7
  289  25.34314832:32:32:32:32:3 20dBm  Nov 18, 201816:36:47.25208800 7
  290  25.39165132:32:32:32:32:3 21dBm  Nov 18, 201816:36:47.30059100 7
  291  25.44491332:32:32:32:32:3 20dBm  Nov 18, 201816:36:47.35385300 7
  292  25.54050832:32:32:32:32:3 20dBm  Nov 18, 201816:36:47.44944800 7
  293  25.59016932:32:32:32:32:3 20dBm  Nov 18, 201816:36:47.49910900 7
  294  25.65609832:32:32:32:32:3 21dBm  Nov 18, 201816:36:47.56503800 7
  295  25.76640132:32:32:32:32:3 22dBm  Nov 18, 201816:36:47.67534100 7
  296  25.80670832:32:32:32:32:3 21dBm  Nov 18, 201816:36:47.71564800 7
  297  25.82841832:32:32:32:32:3 21dBm  Nov 18, 201816:36:47.73735800 7
  298  25.90467932:32:32:32:32:3 19dBm  Nov 18, 201816:36:47.81361900 7
  299  25.92365732:32:32:32:32:3 21dBm  Nov 18, 201816:36:47.83259700 7
  300  25.97138332:32:32:32:32:3 20dBm  Nov 18, 201816:36:47.88032300 7
  301  2 6.0325532:32:32:32:32:3 21dBm  Nov 18, 201816:36:47.94149000 7
  302  26.16922532:32:32:32:32:3 22dBm  Nov 18, 201816:36:48.07816500 7
  303  26.90349132:32:32:32:32:3 21dBm  Nov 18, 201816:36:48.81243100 7
  304  26.98883732:32:32:32:32:3 20dBm  Nov 18, 201816:36:48.89777700 7
  305  27.02061332:32:32:32:32:3 21dBm  Nov 18, 201816:36:48.92955300 7
  306  27.27905232:32:32:32:32:3 22dBm  Nov 18, 201816:36:49.18799200 7
  307  27.48462532:32:32:32:32:3 23dBm  Nov 18, 201816:36:49.39356500 7
  308  27.53534232:32:32:32:32:3 22dBm  Nov 18, 201816:36:49.44428200 7
  309  27.55869732:32:32:32:32:3 20dBm  Nov 18, 201816:36:49.46763700 7
  310  27.58162532:32:32:32:32:3 20dBm  Nov 18, 201816:36:49.49056500 7
  311  27.59196232:32:32:32:32:3 21dBm  Nov 18, 201816:36:49.50090200 7
  312  27.66052132:32:32:32:32:3 22dBm  Nov 18, 201816:36:49.56946100 7
  313  27.75616332:32:32:32:32:3 22dBm  Nov 18, 201816:36:49.66510300 7
  314  27.88459432:32:32:32:32:3 21dBm  Nov 18, 201816:36:49.79353400 7
  315  28.02077932:32:32:32:32:3 22dBm  Nov 18, 201816:36:49.92971900 7
  316  28.05311532:32:32:32:32:3 22dBm  Nov 18, 201816:36:49.96205500 7
  317  28.14516932:32:32:32:32:3 23dBm  Nov 18, 201816:36:50.05410900 7
  318  28.18004132:32:32:32:32:3 21dBm  Nov 18, 201816:36:50.08898100 7
  319  28.19169832:32:32:32:32:3 23dBm  Nov 18, 201816:36:50.10063800 7
  320  28.21260532:32:32:32:32:3 21dBm  Nov 18, 201816:36:50.12154500 7
  321  28.36821432:32:32:32:32:3 22dBm  Nov 18, 201816:36:50.27715400 7
  322  28.45348132:32:32:32:32:3 21dBm  Nov 18, 201816:36:50.36242100 7
  323  28.48332832:32:32:32:32:3 23dBm  Nov 18, 201816:36:50.39226800 7
  324  28.50184632:32:32:32:32:3 22dBm  Nov 18, 201816:36:50.41078600 7
  325  28.52753132:32:32:32:32:3 19dBm  Nov 18, 201816:36:50.43647100 7
  326  28.59160132:32:32:32:32:3 22dBm  Nov 18, 201816:36:50.50054100 7
  327  28.61552632:32:32:32:32:3 22dBm  Nov 18, 201816:36:50.52446600 7
  328  28.70702732:32:32:32:32:3 23dBm  Nov 18, 201816:36:50.61596700 7
  329  28.81479932:32:32:32:32:3 23dBm  Nov 18, 201816:36:50.72373900 7
  330  29.01743132:32:32:32:32:3 20dBm  Nov 18, 201816:36:50.92637100 7
  331  29.10242932:32:32:32:32:3 21dBm  Nov 18, 201816:36:51.01136900 7
  332  29.14499732:32:32:32:32:3 22dBm  Nov 18, 201816:36:51.05393700 7
  333  29.16342132:32:32:32:32:3 22dBm  Nov 18, 201816:36:51.07236100 7
  334  29.19215232:32:32:32:32:3 22dBm  Nov 18, 201816:36:51.10109200 7
  335  29.30125932:32:32:32:32:3 19dBm  Nov 18, 201816:36:51.21019900 7
  336  29.60536832:32:32:32:32:3 22dBm  Nov 18, 201816:36:51.51430800 7
  337  29.71320832:32:32:32:32:3 22dBm  Nov 18, 201816:36:51.62214800 7
  338  29.81332932:32:32:32:32:3 22dBm  Nov 18, 201816:36:51.72226900 7
  339  30.01869932:32:32:32:32:3 22dBm  Nov 18, 201816:36:51.92763900 7
  340  30.06365632:32:32:32:32:3 22dBm  Nov 18, 201816:36:51.97259600 7
  341  3 0.1734232:32:32:32:32:3 23dBm  Nov 18, 201816:36:52.08236000 7
  342  30.33667832:32:32:32:32:3 22dBm  Nov 18, 201816:36:52.24561800 7
  343  30.51463132:32:32:32:32:3 22dBm  Nov 18, 201816:36:52.42357100 7
  344  30.60690232:32:32:32:32:3 21dBm  Nov 18, 201816:36:52.51584200 7
  345  3 0.6334332:32:32:32:32:3 22dBm  Nov 18, 201816:36:52.54237000 7
  346  30.65820232:32:32:32:32:3 22dBm  Nov 18, 201816:36:52.56714200 7
  347  30.73812232:32:32:32:32:3 23dBm  Nov 18, 201816:36:52.64706200 7
  348  30.77530132:32:32:32:32:3 22dBm  Nov 18, 201816:36:52.68424100 7
  349  30.96949432:32:32:32:32:3 22dBm  Nov 18, 201816:36:52.87843400 7
  350  31.02945532:32:32:32:32:3 18dBm  Nov 18, 201816:36:52.93839500 7
  351  31.04839132:32:32:32:32:3 21dBm  Nov 18, 201816:36:52.95733100 7
  352  31.11665432:32:32:32:32:3 22dBm  Nov 18, 201816:36:53.02559400 7
  353  31.40831332:32:32:32:32:3 22dBm  Nov 18, 201816:36:53.31725300 7
  354  31.73177732:32:32:32:32:3 21dBm  Nov 18, 201816:36:53.64071700 7
  355  31.83987532:32:32:32:32:3 22dBm  Nov 18, 201816:36:53.74881500 7
  356  31.91910732:32:32:32:32:3 20dBm  Nov 18, 201816:36:53.82804700 7
  357  31.95113532:32:32:32:32:3 21dBm  Nov 18, 201816:36:53.86007500 7
  358  32.04625732:32:32:32:32:3 21dBm  Nov 18, 201816:36:53.95519700 7
  359  3 2.0676232:32:32:32:32:3 21dBm  Nov 18, 201816:36:53.97656000 7
  360  32.08794132:32:32:32:32:3 21dBm  Nov 18, 201816:36:53.99688100 7
  361  32.10185432:32:32:32:32:3 22dBm  Nov 18, 201816:36:54.01079400 7
  362  32.27894432:32:32:32:32:3 21dBm  Nov 18, 201816:36:54.18788400 7
  363  3 2.5759632:32:32:32:32:3 21dBm  Nov 18, 201816:36:54.48490000 7
  364  32.80037732:32:32:32:32:3 22dBm  Nov 18, 201816:36:54.70931700 7
  365  33.05705432:32:32:32:32:3 20dBm  Nov 18, 201816:36:54.96599400 7
  366  33.21509232:32:32:32:32:3 21dBm  Nov 18, 201816:36:55.12403200 7
  367  33.33281832:32:32:32:32:3 22dBm  Nov 18, 201816:36:55.24175800 7
  368  33.38346332:32:32:32:32:3 21dBm  Nov 18, 201816:36:55.29240300 7
  369  33.41154932:32:32:32:32:3 22dBm  Nov 18, 201816:36:55.32048900 7
  370  33.46686732:32:32:32:32:3 21dBm  Nov 18, 201816:36:55.37580700 7
  371  33.52655932:32:32:32:32:3 21dBm  Nov 18, 201816:36:55.43549900 7
  372  33.63361132:32:32:32:32:3 21dBm  Nov 18, 201816:36:55.54255100 7
  373  33.63691232:32:32:32:32:3 20dBm  Nov 18, 201816:36:55.54585200 7
  374  33.65351232:32:32:32:32:3 20dBm  Nov 18, 201816:36:55.56245200 7
  375  33.68988832:32:32:32:32:3 19dBm  Nov 18, 201816:36:55.59882800 7
  376  33.82983732:32:32:32:32:3 18dBm  Nov 18, 201816:36:55.73877700 7
  377  33.89408332:32:32:32:32:3 21dBm  Nov 18, 201816:36:55.80302300 7
  378  33.98159832:32:32:32:32:3 22dBm  Nov 18, 201816:36:55.89053800 7
  379  34.03007132:32:32:32:32:3 21dBm  Nov 18, 201816:36:55.93901100 7
  380  34.17862132:32:32:32:32:3 22dBm  Nov 18, 201816:36:56.08756100 7
  381  34.30831532:32:32:32:32:3 21dBm  Nov 18, 201816:36:56.21725500 7
  382  34.34159832:32:32:32:32:3 22dBm  Nov 18, 201816:36:56.25053800 7
  383  34.37213632:32:32:32:32:3 22dBm  Nov 18, 201816:36:56.28107600 7
  384  34.67066532:32:32:32:32:3 22dBm  Nov 18, 201816:36:56.57960500 7
  385  34.73926732:32:32:32:32:3 21dBm  Nov 18, 201816:36:56.64820700 7
  386  34.75563632:32:32:32:32:3 22dBm  Nov 18, 201816:36:56.66457600 7
  387  34.78150632:32:32:32:32:3 21dBm  Nov 18, 201816:36:56.69044600 7
  388  34.82747632:32:32:32:32:3 24dBm  Nov 18, 201816:36:56.73641600 7
  389  3 4.8818432:32:32:32:32:3 23dBm  Nov 18, 201816:36:56.79078000 7
  390  34.98387232:32:32:32:32:3 22dBm  Nov 18, 201816:36:56.89281200 7
  391  35.14814732:32:32:32:32:3 21dBm  Nov 18, 201816:36:57.05708700 7
  392  35.16915732:32:32:32:32:3 21dBm  Nov 18, 201816:36:57.07809700 7
  393  35.22871332:32:32:32:32:3 22dBm  Nov 18, 201816:36:57.13765300 7
  394  35.37928832:32:32:32:32:3 20dBm  Nov 18, 201816:36:57.28822800 7
  395  35.39868532:32:32:32:32:3 21dBm  Nov 18, 201816:36:57.30762500 7
  396  35.61698932:32:32:32:32:3 20dBm  Nov 18, 201816:36:57.52592900 7
  397  35.73984532:32:32:32:32:3 19dBm  Nov 18, 201816:36:57.64878500 7
  398  35.82660932:32:32:32:32:3 22dBm  Nov 18, 201816:36:57.73554900 7
  399  36.14290132:32:32:32:32:3 21dBm  Nov 18, 201816:36:58.05184100 7
  400  36.18933432:32:32:32:32:3 21dBm  Nov 18, 201816:36:58.09827400 7
  401  36.21927232:32:32:32:32:3 20dBm  Nov 18, 201816:36:58.12821200 7
  402  36.25793732:32:32:32:32:3 20dBm  Nov 18, 201816:36:58.16687700 7
  403  36.30916232:32:32:32:32:3 21dBm  Nov 18, 201816:36:58.21810200 7
  404  36.33729232:32:32:32:32:3 22dBm  Nov 18, 201816:36:58.24623200 7
  405  36.38786332:32:32:32:32:3 21dBm  Nov 18, 201816:36:58.29680300 7
  406  36.65644532:32:32:32:32:3 20dBm  Nov 18, 201816:36:58.56538500 7
  407  36.78188432:32:32:32:32:3 22dBm  Nov 18, 201816:36:58.69082400 7
  408  36.85219232:32:32:32:32:3 20dBm  Nov 18, 201816:36:58.76113200 7
  409  36.89641532:32:32:32:32:3 23dBm  Nov 18, 201816:36:58.80535500 7
  410  36.91977632:32:32:32:32:3 19dBm  Nov 18, 201816:36:58.82871600 7
  411  37.18173632:32:32:32:32:3 22dBm  Nov 18, 201816:36:59.09067600 7
  412  37.22185432:32:32:32:32:3 21dBm  Nov 18, 201816:36:59.13079400 7
  413  37.34496932:32:32:32:32:3 22dBm  Nov 18, 201816:36:59.25390900 7
  414  37.40519432:32:32:32:32:3 21dBm  Nov 18, 201816:36:59.31413400 7
  415  37.42312632:32:32:32:32:3 20dBm  Nov 18, 201816:36:59.33206600 7
  416  37.45599532:32:32:32:32:3 23dBm  Nov 18, 201816:36:59.36493500 7
  417  3 7.4771732:32:32:32:32:3 23dBm  Nov 18, 201816:36:59.38611000 7
  418  37.53289132:32:32:32:32:3 22dBm  Nov 18, 201816:36:59.44183100 7
  419  37.68025632:32:32:32:32:3 22dBm  Nov 18, 201816:36:59.58919600 7
  420  3 7.7355732:32:32:32:32:3 18dBm  Nov 18, 201816:36:59.64451000 7
  421  37.78976332:32:32:32:32:3 22dBm  Nov 18, 201816:36:59.69870300 7
  422  38.40336832:32:32:32:32:3 23dBm  Nov 18, 201816:37:00.31230800 7
  423  38.62414232:32:32:32:32:3 22dBm  Nov 18, 201816:37:00.53308200 7
  424  38.91991232:32:32:32:32:3 22dBm  Nov 18, 201816:37:00.82885200 7
  425  39.05100932:32:32:32:32:3 19dBm  Nov 18, 201816:37:00.95994900 7
  426  39.20075732:32:32:32:32:3 21dBm  Nov 18, 201816:37:01.10969700 7
  427  39.21965232:32:32:32:32:3 23dBm  Nov 18, 201816:37:01.12859200 7
  428  39.26903432:32:32:32:32:3 21dBm  Nov 18, 201816:37:01.17797400 7
  429  39.33501332:32:32:32:32:3 20dBm  Nov 18, 201816:37:01.24395300 7
  430  39.41698632:32:32:32:32:3 22dBm  Nov 18, 201816:37:01.32592600 7
  431  39.45859732:32:32:32:32:3 22dBm  Nov 18, 201816:37:01.36753700 7
  432  39.76295532:32:32:32:32:3 22dBm  Nov 18, 201816:37:01.67189500 7
  433  39.95169732:32:32:32:32:3 22dBm  Nov 18, 201816:37:01.86063700 7
  434  39.97893932:32:32:32:32:3 23dBm  Nov 18, 201816:37:01.88787900 7
  435  39.99991432:32:32:32:32:3 22dBm  Nov 18, 201816:37:01.90885400 7
  436  40.02056332:32:32:32:32:3 23dBm  Nov 18, 201816:37:01.92950300 7
  437  40.14189232:32:32:32:32:3 22dBm  Nov 18, 201816:37:02.05083200 7
  438  40.17987932:32:32:32:32:3 21dBm  Nov 18, 201816:37:02.08881900 7
  439  40.20983232:32:32:32:32:3 21dBm  Nov 18, 201816:37:02.11877200 7
  440  40.32902632:32:32:32:32:3 22dBm  Nov 18, 201816:37:02.23796600 7
  441  40.54282632:32:32:32:32:3 20dBm  Nov 18, 201816:37:02.45176600 7
  442  40.57970932:32:32:32:32:3 24dBm  Nov 18, 201816:37:02.48864900 7
  443  40.63769832:32:32:32:32:3 23dBm  Nov 18, 201816:37:02.54663800 7
  444  40.65975932:32:32:32:32:3 22dBm  Nov 18, 201816:37:02.56869900 7
  445  40.67499832:32:32:32:32:3 22dBm  Nov 18, 201816:37:02.58393800 7
  446  40.77451432:32:32:32:32:3 21dBm  Nov 18, 201816:37:02.68345400 7
  447  40.80916432:32:32:32:32:3 21dBm  Nov 18, 201816:37:02.71810400 7
  448  4  0.872532:32:32:32:32:3 21dBm  Nov 18, 201816:37:02.78144000 7
  449  40.92034132:32:32:32:32:3 22dBm  Nov 18, 201816:37:02.82928100 7
  450  40.92627732:32:32:32:32:3 22dBm  Nov 18, 201816:37:02.83521700 7
  451  40.94610932:32:32:32:32:3 22dBm  Nov 18, 201816:37:02.85504900 7
  452  41.04564332:32:32:32:32:3 21dBm  Nov 18, 201816:37:02.95458300 7
  453  41.07426732:32:32:32:32:3 22dBm  Nov 18, 201816:37:02.98320700 7
  454  41.17160432:32:32:32:32:3 22dBm  Nov 18, 201816:37:03.08054400 7
  455  41.23939332:32:32:32:32:3 21dBm  Nov 18, 201816:37:03.14833300 7
  456  41.33668232:32:32:32:32:3 23dBm  Nov 18, 201816:37:03.24562200 7
  457  41.36117532:32:32:32:32:3 21dBm  Nov 18, 201816:37:03.27011500 7
  458  4 1.4696532:32:32:32:32:3 18dBm  Nov 18, 201816:37:03.37859000 7
  459  41.52106832:32:32:32:32:3 22dBm  Nov 18, 201816:37:03.43000800 7
  460  41.57599732:32:32:32:32:3 21dBm  Nov 18, 201816:37:03.48493700 7
  461  41.66726532:32:32:32:32:3 22dBm  Nov 18, 201816:37:03.57620500 7
  462  41.71881232:32:32:32:32:3 22dBm  Nov 18, 201816:37:03.62775200 7
  463  41.74591932:32:32:32:32:3 22dBm  Nov 18, 201816:37:03.65485900 7
  464  41.77649232:32:32:32:32:3 23dBm  Nov 18, 201816:37:03.68543200 7
  465  41.82277932:32:32:32:32:3 21dBm  Nov 18, 201816:37:03.73171900 7
  466  41.91659332:32:32:32:32:3 23dBm  Nov 18, 201816:37:03.82553300 7
  467  41.98250632:32:32:32:32:3 20dBm  Nov 18, 201816:37:03.89144600 7
  468  41.99589632:32:32:32:32:3 21dBm  Nov 18, 201816:37:03.90483600 7
  469  4 2.2499532:32:32:32:32:3 21dBm  Nov 18, 201816:37:04.15889000 7
  470  42.28642632:32:32:32:32:3 22dBm  Nov 18, 201816:37:04.19536600 7
  471  42.39335632:32:32:32:32:3 21dBm  Nov 18, 201816:37:04.30229600 7
  472  42.43160932:32:32:32:32:3 23dBm  Nov 18, 201816:37:04.34054900 7
  473  4 2.5222832:32:32:32:32:3 22dBm  Nov 18, 201816:37:04.43122000 7
  474  42.69404732:32:32:32:32:3 23dBm  Nov 18, 201816:37:04.60298700 7
  475  42.72269732:32:32:32:32:3 22dBm  Nov 18, 201816:37:04.63163700 7
  476  42.77470932:32:32:32:32:3 22dBm  Nov 18, 201816:37:04.68364900 7
  477  42.89171532:32:32:32:32:3 22dBm  Nov 18, 201816:37:04.80065500 7
  478  42.97427732:32:32:32:32:3 23dBm  Nov 18, 201816:37:04.88321700 7
  479  43.04076832:32:32:32:32:3 21dBm  Nov 18, 201816:37:04.94970800 7
  480  43.15416432:32:32:32:32:3 21dBm  Nov 18, 201816:37:05.06310400 7
  481  43.16739932:32:32:32:32:3 23dBm  Nov 18, 201816:37:05.07633900 7
  482  4 3.2670332:32:32:32:32:3 21dBm  Nov 18, 201816:37:05.17597000 7
  483  43.41049232:32:32:32:32:3 21dBm  Nov 18, 201816:37:05.31943200 7
  484  43.52957432:32:32:32:32:3 20dBm  Nov 18, 201816:37:05.43851400 7
  485  4 3.6475132:32:32:32:32:3 20dBm  Nov 18, 201816:37:05.55645000 7
  486  43.84632332:32:32:32:32:3 19dBm  Nov 18, 201816:37:05.75526300 7
  487  43.96426232:32:32:32:32:3 22dBm  Nov 18, 201816:37:05.87320200 7
  488  44.07111132:32:32:32:32:3 19dBm  Nov 18, 201816:37:05.98005100 7
  489  44.09832932:32:32:32:32:3 22dBm  Nov 18, 201816:37:06.00726900 7
  490  44.11000932:32:32:32:32:3 22dBm  Nov 18, 201816:37:06.01894900 7
  491  44.11134432:32:32:32:32:3 22dBm  Nov 18, 201816:37:06.02028400 7
  492  44.35330432:32:32:32:32:3 21dBm  Nov 18, 201816:37:06.26224400 7
  493  44.37354332:32:32:32:32:3 22dBm  Nov 18, 201816:37:06.28248300 7
  494  44.40270832:32:32:32:32:3 20dBm  Nov 18, 201816:37:06.31164800 7
  495  44.41647632:32:32:32:32:3 20dBm  Nov 18, 201816:37:06.32541600 7
  496  44.56956432:32:32:32:32:3 21dBm  Nov 18, 201816:37:06.47850400 7
  497  44.69400532:32:32:32:32:3 21dBm  Nov 18, 201816:37:06.60294500 7
  498  44.97094332:32:32:32:32:3 22dBm  Nov 18, 201816:37:06.87988300 7
  499  45.05905632:32:32:32:32:3 21dBm  Nov 18, 201816:37:06.96799600 7
  500  45.09172132:32:32:32:32:3 20dBm  Nov 18, 201816:37:07.00066100 7
  501  45.13878632:32:32:32:32:3 21dBm  Nov 18, 201816:37:07.04772600 7
  502  45.17456132:32:32:32:32:3 21dBm  Nov 18, 201816:37:07.08350100 7
  503  45.23785632:32:32:32:32:3 22dBm  Nov 18, 201816:37:07.14679600 7
  504  45.33025932:32:32:32:32:3 20dBm  Nov 18, 201816:37:07.23919900 7
  505  45.49949132:32:32:32:32:3 22dBm  Nov 18, 201816:37:07.40843100 7
  506  45.52101732:32:32:32:32:3 20dBm  Nov 18, 201816:37:07.42995700 7
  507  45.55261432:32:32:32:32:3 20dBm  Nov 18, 201816:37:07.46155400 7
  508  45.74436532:32:32:32:32:3 21dBm  Nov 18, 201816:37:07.65330500 7
  509  46.01023432:32:32:32:32:3 20dBm  Nov 18, 201816:37:07.91917400 7
  510  46.19484632:32:32:32:32:3 19dBm  Nov 18, 201816:37:08.10378600 7
  511  46.30997132:32:32:32:32:3 20dBm  Nov 18, 201816:37:08.21891100 7
  512  46.56533632:32:32:32:32:3 21dBm  Nov 18, 201816:37:08.47427600 7
  513  46.58588932:32:32:32:32:3 21dBm  Nov 18, 201816:37:08.49482900 7
  514  46.62039332:32:32:32:32:3 21dBm  Nov 18, 201816:37:08.52933300 7
  515  46.64491132:32:32:32:32:3 21dBm  Nov 18, 201816:37:08.55385100 7
  516  46.95176432:32:32:32:32:3 19dBm  Nov 18, 201816:37:08.86070400 7
  517  47.01880532:32:32:32:32:3 20dBm  Nov 18, 201816:37:08.92774500 7
  518  47.03539132:32:32:32:32:3 22dBm  Nov 18, 201816:37:08.94433100 7
  519  47.09510432:32:32:32:32:3 21dBm  Nov 18, 201816:37:09.00404400 7
  520  47.13708832:32:32:32:32:3 21dBm  Nov 18, 201816:37:09.04602800 7
  521  47.31028432:32:32:32:32:3 21dBm  Nov 18, 201816:37:09.21922400 7
  522  47.44853632:32:32:32:32:3 22dBm  Nov 18, 201816:37:09.35747600 7
  523  47.51145632:32:32:32:32:3 21dBm  Nov 18, 201816:37:09.42039600 7
  524  47.72504632:32:32:32:32:3 22dBm  Nov 18, 201816:37:09.63398600 7
  525  4 7.9236532:32:32:32:32:3 21dBm  Nov 18, 201816:37:09.83259000 7
  526  47.94862532:32:32:32:32:3 21dBm  Nov 18, 201816:37:09.85756500 7
  527  47.97581632:32:32:32:32:3 22dBm  Nov 18, 201816:37:09.88475600 7
  528  47.99048632:32:32:32:32:3 22dBm  Nov 18, 201816:37:09.89942600 7
  529  47.99246232:32:32:32:32:3 20dBm  Nov 18, 201816:37:09.90140200 7
  530  48.04713432:32:32:32:32:3 21dBm  Nov 18, 201816:37:09.95607400 7
  531  48.06543832:32:32:32:32:3 22dBm  Nov 18, 201816:37:09.97437800 7
  532  48.20102832:32:32:32:32:3 21dBm  Nov 18, 201816:37:10.10996800 7
  533  48.23146432:32:32:32:32:3 22dBm  Nov 18, 201816:37:10.14040400 7
  534  48.45458432:32:32:32:32:3 21dBm  Nov 18, 201816:37:10.36352400 7
  535  48.58739332:32:32:32:32:3 22dBm  Nov 18, 201816:37:10.49633300 7
  536  48.87864532:32:32:32:32:3 22dBm  Nov 18, 201816:37:10.78758500 7
  537  48.94271732:32:32:32:32:3 22dBm  Nov 18, 201816:37:10.85165700 7
  538  48.94461432:32:32:32:32:3 21dBm  Nov 18, 201816:37:10.85355400 7
  539  49.16780332:32:32:32:32:3 22dBm  Nov 18, 201816:37:11.07674300 7
  540  49.21773532:32:32:32:32:3 21dBm  Nov 18, 201816:37:11.12667500 7
  541  49.39898832:32:32:32:32:3 21dBm  Nov 18, 201816:37:11.30792800 7
  542  49.59234132:32:32:32:32:3 21dBm  Nov 18, 201816:37:11.50128100 7
  543  49.65651932:32:32:32:32:3 23dBm  Nov 18, 201816:37:11.56545900 7
  544  49.66846932:32:32:32:32:3 24dBm  Nov 18, 201816:37:11.57740900 7
  545  4 9.6993732:32:32:32:32:3 21dBm  Nov 18, 201816:37:11.60831000 7
  546  49.81105132:32:32:32:32:3 23dBm  Nov 18, 201816:37:11.71999100 7
  547  49.89294132:32:32:32:32:3 22dBm  Nov 18, 201816:37:11.80188100 7
  548  50.04920832:32:32:32:32:3 22dBm  Nov 18, 201816:37:11.95814800 7
  549  50.33270832:32:32:32:32:3 21dBm  Nov 18, 201816:37:12.24164800 7
  550  50.39303132:32:32:32:32:3 20dBm  Nov 18, 201816:37:12.30197100 7
  551  5 0.4535432:32:32:32:32:3 22dBm  Nov 18, 201816:37:12.36248000 7
  552  50.54759132:32:32:32:32:3 22dBm  Nov 18, 201816:37:12.45653100 7
  553  50.63208532:32:32:32:32:3 22dBm  Nov 18, 201816:37:12.54102500 7
  554  50.64955932:32:32:32:32:3 21dBm  Nov 18, 201816:37:12.55849900 7
  555  50.69567332:32:32:32:32:3 20dBm  Nov 18, 201816:37:12.60461300 7
  556  5 0.7497332:32:32:32:32:3 21dBm  Nov 18, 201816:37:12.65867000 7
  557  50.79198632:32:32:32:32:3 21dBm  Nov 18, 201816:37:12.70092600 7
  558  50.83027132:32:32:32:32:3 22dBm  Nov 18, 201816:37:12.73921100 7
  559  50.83988432:32:32:32:32:3 21dBm  Nov 18, 201816:37:12.74882400 7
  560  50.85616832:32:32:32:32:3 21dBm  Nov 18, 201816:37:12.76510800 7
  561  51.01592632:32:32:32:32:3 22dBm  Nov 18, 201816:37:12.92486600 7
  562  51.17404632:32:32:32:32:3 20dBm  Nov 18, 201816:37:13.08298600 7
  563  51.29589232:32:32:32:32:3 22dBm  Nov 18, 201816:37:13.20483200 7
  564  51.31687132:32:32:32:32:3 22dBm  Nov 18, 201816:37:13.22581100 7
  565  51.45989832:32:32:32:32:3 21dBm  Nov 18, 201816:37:13.36883800 7
  566  51.49283432:32:32:32:32:3 20dBm  Nov 18, 201816:37:13.40177400 7
  567  51.65171632:32:32:32:32:3 22dBm  Nov 18, 201816:37:13.56065600 7
  568  51.73767132:32:32:32:32:3 21dBm  Nov 18, 201816:37:13.64661100 7
  569  51.88633432:32:32:32:32:3 21dBm  Nov 18, 201816:37:13.79527400 7
  570  52.30081132:32:32:32:32:3 20dBm  Nov 18, 201816:37:14.20975100 7
  571  52.33761332:32:32:32:32:3 21dBm  Nov 18, 201816:37:14.24655300 7
  572  52.41100232:32:32:32:32:3 21dBm  Nov 18, 201816:37:14.31994200 7
  573  52.44887532:32:32:32:32:3 20dBm  Nov 18, 201816:37:14.35781500 7
  574  52.47941332:32:32:32:32:3 23dBm  Nov 18, 201816:37:14.38835300 7
  575  52.49405432:32:32:32:32:3 20dBm  Nov 18, 201816:37:14.40299400 7
  576  52.53719732:32:32:32:32:3 22dBm  Nov 18, 201816:37:14.44613700 7
  577  52.53954332:32:32:32:32:3 21dBm  Nov 18, 201816:37:14.44848300 7
  578  52.70075132:32:32:32:32:3 21dBm  Nov 18, 201816:37:14.60969100 7
  579  5 2.7393932:32:32:32:32:3 21dBm  Nov 18, 201816:37:14.64833000 7
  580  52.81968732:32:32:32:32:3 22dBm  Nov 18, 201816:37:14.72862700 7
  581  52.85185432:32:32:32:32:3 20dBm  Nov 18, 201816:37:14.76079400 7
  582  5 2.9562632:32:32:32:32:3 22dBm  Nov 18, 201816:37:14.86520000 7
  583  53.01002732:32:32:32:32:3 21dBm  Nov 18, 201816:37:14.91896700 7
  584  53.04951632:32:32:32:32:3 20dBm  Nov 18, 201816:37:14.95845600 7
  585  53.28134832:32:32:32:32:3 21dBm  Nov 18, 201816:37:15.19028800 7
  586  53.31442132:32:32:32:32:3 20dBm  Nov 18, 201816:37:15.22336100 7
  587  53.37494232:32:32:32:32:3 22dBm  Nov 18, 201816:37:15.28388200 7
  588  53.39252632:32:32:32:32:3 22dBm  Nov 18, 201816:37:15.30146600 7
  589  53.45383732:32:32:32:32:3 22dBm  Nov 18, 201816:37:15.36277700 7
  590  53.52795632:32:32:32:32:3 21dBm  Nov 18, 201816:37:15.43689600 7
  591  53.57036832:32:32:32:32:3 21dBm  Nov 18, 201816:37:15.47930800 7
  592  53.77221332:32:32:32:32:3 21dBm  Nov 18, 201816:37:15.68115300 7
  593  53.90110232:32:32:32:32:3 22dBm  Nov 18, 201816:37:15.81004200 7
  594  53.94190832:32:32:32:32:3 23dBm  Nov 18, 201816:37:15.85084800 7
  595  54.14680332:32:32:32:32:3 19dBm  Nov 18, 201816:37:16.05574300 7
  596  54.31960232:32:32:32:32:3 22dBm  Nov 18, 201816:37:16.22854200 7
  597  54.38172232:32:32:32:32:3 22dBm  Nov 18, 201816:37:16.29066200 7
  598  54.43038532:32:32:32:32:3 21dBm  Nov 18, 201816:37:16.33932500 7
  599  54.50340132:32:32:32:32:3 22dBm  Nov 18, 201816:37:16.41234100 7
  600  54.71920832:32:32:32:32:3 22dBm  Nov 18, 201816:37:16.62814800 7
  601  54.80897332:32:32:32:32:3 22dBm  Nov 18, 201816:37:16.71791300 7
  602  54.81625132:32:32:32:32:3 21dBm  Nov 18, 201816:37:16.72519100 7
  603  55.04653332:32:32:32:32:3 21dBm  Nov 18, 201816:37:16.95547300 7
  604  55.32985932:32:32:32:32:3 18dBm  Nov 18, 201816:37:17.23879900 7
  605  55.58771532:32:32:32:32:3 20dBm  Nov 18, 201816:37:17.49665500 7
  606  55.61501432:32:32:32:32:3 21dBm  Nov 18, 201816:37:17.52395400 7
  607  55.77925132:32:32:32:32:3 21dBm  Nov 18, 201816:37:17.68819100 7
  608  55.84340332:32:32:32:32:3 22dBm  Nov 18, 201816:37:17.75234300 7
  609  55.97814932:32:32:32:32:3 22dBm  Nov 18, 201816:37:17.88708900 7
  610  56.00854332:32:32:32:32:3 21dBm  Nov 18, 201816:37:17.91748300 7
  611  56.10338932:32:32:32:32:3 23dBm  Nov 18, 201816:37:18.01232900 7
  612  56.18309132:32:32:32:32:3 22dBm  Nov 18, 201816:37:18.09203100 7
  613  5 6.4001832:32:32:32:32:3 22dBm  Nov 18, 201816:37:18.30912000 7
  614  56.51096732:32:32:32:32:3 22dBm  Nov 18, 201816:37:18.41990700 7
  615  56.59199932:32:32:32:32:3 20dBm  Nov 18, 201816:37:18.50093900 7
  616  56.60326132:32:32:32:32:3 23dBm  Nov 18, 201816:37:18.51220100 7
  617  56.73709732:32:32:32:32:3 21dBm  Nov 18, 201816:37:18.64603700 7
  618  56.76077632:32:32:32:32:3 21dBm  Nov 18, 201816:37:18.66971600 7
  619  56.84872732:32:32:32:32:3 20dBm  Nov 18, 201816:37:18.75766700 7
  620  57.11720832:32:32:32:32:3 22dBm  Nov 18, 201816:37:19.02614800 7
  621  5 7.2278832:32:32:32:32:3 22dBm  Nov 18, 201816:37:19.13682000 7
  622  57.53825432:32:32:32:32:3 20dBm  Nov 18, 201816:37:19.44719400 7
  623  57.66648232:32:32:32:32:3 20dBm  Nov 18, 201816:37:19.57542200 7
  624  57.92862832:32:32:32:32:3 23dBm  Nov 18, 201816:37:19.83756800 7
  625  58.09912732:32:32:32:32:3 19dBm  Nov 18, 201816:37:20.00806700 7
  626  58.36983632:32:32:32:32:3 22dBm  Nov 18, 201816:37:20.27877600 7
  627  58.44882432:32:32:32:32:3 23dBm  Nov 18, 201816:37:20.35776400 7
  628  58.49498232:32:32:32:32:3 20dBm  Nov 18, 201816:37:20.40392200 7
  629  5 8.6203432:32:32:32:32:3 21dBm  Nov 18, 201816:37:20.52928000 7
  630  58.73373732:32:32:32:32:3 19dBm  Nov 18, 201816:37:20.64267700 7
  631  58.75424332:32:32:32:32:3 22dBm  Nov 18, 201816:37:20.66318300 7
  632  58.87800832:32:32:32:32:3 21dBm  Nov 18, 201816:37:20.78694800 7
  633  59.01331932:32:32:32:32:3 20dBm  Nov 18, 201816:37:20.92225900 7
  634  59.24729932:32:32:32:32:3 20dBm  Nov 18, 201816:37:21.15623900 7
  635  59.43086432:32:32:32:32:3 21dBm  Nov 18, 201816:37:21.33980400 7
  636  5 9.5950332:32:32:32:32:3 22dBm  Nov 18, 201816:37:21.50397000 7
  637  59.62992232:32:32:32:32:3 20dBm  Nov 18, 201816:37:21.53886200 7
  638  59.69699132:32:32:32:32:3 22dBm  Nov 18, 201816:37:21.60593100 7
  639  59.73825832:32:32:32:32:3 21dBm  Nov 18, 201816:37:21.64719800 7
  640  59.80168832:32:32:32:32:3 22dBm  Nov 18, 201816:37:21.71062800 7
  641  59.83525132:32:32:32:32:3 22dBm  Nov 18, 201816:37:21.74419100 7
  642  5 9.8965332:32:32:32:32:3 20dBm  Nov 18, 201816:37:21.80547000 7
  643  60.05753932:32:32:32:32:3 20dBm  Nov 18, 201816:37:21.96647900 7
  644  60.15370132:32:32:32:32:3 21dBm  Nov 18, 201816:37:22.06264100 7
  645  60.45788732:32:32:32:32:3 21dBm  Nov 18, 201816:37:22.36682700 7
  646  60.48365532:32:32:32:32:3 22dBm  Nov 18, 201816:37:22.39259500 7
  647  60.60560132:32:32:32:32:3 20dBm  Nov 18, 201816:37:22.51454100 7
  648  60.68228632:32:32:32:32:3 21dBm  Nov 18, 201816:37:22.59122600 7
  649  6 0.7067432:32:32:32:32:3 22dBm  Nov 18, 201816:37:22.61568000 7
  650  60.72231532:32:32:32:32:3 21dBm  Nov 18, 201816:37:22.63125500 7
  651  60.81803832:32:32:32:32:3 23dBm  Nov 18, 201816:37:22.72697800 7
  652  60.82497232:32:32:32:32:3 22dBm  Nov 18, 201816:37:22.73391200 7
  653  60.84140132:32:32:32:32:3 22dBm  Nov 18, 201816:37:22.75034100 7
  654  60.93608832:32:32:32:32:3 21dBm  Nov 18, 201816:37:22.84502800 7
  655  61.05330332:32:32:32:32:3 22dBm  Nov 18, 201816:37:22.96224300 7
  656  6 1.2339632:32:32:32:32:3 21dBm  Nov 18, 201816:37:23.14290000 7
  657  61.29981132:32:32:32:32:3 20dBm  Nov 18, 201816:37:23.20875100 7
  658  61.47260532:32:32:32:32:3 21dBm  Nov 18, 201816:37:23.38154500 7
  659  61.50497432:32:32:32:32:3 22dBm  Nov 18, 201816:37:23.41391400 7
  660  6 1.5234432:32:32:32:32:3 20dBm  Nov 18, 201816:37:23.43238000 7
  661  61.63392132:32:32:32:32:3 22dBm  Nov 18, 201816:37:23.54286100 7
  662  62.00734932:32:32:32:32:3 22dBm  Nov 18, 201816:37:23.91628900 7
  663  62.25700432:32:32:32:32:3 20dBm  Nov 18, 201816:37:24.16594400 7
  664  62.39562532:32:32:32:32:3 20dBm  Nov 18, 201816:37:24.30456500 7
  665  62.43334832:32:32:32:32:3 22dBm  Nov 18, 201816:37:24.34228800 7
  666  62.57268332:32:32:32:32:3 21dBm  Nov 18, 201816:37:24.48162300 7
  667  62.57893632:32:32:32:32:3 19dBm  Nov 18, 201816:37:24.48787600 7
  668  62.78890832:32:32:32:32:3 21dBm  Nov 18, 201816:37:24.69784800 7
  669  62.81416632:32:32:32:32:3 22dBm  Nov 18, 201816:37:24.72310600 7
  670  62.86693432:32:32:32:32:3 21dBm  Nov 18, 201816:37:24.77587400 7
  671  62.97437832:32:32:32:32:3 23dBm  Nov 18, 201816:37:24.88331800 7
  672  63.00917732:32:32:32:32:3 21dBm  Nov 18, 201816:37:24.91811700 7
  673  63.04894932:32:32:32:32:3 18dBm  Nov 18, 201816:37:24.95788900 7
  674  63.07021232:32:32:32:32:3 19dBm  Nov 18, 201816:37:24.97915200 7
  675  6 3.6804132:32:32:32:32:3 20dBm  Nov 18, 201816:37:25.58935000 7
  676  63.77750632:32:32:32:32:3 22dBm  Nov 18, 201816:37:25.68644600 7
  677  6  3.794532:32:32:32:32:3 21dBm  Nov 18, 201816:37:25.70344000 7
  678  63.82326332:32:32:32:32:3 22dBm  Nov 18, 201816:37:25.73220300 7
  679  63.94219532:32:32:32:32:3 20dBm  Nov 18, 201816:37:25.85113500 7
  680  63.98312132:32:32:32:32:3 22dBm  Nov 18, 201816:37:25.89206100 7
  681  64.17578332:32:32:32:32:3 22dBm  Nov 18, 201816:37:26.08472300 7
  682  64.20256732:32:32:32:32:3 22dBm  Nov 18, 201816:37:26.11150700 7
  683  64.21854732:32:32:32:32:3 23dBm  Nov 18, 201816:37:26.12748700 7
  684  6 4.4880132:32:32:32:32:3 22dBm  Nov 18, 201816:37:26.39695000 7
  685  6 4.5877932:32:32:32:32:3 20dBm  Nov 18, 201816:37:26.49673000 7
  686  6  4.681932:32:32:32:32:3 23dBm  Nov 18, 201816:37:26.59084000 7
  687  64.70835132:32:32:32:32:3 22dBm  Nov 18, 201816:37:26.61729100 7
  688  64.93489132:32:32:32:32:3 21dBm  Nov 18, 201816:37:26.84383100 7
  689  65.03675932:32:32:32:32:3 23dBm  Nov 18, 201816:37:26.94569900 7
  690  65.22606232:32:32:32:32:3 22dBm  Nov 18, 201816:37:27.13500200 7
  691  65.23421232:32:32:32:32:3 23dBm  Nov 18, 201816:37:27.14315200 7
  692  65.37576732:32:32:32:32:3 23dBm  Nov 18, 201816:37:27.28470700 7
  693  65.41950232:32:32:32:32:3 23dBm  Nov 18, 201816:37:27.32844200 7
  694  65.51768332:32:32:32:32:3 22dBm  Nov 18, 201816:37:27.42662300 7
  695  65.55309632:32:32:32:32:3 22dBm  Nov 18, 201816:37:27.46203600 7
  696  65.57190332:32:32:32:32:3 22dBm  Nov 18, 201816:37:27.48084300 7
  697  65.59853732:32:32:32:32:3 20dBm  Nov 18, 201816:37:27.50747700 7
  698  65.64091232:32:32:32:32:3 21dBm  Nov 18, 201816:37:27.54985200 7
  699  65.90025432:32:32:32:32:3 23dBm  Nov 18, 201816:37:27.80919400 7
  700  66.16652232:32:32:32:32:3 22dBm  Nov 18, 201816:37:28.07546200 7
  701  66.22927832:32:32:32:32:3 22dBm  Nov 18, 201816:37:28.13821800 7
  702  66.24631432:32:32:32:32:3 23dBm  Nov 18, 201816:37:28.15525400 7
  703  66.43987132:32:32:32:32:3 22dBm  Nov 18, 201816:37:28.34881100 7
  704  66.57275832:32:32:32:32:3 21dBm  Nov 18, 201816:37:28.48169800 7
  705  6  6.639132:32:32:32:32:3 21dBm  Nov 18, 201816:37:28.54804000 7
  706  66.78703832:32:32:32:32:3 22dBm  Nov 18, 201816:37:28.69597800 7
  707  66.82250332:32:32:32:32:3 22dBm  Nov 18, 201816:37:28.73144300 7
  708  67.01817932:32:32:32:32:3 21dBm  Nov 18, 201816:37:28.92711900 7
  709  67.16928732:32:32:32:32:3 21dBm  Nov 18, 201816:37:29.07822700 7
  710  67.22815232:32:32:32:32:3 18dBm  Nov 18, 201816:37:29.13709200 7
  711  67.24905732:32:32:32:32:3 22dBm  Nov 18, 201816:37:29.15799700 7
  712  67.42692432:32:32:32:32:3 21dBm  Nov 18, 201816:37:29.33586400 7
  713  67.53520732:32:32:32:32:3 21dBm  Nov 18, 201816:37:29.44414700 7
  714  67.54775632:32:32:32:32:3 22dBm  Nov 18, 201816:37:29.45669600 7
  715  67.55811132:32:32:32:32:3 22dBm  Nov 18, 201816:37:29.46705100 7
  716  67.59016932:32:32:32:32:3 20dBm  Nov 18, 201816:37:29.49910900 7
  717  6 7.7499432:32:32:32:32:3 20dBm  Nov 18, 201816:37:29.65888000 7
  718  68.01099932:32:32:32:32:3 21dBm  Nov 18, 201816:37:29.91993900 7
  719  68.19470932:32:32:32:32:3 21dBm  Nov 18, 201816:37:30.10364900 7
  720  68.24564232:32:32:32:32:3 22dBm  Nov 18, 201816:37:30.15458200 7
  721  68.29242132:32:32:32:32:3 21dBm  Nov 18, 201816:37:30.20136100 7
  722  68.34644732:32:32:32:32:3 20dBm  Nov 18, 201816:37:30.25538700 7
  723  68.49977332:32:32:32:32:3 19dBm  Nov 18, 201816:37:30.40871300 7
  724  68.66361632:32:32:32:32:3 21dBm  Nov 18, 201816:37:30.57255600 7
  725  68.71322532:32:32:32:32:3 22dBm  Nov 18, 201816:37:30.62216500 7
  726  68.75384832:32:32:32:32:3 19dBm  Nov 18, 201816:37:30.66278800 7
  727  68.75593232:32:32:32:32:3 23dBm  Nov 18, 201816:37:30.66487200 7
  728  69.00310632:32:32:32:32:3 21dBm  Nov 18, 201816:37:30.91204600 7
  729  69.05049832:32:32:32:32:3 21dBm  Nov 18, 201816:37:30.95943800 7
  730  6 9.2090932:32:32:32:32:3 20dBm  Nov 18, 201816:37:31.11803000 7
  731  69.26101132:32:32:32:32:3 23dBm  Nov 18, 201816:37:31.16995100 7
  732  69.28877532:32:32:32:32:3 19dBm  Nov 18, 201816:37:31.19771500 7
  733  6 9.4237832:32:32:32:32:3 23dBm  Nov 18, 201816:37:31.33272000 7
  734  69.48736132:32:32:32:32:3 22dBm  Nov 18, 201816:37:31.39630100 7
  735  69.64547232:32:32:32:32:3 22dBm  Nov 18, 201816:37:31.55441200 7
  736  69.91031232:32:32:32:32:3 22dBm  Nov 18, 201816:37:31.81925200 7
  737  69.93252132:32:32:32:32:3 23dBm  Nov 18, 201816:37:31.84146100 7
  738  69.95926832:32:32:32:32:3 23dBm  Nov 18, 201816:37:31.86820800 7
  739  70.02378432:32:32:32:32:3 22dBm  Nov 18, 201816:37:31.93272400 7
  740  70.18545332:32:32:32:32:3 22dBm  Nov 18, 201816:37:32.09439300 7
  741  70.23745532:32:32:32:32:3 21dBm  Nov 18, 201816:37:32.14639500 7
  742  70.36060432:32:32:32:32:3 23dBm  Nov 18, 201816:37:32.26954400 7
  743  70.48223632:32:32:32:32:3 23dBm  Nov 18, 201816:37:32.39117600 7
  744  70.52539232:32:32:32:32:3 22dBm  Nov 18, 201816:37:32.43433200 7
  745  70.53900832:32:32:32:32:3 20dBm  Nov 18, 201816:37:32.44794800 7
  746  70.63366132:32:32:32:32:3 21dBm  Nov 18, 201816:37:32.54260100 7
  747  7 0.8023932:32:32:32:32:3 21dBm  Nov 18, 201816:37:32.71133000 7
  748  70.83718832:32:32:32:32:3 22dBm  Nov 18, 201816:37:32.74612800 7
  749  70.90253732:32:32:32:32:3 22dBm  Nov 18, 201816:37:32.81147700 7
  750  70.99564332:32:32:32:32:3 23dBm  Nov 18, 201816:37:32.90458300 7
  751  71.10454532:32:32:32:32:3 22dBm  Nov 18, 201816:37:33.01348500 7
  752  71.14601932:32:32:32:32:3 23dBm  Nov 18, 201816:37:33.05495900 7
  753  71.23543332:32:32:32:32:3 22dBm  Nov 18, 201816:37:33.14437300 7
  754  71.32776832:32:32:32:32:3 21dBm  Nov 18, 201816:37:33.23670800 7
  755  71.61714332:32:32:32:32:3 22dBm  Nov 18, 201816:37:33.52608300 7
  756  71.73165232:32:32:32:32:3 20dBm  Nov 18, 201816:37:33.64059200 7
  757  71.79182632:32:32:32:32:3 21dBm  Nov 18, 201816:37:33.70076600 7
  758  71.81370132:32:32:32:32:3 21dBm  Nov 18, 201816:37:33.72264100 7
  759  71.82796932:32:32:32:32:3 23dBm  Nov 18, 201816:37:33.73690900 7
  760  71.93612732:32:32:32:32:3 21dBm  Nov 18, 201816:37:33.84506700 7
  761  72.01361232:32:32:32:32:3 21dBm  Nov 18, 201816:37:33.92255200 7
  762  72.03015532:32:32:32:32:3 20dBm  Nov 18, 201816:37:33.93909500 7
  763  72.19689232:32:32:32:32:3 21dBm  Nov 18, 201816:37:34.10583200 7
  764  72.21046632:32:32:32:32:3 21dBm  Nov 18, 201816:37:34.11940600 7
  765  72.31183232:32:32:32:32:3 21dBm  Nov 18, 201816:37:34.22077200 7
  766  72.37864632:32:32:32:32:3 20dBm  Nov 18, 201816:37:34.28758600 7
  767  72.51504832:32:32:32:32:3 20dBm  Nov 18, 201816:37:34.42398800 7
  768  72.54435932:32:32:32:32:3 18dBm  Nov 18, 201816:37:34.45329900 7
  769  72.58472632:32:32:32:32:3 20dBm  Nov 18, 201816:37:34.49366600 7
  770  72.60034932:32:32:32:32:3 21dBm  Nov 18, 201816:37:34.50928900 7
  771  72.62821932:32:32:32:32:3 20dBm  Nov 18, 201816:37:34.53715900 7
  772  72.79355732:32:32:32:32:3 22dBm  Nov 18, 201816:37:34.70249700 7
  773  72.85759332:32:32:32:32:3 20dBm  Nov 18, 201816:37:34.76653300 7
  774  72.87388132:32:32:32:32:3 19dBm  Nov 18, 201816:37:34.78282100 7
  775  72.88079532:32:32:32:32:3 20dBm  Nov 18, 201816:37:34.78973500 7
  776  72.90972132:32:32:32:32:3 20dBm  Nov 18, 201816:37:34.81866100 7
  777  73.11144432:32:32:32:32:3 19dBm  Nov 18, 201816:37:35.02038400 7
  778  73.27816632:32:32:32:32:3 20dBm  Nov 18, 201816:37:35.18710600 7
  779  73.36564732:32:32:32:32:3 21dBm  Nov 18, 201816:37:35.27458700 7
  780  73.53911132:32:32:32:32:3 22dBm  Nov 18, 201816:37:35.44805100 7
  781  73.58739732:32:32:32:32:3 17dBm  Nov 18, 201816:37:35.49633700 7
  782  7 3.8069232:32:32:32:32:3 19dBm  Nov 18, 201816:37:35.71586000 7
  783  73.83485832:32:32:32:32:3 21dBm  Nov 18, 201816:37:35.74379800 7
  784  7 4.0793532:32:32:32:32:3 20dBm  Nov 18, 201816:37:35.98829000 7
  785  74.09725232:32:32:32:32:3 21dBm  Nov 18, 201816:37:36.00619200 7
  786  74.30719132:32:32:32:32:3 21dBm  Nov 18, 201816:37:36.21613100 7
  787  74.48018232:32:32:32:32:3 21dBm  Nov 18, 201816:37:36.38912200 7
  788  74.67990932:32:32:32:32:3 20dBm  Nov 18, 201816:37:36.58884900 7
  789  74.74344132:32:32:32:32:3 22dBm  Nov 18, 201816:37:36.65238100 7
  790  74.89817132:32:32:32:32:3 22dBm  Nov 18, 201816:37:36.80711100 7
  791  74.94555432:32:32:32:32:3 19dBm  Nov 18, 201816:37:36.85449400 7
  792  75.42880932:32:32:32:32:3 22dBm  Nov 18, 201816:37:37.33774900 7
  793  75.45784232:32:32:32:32:3 22dBm  Nov 18, 201816:37:37.36678200 7
  794  75.50449932:32:32:32:32:3 23dBm  Nov 18, 201816:37:37.41343900 7
  795  75.55806732:32:32:32:32:3 23dBm  Nov 18, 201816:37:37.46700700 7
  796  75.64393132:32:32:32:32:3 18dBm  Nov 18, 201816:37:37.55287100 7
  797  75.74779432:32:32:32:32:3 22dBm  Nov 18, 201816:37:37.65673400 7
  798  75.88958832:32:32:32:32:3 23dBm  Nov 18, 201816:37:37.79852800 7
  799  75.93847132:32:32:32:32:3 20dBm  Nov 18, 201816:37:37.84741100 7
  800  75.94502432:32:32:32:32:3 20dBm  Nov 18, 201816:37:37.85396400 7
  801  75.97571432:32:32:32:32:3 21dBm  Nov 18, 201816:37:37.88465400 7
  802  75.99375832:32:32:32:32:3 21dBm  Nov 18, 201816:37:37.90269800 7
  803  76.45901532:32:32:32:32:3 21dBm  Nov 18, 201816:37:38.36795500 7
  804  7 6.5698632:32:32:32:32:3 22dBm  Nov 18, 201816:37:38.47880000 7
  805  7 6.6475732:32:32:32:32:3 22dBm  Nov 18, 201816:37:38.55651000 7
  806  76.65961132:32:32:32:32:3 22dBm  Nov 18, 201816:37:38.56855100 7
  807  76.75896632:32:32:32:32:3 22dBm  Nov 18, 201816:37:38.66790600 7
  808  77.02990232:32:32:32:32:3 21dBm  Nov 18, 201816:37:38.93884200 7
  809  77.20550332:32:32:32:32:3 23dBm  Nov 18, 201816:37:39.11444300 7
  810  77.42794732:32:32:32:32:3 23dBm  Nov 18, 201816:37:39.33688700 7
  811  7  7.606632:32:32:32:32:3 22dBm  Nov 18, 201816:37:39.51554000 7
  812  77.73679332:32:32:32:32:3 20dBm  Nov 18, 201816:37:39.64573300 7
  813  77.77755532:32:32:32:32:3 21dBm  Nov 18, 201816:37:39.68649500 7
  814  77.85174832:32:32:32:32:3 22dBm  Nov 18, 201816:37:39.76068800 7
  815  77.93816732:32:32:32:32:3 21dBm  Nov 18, 201816:37:39.84710700 7
  816  78.00192632:32:32:32:32:3 20dBm  Nov 18, 201816:37:39.91086600 7
  817  78.11471732:32:32:32:32:3 21dBm  Nov 18, 201816:37:40.02365700 7
  818  78.37545532:32:32:32:32:3 18dBm  Nov 18, 201816:37:40.28439500 7
  819  78.40344332:32:32:32:32:3 20dBm  Nov 18, 201816:37:40.31238300 7
  820  78.72817132:32:32:32:32:3 22dBm  Nov 18, 201816:37:40.63711100 7
  821  78.78717832:32:32:32:32:3 22dBm  Nov 18, 201816:37:40.69611800 7
  822  79.11580632:32:32:32:32:3 21dBm  Nov 18, 201816:37:41.02474600 7
  823  79.19331432:32:32:32:32:3 20dBm  Nov 18, 201816:37:41.10225400 7
  824  79.21824632:32:32:32:32:3 22dBm  Nov 18, 201816:37:41.12718600 7
  825  79.30426132:32:32:32:32:3 19dBm  Nov 18, 201816:37:41.21320100 7
  826  79.38050432:32:32:32:32:3 20dBm  Nov 18, 201816:37:41.28944400 7
  827  79.40845532:32:32:32:32:3 21dBm  Nov 18, 201816:37:41.31739500 7
  828  79.48385732:32:32:32:32:3 20dBm  Nov 18, 201816:37:41.39279700 7
  829  79.53330832:32:32:32:32:3 21dBm  Nov 18, 201816:37:41.44224800 7
  830  79.56443532:32:32:32:32:3 22dBm  Nov 18, 201816:37:41.47337500 7
  831  79.61930632:32:32:32:32:3 19dBm  Nov 18, 201816:37:41.52824600 7
  832  79.66569332:32:32:32:32:3 21dBm  Nov 18, 201816:37:41.57463300 7
  833  79.68839832:32:32:32:32:3 22dBm  Nov 18, 201816:37:41.59733800 7
  834  79.70336732:32:32:32:32:3 20dBm  Nov 18, 201816:37:41.61230700 7
  835  79.72492432:32:32:32:32:3 18dBm  Nov 18, 201816:37:41.63386400 7
  836  79.73693332:32:32:32:32:3 20dBm  Nov 18, 201816:37:41.64587300 7
  837  79.76028432:32:32:32:32:3 20dBm  Nov 18, 201816:37:41.66922400 7
  838  79.77267132:32:32:32:32:3 18dBm  Nov 18, 201816:37:41.68161100 7
  839  79.88213532:32:32:32:32:3 21dBm  Nov 18, 201816:37:41.79107500 7
  840  80.01134132:32:32:32:32:3 22dBm  Nov 18, 201816:37:41.92028100 7
  841  80.06031332:32:32:32:32:3 19dBm  Nov 18, 201816:37:41.96925300 7
  842  80.22831532:32:32:32:32:3 21dBm  Nov 18, 201816:37:42.13725500 7
  843  80.28530732:32:32:32:32:3 20dBm  Nov 18, 201816:37:42.19424700 7
  844  80.34833532:32:32:32:32:3 21dBm  Nov 18, 201816:37:42.25727500 7
  845  80.63319132:32:32:32:32:3 23dBm  Nov 18, 201816:37:42.54213100 7
  846  80.66402732:32:32:32:32:3 21dBm  Nov 18, 201816:37:42.57296700 7
  847  80.66667332:32:32:32:32:3 22dBm  Nov 18, 201816:37:42.57561300 7
  848  80.75134732:32:32:32:32:3 19dBm  Nov 18, 201816:37:42.66028700 7
  849  80.80695332:32:32:32:32:3 21dBm  Nov 18, 201816:37:42.71589300 7
  850  80.82492232:32:32:32:32:3 21dBm  Nov 18, 201816:37:42.73386200 7
  851  80.85717932:32:32:32:32:3 21dBm  Nov 18, 201816:37:42.76611900 7
  852  80.88819532:32:32:32:32:3 19dBm  Nov 18, 201816:37:42.79713500 7
  853  81.00000532:32:32:32:32:3 20dBm  Nov 18, 201816:37:42.90894500 7
  854  8 1.0551132:32:32:32:32:3 20dBm  Nov 18, 201816:37:42.96405000 7
  855  81.13334432:32:32:32:32:3 22dBm  Nov 18, 201816:37:43.04228400 7
  856  81.19464832:32:32:32:32:3 20dBm  Nov 18, 201816:37:43.10358800 7
  857  81.22930532:32:32:32:32:3 20dBm  Nov 18, 201816:37:43.13824500 7
  858  81.29118332:32:32:32:32:3 21dBm  Nov 18, 201816:37:43.20012300 7
  859  81.32155932:32:32:32:32:3 21dBm  Nov 18, 201816:37:43.23049900 7
  860  81.35894932:32:32:32:32:3 20dBm  Nov 18, 201816:37:43.26788900 7
  861  81.42722632:32:32:32:32:3 20dBm  Nov 18, 201816:37:43.33616600 7
  862  81.50594632:32:32:32:32:3 22dBm  Nov 18, 201816:37:43.41488600 7
  863  81.55174532:32:32:32:32:3 20dBm  Nov 18, 201816:37:43.46068500 7
  864  81.60233532:32:32:32:32:3 21dBm  Nov 18, 201816:37:43.51127500 7
  865  81.72513432:32:32:32:32:3 20dBm  Nov 18, 201816:37:43.63407400 7
  866  8  1.764932:32:32:32:32:3 20dBm  Nov 18, 201816:37:43.67384000 7
  867  82.04975232:32:32:32:32:3 21dBm  Nov 18, 201816:37:43.95869200 7
  868  82.06778432:32:32:32:32:3 22dBm  Nov 18, 201816:37:43.97672400 7
  869  82.10211732:32:32:32:32:3 22dBm  Nov 18, 201816:37:44.01105700 7
  870  82.25580932:32:32:32:32:3 22dBm  Nov 18, 201816:37:44.16474900 7
  871  82.27889932:32:32:32:32:3 19dBm  Nov 18, 201816:37:44.18783900 7
  872  82.43213132:32:32:32:32:3 21dBm  Nov 18, 201816:37:44.34107100 7
  873  82.54073232:32:32:32:32:3 21dBm  Nov 18, 201816:37:44.44967200 7
  874  82.55790232:32:32:32:32:3 20dBm  Nov 18, 201816:37:44.46684200 7
  875  8  2.631332:32:32:32:32:3 18dBm  Nov 18, 201816:37:44.54024000 7
  876  82.75246432:32:32:32:32:3 21dBm  Nov 18, 201816:37:44.66140400 7
  877  82.89034832:32:32:32:32:3 20dBm  Nov 18, 201816:37:44.79928800 7
  878  82.92774332:32:32:32:32:3 21dBm  Nov 18, 201816:37:44.83668300 7
  879  82.95504632:32:32:32:32:3 20dBm  Nov 18, 201816:37:44.86398600 7
  880  83.05000132:32:32:32:32:3 20dBm  Nov 18, 201816:37:44.95894100 7
  881  83.23241332:32:32:32:32:3 21dBm  Nov 18, 201816:37:45.14135300 7
  882  83.44322632:32:32:32:32:3 19dBm  Nov 18, 201816:37:45.35216600 7
  883  8 3.5072232:32:32:32:32:3 20dBm  Nov 18, 201816:37:45.41616000 7
  884  83.70330432:32:32:32:32:3 21dBm  Nov 18, 201816:37:45.61224400 7
  885  83.72525632:32:32:32:32:3 20dBm  Nov 18, 201816:37:45.63419600 7
  886  84.09504832:32:32:32:32:3 22dBm  Nov 18, 201816:37:46.00398800 7
  887  84.13489632:32:32:32:32:3 21dBm  Nov 18, 201816:37:46.04383600 7
  888  84.20321732:32:32:32:32:3 18dBm  Nov 18, 201816:37:46.11215700 7
  889  84.43416132:32:32:32:32:3 22dBm  Nov 18, 201816:37:46.34310100 7
  890  84.51798432:32:32:32:32:3 20dBm  Nov 18, 201816:37:46.42692400 7
  891  84.72542232:32:32:32:32:3 20dBm  Nov 18, 201816:37:46.63436200 7
  892  84.89800432:32:32:32:32:3 21dBm  Nov 18, 201816:37:46.80694400 7
  893  84.94529532:32:32:32:32:3 21dBm  Nov 18, 201816:37:46.85423500 7
  894  85.04169632:32:32:32:32:3 21dBm  Nov 18, 201816:37:46.95063600 7
  895  8 5.0734932:32:32:32:32:3 21dBm  Nov 18, 201816:37:46.98243000 7
  896  85.16046332:32:32:32:32:3 22dBm  Nov 18, 201816:37:47.06940300 7
  897  8 5.1999232:32:32:32:32:3 20dBm  Nov 18, 201816:37:47.10886000 7
  898  85.33189232:32:32:32:32:3 18dBm  Nov 18, 201816:37:47.24083200 7
  899  85.45650632:32:32:32:32:3 21dBm  Nov 18, 201816:37:47.36544600 7
  900  85.51581932:32:32:32:32:3 19dBm  Nov 18, 201816:37:47.42475900 7
  901  85.56036732:32:32:32:32:3 21dBm  Nov 18, 201816:37:47.46930700 7
  902  85.60177732:32:32:32:32:3 22dBm  Nov 18, 201816:37:47.51071700 7
  903  85.66995332:32:32:32:32:3 20dBm  Nov 18, 201816:37:47.57889300 7
  904  85.73391432:32:32:32:32:3 21dBm  Nov 18, 201816:37:47.64285400 7
  905  85.91556432:32:32:32:32:3 21dBm  Nov 18, 201816:37:47.82450400 7
  906  86.15332332:32:32:32:32:3 21dBm  Nov 18, 201816:37:48.06226300 7
  907  86.18908532:32:32:32:32:3 23dBm  Nov 18, 201816:37:48.09802500 7
  908  86.20351732:32:32:32:32:3 22dBm  Nov 18, 201816:37:48.11245700 7
  909  8 6.2656532:32:32:32:32:3 21dBm  Nov 18, 201816:37:48.17459000 7
  910  86.34059532:32:32:32:32:3 22dBm  Nov 18, 201816:37:48.24953500 7
  911  86.53887632:32:32:32:32:3 22dBm  Nov 18, 201816:37:48.44781600 7
  912  86.58995632:32:32:32:32:3 21dBm  Nov 18, 201816:37:48.49889600 7
  913  86.75052832:32:32:32:32:3 21dBm  Nov 18, 201816:37:48.65946800 7
  914  86.77220532:32:32:32:32:3 22dBm  Nov 18, 201816:37:48.68114500 7
  915  86.77907832:32:32:32:32:3 20dBm  Nov 18, 201816:37:48.68801800 7
  916  86.86168532:32:32:32:32:3 20dBm  Nov 18, 201816:37:48.77062500 7
  917  8 6.9077132:32:32:32:32:3 21dBm  Nov 18, 201816:37:48.81665000 7
  918  87.10520532:32:32:32:32:3 21dBm  Nov 18, 201816:37:49.01414500 7
  919  8 7.1900132:32:32:32:32:3 20dBm  Nov 18, 201816:37:49.09895000 7
  920  87.27930432:32:32:32:32:3 22dBm  Nov 18, 201816:37:49.18824400 7
  921  8 7.3197332:32:32:32:32:3 22dBm  Nov 18, 201816:37:49.22867000 7
  922  87.43911532:32:32:32:32:3 21dBm  Nov 18, 201816:37:49.34805500 7
  923  87.51600932:32:32:32:32:3 20dBm  Nov 18, 201816:37:49.42494900 7
  924  87.57785732:32:32:32:32:3 19dBm  Nov 18, 201816:37:49.48679700 7
  925  87.59003632:32:32:32:32:3 22dBm  Nov 18, 201816:37:49.49897600 7
  926  87.61524832:32:32:32:32:3 22dBm  Nov 18, 201816:37:49.52418800 7
  927  87.62912432:32:32:32:32:3 20dBm  Nov 18, 201816:37:49.53806400 7
  928  87.68531332:32:32:32:32:3 21dBm  Nov 18, 201816:37:49.59425300 7
  929  87.82670832:32:32:32:32:3 23dBm  Nov 18, 201816:37:49.73564800 7
  930  87.84742732:32:32:32:32:3 20dBm  Nov 18, 201816:37:49.75636700 7
  931  87.95691932:32:32:32:32:3 21dBm  Nov 18, 201816:37:49.86585900 7
  932  88.07119132:32:32:32:32:3 21dBm  Nov 18, 201816:37:49.98013100 7
  933  88.41947632:32:32:32:32:3 20dBm  Nov 18, 201816:37:50.32841600 7
  934  88.49063932:32:32:32:32:3 22dBm  Nov 18, 201816:37:50.39957900 7
  935  88.58088832:32:32:32:32:3 21dBm  Nov 18, 201816:37:50.48982800 7
  936  88.89612832:32:32:32:32:3 20dBm  Nov 18, 201816:37:50.80506800 7
  937  88.94713232:32:32:32:32:3 21dBm  Nov 18, 201816:37:50.85607200 7
  938  89.21353632:32:32:32:32:3 22dBm  Nov 18, 201816:37:51.12247600 7
  939  89.31922332:32:32:32:32:3 21dBm  Nov 18, 201816:37:51.22816300 7
  940  89.34542732:32:32:32:32:3 21dBm  Nov 18, 201816:37:51.25436700 7
  941  89.37890532:32:32:32:32:3 22dBm  Nov 18, 201816:37:51.28784500 7
  942  89.39211332:32:32:32:32:3 21dBm  Nov 18, 201816:37:51.30105300 7
  943  89.52235632:32:32:32:32:3 21dBm  Nov 18, 201816:37:51.43129600 7
  944  89.57730732:32:32:32:32:3 19dBm  Nov 18, 201816:37:51.48624700 7
  945  89.59539932:32:32:32:32:3 21dBm  Nov 18, 201816:37:51.50433900 7
  946  89.61214132:32:32:32:32:3 23dBm  Nov 18, 201816:37:51.52108100 7
  947  89.73640332:32:32:32:32:3 22dBm  Nov 18, 201816:37:51.64534300 7
  948  89.77154932:32:32:32:32:3 20dBm  Nov 18, 201816:37:51.68048900 7
  949  89.80622632:32:32:32:32:3 21dBm  Nov 18, 201816:37:51.71516600 7
  950  89.97147932:32:32:32:32:3 20dBm  Nov 18, 201816:37:51.88041900 7
  951  89.99791932:32:32:32:32:3 21dBm  Nov 18, 201816:37:51.90685900 7
  952  90.01299532:32:32:32:32:3 19dBm  Nov 18, 201816:37:51.92193500 7
  953  90.09225432:32:32:32:32:3 20dBm  Nov 18, 201816:37:52.00119400 7
  954  90.10717732:32:32:32:32:3 21dBm  Nov 18, 201816:37:52.01611700 7
  955  90.11988232:32:32:32:32:3 22dBm  Nov 18, 201816:37:52.02882200 7
  956  90.16387332:32:32:32:32:3 20dBm  Nov 18, 201816:37:52.07281300 7
  957  90.40935332:32:32:32:32:3 22dBm  Nov 18, 201816:37:52.31829300 7
  958  90.44228632:32:32:32:32:3 19dBm  Nov 18, 201816:37:52.35122600 7
  959  90.45389832:32:32:32:32:3 21dBm  Nov 18, 201816:37:52.36283800 7
  960  90.71931332:32:32:32:32:3 21dBm  Nov 18, 201816:37:52.62825300 7
  961  90.75760432:32:32:32:32:3 20dBm  Nov 18, 201816:37:52.66654400 7
  962  90.83699932:32:32:32:32:3 21dBm  Nov 18, 201816:37:52.74593900 7
  963  90.91937332:32:32:32:32:3 23dBm  Nov 18, 201816:37:52.82831300 7
  964  90.96366532:32:32:32:32:3 20dBm  Nov 18, 201816:37:52.87260500 7
  965  90.97945932:32:32:32:32:3 21dBm  Nov 18, 201816:37:52.88839900 7
  966  91.32162132:32:32:32:32:3 21dBm  Nov 18, 201816:37:53.23056100 7
  967  91.37225732:32:32:32:32:3 21dBm  Nov 18, 201816:37:53.28119700 7
  968  91.38370532:32:32:32:32:3 22dBm  Nov 18, 201816:37:53.29264500 7
  969  91.52567432:32:32:32:32:3 20dBm  Nov 18, 201816:37:53.43461400 7
  970  91.57515132:32:32:32:32:3 21dBm  Nov 18, 201816:37:53.48409100 7
  971  91.60132832:32:32:32:32:3 21dBm  Nov 18, 201816:37:53.51026800 7
  972  91.64597932:32:32:32:32:3 20dBm  Nov 18, 201816:37:53.55491900 7
  973  91.66598532:32:32:32:32:3 20dBm  Nov 18, 201816:37:53.57492500 7
  974  91.70593232:32:32:32:32:3 21dBm  Nov 18, 201816:37:53.61487200 7
  975  92.01417932:32:32:32:32:3 21dBm  Nov 18, 201816:37:53.92311900 7
  976  92.15963832:32:32:32:32:3 20dBm  Nov 18, 201816:37:54.06857800 7
  977  92.22316232:32:32:32:32:3 22dBm  Nov 18, 201816:37:54.13210200 7
  978  92.28166432:32:32:32:32:3 22dBm  Nov 18, 201816:37:54.19060400 7
  979  92.41113732:32:32:32:32:3 21dBm  Nov 18, 201816:37:54.32007700 7
  980  92.54876232:32:32:32:32:3 21dBm  Nov 18, 201816:37:54.45770200 7
  981  92.56520132:32:32:32:32:3 22dBm  Nov 18, 201816:37:54.47414100 7
  982  92.63123432:32:32:32:32:3 21dBm  Nov 18, 201816:37:54.54017400 7
  983  9 2.6483432:32:32:32:32:3 22dBm  Nov 18, 201816:37:54.55728000 7
  984  92.78528232:32:32:32:32:3 21dBm  Nov 18, 201816:37:54.69422200 7
  985  92.80921332:32:32:32:32:3 21dBm  Nov 18, 201816:37:54.71815300 7
  986  92.97309732:32:32:32:32:3 20dBm  Nov 18, 201816:37:54.88203700 7
  987  9 3.1220332:32:32:32:32:3 21dBm  Nov 18, 201816:37:55.03097000 7
  988  9 3.1628732:32:32:32:32:3 22dBm  Nov 18, 201816:37:55.07181000 7
  989  9 3.1915932:32:32:32:32:3 21dBm  Nov 18, 201816:37:55.10053000 7
  990  93.21144632:32:32:32:32:3 20dBm  Nov 18, 201816:37:55.12038600 7
  991  9 3.2268432:32:32:32:32:3 20dBm  Nov 18, 201816:37:55.13578000 7
  992  93.51963832:32:32:32:32:3 20dBm  Nov 18, 201816:37:55.42857800 7
  993  93.68844432:32:32:32:32:3 21dBm  Nov 18, 201816:37:55.59738400 7
  994  93.72492132:32:32:32:32:3 21dBm  Nov 18, 201816:37:55.63386100 7
  995  9 3.7702932:32:32:32:32:3 20dBm  Nov 18, 201816:37:55.67923000 7
  996  93.85881532:32:32:32:32:3 21dBm  Nov 18, 201816:37:55.76775500 7
  997  93.88029332:32:32:32:32:3 21dBm  Nov 18, 201816:37:55.78923300 7
  998  93.90966532:32:32:32:32:3 22dBm  Nov 18, 201816:37:55.81860500 7
  999  93.94511232:32:32:32:32:3 23dBm  Nov 18, 201816:37:55.85405200 7
 1000  94.06753932:32:32:32:32:3 21dBm  Nov 18, 201816:37:55.97647900 7
 1001  94.08848632:32:32:32:32:3 23dBm  Nov 18, 201816:37:55.99742600 7
 1002  94.41844832:32:32:32:32:3 22dBm  Nov 18, 201816:37:56.32738800 7
 1003  94.48148632:32:32:32:32:3 22dBm  Nov 18, 201816:37:56.39042600 7
 1004  94.58871532:32:32:32:32:3 20dBm  Nov 18, 201816:37:56.49765500 7
 1005  94.64378732:32:32:32:32:3 21dBm  Nov 18, 201816:37:56.55272700 7
 1006  9 4.9037232:32:32:32:32:3 22dBm  Nov 18, 201816:37:56.81266000 7
 1007  94.91848832:32:32:32:32:3 20dBm  Nov 18, 201816:37:56.82742800 7
 1008  95.08814632:32:32:32:32:3 21dBm  Nov 18, 201816:37:56.99708600 7
 1009  9 5.1615132:32:32:32:32:3 22dBm  Nov 18, 201816:37:57.07045000 7
 1010  95.17955632:32:32:32:32:3 22dBm  Nov 18, 201816:37:57.08849600 7
 1011  9 5.4326132:32:32:32:32:3 21dBm  Nov 18, 201816:37:57.34155000 7
 1012  95.52075532:32:32:32:32:3 21dBm  Nov 18, 201816:37:57.42969500 7
 1013  95.52995332:32:32:32:32:3 20dBm  Nov 18, 201816:37:57.43889300 7
 1014  95.60647632:32:32:32:32:3 21dBm  Nov 18, 201816:37:57.51541600 7
 1015  95.62114132:32:32:32:32:3 22dBm  Nov 18, 201816:37:57.53008100 7
 1016  95.72396732:32:32:32:32:3 20dBm  Nov 18, 201816:37:57.63290700 7
 1017  95.97189832:32:32:32:32:3 21dBm  Nov 18, 201816:37:57.88083800 7
 1018  96.09306732:32:32:32:32:3 22dBm  Nov 18, 201816:37:58.00200700 7
 1019  96.17460432:32:32:32:32:3 20dBm  Nov 18, 201816:37:58.08354400 7
 1020  96.35907632:32:32:32:32:3 21dBm  Nov 18, 201816:37:58.26801600 7
 1021  96.45396732:32:32:32:32:3 21dBm  Nov 18, 201816:37:58.36290700 7
 1022  9 6.5286432:32:32:32:32:3 20dBm  Nov 18, 201816:37:58.43758000 7
 1023  96.57093132:32:32:32:32:3 21dBm  Nov 18, 201816:37:58.47987100 7
 1024  96.62811332:32:32:32:32:3 21dBm  Nov 18, 201816:37:58.53705300 7
 1025  97.02067332:32:32:32:32:3 21dBm  Nov 18, 201816:37:58.92961300 7
 1026  97.34983932:32:32:32:32:3 20dBm  Nov 18, 201816:37:59.25877900 7
 1027  97.52786432:32:32:32:32:3 21dBm  Nov 18, 201816:37:59.43680400 7
 1028  97.72634332:32:32:32:32:3 18dBm  Nov 18, 201816:37:59.63528300 7
 1029  97.91330632:32:32:32:32:3 22dBm  Nov 18, 201816:37:59.82224600 7
 1030  97.94219932:32:32:32:32:3 20dBm  Nov 18, 201816:37:59.85113900 7
 1031  97.96499832:32:32:32:32:3 22dBm  Nov 18, 201816:37:59.87393800 7
 1032  98.05839332:32:32:32:32:3 21dBm  Nov 18, 201816:37:59.96733300 7
 1033  98.18988932:32:32:32:32:3 22dBm  Nov 18, 201816:38:00.09882900 7
 1034  9 8.3459432:32:32:32:32:3 22dBm  Nov 18, 201816:38:00.25488000 7
 1035  98.40613332:32:32:32:32:3 21dBm  Nov 18, 201816:38:00.31507300 7
 1036  98.44089832:32:32:32:32:3 20dBm  Nov 18, 201816:38:00.34983800 7
 1037  98.52153932:32:32:32:32:3 21dBm  Nov 18, 201816:38:00.43047900 7
 1038  98.62461632:32:32:32:32:3 21dBm  Nov 18, 201816:38:00.53355600 7
 1039  98.68901232:32:32:32:32:3 21dBm  Nov 18, 201816:38:00.59795200 7
 1040  9 8.7134432:32:32:32:32:3 22dBm  Nov 18, 201816:38:00.62238000 7
 1041  98.77452832:32:32:32:32:3 22dBm  Nov 18, 201816:38:00.68346800 7
 1042  98.82483932:32:32:32:32:3 21dBm  Nov 18, 201816:38:00.73377900 7
 1043  99.06623632:32:32:32:32:3 20dBm  Nov 18, 201816:38:00.97517600 7
 1044  99.38481732:32:32:32:32:3 22dBm  Nov 18, 201816:38:01.29375700 7
 1045  99.38715632:32:32:32:32:3 22dBm  Nov 18, 201816:38:01.29609600 7
 1046  99.40034532:32:32:32:32:3 19dBm  Nov 18, 201816:38:01.30928500 7
 1047  99.43087532:32:32:32:32:3 21dBm  Nov 18, 201816:38:01.33981500 7
 1048  99.44318232:32:32:32:32:3 22dBm  Nov 18, 201816:38:01.35212200 7
 1049  9 9.6287432:32:32:32:32:3 21dBm  Nov 18, 201816:38:01.53768000 7
 1050  99.77437132:32:32:32:32:3 22dBm  Nov 18, 201816:38:01.68331100 7
 1051  99.84574232:32:32:32:32:3 20dBm  Nov 18, 201816:38:01.75468200 7
 1052  9 9.8858432:32:32:32:32:3 20dBm  Nov 18, 201816:38:01.79478000 7
 1053 100.20081332:32:32:32:32:3 22dBm  Nov 18, 201816:38:02.10975300 7
 1054 100.22101732:32:32:32:32:3 19dBm  Nov 18, 201816:38:02.12995700 7
 1055 100.23254832:32:32:32:32:3 21dBm  Nov 18, 201816:38:02.14148800 7
 1056 100.25095632:32:32:32:32:3 20dBm  Nov 18, 201816:38:02.15989600 7
 1057 100.33336132:32:32:32:32:3 22dBm  Nov 18, 201816:38:02.24230100 7
 1058 100.35061232:32:32:32:32:3 22dBm  Nov 18, 201816:38:02.25955200 7
 1059 100.43204532:32:32:32:32:3 21dBm  Nov 18, 201816:38:02.34098500 7
 1060 100.50525832:32:32:32:32:3 20dBm  Nov 18, 201816:38:02.41419800 7
 1061 10 0.5466132:32:32:32:32:3 22dBm  Nov 18, 201816:38:02.45555000 7
 1062 100.60544132:32:32:32:32:3 22dBm  Nov 18, 201816:38:02.51438100 7
 1063 100.78553432:32:32:32:32:3 20dBm  Nov 18, 201816:38:02.69447400 7
 1064 100.83187832:32:32:32:32:3 21dBm  Nov 18, 201816:38:02.74081800 7
 1065 10 0.9710932:32:32:32:32:3 21dBm  Nov 18, 201816:38:02.88003000 7
 1066 101.20635732:32:32:32:32:3 23dBm  Nov 18, 201816:38:03.11529700 7
 1067 101.27183632:32:32:32:32:3 22dBm  Nov 18, 201816:38:03.18077600 7
 1068 101.36049732:32:32:32:32:3 19dBm  Nov 18, 201816:38:03.26943700 7
 1069 101.40480132:32:32:32:32:3 21dBm  Nov 18, 201816:38:03.31374100 7
 1070 10 1.4796832:32:32:32:32:3 21dBm  Nov 18, 201816:38:03.38862000 7
 1071 101.51180232:32:32:32:32:3 21dBm  Nov 18, 201816:38:03.42074200 7
 1072 101.58649832:32:32:32:32:3 19dBm  Nov 18, 201816:38:03.49543800 7
 1073 101.80533332:32:32:32:32:3 21dBm  Nov 18, 201816:38:03.71427300 7
 1074 101.82929532:32:32:32:32:3 22dBm  Nov 18, 201816:38:03.73823500 7
 1075 101.85278732:32:32:32:32:3 20dBm  Nov 18, 201816:38:03.76172700 7
 1076 101.87654132:32:32:32:32:3 22dBm  Nov 18, 201816:38:03.78548100 7
 1077 102.19011732:32:32:32:32:3 23dBm  Nov 18, 201816:38:04.09905700 7
 1078 102.33267232:32:32:32:32:3 21dBm  Nov 18, 201816:38:04.24161200 7
 1079 102.36801632:32:32:32:32:3 22dBm  Nov 18, 201816:38:04.27695600 7
 1080 102.38825132:32:32:32:32:3 22dBm  Nov 18, 201816:38:04.29719100 7
 1081 102.53084532:32:32:32:32:3 20dBm  Nov 18, 201816:38:04.43978500 7
 1082 102.73140332:32:32:32:32:3 21dBm  Nov 18, 201816:38:04.64034300 7
 1083 102.76487132:32:32:32:32:3 20dBm  Nov 18, 201816:38:04.67381100 7
 1084 102.78488632:32:32:32:32:3 22dBm  Nov 18, 201816:38:04.69382600 7
 1085 102.80303532:32:32:32:32:3 22dBm  Nov 18, 201816:38:04.71197500 7
 1086 102.85130232:32:32:32:32:3 19dBm  Nov 18, 201816:38:04.76024200 7
 1087 103.05717932:32:32:32:32:3 21dBm  Nov 18, 201816:38:04.96611900 7
 1088 10 3.1151732:32:32:32:32:3 20dBm  Nov 18, 201816:38:05.02411000 7
 1089 103.26836332:32:32:32:32:3 20dBm  Nov 18, 201816:38:05.17730300 7
 1090 103.31044832:32:32:32:32:3 18dBm  Nov 18, 201816:38:05.21938800 7
 1091 103.34094632:32:32:32:32:3 21dBm  Nov 18, 201816:38:05.24988600 7
 1092 103.38067832:32:32:32:32:3 21dBm  Nov 18, 201816:38:05.28961800 7
 1093 103.48226732:32:32:32:32:3 19dBm  Nov 18, 201816:38:05.39120700 7
 1094 103.50698132:32:32:32:32:3 20dBm  Nov 18, 201816:38:05.41592100 7
 1095 103.90130332:32:32:32:32:3 22dBm  Nov 18, 201816:38:05.81024300 7
 1096 104.19286232:32:32:32:32:3 18dBm  Nov 18, 201816:38:06.10180200 7
 1097 104.21754932:32:32:32:32:3 21dBm  Nov 18, 201816:38:06.12648900 7
 1098 104.24796932:32:32:32:32:3 22dBm  Nov 18, 201816:38:06.15690900 7
 1099 104.26530632:32:32:32:32:3 21dBm  Nov 18, 201816:38:06.17424600 7
 1100 104.28768832:32:32:32:32:3 21dBm  Nov 18, 201816:38:06.19662800 7
 1101 104.53282932:32:32:32:32:3 20dBm  Nov 18, 201816:38:06.44176900 7
 1102 104.58009632:32:32:32:32:3 19dBm  Nov 18, 201816:38:06.48903600 7
 1103 104.62610632:32:32:32:32:3 21dBm  Nov 18, 201816:38:06.53504600 7
 1104 104.87337232:32:32:32:32:3 22dBm  Nov 18, 201816:38:06.78231200 7
 1105 10 4.9161632:32:32:32:32:3 21dBm  Nov 18, 201816:38:06.82510000 7
 1106 105.13160332:32:32:32:32:3 19dBm  Nov 18, 201816:38:07.04054300 7
 1107 105.19626832:32:32:32:32:3 21dBm  Nov 18, 201816:38:07.10520800 7
 1108 105.21724432:32:32:32:32:3 21dBm  Nov 18, 201816:38:07.12618400 7
 1109 105.33720832:32:32:32:32:3 21dBm  Nov 18, 201816:38:07.24614800 7
 1110 105.40376632:32:32:32:32:3 20dBm  Nov 18, 201816:38:07.31270600 7
 1111 105.47438732:32:32:32:32:3 20dBm  Nov 18, 201816:38:07.38332700 7
 1112 105.53214532:32:32:32:32:3 20dBm  Nov 18, 201816:38:07.44108500 7
 1113 105.78163732:32:32:32:32:3 21dBm  Nov 18, 201816:38:07.69057700 7
 1114 105.83132232:32:32:32:32:3 21dBm  Nov 18, 201816:38:07.74026200 7
 1115 105.86388532:32:32:32:32:3 21dBm  Nov 18, 201816:38:07.77282500 7
 1116 106.04518432:32:32:32:32:3 21dBm  Nov 18, 201816:38:07.95412400 7
 1117 106.16808232:32:32:32:32:3 21dBm  Nov 18, 201816:38:08.07702200 7
 1118 106.24348332:32:32:32:32:3 22dBm  Nov 18, 201816:38:08.15242300 7
 1119 106.56169632:32:32:32:32:3 21dBm  Nov 18, 201816:38:08.47063600 7
 1120 106.77230332:32:32:32:32:3 20dBm  Nov 18, 201816:38:08.68124300 7
 1121 10 6.9573532:32:32:32:32:3 22dBm  Nov 18, 201816:38:08.86629000 7
 1122 107.04009632:32:32:32:32:3 20dBm  Nov 18, 201816:38:08.94903600 7
 1123 107.15933132:32:32:32:32:3 21dBm  Nov 18, 201816:38:09.06827100 7
 1124 107.18051232:32:32:32:32:3 19dBm  Nov 18, 201816:38:09.08945200 7
 1125 107.30276632:32:32:32:32:3 19dBm  Nov 18, 201816:38:09.21170600 7
 1126 107.35156532:32:32:32:32:3 20dBm  Nov 18, 201816:38:09.26050500 7
 1127 107.39490732:32:32:32:32:3 21dBm  Nov 18, 201816:38:09.30384700 7
 1128 107.47413432:32:32:32:32:3 21dBm  Nov 18, 201816:38:09.38307400 7
 1129 107.52059132:32:32:32:32:3 23dBm  Nov 18, 201816:38:09.42953100 7
 1130 107.57408732:32:32:32:32:3 22dBm  Nov 18, 201816:38:09.48302700 7
 1131 107.58393932:32:32:32:32:3 20dBm  Nov 18, 201816:38:09.49287900 7
 1132 107.81252532:32:32:32:32:3 21dBm  Nov 18, 201816:38:09.72146500 7
 1133 108.08330932:32:32:32:32:3 23dBm  Nov 18, 201816:38:09.99224900 7
 1134 108.16937132:32:32:32:32:3 23dBm  Nov 18, 201816:38:10.07831100 7
 1135 108.18598932:32:32:32:32:3 22dBm  Nov 18, 201816:38:10.09492900 7
 1136 108.31493632:32:32:32:32:3 22dBm  Nov 18, 201816:38:10.22387600 7
 1137 108.46647732:32:32:32:32:3 19dBm  Nov 18, 201816:38:10.37541700 7
 1138 108.55975832:32:32:32:32:3 21dBm  Nov 18, 201816:38:10.46869800 7
 1139 108.57728132:32:32:32:32:3 20dBm  Nov 18, 201816:38:10.48622100 7
 1140 108.61138232:32:32:32:32:3 21dBm  Nov 18, 201816:38:10.52032200 7
 1141 108.72307132:32:32:32:32:3 20dBm  Nov 18, 201816:38:10.63201100 7
 1142 10 8.7818632:32:32:32:32:3 21dBm  Nov 18, 201816:38:10.69080000 7
 1143 108.79608232:32:32:32:32:3 23dBm  Nov 18, 201816:38:10.70502200 7
 1144 108.84378632:32:32:32:32:3 22dBm  Nov 18, 201816:38:10.75272600 7
 1145 109.14630532:32:32:32:32:3 22dBm  Nov 18, 201816:38:11.05524500 7
 1146 109.21686732:32:32:32:32:3 20dBm  Nov 18, 201816:38:11.12580700 7
 1147 109.43039532:32:32:32:32:3 23dBm  Nov 18, 201816:38:11.33933500 7
 1148 109.47897132:32:32:32:32:3 23dBm  Nov 18, 201816:38:11.38791100 7
 1149 109.52962732:32:32:32:32:3 20dBm  Nov 18, 201816:38:11.43856700 7
 1150 109.65744132:32:32:32:32:3 23dBm  Nov 18, 201816:38:11.56638100 7
 1151 109.69733432:32:32:32:32:3 22dBm  Nov 18, 201816:38:11.60627400 7
 1152 109.73828232:32:32:32:32:3 22dBm  Nov 18, 201816:38:11.64722200 7
 1153 109.90939632:32:32:32:32:3 21dBm  Nov 18, 201816:38:11.81833600 7
 1154 110.08532832:32:32:32:32:3 21dBm  Nov 18, 201816:38:11.99426800 7
 1155 110.12011832:32:32:32:32:3 20dBm  Nov 18, 201816:38:12.02905800 7
 1156 110.25419532:32:32:32:32:3 20dBm  Nov 18, 201816:38:12.16313500 7
 1157 110.37537432:32:32:32:32:3 22dBm  Nov 18, 201816:38:12.28431400 7
 1158 110.52242432:32:32:32:32:3 22dBm  Nov 18, 201816:38:12.43136400 7
 1159 110.54428632:32:32:32:32:3 21dBm  Nov 18, 201816:38:12.45322600 7
 1160 11 0.6184132:32:32:32:32:3 21dBm  Nov 18, 201816:38:12.52735000 7
 1161 110.76152732:32:32:32:32:3 23dBm  Nov 18, 201816:38:12.67046700 7
 1162 111.03962932:32:32:32:32:3 23dBm  Nov 18, 201816:38:12.94856900 7
 1163 111.14754532:32:32:32:32:3 22dBm  Nov 18, 201816:38:13.05648500 7
 1164 111.38499332:32:32:32:32:3 23dBm  Nov 18, 201816:38:13.29393300 7
 1165 111.51744732:32:32:32:32:3 21dBm  Nov 18, 201816:38:13.42638700 7
 1166 111.55794632:32:32:32:32:3 22dBm  Nov 18, 201816:38:13.46688600 7
 1167 111.63264532:32:32:32:32:3 24dBm  Nov 18, 201816:38:13.54158500 7
 1168 111.75650932:32:32:32:32:3 23dBm  Nov 18, 201816:38:13.66544900 7
 1169 111.82510932:32:32:32:32:3 21dBm  Nov 18, 201816:38:13.73404900 7
 1170 112.13125832:32:32:32:32:3 23dBm  Nov 18, 201816:38:14.04019800 7
 1171 112.25617932:32:32:32:32:3 24dBm  Nov 18, 201816:38:14.16511900 7
 1172 112.37815632:32:32:32:32:3 21dBm  Nov 18, 201816:38:14.28709600 7
