    1   0.000000 32:32:32:32:32:32 6dBm Nov 19, 2018 22:14:48.014885000 +07
    2   0.013046 32:32:32:32:32:32 6dBm Nov 19, 2018 22:14:48.027931000 +07
    3   0.102470 32:32:32:32:32:32 6dBm Nov 19, 2018 22:14:48.117355000 +07
    4   0.412678 32:32:32:32:32:32 6dBm Nov 19, 2018 22:14:48.427563000 +07
    5   0.477301 32:32:32:32:32:32 6dBm Nov 19, 2018 22:14:48.492186000 +07
    6   0.728088 32:32:32:32:32:32 7dBm Nov 19, 2018 22:14:48.742973000 +07
    7   0.869099 32:32:32:32:32:32 7dBm Nov 19, 2018 22:14:48.883984000 +07
    8   0.946134 32:32:32:32:32:32 4dBm Nov 19, 2018 22:14:48.961019000 +07
    9   0.981125 32:32:32:32:32:32 7dBm Nov 19, 2018 22:14:48.996010000 +07
   10   1.198817 32:32:32:32:32:32 7dBm Nov 19, 2018 22:14:49.213702000 +07
   11   1.271435 32:32:32:32:32:32 5dBm Nov 19, 2018 22:14:49.286320000 +07
   12   1.395727 32:32:32:32:32:32 6dBm Nov 19, 2018 22:14:49.410612000 +07
   13   1.761911 32:32:32:32:32:32 4dBm Nov 19, 2018 22:14:49.776796000 +07
   14   2.642153 32:32:32:32:32:32 6dBm Nov 19, 2018 22:14:50.657038000 +07
   15   2.778066 32:32:32:32:32:32 5dBm Nov 19, 2018 22:14:50.792951000 +07
   16   2.803014 32:32:32:32:32:32 7dBm Nov 19, 2018 22:14:50.817899000 +07
   17   3.038698 32:32:32:32:32:32 4dBm Nov 19, 2018 22:14:51.053583000 +07
   18   3.271603 32:32:32:32:32:32 0dBm Nov 19, 2018 22:14:51.286488000 +07
   19   3.994626 32:32:32:32:32:32 5dBm Nov 19, 2018 22:14:52.009511000 +07
   20   4.104741 32:32:32:32:32:32 6dBm Nov 19, 2018 22:14:52.119626000 +07
   21   4.298614 32:32:32:32:32:32 4dBm Nov 19, 2018 22:14:52.313499000 +07
   22   5.367232 32:32:32:32:32:32 6dBm Nov 19, 2018 22:14:53.382117000 +07
   23   5.543181 32:32:32:32:32:32 5dBm Nov 19, 2018 22:14:53.558066000 +07
   24   5.635258 32:32:32:32:32:32 4dBm Nov 19, 2018 22:14:53.650143000 +07
   25   5.893625 32:32:32:32:32:32 6dBm Nov 19, 2018 22:14:53.908510000 +07
   26   6.123233 32:32:32:32:32:32 6dBm Nov 19, 2018 22:14:54.138118000 +07
   27   6.542916 32:32:32:32:32:32 5dBm Nov 19, 2018 22:14:54.557801000 +07
   28   7.003181 32:32:32:32:32:32 4dBm Nov 19, 2018 22:14:55.018066000 +07
   29   7.259247 32:32:32:32:32:32 5dBm Nov 19, 2018 22:14:55.274132000 +07
   30   7.432995 32:32:32:32:32:32 6dBm Nov 19, 2018 22:14:55.447880000 +07
   31   7.476404 32:32:32:32:32:32 7dBm Nov 19, 2018 22:14:55.491289000 +07
   32   7.499721 32:32:32:32:32:32 6dBm Nov 19, 2018 22:14:55.514606000 +07
   33   7.809943 32:32:32:32:32:32 5dBm Nov 19, 2018 22:14:55.824828000 +07
   34   8.001184 32:32:32:32:32:32 4dBm Nov 19, 2018 22:14:56.016069000 +07
   35   8.379405 32:32:32:32:32:32 6dBm Nov 19, 2018 22:14:56.394290000 +07
   36   8.664835 32:32:32:32:32:32 3dBm Nov 19, 2018 22:14:56.679720000 +07
   37   8.762384 32:32:32:32:32:32 6dBm Nov 19, 2018 22:14:56.777269000 +07
   38   8.796358 32:32:32:32:32:32 4dBm Nov 19, 2018 22:14:56.811243000 +07
   39   8.806990 32:32:32:32:32:32 7dBm Nov 19, 2018 22:14:56.821875000 +07
   40   9.161993 32:32:32:32:32:32 4dBm Nov 19, 2018 22:14:57.176878000 +07
   41   9.304320 32:32:32:32:32:32 5dBm Nov 19, 2018 22:14:57.319205000 +07
   42   9.334766 32:32:32:32:32:32 7dBm Nov 19, 2018 22:14:57.349651000 +07
   43   9.370325 32:32:32:32:32:32 2dBm Nov 19, 2018 22:14:57.385210000 +07
   44   9.495258 32:32:32:32:32:32 7dBm Nov 19, 2018 22:14:57.510143000 +07
   45   9.812570 32:32:32:32:32:32 6dBm Nov 19, 2018 22:14:57.827455000 +07
   46   9.869633 32:32:32:32:32:32 3dBm Nov 19, 2018 22:14:57.884518000 +07
   47   9.907137 32:32:32:32:32:32 6dBm Nov 19, 2018 22:14:57.922022000 +07
   48   9.921678 32:32:32:32:32:32 6dBm Nov 19, 2018 22:14:57.936563000 +07
   49   9.933890 32:32:32:32:32:32 6dBm Nov 19, 2018 22:14:57.948775000 +07
   50  10.154058 32:32:32:32:32:32 5dBm Nov 19, 2018 22:14:58.168943000 +07
   51  10.326906 32:32:32:32:32:32 6dBm Nov 19, 2018 22:14:58.341791000 +07
   52  10.489534 32:32:32:32:32:32 5dBm Nov 19, 2018 22:14:58.504419000 +07
   53  10.663602 32:32:32:32:32:32 6dBm Nov 19, 2018 22:14:58.678487000 +07
   54  10.870950 32:32:32:32:32:32 5dBm Nov 19, 2018 22:14:58.885835000 +07
   55  11.018792 32:32:32:32:32:32 6dBm Nov 19, 2018 22:14:59.033677000 +07
   56  11.317796 32:32:32:32:32:32 4dBm Nov 19, 2018 22:14:59.332681000 +07
   57  11.457696 32:32:32:32:32:32 6dBm Nov 19, 2018 22:14:59.472581000 +07
   58  11.505537 32:32:32:32:32:32 1dBm Nov 19, 2018 22:14:59.520422000 +07
   59  11.981058 32:32:32:32:32:32 6dBm Nov 19, 2018 22:14:59.995943000 +07
   60  12.110929 32:32:32:32:32:32 5dBm Nov 19, 2018 22:15:00.125814000 +07
   61  12.176072 32:32:32:32:32:32 5dBm Nov 19, 2018 22:15:00.190957000 +07
   62  12.489404 32:32:32:32:32:32 6dBm Nov 19, 2018 22:15:00.504289000 +07
   63  12.633116 32:32:32:32:32:32 5dBm Nov 19, 2018 22:15:00.648001000 +07
   64  13.089198 32:32:32:32:32:32 4dBm Nov 19, 2018 22:15:01.104083000 +07
   65  13.394972 32:32:32:32:32:32 5dBm Nov 19, 2018 22:15:01.409857000 +07
   66  13.690074 32:32:32:32:32:32 5dBm Nov 19, 2018 22:15:01.704959000 +07
   67  14.021529 32:32:32:32:32:32 6dBm Nov 19, 2018 22:15:02.036414000 +07
   68  14.202489 32:32:32:32:32:32 5dBm Nov 19, 2018 22:15:02.217374000 +07
   69  14.248518 32:32:32:32:32:32 5dBm Nov 19, 2018 22:15:02.263403000 +07
   70  14.454213 32:32:32:32:32:32 5dBm Nov 19, 2018 22:15:02.469098000 +07
   71  14.485868 32:32:32:32:32:32 4dBm Nov 19, 2018 22:15:02.500753000 +07
   72  14.562276 32:32:32:32:32:32 5dBm Nov 19, 2018 22:15:02.577161000 +07
   73  14.589568 32:32:32:32:32:32 5dBm Nov 19, 2018 22:15:02.604453000 +07
   74  14.605848 32:32:32:32:32:32 4dBm Nov 19, 2018 22:15:02.620733000 +07
   75  14.637084 32:32:32:32:32:32 5dBm Nov 19, 2018 22:15:02.651969000 +07
   76  14.918376 32:32:32:32:32:32 2dBm Nov 19, 2018 22:15:02.933261000 +07
   77  15.462680 32:32:32:32:32:32 6dBm Nov 19, 2018 22:15:03.477565000 +07
   78  17.191162 32:32:32:32:32:32 7dBm Nov 19, 2018 22:15:05.206047000 +07
   79  17.394866 32:32:32:32:32:32 5dBm Nov 19, 2018 22:15:05.409751000 +07
   80  17.413094 32:32:32:32:32:32 6dBm Nov 19, 2018 22:15:05.427979000 +07
   81  17.828334 32:32:32:32:32:32 4dBm Nov 19, 2018 22:15:05.843219000 +07
   82  17.985567 32:32:32:32:32:32 5dBm Nov 19, 2018 22:15:06.000452000 +07
   83  18.650956 32:32:32:32:32:32 4dBm Nov 19, 2018 22:15:06.665841000 +07
   84  19.456967 32:32:32:32:32:32 4dBm Nov 19, 2018 22:15:07.471852000 +07
   85  19.702294 32:32:32:32:32:32 4dBm Nov 19, 2018 22:15:07.717179000 +07
   86  20.084677 32:32:32:32:32:32 3dBm Nov 19, 2018 22:15:08.099562000 +07
   87  20.200666 32:32:32:32:32:32 5dBm Nov 19, 2018 22:15:08.215551000 +07
   88  20.218789 32:32:32:32:32:32 6dBm Nov 19, 2018 22:15:08.233674000 +07
   89  20.347928 32:32:32:32:32:32 5dBm Nov 19, 2018 22:15:08.362813000 +07
   90  20.550992 32:32:32:32:32:32 4dBm Nov 19, 2018 22:15:08.565877000 +07
   91  20.607124 32:32:32:32:32:32 5dBm Nov 19, 2018 22:15:08.622009000 +07
   92  20.685017 32:32:32:32:32:32 5dBm Nov 19, 2018 22:15:08.699902000 +07
   93  21.516541 32:32:32:32:32:32 6dBm Nov 19, 2018 22:15:09.531426000 +07
   94  21.678015 32:32:32:32:32:32 6dBm Nov 19, 2018 22:15:09.692900000 +07
   95  22.336146 32:32:32:32:32:32 3dBm Nov 19, 2018 22:15:10.351031000 +07
   96  22.393983 32:32:32:32:32:32 5dBm Nov 19, 2018 22:15:10.408868000 +07
   97  22.896372 32:32:32:32:32:32 6dBm Nov 19, 2018 22:15:10.911257000 +07
   98  23.087667 32:32:32:32:32:32 5dBm Nov 19, 2018 22:15:11.102552000 +07
   99  23.344058 32:32:32:32:32:32 5dBm Nov 19, 2018 22:15:11.358943000 +07
  100  23.496710 32:32:32:32:32:32 3dBm Nov 19, 2018 22:15:11.511595000 +07
  101  23.979693 32:32:32:32:32:32 6dBm Nov 19, 2018 22:15:11.994578000 +07
  102  24.202668 32:32:32:32:32:32 5dBm Nov 19, 2018 22:15:12.217553000 +07
  103  24.759093 32:32:32:32:32:32 5dBm Nov 19, 2018 22:15:12.773978000 +07
  104  25.011319 32:32:32:32:32:32 5dBm Nov 19, 2018 22:15:13.026204000 +07
  105  25.085313 32:32:32:32:32:32 5dBm Nov 19, 2018 22:15:13.100198000 +07
  106  25.139663 32:32:32:32:32:32 6dBm Nov 19, 2018 22:15:13.154548000 +07
  107  25.433397 32:32:32:32:32:32 4dBm Nov 19, 2018 22:15:13.448282000 +07
  108  25.479557 32:32:32:32:32:32 5dBm Nov 19, 2018 22:15:13.494442000 +07
  109  25.561304 32:32:32:32:32:32 1dBm Nov 19, 2018 22:15:13.576189000 +07
  110  25.688887 32:32:32:32:32:32 3dBm Nov 19, 2018 22:15:13.703772000 +07
  111  25.829565 32:32:32:32:32:32 6dBm Nov 19, 2018 22:15:13.844450000 +07
  112  26.226881 32:32:32:32:32:32 6dBm Nov 19, 2018 22:15:14.241766000 +07
  113  26.514072 32:32:32:32:32:32 4dBm Nov 19, 2018 22:15:14.528957000 +07
  114  26.776409 32:32:32:32:32:32 5dBm Nov 19, 2018 22:15:14.791294000 +07
  115  27.205044 32:32:32:32:32:32 6dBm Nov 19, 2018 22:15:15.219929000 +07
  116  27.831715 32:32:32:32:32:32 6dBm Nov 19, 2018 22:15:15.846600000 +07
  117  28.015097 32:32:32:32:32:32 3dBm Nov 19, 2018 22:15:16.029982000 +07
  118  28.029805 32:32:32:32:32:32 5dBm Nov 19, 2018 22:15:16.044690000 +07
  119  28.075120 32:32:32:32:32:32 4dBm Nov 19, 2018 22:15:16.090005000 +07
  120  28.468802 32:32:32:32:32:32 3dBm Nov 19, 2018 22:15:16.483687000 +07
  121  28.538624 32:32:32:32:32:32 4dBm Nov 19, 2018 22:15:16.553509000 +07
  122  28.758691 32:32:32:32:32:32 5dBm Nov 19, 2018 22:15:16.773576000 +07
  123  28.822799 32:32:32:32:32:32 6dBm Nov 19, 2018 22:15:16.837684000 +07
  124  29.274481 32:32:32:32:32:32 3dBm Nov 19, 2018 22:15:17.289366000 +07
  125  29.669460 32:32:32:32:32:32 4dBm Nov 19, 2018 22:15:17.684345000 +07
  126  29.786837 32:32:32:32:32:32 7dBm Nov 19, 2018 22:15:17.801722000 +07
  127  29.848828 32:32:32:32:32:32 4dBm Nov 19, 2018 22:15:17.863713000 +07
  128  29.951702 32:32:32:32:32:32 5dBm Nov 19, 2018 22:15:17.966587000 +07
  129  30.820983 32:32:32:32:32:32 5dBm Nov 19, 2018 22:15:18.835868000 +07
  130  31.074246 32:32:32:32:32:32 6dBm Nov 19, 2018 22:15:19.089131000 +07
  131  31.313433 32:32:32:32:32:32 4dBm Nov 19, 2018 22:15:19.328318000 +07
  132  31.327744 32:32:32:32:32:32 4dBm Nov 19, 2018 22:15:19.342629000 +07
  133  31.879320 32:32:32:32:32:32 4dBm Nov 19, 2018 22:15:19.894205000 +07
  134  32.078613 32:32:32:32:32:32 4dBm Nov 19, 2018 22:15:20.093498000 +07
  135  32.523022 32:32:32:32:32:32 5dBm Nov 19, 2018 22:15:20.537907000 +07
  136  32.555203 32:32:32:32:32:32 5dBm Nov 19, 2018 22:15:20.570088000 +07
  137  32.939940 32:32:32:32:32:32 6dBm Nov 19, 2018 22:15:20.954825000 +07
  138  33.120508 32:32:32:32:32:32 6dBm Nov 19, 2018 22:15:21.135393000 +07
  139  34.276105 32:32:32:32:32:32 6dBm Nov 19, 2018 22:15:22.290990000 +07
  140  34.794342 32:32:32:32:32:32 5dBm Nov 19, 2018 22:15:22.809227000 +07
  141  35.385076 32:32:32:32:32:32 6dBm Nov 19, 2018 22:15:23.399961000 +07
  142  35.687338 32:32:32:32:32:32 5dBm Nov 19, 2018 22:15:23.702223000 +07
  143  35.748265 32:32:32:32:32:32 6dBm Nov 19, 2018 22:15:23.763150000 +07
  144  36.063708 32:32:32:32:32:32 6dBm Nov 19, 2018 22:15:24.078593000 +07
  145  36.213958 32:32:32:32:32:32 6dBm Nov 19, 2018 22:15:24.228843000 +07
  146  36.327801 32:32:32:32:32:32 5dBm Nov 19, 2018 22:15:24.342686000 +07
  147  36.362754 32:32:32:32:32:32 6dBm Nov 19, 2018 22:15:24.377639000 +07
  148  36.473459 32:32:32:32:32:32 6dBm Nov 19, 2018 22:15:24.488344000 +07
  149  36.697288 32:32:32:32:32:32 5dBm Nov 19, 2018 22:15:24.712173000 +07
  150  37.159916 32:32:32:32:32:32 5dBm Nov 19, 2018 22:15:25.174801000 +07
  151  37.259540 32:32:32:32:32:32 5dBm Nov 19, 2018 22:15:25.274425000 +07
  152  37.850893 32:32:32:32:32:32 5dBm Nov 19, 2018 22:15:25.865778000 +07
  153  38.053169 32:32:32:32:32:32 5dBm Nov 19, 2018 22:15:26.068054000 +07
  154  38.245181 32:32:32:32:32:32 4dBm Nov 19, 2018 22:15:26.260066000 +07
  155  38.285803 32:32:32:32:32:32 2dBm Nov 19, 2018 22:15:26.300688000 +07
  156  38.326088 32:32:32:32:32:32 6dBm Nov 19, 2018 22:15:26.340973000 +07
  157  38.415055 32:32:32:32:32:32 4dBm Nov 19, 2018 22:15:26.429940000 +07
  158  38.558958 32:32:32:32:32:32 5dBm Nov 19, 2018 22:15:26.573843000 +07
  159  38.789853 32:32:32:32:32:32 6dBm Nov 19, 2018 22:15:26.804738000 +07
  160  39.065725 32:32:32:32:32:32 4dBm Nov 19, 2018 22:15:27.080610000 +07
  161  39.336422 32:32:32:32:32:32 5dBm Nov 19, 2018 22:15:27.351307000 +07
  162  39.352266 32:32:32:32:32:32 5dBm Nov 19, 2018 22:15:27.367151000 +07
  163  39.383547 32:32:32:32:32:32 5dBm Nov 19, 2018 22:15:27.398432000 +07
  164  39.902303 32:32:32:32:32:32 5dBm Nov 19, 2018 22:15:27.917188000 +07
  165  40.430363 32:32:32:32:32:32 5dBm Nov 19, 2018 22:15:28.445248000 +07
  166  40.626643 32:32:32:32:32:32 5dBm Nov 19, 2018 22:15:28.641528000 +07
  167  40.828873 32:32:32:32:32:32 5dBm Nov 19, 2018 22:15:28.843758000 +07
  168  41.184780 32:32:32:32:32:32 4dBm Nov 19, 2018 22:15:29.199665000 +07
  169  41.797636 32:32:32:32:32:32 5dBm Nov 19, 2018 22:15:29.812521000 +07
  170  41.928833 32:32:32:32:32:32 3dBm Nov 19, 2018 22:15:29.943718000 +07
  171  41.981248 32:32:32:32:32:32 3dBm Nov 19, 2018 22:15:29.996133000 +07
  172  43.269853 32:32:32:32:32:32 4dBm Nov 19, 2018 22:15:31.284738000 +07
  173  44.288546 32:32:32:32:32:32 6dBm Nov 19, 2018 22:15:32.303431000 +07
  174  44.393353 32:32:32:32:32:32 5dBm Nov 19, 2018 22:15:32.408238000 +07
  175  47.354325 32:32:32:32:32:32 5dBm Nov 19, 2018 22:15:35.369210000 +07
  176  47.782761 32:32:32:32:32:32 6dBm Nov 19, 2018 22:15:35.797646000 +07
  177  48.076044 32:32:32:32:32:32 7dBm Nov 19, 2018 22:15:36.090929000 +07
  178  48.344911 32:32:32:32:32:32 7dBm Nov 19, 2018 22:15:36.359796000 +07
  179  48.398802 32:32:32:32:32:32 6dBm Nov 19, 2018 22:15:36.413687000 +07
  180  48.450574 32:32:32:32:32:32 6dBm Nov 19, 2018 22:15:36.465459000 +07
  181  48.541144 32:32:32:32:32:32 3dBm Nov 19, 2018 22:15:36.556029000 +07
  182  48.603009 32:32:32:32:32:32 4dBm Nov 19, 2018 22:15:36.617894000 +07
  183  48.715303 32:32:32:32:32:32 3dBm Nov 19, 2018 22:15:36.730188000 +07
  184  48.876965 32:32:32:32:32:32 2dBm Nov 19, 2018 22:15:36.891850000 +07
  185  48.989812 32:32:32:32:32:32 5dBm Nov 19, 2018 22:15:37.004697000 +07
  186  49.270825 32:32:32:32:32:32 5dBm Nov 19, 2018 22:15:37.285710000 +07
  187  49.374141 32:32:32:32:32:32 5dBm Nov 19, 2018 22:15:37.389026000 +07
  188  49.412040 32:32:32:32:32:32 6dBm Nov 19, 2018 22:15:37.426925000 +07
  189  49.436705 32:32:32:32:32:32 5dBm Nov 19, 2018 22:15:37.451590000 +07
  190  49.494401 32:32:32:32:32:32 9dBm Nov 19, 2018 22:15:37.509286000 +07
  191  49.566194 32:32:32:32:32:32 6dBm Nov 19, 2018 22:15:37.581079000 +07
  192  49.771901 32:32:32:32:32:32 7dBm Nov 19, 2018 22:15:37.786786000 +07
  193  49.804579 32:32:32:32:32:32 5dBm Nov 19, 2018 22:15:37.819464000 +07
  194  49.829077 32:32:32:32:32:32 7dBm Nov 19, 2018 22:15:37.843962000 +07
  195  50.085709 32:32:32:32:32:32 5dBm Nov 19, 2018 22:15:38.100594000 +07
  196  50.445697 32:32:32:32:32:32 5dBm Nov 19, 2018 22:15:38.460582000 +07
  197  50.515902 32:32:32:32:32:32 5dBm Nov 19, 2018 22:15:38.530787000 +07
  198  50.662617 32:32:32:32:32:32 6dBm Nov 19, 2018 22:15:38.677502000 +07
  199  50.773663 32:32:32:32:32:32 7dBm Nov 19, 2018 22:15:38.788548000 +07
  200  50.842631 32:32:32:32:32:32 5dBm Nov 19, 2018 22:15:38.857516000 +07
  201  50.872998 32:32:32:32:32:32 7dBm Nov 19, 2018 22:15:38.887883000 +07
  202  51.235300 32:32:32:32:32:32 6dBm Nov 19, 2018 22:15:39.250185000 +07
  203  51.279952 32:32:32:32:32:32 7dBm Nov 19, 2018 22:15:39.294837000 +07
  204  51.318157 32:32:32:32:32:32 6dBm Nov 19, 2018 22:15:39.333042000 +07
  205  51.474186 32:32:32:32:32:32 7dBm Nov 19, 2018 22:15:39.489071000 +07
  206  51.528217 32:32:32:32:32:32 4dBm Nov 19, 2018 22:15:39.543102000 +07
  207  51.636949 32:32:32:32:32:32 5dBm Nov 19, 2018 22:15:39.651834000 +07
  208  51.718939 32:32:32:32:32:32 6dBm Nov 19, 2018 22:15:39.733824000 +07
  209  51.884628 32:32:32:32:32:32 7dBm Nov 19, 2018 22:15:39.899513000 +07
  210  52.044016 32:32:32:32:32:32 6dBm Nov 19, 2018 22:15:40.058901000 +07
  211  52.414017 32:32:32:32:32:32 5dBm Nov 19, 2018 22:15:40.428902000 +07
  212  52.535801 32:32:32:32:32:32 5dBm Nov 19, 2018 22:15:40.550686000 +07
  213  53.067355 32:32:32:32:32:32 6dBm Nov 19, 2018 22:15:41.082240000 +07
  214  54.005248 32:32:32:32:32:32 4dBm Nov 19, 2018 22:15:42.020133000 +07
  215  54.120928 32:32:32:32:32:32 3dBm Nov 19, 2018 22:15:42.135813000 +07
  216  54.151633 32:32:32:32:32:32 5dBm Nov 19, 2018 22:15:42.166518000 +07
  217  54.252953 32:32:32:32:32:32 2dBm Nov 19, 2018 22:15:42.267838000 +07
  218  54.621405 32:32:32:32:32:32 6dBm Nov 19, 2018 22:15:42.636290000 +07
  219  54.809118 32:32:32:32:32:32 3dBm Nov 19, 2018 22:15:42.824003000 +07
  220  55.023431 32:32:32:32:32:32 4dBm Nov 19, 2018 22:15:43.038316000 +07
  221  55.033688 32:32:32:32:32:32 7dBm Nov 19, 2018 22:15:43.048573000 +07
  222  55.067092 32:32:32:32:32:32 6dBm Nov 19, 2018 22:15:43.081977000 +07
  223  55.130552 32:32:32:32:32:32 6dBm Nov 19, 2018 22:15:43.145437000 +07
  224  55.246650 32:32:32:32:32:32 6dBm Nov 19, 2018 22:15:43.261535000 +07
  225  55.263275 32:32:32:32:32:32 6dBm Nov 19, 2018 22:15:43.278160000 +07
  226  55.318183 32:32:32:32:32:32 5dBm Nov 19, 2018 22:15:43.333068000 +07
  227  55.425220 32:32:32:32:32:32 5dBm Nov 19, 2018 22:15:43.440105000 +07
  228  55.448183 32:32:32:32:32:32 1dBm Nov 19, 2018 22:15:43.463068000 +07
  229  55.532929 32:32:32:32:32:32 6dBm Nov 19, 2018 22:15:43.547814000 +07
  230  55.792997 32:32:32:32:32:32 4dBm Nov 19, 2018 22:15:43.807882000 +07
  231  55.938369 32:32:32:32:32:32 4dBm Nov 19, 2018 22:15:43.953254000 +07
  232  56.056212 32:32:32:32:32:32 6dBm Nov 19, 2018 22:15:44.071097000 +07
  233  56.087613 32:32:32:32:32:32 5dBm Nov 19, 2018 22:15:44.102498000 +07
  234  56.123819 32:32:32:32:32:32 5dBm Nov 19, 2018 22:15:44.138704000 +07
  235  56.532184 32:32:32:32:32:32 5dBm Nov 19, 2018 22:15:44.547069000 +07
  236  56.916235 32:32:32:32:32:32 6dBm Nov 19, 2018 22:15:44.931120000 +07
  237  56.986931 32:32:32:32:32:32 5dBm Nov 19, 2018 22:15:45.001816000 +07
  238  57.097586 32:32:32:32:32:32 7dBm Nov 19, 2018 22:15:45.112471000 +07
  239  57.192206 32:32:32:32:32:32 4dBm Nov 19, 2018 22:15:45.207091000 +07
  240  57.291267 32:32:32:32:32:32 5dBm Nov 19, 2018 22:15:45.306152000 +07
  241  57.395980 32:32:32:32:32:32 6dBm Nov 19, 2018 22:15:45.410865000 +07
  242  57.622583 32:32:32:32:32:32 5dBm Nov 19, 2018 22:15:45.637468000 +07
  243  57.738750 32:32:32:32:32:32 7dBm Nov 19, 2018 22:15:45.753635000 +07
  244  57.841402 32:32:32:32:32:32 6dBm Nov 19, 2018 22:15:45.856287000 +07
  245  57.940583 32:32:32:32:32:32 7dBm Nov 19, 2018 22:15:45.955468000 +07
  246  57.971451 32:32:32:32:32:32 5dBm Nov 19, 2018 22:15:45.986336000 +07
  247  57.984379 32:32:32:32:32:32 6dBm Nov 19, 2018 22:15:45.999264000 +07
  248  58.040873 32:32:32:32:32:32 6dBm Nov 19, 2018 22:15:46.055758000 +07
  249  58.206023 32:32:32:32:32:32 7dBm Nov 19, 2018 22:15:46.220908000 +07
  250  58.280329 32:32:32:32:32:32 7dBm Nov 19, 2018 22:15:46.295214000 +07
  251  58.397119 32:32:32:32:32:32 5dBm Nov 19, 2018 22:15:46.412004000 +07
  252  58.638855 32:32:32:32:32:32 4dBm Nov 19, 2018 22:15:46.653740000 +07
  253  58.687304 32:32:32:32:32:32 4dBm Nov 19, 2018 22:15:46.702189000 +07
  254  58.881657 32:32:32:32:32:32 6dBm Nov 19, 2018 22:15:46.896542000 +07
  255  58.948574 32:32:32:32:32:32 4dBm Nov 19, 2018 22:15:46.963459000 +07
  256  59.360772 32:32:32:32:32:32 5dBm Nov 19, 2018 22:15:47.375657000 +07
  257  59.484829 32:32:32:32:32:32 6dBm Nov 19, 2018 22:15:47.499714000 +07
  258  59.685904 32:32:32:32:32:32 4dBm Nov 19, 2018 22:15:47.700789000 +07
  259  59.751066 32:32:32:32:32:32 6dBm Nov 19, 2018 22:15:47.765951000 +07
  260  59.769188 32:32:32:32:32:32 6dBm Nov 19, 2018 22:15:47.784073000 +07
  261  59.803315 32:32:32:32:32:32 5dBm Nov 19, 2018 22:15:47.818200000 +07
  262  59.828854 32:32:32:32:32:32 4dBm Nov 19, 2018 22:15:47.843739000 +07
  263  59.877263 32:32:32:32:32:32 6dBm Nov 19, 2018 22:15:47.892148000 +07
  264  59.930502 32:32:32:32:32:32 5dBm Nov 19, 2018 22:15:47.945387000 +07
  265  60.083778 32:32:32:32:32:32 4dBm Nov 19, 2018 22:15:48.098663000 +07
  266  60.236528 32:32:32:32:32:32 6dBm Nov 19, 2018 22:15:48.251413000 +07
  267  60.261898 32:32:32:32:32:32 5dBm Nov 19, 2018 22:15:48.276783000 +07
  268  60.731987 32:32:32:32:32:32 6dBm Nov 19, 2018 22:15:48.746872000 +07
  269  60.741592 32:32:32:32:32:32 5dBm Nov 19, 2018 22:15:48.756477000 +07
  270  60.910980 32:32:32:32:32:32 6dBm Nov 19, 2018 22:15:48.925865000 +07
  271  61.172542 32:32:32:32:32:32 4dBm Nov 19, 2018 22:15:49.187427000 +07
  272  61.497800 32:32:32:32:32:32 7dBm Nov 19, 2018 22:15:49.512685000 +07
  273  61.565794 32:32:32:32:32:32 6dBm Nov 19, 2018 22:15:49.580679000 +07
  274  61.601859 32:32:32:32:32:32 6dBm Nov 19, 2018 22:15:49.616744000 +07
  275  61.781407 32:32:32:32:32:32 5dBm Nov 19, 2018 22:15:49.796292000 +07
  276  61.947102 32:32:32:32:32:32 6dBm Nov 19, 2018 22:15:49.961987000 +07
  277  61.987725 32:32:32:32:32:32 8dBm Nov 19, 2018 22:15:50.002610000 +07
  278  62.015712 32:32:32:32:32:32 7dBm Nov 19, 2018 22:15:50.030597000 +07
  279  62.175459 32:32:32:32:32:32 6dBm Nov 19, 2018 22:15:50.190344000 +07
  280  62.690148 32:32:32:32:32:32 7dBm Nov 19, 2018 22:15:50.705033000 +07
  281  62.755723 32:32:32:32:32:32 4dBm Nov 19, 2018 22:15:50.770608000 +07
  282  63.448686 32:32:32:32:32:32 5dBm Nov 19, 2018 22:15:51.463571000 +07
  283  63.831690 32:32:32:32:32:32 4dBm Nov 19, 2018 22:15:51.846575000 +07
  284  64.007340 32:32:32:32:32:32 4dBm Nov 19, 2018 22:15:52.022225000 +07
  285  64.079896 32:32:32:32:32:32 5dBm Nov 19, 2018 22:15:52.094781000 +07
  286  64.134317 32:32:32:32:32:32 4dBm Nov 19, 2018 22:15:52.149202000 +07
  287  64.658033 32:32:32:32:32:32 5dBm Nov 19, 2018 22:15:52.672918000 +07
  288  64.782384 32:32:32:32:32:32 5dBm Nov 19, 2018 22:15:52.797269000 +07
  289  65.114116 32:32:32:32:32:32 6dBm Nov 19, 2018 22:15:53.129001000 +07
  290  65.132268 32:32:32:32:32:32 5dBm Nov 19, 2018 22:15:53.147153000 +07
  291  65.355486 32:32:32:32:32:32 4dBm Nov 19, 2018 22:15:53.370371000 +07
  292  65.512791 32:32:32:32:32:32 5dBm Nov 19, 2018 22:15:53.527676000 +07
  293  65.730333 32:32:32:32:32:32 6dBm Nov 19, 2018 22:15:53.745218000 +07
  294  65.778549 32:32:32:32:32:32 6dBm Nov 19, 2018 22:15:53.793434000 +07
  295  65.795828 32:32:32:32:32:32 6dBm Nov 19, 2018 22:15:53.810713000 +07
  296  65.809680 32:32:32:32:32:32 4dBm Nov 19, 2018 22:15:53.824565000 +07
  297  66.123545 32:32:32:32:32:32 5dBm Nov 19, 2018 22:15:54.138430000 +07
  298  66.181413 32:32:32:32:32:32 6dBm Nov 19, 2018 22:15:54.196298000 +07
  299  66.480070 32:32:32:32:32:32 6dBm Nov 19, 2018 22:15:54.494955000 +07
  300  66.578864 32:32:32:32:32:32 5dBm Nov 19, 2018 22:15:54.593749000 +07
  301  66.610996 32:32:32:32:32:32 3dBm Nov 19, 2018 22:15:54.625881000 +07
  302  66.800288 32:32:32:32:32:32 7dBm Nov 19, 2018 22:15:54.815173000 +07
  303  66.825634 32:32:32:32:32:32 6dBm Nov 19, 2018 22:15:54.840519000 +07
  304  66.874874 32:32:32:32:32:32 5dBm Nov 19, 2018 22:15:54.889759000 +07
  305  66.908452 32:32:32:32:32:32 6dBm Nov 19, 2018 22:15:54.923337000 +07
  306  66.930451 32:32:32:32:32:32 6dBm Nov 19, 2018 22:15:54.945336000 +07
  307  66.947320 32:32:32:32:32:32 5dBm Nov 19, 2018 22:15:54.962205000 +07
  308  66.965841 32:32:32:32:32:32 5dBm Nov 19, 2018 22:15:54.980726000 +07
  309  67.010409 32:32:32:32:32:32 5dBm Nov 19, 2018 22:15:55.025294000 +07
  310  67.030233 32:32:32:32:32:32 7dBm Nov 19, 2018 22:15:55.045118000 +07
  311  67.438848 32:32:32:32:32:32 4dBm Nov 19, 2018 22:15:55.453733000 +07
  312  67.459087 32:32:32:32:32:32 6dBm Nov 19, 2018 22:15:55.473972000 +07
  313  67.467472 32:32:32:32:32:32 7dBm Nov 19, 2018 22:15:55.482357000 +07
  314  67.507789 32:32:32:32:32:32 6dBm Nov 19, 2018 22:15:55.522674000 +07
  315  67.530735 32:32:32:32:32:32 6dBm Nov 19, 2018 22:15:55.545620000 +07
  316  67.596847 32:32:32:32:32:32 7dBm Nov 19, 2018 22:15:55.611732000 +07
  317  67.741213 32:32:32:32:32:32 5dBm Nov 19, 2018 22:15:55.756098000 +07
  318  67.767419 32:32:32:32:32:32 6dBm Nov 19, 2018 22:15:55.782304000 +07
  319  67.882729 32:32:32:32:32:32 6dBm Nov 19, 2018 22:15:55.897614000 +07
  320  67.977489 32:32:32:32:32:32 5dBm Nov 19, 2018 22:15:55.992374000 +07
  321  68.136069 32:32:32:32:32:32 5dBm Nov 19, 2018 22:15:56.150954000 +07
  322  68.532708 32:32:32:32:32:32 4dBm Nov 19, 2018 22:15:56.547593000 +07
  323  68.572538 32:32:32:32:32:32 6dBm Nov 19, 2018 22:15:56.587423000 +07
  324  68.648032 32:32:32:32:32:32 6dBm Nov 19, 2018 22:15:56.662917000 +07
  325  68.713263 32:32:32:32:32:32 6dBm Nov 19, 2018 22:15:56.728148000 +07
  326  68.755160 32:32:32:32:32:32 8dBm Nov 19, 2018 22:15:56.770045000 +07
  327  68.985037 32:32:32:32:32:32 5dBm Nov 19, 2018 22:15:56.999922000 +07
  328  69.117948 32:32:32:32:32:32 5dBm Nov 19, 2018 22:15:57.132833000 +07
  329  69.223505 32:32:32:32:32:32 6dBm Nov 19, 2018 22:15:57.238390000 +07
  330  69.438015 32:32:32:32:32:32 5dBm Nov 19, 2018 22:15:57.452900000 +07
  331  69.456667 32:32:32:32:32:32 5dBm Nov 19, 2018 22:15:57.471552000 +07
  332  69.480700 32:32:32:32:32:32 4dBm Nov 19, 2018 22:15:57.495585000 +07
  333  69.700625 32:32:32:32:32:32 5dBm Nov 19, 2018 22:15:57.715510000 +07
  334  69.768363 32:32:32:32:32:32 5dBm Nov 19, 2018 22:15:57.783248000 +07
  335  69.894704 32:32:32:32:32:32 4dBm Nov 19, 2018 22:15:57.909589000 +07
  336  70.010370 32:32:32:32:32:32 5dBm Nov 19, 2018 22:15:58.025255000 +07
  337  70.227068 32:32:32:32:32:32 5dBm Nov 19, 2018 22:15:58.241953000 +07
  338  70.277680 32:32:32:32:32:32 5dBm Nov 19, 2018 22:15:58.292565000 +07
  339  70.510703 32:32:32:32:32:32 5dBm Nov 19, 2018 22:15:58.525588000 +07
  340  70.585236 32:32:32:32:32:32 4dBm Nov 19, 2018 22:15:58.600121000 +07
  341  70.635857 32:32:32:32:32:32 6dBm Nov 19, 2018 22:15:58.650742000 +07
  342  70.672056 32:32:32:32:32:32 5dBm Nov 19, 2018 22:15:58.686941000 +07
  343  70.715826 32:32:32:32:32:32 5dBm Nov 19, 2018 22:15:58.730711000 +07
  344  70.994676 32:32:32:32:32:32 6dBm Nov 19, 2018 22:15:59.009561000 +07
  345  71.317341 32:32:32:32:32:32 4dBm Nov 19, 2018 22:15:59.332226000 +07
  346  71.336834 32:32:32:32:32:32 7dBm Nov 19, 2018 22:15:59.351719000 +07
  347  71.491379 32:32:32:32:32:32 6dBm Nov 19, 2018 22:15:59.506264000 +07
  348  71.526431 32:32:32:32:32:32 5dBm Nov 19, 2018 22:15:59.541316000 +07
  349  71.781715 32:32:32:32:32:32 6dBm Nov 19, 2018 22:15:59.796600000 +07
  350  71.926475 32:32:32:32:32:32 5dBm Nov 19, 2018 22:15:59.941360000 +07
  351  72.228304 32:32:32:32:32:32 6dBm Nov 19, 2018 22:16:00.243189000 +07
  352  72.655379 32:32:32:32:32:32 5dBm Nov 19, 2018 22:16:00.670264000 +07
  353  72.692887 32:32:32:32:32:32 6dBm Nov 19, 2018 22:16:00.707772000 +07
  354  73.131127 32:32:32:32:32:32 5dBm Nov 19, 2018 22:16:01.146012000 +07
  355  73.248726 32:32:32:32:32:32 4dBm Nov 19, 2018 22:16:01.263611000 +07
  356  73.591020 32:32:32:32:32:32 6dBm Nov 19, 2018 22:16:01.605905000 +07
  357  73.736287 32:32:32:32:32:32 6dBm Nov 19, 2018 22:16:01.751172000 +07
  358  73.889750 32:32:32:32:32:32 5dBm Nov 19, 2018 22:16:01.904635000 +07
  359  73.954077 32:32:32:32:32:32 7dBm Nov 19, 2018 22:16:01.968962000 +07
  360  74.089641 32:32:32:32:32:32 6dBm Nov 19, 2018 22:16:02.104526000 +07
  361  74.199534 32:32:32:32:32:32 3dBm Nov 19, 2018 22:16:02.214419000 +07
  362  74.251503 32:32:32:32:32:32 4dBm Nov 19, 2018 22:16:02.266388000 +07
  363  74.580236 32:32:32:32:32:32 5dBm Nov 19, 2018 22:16:02.595121000 +07
  364  74.610191 32:32:32:32:32:32 5dBm Nov 19, 2018 22:16:02.625076000 +07
  365  74.707547 32:32:32:32:32:32 4dBm Nov 19, 2018 22:16:02.722432000 +07
  366  74.822562 32:32:32:32:32:32 6dBm Nov 19, 2018 22:16:02.837447000 +07
  367  75.097947 32:32:32:32:32:32 5dBm Nov 19, 2018 22:16:03.112832000 +07
  368  75.135832 32:32:32:32:32:32 5dBm Nov 19, 2018 22:16:03.150717000 +07
  369  75.223199 32:32:32:32:32:32 4dBm Nov 19, 2018 22:16:03.238084000 +07
  370  75.286629 32:32:32:32:32:32 5dBm Nov 19, 2018 22:16:03.301514000 +07
  371  75.358555 32:32:32:32:32:32 6dBm Nov 19, 2018 22:16:03.373440000 +07
  372  75.749887 32:32:32:32:32:32 5dBm Nov 19, 2018 22:16:03.764772000 +07
  373  76.001733 32:32:32:32:32:32 5dBm Nov 19, 2018 22:16:04.016618000 +07
  374  76.208168 32:32:32:32:32:32 6dBm Nov 19, 2018 22:16:04.223053000 +07
  375  76.264990 32:32:32:32:32:32 7dBm Nov 19, 2018 22:16:04.279875000 +07
  376  76.287008 32:32:32:32:32:32 6dBm Nov 19, 2018 22:16:04.301893000 +07
  377  76.345225 32:32:32:32:32:32 7dBm Nov 19, 2018 22:16:04.360110000 +07
  378  76.383134 32:32:32:32:32:32 5dBm Nov 19, 2018 22:16:04.398019000 +07
  379  76.423284 32:32:32:32:32:32 5dBm Nov 19, 2018 22:16:04.438169000 +07
  380  76.705362 32:32:32:32:32:32 6dBm Nov 19, 2018 22:16:04.720247000 +07
  381  76.750671 32:32:32:32:32:32 4dBm Nov 19, 2018 22:16:04.765556000 +07
  382  76.824554 32:32:32:32:32:32 4dBm Nov 19, 2018 22:16:04.839439000 +07
  383  76.847145 32:32:32:32:32:32 7dBm Nov 19, 2018 22:16:04.862030000 +07
  384  77.360179 32:32:32:32:32:32 6dBm Nov 19, 2018 22:16:05.375064000 +07
  385  77.519985 32:32:32:32:32:32 5dBm Nov 19, 2018 22:16:05.534870000 +07
  386  77.747900 32:32:32:32:32:32 6dBm Nov 19, 2018 22:16:05.762785000 +07
  387  77.785682 32:32:32:32:32:32 4dBm Nov 19, 2018 22:16:05.800567000 +07
  388  77.826272 32:32:32:32:32:32 4dBm Nov 19, 2018 22:16:05.841157000 +07
  389  77.889731 32:32:32:32:32:32 5dBm Nov 19, 2018 22:16:05.904616000 +07
  390  78.169289 32:32:32:32:32:32 7dBm Nov 19, 2018 22:16:06.184174000 +07
  391  78.302520 32:32:32:32:32:32 7dBm Nov 19, 2018 22:16:06.317405000 +07
  392  78.321701 32:32:32:32:32:32 4dBm Nov 19, 2018 22:16:06.336586000 +07
  393  78.472419 32:32:32:32:32:32 7dBm Nov 19, 2018 22:16:06.487304000 +07
  394  78.534732 32:32:32:32:32:32 5dBm Nov 19, 2018 22:16:06.549617000 +07
  395  78.581907 32:32:32:32:32:32 3dBm Nov 19, 2018 22:16:06.596792000 +07
  396  78.635408 32:32:32:32:32:32 5dBm Nov 19, 2018 22:16:06.650293000 +07
  397  78.704647 32:32:32:32:32:32 7dBm Nov 19, 2018 22:16:06.719532000 +07
  398  78.970596 32:32:32:32:32:32 6dBm Nov 19, 2018 22:16:06.985481000 +07
  399  79.026271 32:32:32:32:32:32 0dBm Nov 19, 2018 22:16:07.041156000 +07
  400  79.083759 32:32:32:32:32:32 7dBm Nov 19, 2018 22:16:07.098644000 +07
  401  79.127604 32:32:32:32:32:32 6dBm Nov 19, 2018 22:16:07.142489000 +07
  402  79.156095 32:32:32:32:32:32 4dBm Nov 19, 2018 22:16:07.170980000 +07
  403  79.279097 32:32:32:32:32:32 6dBm Nov 19, 2018 22:16:07.293982000 +07
  404  79.440993 32:32:32:32:32:32 6dBm Nov 19, 2018 22:16:07.455878000 +07
  405  79.495648 32:32:32:32:32:32 5dBm Nov 19, 2018 22:16:07.510533000 +07
  406  79.666341 32:32:32:32:32:32 2dBm Nov 19, 2018 22:16:07.681226000 +07
  407  79.995816 32:32:32:32:32:32 6dBm Nov 19, 2018 22:16:08.010701000 +07
  408  80.157988 32:32:32:32:32:32 3dBm Nov 19, 2018 22:16:08.172873000 +07
  409  80.247720 32:32:32:32:32:32 6dBm Nov 19, 2018 22:16:08.262605000 +07
  410  80.494907 32:32:32:32:32:32 7dBm Nov 19, 2018 22:16:08.509792000 +07
  411  80.703195 32:32:32:32:32:32 7dBm Nov 19, 2018 22:16:08.718080000 +07
  412  80.723814 32:32:32:32:32:32 5dBm Nov 19, 2018 22:16:08.738699000 +07
  413  80.766224 32:32:32:32:32:32 7dBm Nov 19, 2018 22:16:08.781109000 +07
  414  80.845371 32:32:32:32:32:32 6dBm Nov 19, 2018 22:16:08.860256000 +07
  415  81.165256 32:32:32:32:32:32 6dBm Nov 19, 2018 22:16:09.180141000 +07
  416  81.415381 32:32:32:32:32:32 4dBm Nov 19, 2018 22:16:09.430266000 +07
  417  81.476080 32:32:32:32:32:32 7dBm Nov 19, 2018 22:16:09.490965000 +07
  418  81.612927 32:32:32:32:32:32 5dBm Nov 19, 2018 22:16:09.627812000 +07
  419  81.753934 32:32:32:32:32:32 4dBm Nov 19, 2018 22:16:09.768819000 +07
  420  81.881327 32:32:32:32:32:32 6dBm Nov 19, 2018 22:16:09.896212000 +07
  421  81.897492 32:32:32:32:32:32 6dBm Nov 19, 2018 22:16:09.912377000 +07
  422  82.221373 32:32:32:32:32:32 6dBm Nov 19, 2018 22:16:10.236258000 +07
  423  82.255448 32:32:32:32:32:32 5dBm Nov 19, 2018 22:16:10.270333000 +07
  424  82.284302 32:32:32:32:32:32 6dBm Nov 19, 2018 22:16:10.299187000 +07
  425  82.505059 32:32:32:32:32:32 3dBm Nov 19, 2018 22:16:10.519944000 +07
  426  82.813617 32:32:32:32:32:32 4dBm Nov 19, 2018 22:16:10.828502000 +07
  427  82.919645 32:32:32:32:32:32 4dBm Nov 19, 2018 22:16:10.934530000 +07
  428  83.386574 32:32:32:32:32:32 5dBm Nov 19, 2018 22:16:11.401459000 +07
  429  83.597912 32:32:32:32:32:32 6dBm Nov 19, 2018 22:16:11.612797000 +07
  430  83.626017 32:32:32:32:32:32 6dBm Nov 19, 2018 22:16:11.640902000 +07
  431  83.654566 32:32:32:32:32:32 6dBm Nov 19, 2018 22:16:11.669451000 +07
  432  83.761585 32:32:32:32:32:32 6dBm Nov 19, 2018 22:16:11.776470000 +07
  433  83.778662 32:32:32:32:32:32 7dBm Nov 19, 2018 22:16:11.793547000 +07
  434  83.788183 32:32:32:32:32:32 6dBm Nov 19, 2018 22:16:11.803068000 +07
  435  83.878301 32:32:32:32:32:32 6dBm Nov 19, 2018 22:16:11.893186000 +07
  436  83.897283 32:32:32:32:32:32 4dBm Nov 19, 2018 22:16:11.912168000 +07
  437  83.953762 32:32:32:32:32:32 5dBm Nov 19, 2018 22:16:11.968647000 +07
  438  84.709816 32:32:32:32:32:32 5dBm Nov 19, 2018 22:16:12.724701000 +07
  439  84.727226 32:32:32:32:32:32 5dBm Nov 19, 2018 22:16:12.742111000 +07
  440  84.730031 32:32:32:32:32:32 3dBm Nov 19, 2018 22:16:12.744916000 +07
  441  84.794250 32:32:32:32:32:32 4dBm Nov 19, 2018 22:16:12.809135000 +07
  442  85.164827 32:32:32:32:32:32 5dBm Nov 19, 2018 22:16:13.179712000 +07
  443  85.276266 32:32:32:32:32:32 6dBm Nov 19, 2018 22:16:13.291151000 +07
  444  85.384443 32:32:32:32:32:32 2dBm Nov 19, 2018 22:16:13.399328000 +07
  445  86.023856 32:32:32:32:32:32 6dBm Nov 19, 2018 22:16:14.038741000 +07
  446  86.047018 32:32:32:32:32:32 2dBm Nov 19, 2018 22:16:14.061903000 +07
  447  86.358784 32:32:32:32:32:32 6dBm Nov 19, 2018 22:16:14.373669000 +07
  448  86.387642 32:32:32:32:32:32 6dBm Nov 19, 2018 22:16:14.402527000 +07
  449  86.408210 32:32:32:32:32:32 6dBm Nov 19, 2018 22:16:14.423095000 +07
  450  86.423335 32:32:32:32:32:32 7dBm Nov 19, 2018 22:16:14.438220000 +07
  451  86.553843 32:32:32:32:32:32 7dBm Nov 19, 2018 22:16:14.568728000 +07
  452  86.585354 32:32:32:32:32:32 3dBm Nov 19, 2018 22:16:14.600239000 +07
  453  86.609564 32:32:32:32:32:32 9dBm Nov 19, 2018 22:16:14.624449000 +07
  454  86.638470 32:32:32:32:32:32 9dBm Nov 19, 2018 22:16:14.653355000 +07
  455  86.735842 32:32:32:32:32:32 7dBm Nov 19, 2018 22:16:14.750727000 +07
  456  86.768955 32:32:32:32:32:32 6dBm Nov 19, 2018 22:16:14.783840000 +07
  457  86.797620 32:32:32:32:32:32 7dBm Nov 19, 2018 22:16:14.812505000 +07
  458  86.863457 32:32:32:32:32:32 7dBm Nov 19, 2018 22:16:14.878342000 +07
  459  87.179964 32:32:32:32:32:32 5dBm Nov 19, 2018 22:16:15.194849000 +07
  460  87.315043 32:32:32:32:32:32 6dBm Nov 19, 2018 22:16:15.329928000 +07
  461  87.427416 32:32:32:32:32:32 6dBm Nov 19, 2018 22:16:15.442301000 +07
  462  87.430584 32:32:32:32:32:32 8dBm Nov 19, 2018 22:16:15.445469000 +07
  463  87.473556 32:32:32:32:32:32 8dBm Nov 19, 2018 22:16:15.488441000 +07
  464  87.485106 32:32:32:32:32:32 7dBm Nov 19, 2018 22:16:15.499991000 +07
  465  87.729147 32:32:32:32:32:32 7dBm Nov 19, 2018 22:16:15.744032000 +07
  466  87.844204 32:32:32:32:32:32 4dBm Nov 19, 2018 22:16:15.859089000 +07
  467  87.956357 32:32:32:32:32:32 7dBm Nov 19, 2018 22:16:15.971242000 +07
  468  88.099416 32:32:32:32:32:32 7dBm Nov 19, 2018 22:16:16.114301000 +07
  469  88.304501 32:32:32:32:32:32 7dBm Nov 19, 2018 22:16:16.319386000 +07
  470  88.581271 32:32:32:32:32:32 8dBm Nov 19, 2018 22:16:16.596156000 +07
  471  88.608219 32:32:32:32:32:32 7dBm Nov 19, 2018 22:16:16.623104000 +07
  472  88.637484 32:32:32:32:32:32 6dBm Nov 19, 2018 22:16:16.652369000 +07
  473  88.670641 32:32:32:32:32:32 7dBm Nov 19, 2018 22:16:16.685526000 +07
  474  88.707105 32:32:32:32:32:32 6dBm Nov 19, 2018 22:16:16.721990000 +07
  475  88.772546 32:32:32:32:32:32 9dBm Nov 19, 2018 22:16:16.787431000 +07
  476  88.959229 32:32:32:32:32:32 6dBm Nov 19, 2018 22:16:16.974114000 +07
  477  89.072723 32:32:32:32:32:32 7dBm Nov 19, 2018 22:16:17.087608000 +07
  478  89.074372 32:32:32:32:32:32 6dBm Nov 19, 2018 22:16:17.089257000 +07
  479  89.110748 32:32:32:32:32:32 6dBm Nov 19, 2018 22:16:17.125633000 +07
  480  89.134438 32:32:32:32:32:32 7dBm Nov 19, 2018 22:16:17.149323000 +07
  481  89.173116 32:32:32:32:32:32 7dBm Nov 19, 2018 22:16:17.188001000 +07
  482  89.212316 32:32:32:32:32:32 8dBm Nov 19, 2018 22:16:17.227201000 +07
  483  89.258969 32:32:32:32:32:32 8dBm Nov 19, 2018 22:16:17.273854000 +07
  484  89.301860 32:32:32:32:32:32 6dBm Nov 19, 2018 22:16:17.316745000 +07
  485  89.398452 32:32:32:32:32:32 7dBm Nov 19, 2018 22:16:17.413337000 +07
  486  89.417042 32:32:32:32:32:32 7dBm Nov 19, 2018 22:16:17.431927000 +07
  487  89.519557 32:32:32:32:32:32 8dBm Nov 19, 2018 22:16:17.534442000 +07
  488  89.716608 32:32:32:32:32:32 6dBm Nov 19, 2018 22:16:17.731493000 +07
  489  89.743193 32:32:32:32:32:32 6dBm Nov 19, 2018 22:16:17.758078000 +07
  490  89.774835 32:32:32:32:32:32 6dBm Nov 19, 2018 22:16:17.789720000 +07
  491  89.840930 32:32:32:32:32:32 8dBm Nov 19, 2018 22:16:17.855815000 +07
  492  89.855244 32:32:32:32:32:32 7dBm Nov 19, 2018 22:16:17.870129000 +07
  493  89.996867 32:32:32:32:32:32 6dBm Nov 19, 2018 22:16:18.011752000 +07
  494  90.032348 32:32:32:32:32:32 6dBm Nov 19, 2018 22:16:18.047233000 +07
  495  90.189830 32:32:32:32:32:32 7dBm Nov 19, 2018 22:16:18.204715000 +07
  496  90.305497 32:32:32:32:32:32 6dBm Nov 19, 2018 22:16:18.320382000 +07
  497  90.527215 32:32:32:32:32:32 7dBm Nov 19, 2018 22:16:18.542100000 +07
  498  90.583315 32:32:32:32:32:32 8dBm Nov 19, 2018 22:16:18.598200000 +07
  499  90.677149 32:32:32:32:32:32 7dBm Nov 19, 2018 22:16:18.692034000 +07
  500  90.769079 32:32:32:32:32:32 6dBm Nov 19, 2018 22:16:18.783964000 +07
  501  90.816786 32:32:32:32:32:32 7dBm Nov 19, 2018 22:16:18.831671000 +07
  502  90.834453 32:32:32:32:32:32 7dBm Nov 19, 2018 22:16:18.849338000 +07
  503  90.908514 32:32:32:32:32:32 5dBm Nov 19, 2018 22:16:18.923399000 +07
  504  90.953714 32:32:32:32:32:32 8dBm Nov 19, 2018 22:16:18.968599000 +07
  505  90.975224 32:32:32:32:32:32 8dBm Nov 19, 2018 22:16:18.990109000 +07
  506  91.001985 32:32:32:32:32:32 8dBm Nov 19, 2018 22:16:19.016870000 +07
  507  91.028702 32:32:32:32:32:32 5dBm Nov 19, 2018 22:16:19.043587000 +07
  508  91.051726 32:32:32:32:32:32 7dBm Nov 19, 2018 22:16:19.066611000 +07
  509  91.066630 32:32:32:32:32:32 5dBm Nov 19, 2018 22:16:19.081515000 +07
  510  91.098621 32:32:32:32:32:32 7dBm Nov 19, 2018 22:16:19.113506000 +07
  511  91.254857 32:32:32:32:32:32 7dBm Nov 19, 2018 22:16:19.269742000 +07
  512  91.368371 32:32:32:32:32:32 7dBm Nov 19, 2018 22:16:19.383256000 +07
  513  91.474895 32:32:32:32:32:32 5dBm Nov 19, 2018 22:16:19.489780000 +07
  514  91.759854 32:32:32:32:32:32 7dBm Nov 19, 2018 22:16:19.774739000 +07
  515  91.825695 32:32:32:32:32:32 7dBm Nov 19, 2018 22:16:19.840580000 +07
  516  91.969162 32:32:32:32:32:32 3dBm Nov 19, 2018 22:16:19.984047000 +07
  517  92.037133 32:32:32:32:32:32 7dBm Nov 19, 2018 22:16:20.052018000 +07
  518  92.123749 32:32:32:32:32:32 8dBm Nov 19, 2018 22:16:20.138634000 +07
  519  92.223842 32:32:32:32:32:32 9dBm Nov 19, 2018 22:16:20.238727000 +07
  520  92.396308 32:32:32:32:32:32 8dBm Nov 19, 2018 22:16:20.411193000 +07
  521  92.415850 32:32:32:32:32:32 6dBm Nov 19, 2018 22:16:20.430735000 +07
  522  92.439467 32:32:32:32:32:32 7dBm Nov 19, 2018 22:16:20.454352000 +07
  523  92.474238 32:32:32:32:32:32 7dBm Nov 19, 2018 22:16:20.489123000 +07
  524  92.488306 32:32:32:32:32:32 7dBm Nov 19, 2018 22:16:20.503191000 +07
  525  92.529953 32:32:32:32:32:32 7dBm Nov 19, 2018 22:16:20.544838000 +07
  526  92.554535 32:32:32:32:32:32 7dBm Nov 19, 2018 22:16:20.569420000 +07
  527  92.627914 32:32:32:32:32:32 6dBm Nov 19, 2018 22:16:20.642799000 +07
  528  92.674805 32:32:32:32:32:32 7dBm Nov 19, 2018 22:16:20.689690000 +07
  529  93.073760 32:32:32:32:32:32 7dBm Nov 19, 2018 22:16:21.088645000 +07
  530  93.133925 32:32:32:32:32:32 7dBm Nov 19, 2018 22:16:21.148810000 +07
  531  93.207188 32:32:32:32:32:32 7dBm Nov 19, 2018 22:16:21.222073000 +07
  532  93.476941 32:32:32:32:32:32 2dBm Nov 19, 2018 22:16:21.491826000 +07
  533  93.531174 32:32:32:32:32:32 6dBm Nov 19, 2018 22:16:21.546059000 +07
  534  93.546539 32:32:32:32:32:32 4dBm Nov 19, 2018 22:16:21.561424000 +07
  535  93.626399 32:32:32:32:32:32 7dBm Nov 19, 2018 22:16:21.641284000 +07
  536  93.681725 32:32:32:32:32:32 5dBm Nov 19, 2018 22:16:21.696610000 +07
  537  93.726390 32:32:32:32:32:32 7dBm Nov 19, 2018 22:16:21.741275000 +07
