    1   0.000000 32:32:32:32:32:32 8dBm Nov 19, 2018 22:06:57.817063000 +07
    2   0.118647 32:32:32:32:32:32 9dBm Nov 19, 2018 22:06:57.935710000 +07
    3   0.140315 32:32:32:32:32:32 8dBm Nov 19, 2018 22:06:57.957378000 +07
    4   0.227840 32:32:32:32:32:32 9dBm Nov 19, 2018 22:06:58.044903000 +07
    5   0.365159 32:32:32:32:32:32 10dBm Nov 19, 2018 22:06:58.182222000 +07
    6   0.386224 32:32:32:32:32:32 10dBm Nov 19, 2018 22:06:58.203287000 +07
    7   0.399080 32:32:32:32:32:32 9dBm Nov 19, 2018 22:06:58.216143000 +07
    8   0.408802 32:32:32:32:32:32 10dBm Nov 19, 2018 22:06:58.225865000 +07
    9   0.459298 32:32:32:32:32:32 8dBm Nov 19, 2018 22:06:58.276361000 +07
   10   0.505482 32:32:32:32:32:32 8dBm Nov 19, 2018 22:06:58.322545000 +07
   11   0.525606 32:32:32:32:32:32 11dBm Nov 19, 2018 22:06:58.342669000 +07
   12   0.615298 32:32:32:32:32:32 9dBm Nov 19, 2018 22:06:58.432361000 +07
   13   0.656896 32:32:32:32:32:32 8dBm Nov 19, 2018 22:06:58.473959000 +07
   14   0.687070 32:32:32:32:32:32 8dBm Nov 19, 2018 22:06:58.504133000 +07
   15   0.718990 32:32:32:32:32:32 9dBm Nov 19, 2018 22:06:58.536053000 +07
   16   0.750346 32:32:32:32:32:32 8dBm Nov 19, 2018 22:06:58.567409000 +07
   17   0.767016 32:32:32:32:32:32 9dBm Nov 19, 2018 22:06:58.584079000 +07
   18   0.958788 32:32:32:32:32:32 8dBm Nov 19, 2018 22:06:58.775851000 +07
   19   1.036326 32:32:32:32:32:32 6dBm Nov 19, 2018 22:06:58.853389000 +07
   20   1.064899 32:32:32:32:32:32 9dBm Nov 19, 2018 22:06:58.881962000 +07
   21   1.165555 32:32:32:32:32:32 7dBm Nov 19, 2018 22:06:58.982618000 +07
   22   1.279361 32:32:32:32:32:32 9dBm Nov 19, 2018 22:06:59.096424000 +07
   23   1.289086 32:32:32:32:32:32 10dBm Nov 19, 2018 22:06:59.106149000 +07
   24   1.312372 32:32:32:32:32:32 9dBm Nov 19, 2018 22:06:59.129435000 +07
   25   1.467857 32:32:32:32:32:32 9dBm Nov 19, 2018 22:06:59.284920000 +07
   26   1.597832 32:32:32:32:32:32 9dBm Nov 19, 2018 22:06:59.414895000 +07
   27   1.623033 32:32:32:32:32:32 9dBm Nov 19, 2018 22:06:59.440096000 +07
   28   1.630559 32:32:32:32:32:32 8dBm Nov 19, 2018 22:06:59.447622000 +07
   29   1.648589 32:32:32:32:32:32 10dBm Nov 19, 2018 22:06:59.465652000 +07
   30   1.688925 32:32:32:32:32:32 11dBm Nov 19, 2018 22:06:59.505988000 +07
   31   1.860546 32:32:32:32:32:32 11dBm Nov 19, 2018 22:06:59.677609000 +07
   32   1.895132 32:32:32:32:32:32 13dBm Nov 19, 2018 22:06:59.712195000 +07
   33   1.920571 32:32:32:32:32:32 13dBm Nov 19, 2018 22:06:59.737634000 +07
   34   1.938167 32:32:32:32:32:32 13dBm Nov 19, 2018 22:06:59.755230000 +07
   35   2.049555 32:32:32:32:32:32 11dBm Nov 19, 2018 22:06:59.866618000 +07
   36   2.091202 32:32:32:32:32:32 10dBm Nov 19, 2018 22:06:59.908265000 +07
   37   2.102161 32:32:32:32:32:32 10dBm Nov 19, 2018 22:06:59.919224000 +07
   38   2.130306 32:32:32:32:32:32 6dBm Nov 19, 2018 22:06:59.947369000 +07
   39   2.258720 32:32:32:32:32:32 9dBm Nov 19, 2018 22:07:00.075783000 +07
   40   2.279003 32:32:32:32:32:32 10dBm Nov 19, 2018 22:07:00.096066000 +07
   41   2.312561 32:32:32:32:32:32 9dBm Nov 19, 2018 22:07:00.129624000 +07
   42   2.336835 32:32:32:32:32:32 11dBm Nov 19, 2018 22:07:00.153898000 +07
   43   2.376076 32:32:32:32:32:32 11dBm Nov 19, 2018 22:07:00.193139000 +07
   44   2.594820 32:32:32:32:32:32 9dBm Nov 19, 2018 22:07:00.411883000 +07
   45   3.061444 32:32:32:32:32:32 12dBm Nov 19, 2018 22:07:00.878507000 +07
   46   3.126097 32:32:32:32:32:32 13dBm Nov 19, 2018 22:07:00.943160000 +07
   47   3.336356 32:32:32:32:32:32 10dBm Nov 19, 2018 22:07:01.153419000 +07
   48   3.395560 32:32:32:32:32:32 9dBm Nov 19, 2018 22:07:01.212623000 +07
   49   3.488849 32:32:32:32:32:32 10dBm Nov 19, 2018 22:07:01.305912000 +07
   50   3.706441 32:32:32:32:32:32 12dBm Nov 19, 2018 22:07:01.523504000 +07
   51   3.734339 32:32:32:32:32:32 12dBm Nov 19, 2018 22:07:01.551402000 +07
   52   3.771292 32:32:32:32:32:32 10dBm Nov 19, 2018 22:07:01.588355000 +07
   53   3.789298 32:32:32:32:32:32 10dBm Nov 19, 2018 22:07:01.606361000 +07
   54   3.868227 32:32:32:32:32:32 8dBm Nov 19, 2018 22:07:01.685290000 +07
   55   4.072177 32:32:32:32:32:32 9dBm Nov 19, 2018 22:07:01.889240000 +07
   56   4.121985 32:32:32:32:32:32 10dBm Nov 19, 2018 22:07:01.939048000 +07
   57   4.252565 32:32:32:32:32:32 9dBm Nov 19, 2018 22:07:02.069628000 +07
   58   4.285633 32:32:32:32:32:32 9dBm Nov 19, 2018 22:07:02.102696000 +07
   59   4.304576 32:32:32:32:32:32 8dBm Nov 19, 2018 22:07:02.121639000 +07
   60   4.330415 32:32:32:32:32:32 10dBm Nov 19, 2018 22:07:02.147478000 +07
   61   4.349666 32:32:32:32:32:32 11dBm Nov 19, 2018 22:07:02.166729000 +07
   62   4.368755 32:32:32:32:32:32 11dBm Nov 19, 2018 22:07:02.185818000 +07
   63   4.401736 32:32:32:32:32:32 11dBm Nov 19, 2018 22:07:02.218799000 +07
   64   4.746277 32:32:32:32:32:32 10dBm Nov 19, 2018 22:07:02.563340000 +07
   65   4.822718 32:32:32:32:32:32 10dBm Nov 19, 2018 22:07:02.639781000 +07
   66   4.978982 32:32:32:32:32:32 12dBm Nov 19, 2018 22:07:02.796045000 +07
   67   5.256349 32:32:32:32:32:32 11dBm Nov 19, 2018 22:07:03.073412000 +07
   68   5.310350 32:32:32:32:32:32 10dBm Nov 19, 2018 22:07:03.127413000 +07
   69   5.384812 32:32:32:32:32:32 7dBm Nov 19, 2018 22:07:03.201875000 +07
   70   5.420142 32:32:32:32:32:32 7dBm Nov 19, 2018 22:07:03.237205000 +07
   71   5.509381 32:32:32:32:32:32 8dBm Nov 19, 2018 22:07:03.326444000 +07
   72   5.529014 32:32:32:32:32:32 7dBm Nov 19, 2018 22:07:03.346077000 +07
   73   5.538967 32:32:32:32:32:32 9dBm Nov 19, 2018 22:07:03.356030000 +07
   74   5.695116 32:32:32:32:32:32 10dBm Nov 19, 2018 22:07:03.512179000 +07
   75   5.752150 32:32:32:32:32:32 10dBm Nov 19, 2018 22:07:03.569213000 +07
   76   5.775739 32:32:32:32:32:32 13dBm Nov 19, 2018 22:07:03.592802000 +07
   77   5.817151 32:32:32:32:32:32 12dBm Nov 19, 2018 22:07:03.634214000 +07
   78   5.833430 32:32:32:32:32:32 12dBm Nov 19, 2018 22:07:03.650493000 +07
   79   5.947986 32:32:32:32:32:32 13dBm Nov 19, 2018 22:07:03.765049000 +07
   80   6.023253 32:32:32:32:32:32 12dBm Nov 19, 2018 22:07:03.840316000 +07
   81   6.059285 32:32:32:32:32:32 12dBm Nov 19, 2018 22:07:03.876348000 +07
   82   6.232250 32:32:32:32:32:32 14dBm Nov 19, 2018 22:07:04.049313000 +07
   83   6.418961 32:32:32:32:32:32 13dBm Nov 19, 2018 22:07:04.236024000 +07
   84   6.675381 32:32:32:32:32:32 11dBm Nov 19, 2018 22:07:04.492444000 +07
   85   6.826987 32:32:32:32:32:32 12dBm Nov 19, 2018 22:07:04.644050000 +07
   86   6.839207 32:32:32:32:32:32 13dBm Nov 19, 2018 22:07:04.656270000 +07
   87   7.163645 32:32:32:32:32:32 10dBm Nov 19, 2018 22:07:04.980708000 +07
   88   7.221002 32:32:32:32:32:32 13dBm Nov 19, 2018 22:07:05.038065000 +07
   89   7.310129 32:32:32:32:32:32 13dBm Nov 19, 2018 22:07:05.127192000 +07
   90   7.364741 32:32:32:32:32:32 12dBm Nov 19, 2018 22:07:05.181804000 +07
   91   7.379818 32:32:32:32:32:32 13dBm Nov 19, 2018 22:07:05.196881000 +07
   92   7.400645 32:32:32:32:32:32 12dBm Nov 19, 2018 22:07:05.217708000 +07
   93   7.496148 32:32:32:32:32:32 13dBm Nov 19, 2018 22:07:05.313211000 +07
   94   7.514891 32:32:32:32:32:32 13dBm Nov 19, 2018 22:07:05.331954000 +07
   95   7.549207 32:32:32:32:32:32 13dBm Nov 19, 2018 22:07:05.366270000 +07
   96   7.605383 32:32:32:32:32:32 13dBm Nov 19, 2018 22:07:05.422446000 +07
   97   7.840397 32:32:32:32:32:32 13dBm Nov 19, 2018 22:07:05.657460000 +07
   98   7.916588 32:32:32:32:32:32 12dBm Nov 19, 2018 22:07:05.733651000 +07
   99   8.196753 32:32:32:32:32:32 10dBm Nov 19, 2018 22:07:06.013816000 +07
  100   8.267084 32:32:32:32:32:32 10dBm Nov 19, 2018 22:07:06.084147000 +07
  101   8.309412 32:32:32:32:32:32 12dBm Nov 19, 2018 22:07:06.126475000 +07
  102   8.532127 32:32:32:32:32:32 13dBm Nov 19, 2018 22:07:06.349190000 +07
  103   8.557468 32:32:32:32:32:32 14dBm Nov 19, 2018 22:07:06.374531000 +07
  104   8.603110 32:32:32:32:32:32 12dBm Nov 19, 2018 22:07:06.420173000 +07
  105   8.658212 32:32:32:32:32:32 13dBm Nov 19, 2018 22:07:06.475275000 +07
  106   8.693510 32:32:32:32:32:32 14dBm Nov 19, 2018 22:07:06.510573000 +07
  107   8.706276 32:32:32:32:32:32 12dBm Nov 19, 2018 22:07:06.523339000 +07
  108   8.726312 32:32:32:32:32:32 14dBm Nov 19, 2018 22:07:06.543375000 +07
  109   8.746992 32:32:32:32:32:32 13dBm Nov 19, 2018 22:07:06.564055000 +07
  110   8.827362 32:32:32:32:32:32 11dBm Nov 19, 2018 22:07:06.644425000 +07
  111   9.027294 32:32:32:32:32:32 13dBm Nov 19, 2018 22:07:06.844357000 +07
  112   9.177590 32:32:32:32:32:32 12dBm Nov 19, 2018 22:07:06.994653000 +07
  113   9.193474 32:32:32:32:32:32 12dBm Nov 19, 2018 22:07:07.010537000 +07
  114   9.435341 32:32:32:32:32:32 11dBm Nov 19, 2018 22:07:07.252404000 +07
  115   9.494798 32:32:32:32:32:32 12dBm Nov 19, 2018 22:07:07.311861000 +07
  116   9.839025 32:32:32:32:32:32 12dBm Nov 19, 2018 22:07:07.656088000 +07
  117   9.862066 32:32:32:32:32:32 11dBm Nov 19, 2018 22:07:07.679129000 +07
  118  10.252796 32:32:32:32:32:32 11dBm Nov 19, 2018 22:07:08.069859000 +07
  119  10.290172 32:32:32:32:32:32 12dBm Nov 19, 2018 22:07:08.107235000 +07
  120  10.407533 32:32:32:32:32:32 9dBm Nov 19, 2018 22:07:08.224596000 +07
  121  10.425666 32:32:32:32:32:32 12dBm Nov 19, 2018 22:07:08.242729000 +07
  122  10.683912 32:32:32:32:32:32 9dBm Nov 19, 2018 22:07:08.500975000 +07
  123  10.708684 32:32:32:32:32:32 11dBm Nov 19, 2018 22:07:08.525747000 +07
  124  10.738072 32:32:32:32:32:32 11dBm Nov 19, 2018 22:07:08.555135000 +07
  125  10.756804 32:32:32:32:32:32 11dBm Nov 19, 2018 22:07:08.573867000 +07
  126  10.790761 32:32:32:32:32:32 10dBm Nov 19, 2018 22:07:08.607824000 +07
  127  10.947589 32:32:32:32:32:32 11dBm Nov 19, 2018 22:07:08.764652000 +07
  128  10.973930 32:32:32:32:32:32 8dBm Nov 19, 2018 22:07:08.790993000 +07
  129  10.997887 32:32:32:32:32:32 10dBm Nov 19, 2018 22:07:08.814950000 +07
  130  11.041363 32:32:32:32:32:32 9dBm Nov 19, 2018 22:07:08.858426000 +07
  131  11.068559 32:32:32:32:32:32 10dBm Nov 19, 2018 22:07:08.885622000 +07
  132  11.236363 32:32:32:32:32:32 10dBm Nov 19, 2018 22:07:09.053426000 +07
  133  11.295530 32:32:32:32:32:32 10dBm Nov 19, 2018 22:07:09.112593000 +07
  134  11.361669 32:32:32:32:32:32 12dBm Nov 19, 2018 22:07:09.178732000 +07
  135  11.514519 32:32:32:32:32:32 12dBm Nov 19, 2018 22:07:09.331582000 +07
  136  11.530618 32:32:32:32:32:32 11dBm Nov 19, 2018 22:07:09.347681000 +07
  137  11.547106 32:32:32:32:32:32 10dBm Nov 19, 2018 22:07:09.364169000 +07
  138  11.562305 32:32:32:32:32:32 11dBm Nov 19, 2018 22:07:09.379368000 +07
  139  11.729223 32:32:32:32:32:32 10dBm Nov 19, 2018 22:07:09.546286000 +07
  140  11.747495 32:32:32:32:32:32 8dBm Nov 19, 2018 22:07:09.564558000 +07
  141  11.776191 32:32:32:32:32:32 10dBm Nov 19, 2018 22:07:09.593254000 +07
  142  11.842015 32:32:32:32:32:32 8dBm Nov 19, 2018 22:07:09.659078000 +07
  143  11.864837 32:32:32:32:32:32 11dBm Nov 19, 2018 22:07:09.681900000 +07
  144  11.929168 32:32:32:32:32:32 10dBm Nov 19, 2018 22:07:09.746231000 +07
  145  12.065925 32:32:32:32:32:32 9dBm Nov 19, 2018 22:07:09.882988000 +07
  146  12.195485 32:32:32:32:32:32 11dBm Nov 19, 2018 22:07:10.012548000 +07
  147  12.364060 32:32:32:32:32:32 11dBm Nov 19, 2018 22:07:10.181123000 +07
  148  12.443811 32:32:32:32:32:32 9dBm Nov 19, 2018 22:07:10.260874000 +07
  149  12.463838 32:32:32:32:32:32 9dBm Nov 19, 2018 22:07:10.280901000 +07
  150  12.547728 32:32:32:32:32:32 9dBm Nov 19, 2018 22:07:10.364791000 +07
  151  12.567439 32:32:32:32:32:32 11dBm Nov 19, 2018 22:07:10.384502000 +07
  152  12.685992 32:32:32:32:32:32 9dBm Nov 19, 2018 22:07:10.503055000 +07
  153  12.762973 32:32:32:32:32:32 8dBm Nov 19, 2018 22:07:10.580036000 +07
  154  12.783698 32:32:32:32:32:32 9dBm Nov 19, 2018 22:07:10.600761000 +07
  155  12.991560 32:32:32:32:32:32 10dBm Nov 19, 2018 22:07:10.808623000 +07
  156  13.527247 32:32:32:32:32:32 9dBm Nov 19, 2018 22:07:11.344310000 +07
  157  13.588103 32:32:32:32:32:32 9dBm Nov 19, 2018 22:07:11.405166000 +07
  158  13.599006 32:32:32:32:32:32 9dBm Nov 19, 2018 22:07:11.416069000 +07
  159  13.685777 32:32:32:32:32:32 7dBm Nov 19, 2018 22:07:11.502840000 +07
  160  13.774608 32:32:32:32:32:32 8dBm Nov 19, 2018 22:07:11.591671000 +07
  161  13.819136 32:32:32:32:32:32 9dBm Nov 19, 2018 22:07:11.636199000 +07
  162  14.010777 32:32:32:32:32:32 8dBm Nov 19, 2018 22:07:11.827840000 +07
  163  14.249049 32:32:32:32:32:32 7dBm Nov 19, 2018 22:07:12.066112000 +07
  164  14.520780 32:32:32:32:32:32 9dBm Nov 19, 2018 22:07:12.337843000 +07
  165  14.739267 32:32:32:32:32:32 9dBm Nov 19, 2018 22:07:12.556330000 +07
  166  14.807363 32:32:32:32:32:32 8dBm Nov 19, 2018 22:07:12.624426000 +07
  167  14.826851 32:32:32:32:32:32 6dBm Nov 19, 2018 22:07:12.643914000 +07
  168  14.848517 32:32:32:32:32:32 9dBm Nov 19, 2018 22:07:12.665580000 +07
  169  14.864834 32:32:32:32:32:32 8dBm Nov 19, 2018 22:07:12.681897000 +07
  170  15.283883 32:32:32:32:32:32 8dBm Nov 19, 2018 22:07:13.100946000 +07
  171  15.301163 32:32:32:32:32:32 10dBm Nov 19, 2018 22:07:13.118226000 +07
  172  15.394941 32:32:32:32:32:32 9dBm Nov 19, 2018 22:07:13.212004000 +07
  173  15.400361 32:32:32:32:32:32 10dBm Nov 19, 2018 22:07:13.217424000 +07
  174  15.449896 32:32:32:32:32:32 9dBm Nov 19, 2018 22:07:13.266959000 +07
  175  15.582538 32:32:32:32:32:32 9dBm Nov 19, 2018 22:07:13.399601000 +07
  176  15.630387 32:32:32:32:32:32 10dBm Nov 19, 2018 22:07:13.447450000 +07
  177  15.660459 32:32:32:32:32:32 6dBm Nov 19, 2018 22:07:13.477522000 +07
  178  15.674361 32:32:32:32:32:32 10dBm Nov 19, 2018 22:07:13.491424000 +07
  179  15.814644 32:32:32:32:32:32 11dBm Nov 19, 2018 22:07:13.631707000 +07
  180  15.957003 32:32:32:32:32:32 10dBm Nov 19, 2018 22:07:13.774066000 +07
  181  15.988873 32:32:32:32:32:32 10dBm Nov 19, 2018 22:07:13.805936000 +07
  182  16.167782 32:32:32:32:32:32 9dBm Nov 19, 2018 22:07:13.984845000 +07
  183  16.262527 32:32:32:32:32:32 10dBm Nov 19, 2018 22:07:14.079590000 +07
  184  16.364687 32:32:32:32:32:32 7dBm Nov 19, 2018 22:07:14.181750000 +07
  185  16.469150 32:32:32:32:32:32 9dBm Nov 19, 2018 22:07:14.286213000 +07
  186  16.635570 32:32:32:32:32:32 9dBm Nov 19, 2018 22:07:14.452633000 +07
  187  16.701649 32:32:32:32:32:32 8dBm Nov 19, 2018 22:07:14.518712000 +07
  188  16.717966 32:32:32:32:32:32 8dBm Nov 19, 2018 22:07:14.535029000 +07
  189  16.738010 32:32:32:32:32:32 10dBm Nov 19, 2018 22:07:14.555073000 +07
  190  16.753002 32:32:32:32:32:32 7dBm Nov 19, 2018 22:07:14.570065000 +07
  191  16.768488 32:32:32:32:32:32 9dBm Nov 19, 2018 22:07:14.585551000 +07
  192  17.199637 32:32:32:32:32:32 7dBm Nov 19, 2018 22:07:15.016700000 +07
  193  17.262761 32:32:32:32:32:32 8dBm Nov 19, 2018 22:07:15.079824000 +07
  194  17.344080 32:32:32:32:32:32 8dBm Nov 19, 2018 22:07:15.161143000 +07
  195  17.389621 32:32:32:32:32:32 7dBm Nov 19, 2018 22:07:15.206684000 +07
  196  17.412878 32:32:32:32:32:32 8dBm Nov 19, 2018 22:07:15.229941000 +07
  197  17.467177 32:32:32:32:32:32 9dBm Nov 19, 2018 22:07:15.284240000 +07
  198  17.560829 32:32:32:32:32:32 9dBm Nov 19, 2018 22:07:15.377892000 +07
  199  17.776678 32:32:32:32:32:32 9dBm Nov 19, 2018 22:07:15.593741000 +07
  200  17.813725 32:32:32:32:32:32 8dBm Nov 19, 2018 22:07:15.630788000 +07
  201  17.870088 32:32:32:32:32:32 9dBm Nov 19, 2018 22:07:15.687151000 +07
  202  17.888781 32:32:32:32:32:32 8dBm Nov 19, 2018 22:07:15.705844000 +07
  203  18.098918 32:32:32:32:32:32 9dBm Nov 19, 2018 22:07:15.915981000 +07
  204  18.155475 32:32:32:32:32:32 7dBm Nov 19, 2018 22:07:15.972538000 +07
  205  18.246410 32:32:32:32:32:32 7dBm Nov 19, 2018 22:07:16.063473000 +07
  206  18.273086 32:32:32:32:32:32 8dBm Nov 19, 2018 22:07:16.090149000 +07
  207  18.389436 32:32:32:32:32:32 8dBm Nov 19, 2018 22:07:16.206499000 +07
  208  18.419448 32:32:32:32:32:32 8dBm Nov 19, 2018 22:07:16.236511000 +07
  209  18.452449 32:32:32:32:32:32 9dBm Nov 19, 2018 22:07:16.269512000 +07
  210  18.471388 32:32:32:32:32:32 10dBm Nov 19, 2018 22:07:16.288451000 +07
  211  18.591539 32:32:32:32:32:32 8dBm Nov 19, 2018 22:07:16.408602000 +07
  212  18.704780 32:32:32:32:32:32 8dBm Nov 19, 2018 22:07:16.521843000 +07
  213  18.757543 32:32:32:32:32:32 9dBm Nov 19, 2018 22:07:16.574606000 +07
  214  18.786940 32:32:32:32:32:32 10dBm Nov 19, 2018 22:07:16.604003000 +07
  215  18.802930 32:32:32:32:32:32 7dBm Nov 19, 2018 22:07:16.619993000 +07
  216  18.831897 32:32:32:32:32:32 9dBm Nov 19, 2018 22:07:16.648960000 +07
  217  19.012017 32:32:32:32:32:32 8dBm Nov 19, 2018 22:07:16.829080000 +07
  218  19.045787 32:32:32:32:32:32 10dBm Nov 19, 2018 22:07:16.862850000 +07
  219  19.071864 32:32:32:32:32:32 9dBm Nov 19, 2018 22:07:16.888927000 +07
  220  19.089576 32:32:32:32:32:32 9dBm Nov 19, 2018 22:07:16.906639000 +07
  221  19.104443 32:32:32:32:32:32 10dBm Nov 19, 2018 22:07:16.921506000 +07
  222  19.270957 32:32:32:32:32:32 11dBm Nov 19, 2018 22:07:17.088020000 +07
  223  19.321152 32:32:32:32:32:32 11dBm Nov 19, 2018 22:07:17.138215000 +07
  224  19.333559 32:32:32:32:32:32 11dBm Nov 19, 2018 22:07:17.150622000 +07
  225  19.379331 32:32:32:32:32:32 12dBm Nov 19, 2018 22:07:17.196394000 +07
  226  19.599174 32:32:32:32:32:32 10dBm Nov 19, 2018 22:07:17.416237000 +07
  227  19.621045 32:32:32:32:32:32 8dBm Nov 19, 2018 22:07:17.438108000 +07
  228  19.636684 32:32:32:32:32:32 12dBm Nov 19, 2018 22:07:17.453747000 +07
  229  19.800380 32:32:32:32:32:32 11dBm Nov 19, 2018 22:07:17.617443000 +07
  230  19.838728 32:32:32:32:32:32 11dBm Nov 19, 2018 22:07:17.655791000 +07
  231  19.885678 32:32:32:32:32:32 11dBm Nov 19, 2018 22:07:17.702741000 +07
  232  20.072278 32:32:32:32:32:32 11dBm Nov 19, 2018 22:07:17.889341000 +07
  233  20.082160 32:32:32:32:32:32 11dBm Nov 19, 2018 22:07:17.899223000 +07
  234  20.215125 32:32:32:32:32:32 13dBm Nov 19, 2018 22:07:18.032188000 +07
  235  20.304599 32:32:32:32:32:32 13dBm Nov 19, 2018 22:07:18.121662000 +07
  236  20.347117 32:32:32:32:32:32 9dBm Nov 19, 2018 22:07:18.164180000 +07
  237  20.479379 32:32:32:32:32:32 12dBm Nov 19, 2018 22:07:18.296442000 +07
  238  20.504035 32:32:32:32:32:32 12dBm Nov 19, 2018 22:07:18.321098000 +07
  239  20.514860 32:32:32:32:32:32 12dBm Nov 19, 2018 22:07:18.331923000 +07
  240  20.539712 32:32:32:32:32:32 11dBm Nov 19, 2018 22:07:18.356775000 +07
  241  20.563604 32:32:32:32:32:32 14dBm Nov 19, 2018 22:07:18.380667000 +07
  242  20.644646 32:32:32:32:32:32 10dBm Nov 19, 2018 22:07:18.461709000 +07
  243  20.693737 32:32:32:32:32:32 14dBm Nov 19, 2018 22:07:18.510800000 +07
  244  20.711787 32:32:32:32:32:32 13dBm Nov 19, 2018 22:07:18.528850000 +07
  245  21.190121 32:32:32:32:32:32 13dBm Nov 19, 2018 22:07:19.007184000 +07
  246  21.233619 32:32:32:32:32:32 12dBm Nov 19, 2018 22:07:19.050682000 +07
  247  21.248821 32:32:32:32:32:32 13dBm Nov 19, 2018 22:07:19.065884000 +07
  248  21.257139 32:32:32:32:32:32 13dBm Nov 19, 2018 22:07:19.074202000 +07
  249  21.303805 32:32:32:32:32:32 12dBm Nov 19, 2018 22:07:19.120868000 +07
  250  21.322334 32:32:32:32:32:32 13dBm Nov 19, 2018 22:07:19.139397000 +07
  251  21.352447 32:32:32:32:32:32 12dBm Nov 19, 2018 22:07:19.169510000 +07
  252  21.533291 32:32:32:32:32:32 13dBm Nov 19, 2018 22:07:19.350354000 +07
  253  21.600967 32:32:32:32:32:32 12dBm Nov 19, 2018 22:07:19.418030000 +07
  254  21.648552 32:32:32:32:32:32 11dBm Nov 19, 2018 22:07:19.465615000 +07
  255  21.717224 32:32:32:32:32:32 13dBm Nov 19, 2018 22:07:19.534287000 +07
  256  21.772016 32:32:32:32:32:32 12dBm Nov 19, 2018 22:07:19.589079000 +07
  257  21.866221 32:32:32:32:32:32 12dBm Nov 19, 2018 22:07:19.683284000 +07
  258  21.892283 32:32:32:32:32:32 12dBm Nov 19, 2018 22:07:19.709346000 +07
  259  21.927252 32:32:32:32:32:32 12dBm Nov 19, 2018 22:07:19.744315000 +07
  260  21.951906 32:32:32:32:32:32 11dBm Nov 19, 2018 22:07:19.768969000 +07
  261  22.103902 32:32:32:32:32:32 11dBm Nov 19, 2018 22:07:19.920965000 +07
  262  22.219322 32:32:32:32:32:32 12dBm Nov 19, 2018 22:07:20.036385000 +07
  263  22.346951 32:32:32:32:32:32 12dBm Nov 19, 2018 22:07:20.164014000 +07
  264  22.369318 32:32:32:32:32:32 12dBm Nov 19, 2018 22:07:20.186381000 +07
  265  22.398050 32:32:32:32:32:32 14dBm Nov 19, 2018 22:07:20.215113000 +07
  266  22.477020 32:32:32:32:32:32 12dBm Nov 19, 2018 22:07:20.294083000 +07
  267  22.497282 32:32:32:32:32:32 11dBm Nov 19, 2018 22:07:20.314345000 +07
  268  22.512850 32:32:32:32:32:32 12dBm Nov 19, 2018 22:07:20.329913000 +07
  269  22.613205 32:32:32:32:32:32 12dBm Nov 19, 2018 22:07:20.430268000 +07
  270  22.714595 32:32:32:32:32:32 11dBm Nov 19, 2018 22:07:20.531658000 +07
  271  22.734677 32:32:32:32:32:32 12dBm Nov 19, 2018 22:07:20.551740000 +07
  272  22.806996 32:32:32:32:32:32 11dBm Nov 19, 2018 22:07:20.624059000 +07
  273  22.904653 32:32:32:32:32:32 12dBm Nov 19, 2018 22:07:20.721716000 +07
  274  22.928879 32:32:32:32:32:32 14dBm Nov 19, 2018 22:07:20.745942000 +07
  275  22.962442 32:32:32:32:32:32 11dBm Nov 19, 2018 22:07:20.779505000 +07
  276  23.199645 32:32:32:32:32:32 11dBm Nov 19, 2018 22:07:21.016708000 +07
  277  23.358653 32:32:32:32:32:32 12dBm Nov 19, 2018 22:07:21.175716000 +07
  278  23.471485 32:32:32:32:32:32 13dBm Nov 19, 2018 22:07:21.288548000 +07
  279  23.501814 32:32:32:32:32:32 13dBm Nov 19, 2018 22:07:21.318877000 +07
  280  23.535597 32:32:32:32:32:32 11dBm Nov 19, 2018 22:07:21.352660000 +07
  281  23.621150 32:32:32:32:32:32 12dBm Nov 19, 2018 22:07:21.438213000 +07
  282  23.869786 32:32:32:32:32:32 12dBm Nov 19, 2018 22:07:21.686849000 +07
  283  23.979492 32:32:32:32:32:32 12dBm Nov 19, 2018 22:07:21.796555000 +07
  284  24.063605 32:32:32:32:32:32 12dBm Nov 19, 2018 22:07:21.880668000 +07
  285  24.128270 32:32:32:32:32:32 12dBm Nov 19, 2018 22:07:21.945333000 +07
  286  24.301584 32:32:32:32:32:32 12dBm Nov 19, 2018 22:07:22.118647000 +07
  287  24.589182 32:32:32:32:32:32 11dBm Nov 19, 2018 22:07:22.406245000 +07
  288  24.650766 32:32:32:32:32:32 14dBm Nov 19, 2018 22:07:22.467829000 +07
  289  24.680733 32:32:32:32:32:32 14dBm Nov 19, 2018 22:07:22.497796000 +07
  290  24.969705 32:32:32:32:32:32 11dBm Nov 19, 2018 22:07:22.786768000 +07
  291  25.019895 32:32:32:32:32:32 11dBm Nov 19, 2018 22:07:22.836958000 +07
  292  25.036526 32:32:32:32:32:32 11dBm Nov 19, 2018 22:07:22.853589000 +07
  293  25.163056 32:32:32:32:32:32 13dBm Nov 19, 2018 22:07:22.980119000 +07
  294  25.270387 32:32:32:32:32:32 13dBm Nov 19, 2018 22:07:23.087450000 +07
  295  25.315152 32:32:32:32:32:32 10dBm Nov 19, 2018 22:07:23.132215000 +07
  296  25.371720 32:32:32:32:32:32 11dBm Nov 19, 2018 22:07:23.188783000 +07
  297  25.392237 32:32:32:32:32:32 10dBm Nov 19, 2018 22:07:23.209300000 +07
  298  25.426847 32:32:32:32:32:32 12dBm Nov 19, 2018 22:07:23.243910000 +07
  299  25.442352 32:32:32:32:32:32 11dBm Nov 19, 2018 22:07:23.259415000 +07
  300  25.471226 32:32:32:32:32:32 12dBm Nov 19, 2018 22:07:23.288289000 +07
  301  25.534770 32:32:32:32:32:32 10dBm Nov 19, 2018 22:07:23.351833000 +07
  302  25.626386 32:32:32:32:32:32 11dBm Nov 19, 2018 22:07:23.443449000 +07
  303  25.654031 32:32:32:32:32:32 11dBm Nov 19, 2018 22:07:23.471094000 +07
  304  25.702382 32:32:32:32:32:32 8dBm Nov 19, 2018 22:07:23.519445000 +07
  305  25.841078 32:32:32:32:32:32 11dBm Nov 19, 2018 22:07:23.658141000 +07
  306  25.983125 32:32:32:32:32:32 10dBm Nov 19, 2018 22:07:23.800188000 +07
  307  26.000949 32:32:32:32:32:32 10dBm Nov 19, 2018 22:07:23.818012000 +07
  308  26.034851 32:32:32:32:32:32 10dBm Nov 19, 2018 22:07:23.851914000 +07
  309  26.185072 32:32:32:32:32:32 9dBm Nov 19, 2018 22:07:24.002135000 +07
  310  26.318838 32:32:32:32:32:32 11dBm Nov 19, 2018 22:07:24.135901000 +07
  311  26.397079 32:32:32:32:32:32 11dBm Nov 19, 2018 22:07:24.214142000 +07
  312  26.434080 32:32:32:32:32:32 8dBm Nov 19, 2018 22:07:24.251143000 +07
  313  26.455932 32:32:32:32:32:32 10dBm Nov 19, 2018 22:07:24.272995000 +07
  314  26.467495 32:32:32:32:32:32 10dBm Nov 19, 2018 22:07:24.284558000 +07
  315  26.572136 32:32:32:32:32:32 10dBm Nov 19, 2018 22:07:24.389199000 +07
  316  26.591530 32:32:32:32:32:32 9dBm Nov 19, 2018 22:07:24.408593000 +07
  317  26.627944 32:32:32:32:32:32 9dBm Nov 19, 2018 22:07:24.445007000 +07
  318  26.731893 32:32:32:32:32:32 11dBm Nov 19, 2018 22:07:24.548956000 +07
  319  26.754683 32:32:32:32:32:32 10dBm Nov 19, 2018 22:07:24.571746000 +07
  320  26.807818 32:32:32:32:32:32 8dBm Nov 19, 2018 22:07:24.624881000 +07
  321  26.873940 32:32:32:32:32:32 8dBm Nov 19, 2018 22:07:24.691003000 +07
  322  26.953954 32:32:32:32:32:32 10dBm Nov 19, 2018 22:07:24.771017000 +07
  323  26.974912 32:32:32:32:32:32 10dBm Nov 19, 2018 22:07:24.791975000 +07
  324  27.193151 32:32:32:32:32:32 10dBm Nov 19, 2018 22:07:25.010214000 +07
  325  27.280036 32:32:32:32:32:32 11dBm Nov 19, 2018 22:07:25.097099000 +07
  326  27.400083 32:32:32:32:32:32 9dBm Nov 19, 2018 22:07:25.217146000 +07
  327  27.418101 32:32:32:32:32:32 10dBm Nov 19, 2018 22:07:25.235164000 +07
  328  27.440969 32:32:32:32:32:32 10dBm Nov 19, 2018 22:07:25.258032000 +07
  329  27.464605 32:32:32:32:32:32 10dBm Nov 19, 2018 22:07:25.281668000 +07
  330  27.536940 32:32:32:32:32:32 9dBm Nov 19, 2018 22:07:25.354003000 +07
  331  27.684636 32:32:32:32:32:32 9dBm Nov 19, 2018 22:07:25.501699000 +07
  332  27.701586 32:32:32:32:32:32 10dBm Nov 19, 2018 22:07:25.518649000 +07
  333  27.879620 32:32:32:32:32:32 8dBm Nov 19, 2018 22:07:25.696683000 +07
  334  27.891353 32:32:32:32:32:32 9dBm Nov 19, 2018 22:07:25.708416000 +07
  335  28.301446 32:32:32:32:32:32 8dBm Nov 19, 2018 22:07:26.118509000 +07
  336  28.408226 32:32:32:32:32:32 11dBm Nov 19, 2018 22:07:26.225289000 +07
  337  28.657380 32:32:32:32:32:32 12dBm Nov 19, 2018 22:07:26.474443000 +07
  338  28.719563 32:32:32:32:32:32 11dBm Nov 19, 2018 22:07:26.536626000 +07
  339  28.750973 32:32:32:32:32:32 10dBm Nov 19, 2018 22:07:26.568036000 +07
  340  28.815105 32:32:32:32:32:32 7dBm Nov 19, 2018 22:07:26.632168000 +07
  341  28.866187 32:32:32:32:32:32 9dBm Nov 19, 2018 22:07:26.683250000 +07
  342  28.895113 32:32:32:32:32:32 12dBm Nov 19, 2018 22:07:26.712176000 +07
  343  28.957216 32:32:32:32:32:32 10dBm Nov 19, 2018 22:07:26.774279000 +07
  344  29.114984 32:32:32:32:32:32 9dBm Nov 19, 2018 22:07:26.932047000 +07
  345  29.258720 32:32:32:32:32:32 13dBm Nov 19, 2018 22:07:27.075783000 +07
  346  29.386730 32:32:32:32:32:32 11dBm Nov 19, 2018 22:07:27.203793000 +07
  347  29.421297 32:32:32:32:32:32 8dBm Nov 19, 2018 22:07:27.238360000 +07
  348  29.529307 32:32:32:32:32:32 8dBm Nov 19, 2018 22:07:27.346370000 +07
  349  29.567346 32:32:32:32:32:32 11dBm Nov 19, 2018 22:07:27.384409000 +07
  350  29.623503 32:32:32:32:32:32 11dBm Nov 19, 2018 22:07:27.440566000 +07
  351  30.013040 32:32:32:32:32:32 10dBm Nov 19, 2018 22:07:27.830103000 +07
  352  30.270199 32:32:32:32:32:32 10dBm Nov 19, 2018 22:07:28.087262000 +07
  353  30.347563 32:32:32:32:32:32 10dBm Nov 19, 2018 22:07:28.164626000 +07
  354  30.464233 32:32:32:32:32:32 10dBm Nov 19, 2018 22:07:28.281296000 +07
  355  30.672496 32:32:32:32:32:32 9dBm Nov 19, 2018 22:07:28.489559000 +07
  356  30.791525 32:32:32:32:32:32 9dBm Nov 19, 2018 22:07:28.608588000 +07
  357  30.866710 32:32:32:32:32:32 11dBm Nov 19, 2018 22:07:28.683773000 +07
  358  30.897810 32:32:32:32:32:32 11dBm Nov 19, 2018 22:07:28.714873000 +07
  359  30.920936 32:32:32:32:32:32 11dBm Nov 19, 2018 22:07:28.737999000 +07
  360  30.931878 32:32:32:32:32:32 10dBm Nov 19, 2018 22:07:28.748941000 +07
  361  30.956871 32:32:32:32:32:32 9dBm Nov 19, 2018 22:07:28.773934000 +07
  362  31.049205 32:32:32:32:32:32 10dBm Nov 19, 2018 22:07:28.866268000 +07
  363  31.200022 32:32:32:32:32:32 10dBm Nov 19, 2018 22:07:29.017085000 +07
  364  31.241747 32:32:32:32:32:32 11dBm Nov 19, 2018 22:07:29.058810000 +07
  365  31.290040 32:32:32:32:32:32 9dBm Nov 19, 2018 22:07:29.107103000 +07
  366  31.315978 32:32:32:32:32:32 13dBm Nov 19, 2018 22:07:29.133041000 +07
  367  31.500255 32:32:32:32:32:32 10dBm Nov 19, 2018 22:07:29.317318000 +07
  368  31.619706 32:32:32:32:32:32 11dBm Nov 19, 2018 22:07:29.436769000 +07
  369  31.704846 32:32:32:32:32:32 11dBm Nov 19, 2018 22:07:29.521909000 +07
  370  31.988345 32:32:32:32:32:32 9dBm Nov 19, 2018 22:07:29.805408000 +07
  371  32.047025 32:32:32:32:32:32 12dBm Nov 19, 2018 22:07:29.864088000 +07
  372  32.066291 32:32:32:32:32:32 8dBm Nov 19, 2018 22:07:29.883354000 +07
  373  32.082168 32:32:32:32:32:32 11dBm Nov 19, 2018 22:07:29.899231000 +07
  374  32.299843 32:32:32:32:32:32 11dBm Nov 19, 2018 22:07:30.116906000 +07
  375  32.428839 32:32:32:32:32:32 12dBm Nov 19, 2018 22:07:30.245902000 +07
  376  32.455968 32:32:32:32:32:32 13dBm Nov 19, 2018 22:07:30.273031000 +07
  377  32.478383 32:32:32:32:32:32 11dBm Nov 19, 2018 22:07:30.295446000 +07
  378  32.495767 32:32:32:32:32:32 11dBm Nov 19, 2018 22:07:30.312830000 +07
  379  32.514780 32:32:32:32:32:32 13dBm Nov 19, 2018 22:07:30.331843000 +07
  380  32.697524 32:32:32:32:32:32 11dBm Nov 19, 2018 22:07:30.514587000 +07
  381  32.909960 32:32:32:32:32:32 7dBm Nov 19, 2018 22:07:30.727023000 +07
  382  32.947336 32:32:32:32:32:32 10dBm Nov 19, 2018 22:07:30.764399000 +07
  383  33.307582 32:32:32:32:32:32 7dBm Nov 19, 2018 22:07:31.124645000 +07
  384  33.376512 32:32:32:32:32:32 11dBm Nov 19, 2018 22:07:31.193575000 +07
  385  33.384856 32:32:32:32:32:32 11dBm Nov 19, 2018 22:07:31.201919000 +07
  386  33.461054 32:32:32:32:32:32 10dBm Nov 19, 2018 22:07:31.278117000 +07
  387  33.531302 32:32:32:32:32:32 9dBm Nov 19, 2018 22:07:31.348365000 +07
  388  33.555622 32:32:32:32:32:32 11dBm Nov 19, 2018 22:07:31.372685000 +07
  389  33.638299 32:32:32:32:32:32 13dBm Nov 19, 2018 22:07:31.455362000 +07
  390  33.750244 32:32:32:32:32:32 12dBm Nov 19, 2018 22:07:31.567307000 +07
  391  33.765796 32:32:32:32:32:32 9dBm Nov 19, 2018 22:07:31.582859000 +07
  392  33.983849 32:32:32:32:32:32 11dBm Nov 19, 2018 22:07:31.800912000 +07
  393  34.009718 32:32:32:32:32:32 11dBm Nov 19, 2018 22:07:31.826781000 +07
  394  34.053655 32:32:32:32:32:32 11dBm Nov 19, 2018 22:07:31.870718000 +07
  395  34.078421 32:32:32:32:32:32 10dBm Nov 19, 2018 22:07:31.895484000 +07
  396  34.110598 32:32:32:32:32:32 12dBm Nov 19, 2018 22:07:31.927661000 +07
  397  34.158045 32:32:32:32:32:32 9dBm Nov 19, 2018 22:07:31.975108000 +07
  398  34.586990 32:32:32:32:32:32 10dBm Nov 19, 2018 22:07:32.404053000 +07
  399  34.777310 32:32:32:32:32:32 13dBm Nov 19, 2018 22:07:32.594373000 +07
  400  34.803446 32:32:32:32:32:32 8dBm Nov 19, 2018 22:07:32.620509000 +07
  401  34.818000 32:32:32:32:32:32 13dBm Nov 19, 2018 22:07:32.635063000 +07
  402  34.833970 32:32:32:32:32:32 11dBm Nov 19, 2018 22:07:32.651033000 +07
  403  34.853584 32:32:32:32:32:32 9dBm Nov 19, 2018 22:07:32.670647000 +07
  404  34.980739 32:32:32:32:32:32 9dBm Nov 19, 2018 22:07:32.797802000 +07
  405  35.012044 32:32:32:32:32:32 9dBm Nov 19, 2018 22:07:32.829107000 +07
  406  35.030779 32:32:32:32:32:32 9dBm Nov 19, 2018 22:07:32.847842000 +07
  407  35.097317 32:32:32:32:32:32 11dBm Nov 19, 2018 22:07:32.914380000 +07
  408  35.255239 32:32:32:32:32:32 10dBm Nov 19, 2018 22:07:33.072302000 +07
  409  35.451128 32:32:32:32:32:32 11dBm Nov 19, 2018 22:07:33.268191000 +07
  410  35.544923 32:32:32:32:32:32 11dBm Nov 19, 2018 22:07:33.361986000 +07
  411  35.623370 32:32:32:32:32:32 11dBm Nov 19, 2018 22:07:33.440433000 +07
  412  35.760067 32:32:32:32:32:32 12dBm Nov 19, 2018 22:07:33.577130000 +07
  413  35.931230 32:32:32:32:32:32 11dBm Nov 19, 2018 22:07:33.748293000 +07
  414  36.047835 32:32:32:32:32:32 11dBm Nov 19, 2018 22:07:33.864898000 +07
  415  36.098426 32:32:32:32:32:32 11dBm Nov 19, 2018 22:07:33.915489000 +07
  416  36.115713 32:32:32:32:32:32 11dBm Nov 19, 2018 22:07:33.932776000 +07
  417  36.136695 32:32:32:32:32:32 10dBm Nov 19, 2018 22:07:33.953758000 +07
  418  36.160086 32:32:32:32:32:32 11dBm Nov 19, 2018 22:07:33.977149000 +07
  419  36.554064 32:32:32:32:32:32 11dBm Nov 19, 2018 22:07:34.371127000 +07
  420  37.073262 32:32:32:32:32:32 8dBm Nov 19, 2018 22:07:34.890325000 +07
  421  37.205450 32:32:32:32:32:32 10dBm Nov 19, 2018 22:07:35.022513000 +07
  422  37.231091 32:32:32:32:32:32 11dBm Nov 19, 2018 22:07:35.048154000 +07
  423  37.346324 32:32:32:32:32:32 10dBm Nov 19, 2018 22:07:35.163387000 +07
  424  37.366052 32:32:32:32:32:32 10dBm Nov 19, 2018 22:07:35.183115000 +07
  425  37.600313 32:32:32:32:32:32 10dBm Nov 19, 2018 22:07:35.417376000 +07
  426  37.630905 32:32:32:32:32:32 10dBm Nov 19, 2018 22:07:35.447968000 +07
  427  37.718519 32:32:32:32:32:32 9dBm Nov 19, 2018 22:07:35.535582000 +07
  428  37.749212 32:32:32:32:32:32 10dBm Nov 19, 2018 22:07:35.566275000 +07
  429  37.754007 32:32:32:32:32:32 8dBm Nov 19, 2018 22:07:35.571070000 +07
  430  37.769266 32:32:32:32:32:32 9dBm Nov 19, 2018 22:07:35.586329000 +07
  431  37.777314 32:32:32:32:32:32 9dBm Nov 19, 2018 22:07:35.594377000 +07
  432  37.808718 32:32:32:32:32:32 10dBm Nov 19, 2018 22:07:35.625781000 +07
  433  37.853906 32:32:32:32:32:32 9dBm Nov 19, 2018 22:07:35.670969000 +07
  434  37.939581 32:32:32:32:32:32 10dBm Nov 19, 2018 22:07:35.756644000 +07
  435  38.101091 32:32:32:32:32:32 10dBm Nov 19, 2018 22:07:35.918154000 +07
  436  38.361800 32:32:32:32:32:32 9dBm Nov 19, 2018 22:07:36.178863000 +07
  437  38.427139 32:32:32:32:32:32 6dBm Nov 19, 2018 22:07:36.244202000 +07
  438  38.484969 32:32:32:32:32:32 11dBm Nov 19, 2018 22:07:36.302032000 +07
  439  38.659331 32:32:32:32:32:32 10dBm Nov 19, 2018 22:07:36.476394000 +07
  440  39.064127 32:32:32:32:32:32 10dBm Nov 19, 2018 22:07:36.881190000 +07
  441  39.116178 32:32:32:32:32:32 11dBm Nov 19, 2018 22:07:36.933241000 +07
  442  39.202194 32:32:32:32:32:32 10dBm Nov 19, 2018 22:07:37.019257000 +07
  443  39.220520 32:32:32:32:32:32 9dBm Nov 19, 2018 22:07:37.037583000 +07
  444  39.234540 32:32:32:32:32:32 10dBm Nov 19, 2018 22:07:37.051603000 +07
  445  39.370235 32:32:32:32:32:32 9dBm Nov 19, 2018 22:07:37.187298000 +07
  446  39.585778 32:32:32:32:32:32 9dBm Nov 19, 2018 22:07:37.402841000 +07
  447  39.613654 32:32:32:32:32:32 9dBm Nov 19, 2018 22:07:37.430717000 +07
  448  39.786583 32:32:32:32:32:32 9dBm Nov 19, 2018 22:07:37.603646000 +07
  449  39.816644 32:32:32:32:32:32 9dBm Nov 19, 2018 22:07:37.633707000 +07
  450  40.152267 32:32:32:32:32:32 11dBm Nov 19, 2018 22:07:37.969330000 +07
  451  40.211680 32:32:32:32:32:32 9dBm Nov 19, 2018 22:07:38.028743000 +07
  452  40.272169 32:32:32:32:32:32 9dBm Nov 19, 2018 22:07:38.089232000 +07
  453  40.337444 32:32:32:32:32:32 10dBm Nov 19, 2018 22:07:38.154507000 +07
  454  40.428005 32:32:32:32:32:32 11dBm Nov 19, 2018 22:07:38.245068000 +07
  455  40.445163 32:32:32:32:32:32 11dBm Nov 19, 2018 22:07:38.262226000 +07
  456  40.465176 32:32:32:32:32:32 10dBm Nov 19, 2018 22:07:38.282239000 +07
  457  40.611898 32:32:32:32:32:32 9dBm Nov 19, 2018 22:07:38.428961000 +07
  458  40.657032 32:32:32:32:32:32 11dBm Nov 19, 2018 22:07:38.474095000 +07
  459  40.822500 32:32:32:32:32:32 11dBm Nov 19, 2018 22:07:38.639563000 +07
  460  40.904963 32:32:32:32:32:32 9dBm Nov 19, 2018 22:07:38.722026000 +07
  461  41.073554 32:32:32:32:32:32 9dBm Nov 19, 2018 22:07:38.890617000 +07
  462  41.132194 32:32:32:32:32:32 10dBm Nov 19, 2018 22:07:38.949257000 +07
  463  41.210940 32:32:32:32:32:32 8dBm Nov 19, 2018 22:07:39.028003000 +07
  464  41.238894 32:32:32:32:32:32 7dBm Nov 19, 2018 22:07:39.055957000 +07
  465  41.258138 32:32:32:32:32:32 11dBm Nov 19, 2018 22:07:39.075201000 +07
  466  41.284626 32:32:32:32:32:32 9dBm Nov 19, 2018 22:07:39.101689000 +07
  467  41.498237 32:32:32:32:32:32 8dBm Nov 19, 2018 22:07:39.315300000 +07
  468  41.574211 32:32:32:32:32:32 10dBm Nov 19, 2018 22:07:39.391274000 +07
  469  41.731672 32:32:32:32:32:32 9dBm Nov 19, 2018 22:07:39.548735000 +07
  470  41.801074 32:32:32:32:32:32 8dBm Nov 19, 2018 22:07:39.618137000 +07
  471  41.870971 32:32:32:32:32:32 9dBm Nov 19, 2018 22:07:39.688034000 +07
  472  41.999706 32:32:32:32:32:32 10dBm Nov 19, 2018 22:07:39.816769000 +07
  473  42.094207 32:32:32:32:32:32 10dBm Nov 19, 2018 22:07:39.911270000 +07
  474  42.376229 32:32:32:32:32:32 10dBm Nov 19, 2018 22:07:40.193292000 +07
  475  42.541840 32:32:32:32:32:32 10dBm Nov 19, 2018 22:07:40.358903000 +07
  476  42.595965 32:32:32:32:32:32 9dBm Nov 19, 2018 22:07:40.413028000 +07
  477  42.740056 32:32:32:32:32:32 12dBm Nov 19, 2018 22:07:40.557119000 +07
  478  42.964243 32:32:32:32:32:32 10dBm Nov 19, 2018 22:07:40.781306000 +07
  479  43.043878 32:32:32:32:32:32 8dBm Nov 19, 2018 22:07:40.860941000 +07
  480  43.221902 32:32:32:32:32:32 8dBm Nov 19, 2018 22:07:41.038965000 +07
  481  43.269821 32:32:32:32:32:32 9dBm Nov 19, 2018 22:07:41.086884000 +07
  482  43.287736 32:32:32:32:32:32 9dBm Nov 19, 2018 22:07:41.104799000 +07
  483  43.317676 32:32:32:32:32:32 10dBm Nov 19, 2018 22:07:41.134739000 +07
  484  43.382596 32:32:32:32:32:32 9dBm Nov 19, 2018 22:07:41.199659000 +07
  485  43.610337 32:32:32:32:32:32 7dBm Nov 19, 2018 22:07:41.427400000 +07
  486  43.635758 32:32:32:32:32:32 10dBm Nov 19, 2018 22:07:41.452821000 +07
  487  43.793166 32:32:32:32:32:32 9dBm Nov 19, 2018 22:07:41.610229000 +07
  488  43.871548 32:32:32:32:32:32 9dBm Nov 19, 2018 22:07:41.688611000 +07
  489  43.930001 32:32:32:32:32:32 9dBm Nov 19, 2018 22:07:41.747064000 +07
  490  43.950457 32:32:32:32:32:32 8dBm Nov 19, 2018 22:07:41.767520000 +07
  491  44.041111 32:32:32:32:32:32 7dBm Nov 19, 2018 22:07:41.858174000 +07
  492  44.109968 32:32:32:32:32:32 9dBm Nov 19, 2018 22:07:41.927031000 +07
  493  44.498544 32:32:32:32:32:32 10dBm Nov 19, 2018 22:07:42.315607000 +07
  494  44.561500 32:32:32:32:32:32 8dBm Nov 19, 2018 22:07:42.378563000 +07
  495  44.785257 32:32:32:32:32:32 6dBm Nov 19, 2018 22:07:42.602320000 +07
  496  44.804773 32:32:32:32:32:32 9dBm Nov 19, 2018 22:07:42.621836000 +07
  497  44.847722 32:32:32:32:32:32 10dBm Nov 19, 2018 22:07:42.664785000 +07
  498  44.878824 32:32:32:32:32:32 9dBm Nov 19, 2018 22:07:42.695887000 +07
  499  44.913025 32:32:32:32:32:32 10dBm Nov 19, 2018 22:07:42.730088000 +07
  500  44.933597 32:32:32:32:32:32 9dBm Nov 19, 2018 22:07:42.750660000 +07
  501  44.977573 32:32:32:32:32:32 9dBm Nov 19, 2018 22:07:42.794636000 +07
  502  44.991714 32:32:32:32:32:32 9dBm Nov 19, 2018 22:07:42.808777000 +07
  503  45.011896 32:32:32:32:32:32 8dBm Nov 19, 2018 22:07:42.828959000 +07
  504  45.044357 32:32:32:32:32:32 9dBm Nov 19, 2018 22:07:42.861420000 +07
  505  45.052754 32:32:32:32:32:32 10dBm Nov 19, 2018 22:07:42.869817000 +07
  506  45.075286 32:32:32:32:32:32 9dBm Nov 19, 2018 22:07:42.892349000 +07
  507  45.217761 32:32:32:32:32:32 10dBm Nov 19, 2018 22:07:43.034824000 +07
  508  45.242911 32:32:32:32:32:32 9dBm Nov 19, 2018 22:07:43.059974000 +07
  509  45.271142 32:32:32:32:32:32 9dBm Nov 19, 2018 22:07:43.088205000 +07
  510  45.346089 32:32:32:32:32:32 8dBm Nov 19, 2018 22:07:43.163152000 +07
  511  45.689382 32:32:32:32:32:32 10dBm Nov 19, 2018 22:07:43.506445000 +07
  512  45.779325 32:32:32:32:32:32 9dBm Nov 19, 2018 22:07:43.596388000 +07
  513  45.795923 32:32:32:32:32:32 7dBm Nov 19, 2018 22:07:43.612986000 +07
  514  45.955914 32:32:32:32:32:32 9dBm Nov 19, 2018 22:07:43.772977000 +07
  515  45.981254 32:32:32:32:32:32 9dBm Nov 19, 2018 22:07:43.798317000 +07
  516  45.994351 32:32:32:32:32:32 11dBm Nov 19, 2018 22:07:43.811414000 +07
  517  46.015629 32:32:32:32:32:32 9dBm Nov 19, 2018 22:07:43.832692000 +07
  518  46.041291 32:32:32:32:32:32 9dBm Nov 19, 2018 22:07:43.858354000 +07
  519  46.121189 32:32:32:32:32:32 11dBm Nov 19, 2018 22:07:43.938252000 +07
  520  46.166682 32:32:32:32:32:32 10dBm Nov 19, 2018 22:07:43.983745000 +07
  521  46.184706 32:32:32:32:32:32 10dBm Nov 19, 2018 22:07:44.001769000 +07
  522  46.200424 32:32:32:32:32:32 8dBm Nov 19, 2018 22:07:44.017487000 +07
  523  46.218324 32:32:32:32:32:32 10dBm Nov 19, 2018 22:07:44.035387000 +07
  524  46.311399 32:32:32:32:32:32 9dBm Nov 19, 2018 22:07:44.128462000 +07
  525  46.438433 32:32:32:32:32:32 8dBm Nov 19, 2018 22:07:44.255496000 +07
  526  46.496111 32:32:32:32:32:32 9dBm Nov 19, 2018 22:07:44.313174000 +07
  527  46.625867 32:32:32:32:32:32 10dBm Nov 19, 2018 22:07:44.442930000 +07
  528  46.657787 32:32:32:32:32:32 9dBm Nov 19, 2018 22:07:44.474850000 +07
  529  46.668935 32:32:32:32:32:32 8dBm Nov 19, 2018 22:07:44.485998000 +07
  530  46.683072 32:32:32:32:32:32 7dBm Nov 19, 2018 22:07:44.500135000 +07
  531  46.711040 32:32:32:32:32:32 9dBm Nov 19, 2018 22:07:44.528103000 +07
  532  46.800098 32:32:32:32:32:32 11dBm Nov 19, 2018 22:07:44.617161000 +07
  533  46.853561 32:32:32:32:32:32 10dBm Nov 19, 2018 22:07:44.670624000 +07
  534  46.876827 32:32:32:32:32:32 8dBm Nov 19, 2018 22:07:44.693890000 +07
  535  46.931701 32:32:32:32:32:32 9dBm Nov 19, 2018 22:07:44.748764000 +07
  536  46.964591 32:32:32:32:32:32 8dBm Nov 19, 2018 22:07:44.781654000 +07
  537  47.355613 32:32:32:32:32:32 6dBm Nov 19, 2018 22:07:45.172676000 +07
  538  47.505897 32:32:32:32:32:32 9dBm Nov 19, 2018 22:07:45.322960000 +07
  539  47.529385 32:32:32:32:32:32 10dBm Nov 19, 2018 22:07:45.346448000 +07
  540  47.548347 32:32:32:32:32:32 9dBm Nov 19, 2018 22:07:45.365410000 +07
  541  47.732767 32:32:32:32:32:32 8dBm Nov 19, 2018 22:07:45.549830000 +07
  542  47.801718 32:32:32:32:32:32 8dBm Nov 19, 2018 22:07:45.618781000 +07
  543  47.848508 32:32:32:32:32:32 8dBm Nov 19, 2018 22:07:45.665571000 +07
  544  47.864920 32:32:32:32:32:32 9dBm Nov 19, 2018 22:07:45.681983000 +07
  545  47.966110 32:32:32:32:32:32 9dBm Nov 19, 2018 22:07:45.783173000 +07
  546  48.036674 32:32:32:32:32:32 10dBm Nov 19, 2018 22:07:45.853737000 +07
  547  48.242866 32:32:32:32:32:32 10dBm Nov 19, 2018 22:07:46.059929000 +07
  548  48.350098 32:32:32:32:32:32 9dBm Nov 19, 2018 22:07:46.167161000 +07
  549  48.431741 32:32:32:32:32:32 8dBm Nov 19, 2018 22:07:46.248804000 +07
  550  48.465757 32:32:32:32:32:32 8dBm Nov 19, 2018 22:07:46.282820000 +07
  551  48.484008 32:32:32:32:32:32 9dBm Nov 19, 2018 22:07:46.301071000 +07
  552  48.515555 32:32:32:32:32:32 7dBm Nov 19, 2018 22:07:46.332618000 +07
  553  48.882685 32:32:32:32:32:32 8dBm Nov 19, 2018 22:07:46.699748000 +07
  554  48.897944 32:32:32:32:32:32 7dBm Nov 19, 2018 22:07:46.715007000 +07
  555  49.023468 32:32:32:32:32:32 10dBm Nov 19, 2018 22:07:46.840531000 +07
  556  49.184831 32:32:32:32:32:32 9dBm Nov 19, 2018 22:07:47.001894000 +07
  557  49.297513 32:32:32:32:32:32 10dBm Nov 19, 2018 22:07:47.114576000 +07
  558  49.352058 32:32:32:32:32:32 10dBm Nov 19, 2018 22:07:47.169121000 +07
  559  49.421890 32:32:32:32:32:32 11dBm Nov 19, 2018 22:07:47.238953000 +07
  560  49.596261 32:32:32:32:32:32 9dBm Nov 19, 2018 22:07:47.413324000 +07
  561  49.655548 32:32:32:32:32:32 12dBm Nov 19, 2018 22:07:47.472611000 +07
  562  49.817667 32:32:32:32:32:32 10dBm Nov 19, 2018 22:07:47.634730000 +07
  563  49.874961 32:32:32:32:32:32 9dBm Nov 19, 2018 22:07:47.692024000 +07
  564  49.960091 32:32:32:32:32:32 9dBm Nov 19, 2018 22:07:47.777154000 +07
  565  50.037244 32:32:32:32:32:32 11dBm Nov 19, 2018 22:07:47.854307000 +07
  566  50.101072 32:32:32:32:32:32 10dBm Nov 19, 2018 22:07:47.918135000 +07
  567  50.142819 32:32:32:32:32:32 10dBm Nov 19, 2018 22:07:47.959882000 +07
  568  50.221341 32:32:32:32:32:32 8dBm Nov 19, 2018 22:07:48.038404000 +07
  569  50.255566 32:32:32:32:32:32 10dBm Nov 19, 2018 22:07:48.072629000 +07
  570  50.362566 32:32:32:32:32:32 11dBm Nov 19, 2018 22:07:48.179629000 +07
  571  50.511203 32:32:32:32:32:32 10dBm Nov 19, 2018 22:07:48.328266000 +07
  572  50.547506 32:32:32:32:32:32 9dBm Nov 19, 2018 22:07:48.364569000 +07
  573  50.661275 32:32:32:32:32:32 10dBm Nov 19, 2018 22:07:48.478338000 +07
  574  50.717667 32:32:32:32:32:32 11dBm Nov 19, 2018 22:07:48.534730000 +07
  575  50.819358 32:32:32:32:32:32 9dBm Nov 19, 2018 22:07:48.636421000 +07
  576  50.947842 32:32:32:32:32:32 11dBm Nov 19, 2018 22:07:48.764905000 +07
  577  51.003400 32:32:32:32:32:32 11dBm Nov 19, 2018 22:07:48.820463000 +07
  578  51.132689 32:32:32:32:32:32 10dBm Nov 19, 2018 22:07:48.949752000 +07
  579  51.239527 32:32:32:32:32:32 10dBm Nov 19, 2018 22:07:49.056590000 +07
  580  51.356907 32:32:32:32:32:32 10dBm Nov 19, 2018 22:07:49.173970000 +07
  581  51.884321 32:32:32:32:32:32 11dBm Nov 19, 2018 22:07:49.701384000 +07
  582  52.038331 32:32:32:32:32:32 9dBm Nov 19, 2018 22:07:49.855394000 +07
  583  52.139662 32:32:32:32:32:32 12dBm Nov 19, 2018 22:07:49.956725000 +07
  584  52.171581 32:32:32:32:32:32 12dBm Nov 19, 2018 22:07:49.988644000 +07
  585  55.443518 32:32:32:32:32:32 5dBm Nov 19, 2018 22:07:53.260581000 +07
  586  55.485688 32:32:32:32:32:32 6dBm Nov 19, 2018 22:07:53.302751000 +07
  587  55.508662 32:32:32:32:32:32 7dBm Nov 19, 2018 22:07:53.325725000 +07
  588  55.562810 32:32:32:32:32:32 7dBm Nov 19, 2018 22:07:53.379873000 +07
  589  55.595998 32:32:32:32:32:32 8dBm Nov 19, 2018 22:07:53.413061000 +07
  590  55.928097 32:32:32:32:32:32 6dBm Nov 19, 2018 22:07:53.745160000 +07
  591  56.268430 32:32:32:32:32:32 7dBm Nov 19, 2018 22:07:54.085493000 +07
  592  56.448621 32:32:32:32:32:32 8dBm Nov 19, 2018 22:07:54.265684000 +07
  593  56.538638 32:32:32:32:32:32 8dBm Nov 19, 2018 22:07:54.355701000 +07
  594  56.853954 32:32:32:32:32:32 5dBm Nov 19, 2018 22:07:54.671017000 +07
  595  57.114938 32:32:32:32:32:32 7dBm Nov 19, 2018 22:07:54.932001000 +07
  596  57.165030 32:32:32:32:32:32 8dBm Nov 19, 2018 22:07:54.982093000 +07
  597  57.189927 32:32:32:32:32:32 6dBm Nov 19, 2018 22:07:55.006990000 +07
  598  58.087114 32:32:32:32:32:32 11dBm Nov 19, 2018 22:07:55.904177000 +07
  599  58.097257 32:32:32:32:32:32 9dBm Nov 19, 2018 22:07:55.914320000 +07
  600  58.123301 32:32:32:32:32:32 12dBm Nov 19, 2018 22:07:55.940364000 +07
  601  58.196165 32:32:32:32:32:32 10dBm Nov 19, 2018 22:07:56.013228000 +07
  602  58.243741 32:32:32:32:32:32 10dBm Nov 19, 2018 22:07:56.060804000 +07
  603  58.268416 32:32:32:32:32:32 8dBm Nov 19, 2018 22:07:56.085479000 +07
  604  58.278077 32:32:32:32:32:32 9dBm Nov 19, 2018 22:07:56.095140000 +07
  605  58.349260 32:32:32:32:32:32 5dBm Nov 19, 2018 22:07:56.166323000 +07
  606  58.445677 32:32:32:32:32:32 11dBm Nov 19, 2018 22:07:56.262740000 +07
  607  58.472232 32:32:32:32:32:32 10dBm Nov 19, 2018 22:07:56.289295000 +07
  608  58.536327 32:32:32:32:32:32 12dBm Nov 19, 2018 22:07:56.353390000 +07
  609  58.637133 32:32:32:32:32:32 9dBm Nov 19, 2018 22:07:56.454196000 +07
  610  58.708643 32:32:32:32:32:32 12dBm Nov 19, 2018 22:07:56.525706000 +07
  611  58.791055 32:32:32:32:32:32 12dBm Nov 19, 2018 22:07:56.608118000 +07
  612  58.975114 32:32:32:32:32:32 12dBm Nov 19, 2018 22:07:56.792177000 +07
  613  59.429371 32:32:32:32:32:32 8dBm Nov 19, 2018 22:07:57.246434000 +07
  614  59.509282 32:32:32:32:32:32 5dBm Nov 19, 2018 22:07:57.326345000 +07
  615  59.845549 32:32:32:32:32:32 6dBm Nov 19, 2018 22:07:57.662612000 +07
  616  59.891219 32:32:32:32:32:32 7dBm Nov 19, 2018 22:07:57.708282000 +07
  617  59.923616 32:32:32:32:32:32 6dBm Nov 19, 2018 22:07:57.740679000 +07
  618  60.085070 32:32:32:32:32:32 5dBm Nov 19, 2018 22:07:57.902133000 +07
  619  60.166534 32:32:32:32:32:32 8dBm Nov 19, 2018 22:07:57.983597000 +07
  620  60.210739 32:32:32:32:32:32 7dBm Nov 19, 2018 22:07:58.027802000 +07
  621  60.314964 32:32:32:32:32:32 6dBm Nov 19, 2018 22:07:58.132027000 +07
  622  60.431396 32:32:32:32:32:32 8dBm Nov 19, 2018 22:07:58.248459000 +07
  623  60.583114 32:32:32:32:32:32 6dBm Nov 19, 2018 22:07:58.400177000 +07
  624  60.674143 32:32:32:32:32:32 8dBm Nov 19, 2018 22:07:58.491206000 +07
  625  60.910667 32:32:32:32:32:32 9dBm Nov 19, 2018 22:07:58.727730000 +07
  626  61.061147 32:32:32:32:32:32 8dBm Nov 19, 2018 22:07:58.878210000 +07
  627  61.106012 32:32:32:32:32:32 9dBm Nov 19, 2018 22:07:58.923075000 +07
  628  61.188579 32:32:32:32:32:32 9dBm Nov 19, 2018 22:07:59.005642000 +07
  629  61.450362 32:32:32:32:32:32 8dBm Nov 19, 2018 22:07:59.267425000 +07
  630  61.469881 32:32:32:32:32:32 9dBm Nov 19, 2018 22:07:59.286944000 +07
  631  61.640498 32:32:32:32:32:32 8dBm Nov 19, 2018 22:07:59.457561000 +07
  632  61.697131 32:32:32:32:32:32 9dBm Nov 19, 2018 22:07:59.514194000 +07
  633  61.813569 32:32:32:32:32:32 7dBm Nov 19, 2018 22:07:59.630632000 +07
  634  61.881629 32:32:32:32:32:32 10dBm Nov 19, 2018 22:07:59.698692000 +07
  635  61.986738 32:32:32:32:32:32 7dBm Nov 19, 2018 22:07:59.803801000 +07
  636  62.002678 32:32:32:32:32:32 8dBm Nov 19, 2018 22:07:59.819741000 +07
  637  66.786374 32:32:32:32:32:32 5dBm Nov 19, 2018 22:08:04.603437000 +07
  638  66.809466 32:32:32:32:32:32 5dBm Nov 19, 2018 22:08:04.626529000 +07
  639  66.820386 32:32:32:32:32:32 4dBm Nov 19, 2018 22:08:04.637449000 +07
  640  66.963891 32:32:32:32:32:32 7dBm Nov 19, 2018 22:08:04.780954000 +07
  641  66.988024 32:32:32:32:32:32 9dBm Nov 19, 2018 22:08:04.805087000 +07
  642  67.011580 32:32:32:32:32:32 8dBm Nov 19, 2018 22:08:04.828643000 +07
  643  67.083394 32:32:32:32:32:32 8dBm Nov 19, 2018 22:08:04.900457000 +07
  644  67.113953 32:32:32:32:32:32 6dBm Nov 19, 2018 22:08:04.931016000 +07
  645  67.123577 32:32:32:32:32:32 8dBm Nov 19, 2018 22:08:04.940640000 +07
  646  67.671171 32:32:32:32:32:32 8dBm Nov 19, 2018 22:08:05.488234000 +07
  647  67.775594 32:32:32:32:32:32 8dBm Nov 19, 2018 22:08:05.592657000 +07
  648  68.833029 32:32:32:32:32:32 4dBm Nov 19, 2018 22:08:06.650092000 +07
  649  69.692009 32:32:32:32:32:32 6dBm Nov 19, 2018 22:08:07.509072000 +07
  650  69.760421 32:32:32:32:32:32 10dBm Nov 19, 2018 22:08:07.577484000 +07
  651  69.795862 32:32:32:32:32:32 8dBm Nov 19, 2018 22:08:07.612925000 +07
  652  69.818846 32:32:32:32:32:32 8dBm Nov 19, 2018 22:08:07.635909000 +07
  653  69.827634 32:32:32:32:32:32 10dBm Nov 19, 2018 22:08:07.644697000 +07
  654  69.976746 32:32:32:32:32:32 9dBm Nov 19, 2018 22:08:07.793809000 +07
  655  69.990595 32:32:32:32:32:32 11dBm Nov 19, 2018 22:08:07.807658000 +07
  656  70.076197 32:32:32:32:32:32 11dBm Nov 19, 2018 22:08:07.893260000 +07
  657  70.130735 32:32:32:32:32:32 10dBm Nov 19, 2018 22:08:07.947798000 +07
  658  70.176105 32:32:32:32:32:32 10dBm Nov 19, 2018 22:08:07.993168000 +07
  659  70.179241 32:32:32:32:32:32 10dBm Nov 19, 2018 22:08:07.996304000 +07
  660  70.273057 32:32:32:32:32:32 10dBm Nov 19, 2018 22:08:08.090120000 +07
  661  70.328981 32:32:32:32:32:32 8dBm Nov 19, 2018 22:08:08.146044000 +07
  662  70.627852 32:32:32:32:32:32 10dBm Nov 19, 2018 22:08:08.444915000 +07
  663  70.640795 32:32:32:32:32:32 10dBm Nov 19, 2018 22:08:08.457858000 +07
  664  70.651742 32:32:32:32:32:32 10dBm Nov 19, 2018 22:08:08.468805000 +07
  665  70.670357 32:32:32:32:32:32 9dBm Nov 19, 2018 22:08:08.487420000 +07
  666  70.838396 32:32:32:32:32:32 12dBm Nov 19, 2018 22:08:08.655459000 +07
  667  70.841882 32:32:32:32:32:32 9dBm Nov 19, 2018 22:08:08.658945000 +07
  668  70.968479 32:32:32:32:32:32 10dBm Nov 19, 2018 22:08:08.785542000 +07
  669  71.359361 32:32:32:32:32:32 13dBm Nov 19, 2018 22:08:09.176424000 +07
  670  71.497976 32:32:32:32:32:32 11dBm Nov 19, 2018 22:08:09.315039000 +07
  671  71.736738 32:32:32:32:32:32 12dBm Nov 19, 2018 22:08:09.553801000 +07
  672  71.816178 32:32:32:32:32:32 13dBm Nov 19, 2018 22:08:09.633241000 +07
  673  71.962945 32:32:32:32:32:32 9dBm Nov 19, 2018 22:08:09.780008000 +07
  674  72.072711 32:32:32:32:32:32 8dBm Nov 19, 2018 22:08:09.889774000 +07
  675  72.139249 32:32:32:32:32:32 7dBm Nov 19, 2018 22:08:09.956312000 +07
  676  72.155515 32:32:32:32:32:32 8dBm Nov 19, 2018 22:08:09.972578000 +07
  677  72.476449 32:32:32:32:32:32 8dBm Nov 19, 2018 22:08:10.293512000 +07
  678  72.528651 32:32:32:32:32:32 8dBm Nov 19, 2018 22:08:10.345714000 +07
  679  72.565260 32:32:32:32:32:32 7dBm Nov 19, 2018 22:08:10.382323000 +07
  680  72.622019 32:32:32:32:32:32 7dBm Nov 19, 2018 22:08:10.439082000 +07
  681  72.995607 32:32:32:32:32:32 6dBm Nov 19, 2018 22:08:10.812670000 +07
  682  73.141364 32:32:32:32:32:32 7dBm Nov 19, 2018 22:08:10.958427000 +07
  683  73.167882 32:32:32:32:32:32 8dBm Nov 19, 2018 22:08:10.984945000 +07
  684  73.268366 32:32:32:32:32:32 8dBm Nov 19, 2018 22:08:11.085429000 +07
  685  74.563223 32:32:32:32:32:32 5dBm Nov 19, 2018 22:08:12.380286000 +07
  686  75.876580 32:32:32:32:32:32 6dBm Nov 19, 2018 22:08:13.693643000 +07
  687  75.903340 32:32:32:32:32:32 8dBm Nov 19, 2018 22:08:13.720403000 +07
  688  75.914516 32:32:32:32:32:32 5dBm Nov 19, 2018 22:08:13.731579000 +07
  689  75.991263 32:32:32:32:32:32 5dBm Nov 19, 2018 22:08:13.808326000 +07
  690  76.017951 32:32:32:32:32:32 7dBm Nov 19, 2018 22:08:13.835014000 +07
  691  76.127147 32:32:32:32:32:32 7dBm Nov 19, 2018 22:08:13.944210000 +07
  692  76.230046 32:32:32:32:32:32 7dBm Nov 19, 2018 22:08:14.047109000 +07
  693  76.274240 32:32:32:32:32:32 7dBm Nov 19, 2018 22:08:14.091303000 +07
  694  76.300834 32:32:32:32:32:32 7dBm Nov 19, 2018 22:08:14.117897000 +07
  695  76.383884 32:32:32:32:32:32 7dBm Nov 19, 2018 22:08:14.200947000 +07
  696  76.403493 32:32:32:32:32:32 6dBm Nov 19, 2018 22:08:14.220556000 +07
  697  76.492485 32:32:32:32:32:32 7dBm Nov 19, 2018 22:08:14.309548000 +07
  698  76.546629 32:32:32:32:32:32 5dBm Nov 19, 2018 22:08:14.363692000 +07
  699  76.570126 32:32:32:32:32:32 6dBm Nov 19, 2018 22:08:14.387189000 +07
  700  76.591917 32:32:32:32:32:32 6dBm Nov 19, 2018 22:08:14.408980000 +07
  701  76.715895 32:32:32:32:32:32 6dBm Nov 19, 2018 22:08:14.532958000 +07
  702  76.773636 32:32:32:32:32:32 5dBm Nov 19, 2018 22:08:14.590699000 +07
  703  76.815253 32:32:32:32:32:32 6dBm Nov 19, 2018 22:08:14.632316000 +07
  704  76.893527 32:32:32:32:32:32 7dBm Nov 19, 2018 22:08:14.710590000 +07
  705  76.991606 32:32:32:32:32:32 6dBm Nov 19, 2018 22:08:14.808669000 +07
  706  77.039304 32:32:32:32:32:32 7dBm Nov 19, 2018 22:08:14.856367000 +07
  707  77.144337 32:32:32:32:32:32 8dBm Nov 19, 2018 22:08:14.961400000 +07
  708  77.248904 32:32:32:32:32:32 8dBm Nov 19, 2018 22:08:15.065967000 +07
  709  77.294923 32:32:32:32:32:32 6dBm Nov 19, 2018 22:08:15.111986000 +07
  710  77.314618 32:32:32:32:32:32 6dBm Nov 19, 2018 22:08:15.131681000 +07
  711  77.756196 32:32:32:32:32:32 8dBm Nov 19, 2018 22:08:15.573259000 +07
  712  78.093398 32:32:32:32:32:32 5dBm Nov 19, 2018 22:08:15.910461000 +07
  713  78.455863 32:32:32:32:32:32 5dBm Nov 19, 2018 22:08:16.272926000 +07
  714  78.496370 32:32:32:32:32:32 6dBm Nov 19, 2018 22:08:16.313433000 +07
  715  78.534207 32:32:32:32:32:32 6dBm Nov 19, 2018 22:08:16.351270000 +07
  716  78.684172 32:32:32:32:32:32 7dBm Nov 19, 2018 22:08:16.501235000 +07
  717  78.870408 32:32:32:32:32:32 7dBm Nov 19, 2018 22:08:16.687471000 +07
  718  78.891131 32:32:32:32:32:32 6dBm Nov 19, 2018 22:08:16.708194000 +07
  719  78.946514 32:32:32:32:32:32 7dBm Nov 19, 2018 22:08:16.763577000 +07
  720  78.970346 32:32:32:32:32:32 7dBm Nov 19, 2018 22:08:16.787409000 +07
  721  79.082089 32:32:32:32:32:32 7dBm Nov 19, 2018 22:08:16.899152000 +07
  722  79.257894 32:32:32:32:32:32 6dBm Nov 19, 2018 22:08:17.074957000 +07
  723  79.728497 32:32:32:32:32:32 5dBm Nov 19, 2018 22:08:17.545560000 +07
  724  79.780733 32:32:32:32:32:32 6dBm Nov 19, 2018 22:08:17.597796000 +07
  725  79.803229 32:32:32:32:32:32 5dBm Nov 19, 2018 22:08:17.620292000 +07
  726  79.842911 32:32:32:32:32:32 6dBm Nov 19, 2018 22:08:17.659974000 +07
  727  79.943461 32:32:32:32:32:32 5dBm Nov 19, 2018 22:08:17.760524000 +07
  728  79.984260 32:32:32:32:32:32 6dBm Nov 19, 2018 22:08:17.801323000 +07
  729  80.228357 32:32:32:32:32:32 6dBm Nov 19, 2018 22:08:18.045420000 +07
  730  80.412863 32:32:32:32:32:32 5dBm Nov 19, 2018 22:08:18.229926000 +07
  731  80.461542 32:32:32:32:32:32 4dBm Nov 19, 2018 22:08:18.278605000 +07
  732  81.015985 32:32:32:32:32:32 6dBm Nov 19, 2018 22:08:18.833048000 +07
  733  81.136780 32:32:32:32:32:32 5dBm Nov 19, 2018 22:08:18.953843000 +07
  734  81.897252 32:32:32:32:32:32 5dBm Nov 19, 2018 22:08:19.714315000 +07
  735  82.036625 32:32:32:32:32:32 5dBm Nov 19, 2018 22:08:19.853688000 +07
  736  82.254111 32:32:32:32:32:32 5dBm Nov 19, 2018 22:08:20.071174000 +07
  737  82.296945 32:32:32:32:32:32 7dBm Nov 19, 2018 22:08:20.114008000 +07
  738  82.535549 32:32:32:32:32:32 5dBm Nov 19, 2018 22:08:20.352612000 +07
  739  82.644652 32:32:32:32:32:32 6dBm Nov 19, 2018 22:08:20.461715000 +07
  740  82.702760 32:32:32:32:32:32 6dBm Nov 19, 2018 22:08:20.519823000 +07
  741  82.730827 32:32:32:32:32:32 6dBm Nov 19, 2018 22:08:20.547890000 +07
  742  82.768493 32:32:32:32:32:32 6dBm Nov 19, 2018 22:08:20.585556000 +07
  743  82.837722 32:32:32:32:32:32 6dBm Nov 19, 2018 22:08:20.654785000 +07
  744  82.876097 32:32:32:32:32:32 6dBm Nov 19, 2018 22:08:20.693160000 +07
  745  82.909242 32:32:32:32:32:32 5dBm Nov 19, 2018 22:08:20.726305000 +07
  746  82.925292 32:32:32:32:32:32 5dBm Nov 19, 2018 22:08:20.742355000 +07
  747  82.979172 32:32:32:32:32:32 7dBm Nov 19, 2018 22:08:20.796235000 +07
  748  83.013907 32:32:32:32:32:32 6dBm Nov 19, 2018 22:08:20.830970000 +07
  749  83.288358 32:32:32:32:32:32 6dBm Nov 19, 2018 22:08:21.105421000 +07
  750  83.329253 32:32:32:32:32:32 6dBm Nov 19, 2018 22:08:21.146316000 +07
  751  83.348453 32:32:32:32:32:32 5dBm Nov 19, 2018 22:08:21.165516000 +07
  752  83.575168 32:32:32:32:32:32 5dBm Nov 19, 2018 22:08:21.392231000 +07
  753  88.247434 32:32:32:32:32:32 5dBm Nov 19, 2018 22:08:26.064497000 +07
  754  92.008212 32:32:32:32:32:32 4dBm Nov 19, 2018 22:08:29.825275000 +07
  755  93.270416 32:32:32:32:32:32 3dBm Nov 19, 2018 22:08:31.087479000 +07
  756  93.948502 32:32:32:32:32:32 5dBm Nov 19, 2018 22:08:31.765565000 +07
  757  94.130924 32:32:32:32:32:32 2dBm Nov 19, 2018 22:08:31.947987000 +07
  758  94.614885 32:32:32:32:32:32 6dBm Nov 19, 2018 22:08:32.431948000 +07
  759  95.780977 32:32:32:32:32:32 6dBm Nov 19, 2018 22:08:33.598040000 +07
  760  95.892949 32:32:32:32:32:32 7dBm Nov 19, 2018 22:08:33.710012000 +07
  761  96.006516 32:32:32:32:32:32 5dBm Nov 19, 2018 22:08:33.823579000 +07
  762  96.794082 32:32:32:32:32:32 4dBm Nov 19, 2018 22:08:34.611145000 +07
  763  97.091423 32:32:32:32:32:32 4dBm Nov 19, 2018 22:08:34.908486000 +07
  764  98.275729 32:32:32:32:32:32 5dBm Nov 19, 2018 22:08:36.092792000 +07
  765  98.547284 32:32:32:32:32:32 4dBm Nov 19, 2018 22:08:36.364347000 +07
  766  98.716249 32:32:32:32:32:32 6dBm Nov 19, 2018 22:08:36.533312000 +07
  767  99.001369 32:32:32:32:32:32 5dBm Nov 19, 2018 22:08:36.818432000 +07
  768  99.858519 32:32:32:32:32:32 5dBm Nov 19, 2018 22:08:37.675582000 +07
  769  99.900386 32:32:32:32:32:32 4dBm Nov 19, 2018 22:08:37.717449000 +07
  770 100.016978 32:32:32:32:32:32 4dBm Nov 19, 2018 22:08:37.834041000 +07
  771 100.081100 32:32:32:32:32:32 7dBm Nov 19, 2018 22:08:37.898163000 +07
  772 100.093157 32:32:32:32:32:32 7dBm Nov 19, 2018 22:08:37.910220000 +07
  773 100.310106 32:32:32:32:32:32 6dBm Nov 19, 2018 22:08:38.127169000 +07
  774 100.397947 32:32:32:32:32:32 6dBm Nov 19, 2018 22:08:38.215010000 +07
  775 100.416066 32:32:32:32:32:32 7dBm Nov 19, 2018 22:08:38.233129000 +07
  776 100.521174 32:32:32:32:32:32 4dBm Nov 19, 2018 22:08:38.338237000 +07
  777 100.570228 32:32:32:32:32:32 7dBm Nov 19, 2018 22:08:38.387291000 +07
  778 100.589412 32:32:32:32:32:32 5dBm Nov 19, 2018 22:08:38.406475000 +07
  779 100.815505 32:32:32:32:32:32 8dBm Nov 19, 2018 22:08:38.632568000 +07
  780 100.879595 32:32:32:32:32:32 4dBm Nov 19, 2018 22:08:38.696658000 +07
  781 100.933446 32:32:32:32:32:32 7dBm Nov 19, 2018 22:08:38.750509000 +07
  782 101.055075 32:32:32:32:32:32 7dBm Nov 19, 2018 22:08:38.872138000 +07
  783 101.226404 32:32:32:32:32:32 5dBm Nov 19, 2018 22:08:39.043467000 +07
  784 101.350813 32:32:32:32:32:32 5dBm Nov 19, 2018 22:08:39.167876000 +07
  785 101.419629 32:32:32:32:32:32 5dBm Nov 19, 2018 22:08:39.236692000 +07
  786 101.617322 32:32:32:32:32:32 6dBm Nov 19, 2018 22:08:39.434385000 +07
  787 101.669632 32:32:32:32:32:32 4dBm Nov 19, 2018 22:08:39.486695000 +07
  788 101.830720 32:32:32:32:32:32 8dBm Nov 19, 2018 22:08:39.647783000 +07
  789 101.883388 32:32:32:32:32:32 5dBm Nov 19, 2018 22:08:39.700451000 +07
  790 101.901072 32:32:32:32:32:32 5dBm Nov 19, 2018 22:08:39.718135000 +07
  791 101.934791 32:32:32:32:32:32 8dBm Nov 19, 2018 22:08:39.751854000 +07
  792 101.956554 32:32:32:32:32:32 6dBm Nov 19, 2018 22:08:39.773617000 +07
  793 102.141462 32:32:32:32:32:32 5dBm Nov 19, 2018 22:08:39.958525000 +07
  794 102.353366 32:32:32:32:32:32 6dBm Nov 19, 2018 22:08:40.170429000 +07
  795 102.383178 32:32:32:32:32:32 6dBm Nov 19, 2018 22:08:40.200241000 +07
  796 102.470064 32:32:32:32:32:32 7dBm Nov 19, 2018 22:08:40.287127000 +07
  797 102.520111 32:32:32:32:32:32 7dBm Nov 19, 2018 22:08:40.337174000 +07
  798 102.719325 32:32:32:32:32:32 6dBm Nov 19, 2018 22:08:40.536388000 +07
  799 102.909268 32:32:32:32:32:32 6dBm Nov 19, 2018 22:08:40.726331000 +07
