0
0.069242
0.08407
0.162565
0.199482
0.242573
0.290854
0.336664
0.393066
0.412745
0.971882
1.006437
2.73499
8.346379
8.36717
8.401169
8.444164
8.478697
8.535023
8.637211
8.819766
9.1638
9.2929
9.736876
9.745954
9.760059
9.980658
11.258029
11.344185
11.387015
11.431387
11.556293
11.730891
11.779424
11.878481
13.162537
13.261612
13.304375
13.466563
13.586675
13.737496
14.305445
14.463427
14.523341
14.545062
14.563052
14.580859
14.599865
14.648071
14.755737
15.505575
16.241267
16.291801
16.63062
16.905364
17.11826
17.299811
17.585414
17.662982
17.680101
17.826512
17.878553
17.915695
17.996138
18.001648
18.049247
18.614428
18.664461
18.681445
18.712163
18.746889
18.82184
18.844368
18.93094
18.967097
19.027076
19.72422
19.871873
19.924295
19.954509
19.982905
20.002198
20.020472
20.056177
20.079794
20.092193
20.156853
20.217055
20.236398
20.256973
20.275038
20.295207
20.34826
20.377136
20.437321
20.533537
20.600555
20.676535
20.782426
20.802397
20.834431
20.841871
20.90518
21.024065
21.289879
21.763965
21.842899
21.866055
21.883853
21.900525
21.931327
22.013609
22.053535
22.073497
22.146434
22.249495
22.270292
22.310333
22.350821
22.381697
22.469294
22.564631
22.686408
22.732406
22.810853
22.866384
22.959233
23.005103
23.116031
23.160702
23.224006
23.244698
23.266775
23.304894
23.336848
23.440994
23.485805
23.509147
23.548043
23.579107
23.657478
23.73748
23.790588
23.810221
23.853053
23.932528
24.108737
24.212759
24.234074
24.239131
24.276074
24.295231
24.351459
24.453081
24.520036
24.540513
24.677314
24.681744
24.730005
24.843014
24.881123
24.951112
25.016144
25.038163
25.066748
25.14618
25.160773
25.263106
25.296469
25.406004
25.491079
25.568801
25.621853
25.644485
25.66903
25.685827
25.780338
25.889827
25.994858
26.089511
26.277841
26.311476
26.413163
26.455011
26.476552
26.517574
26.60054
26.640023
26.660648
26.677797
26.810622
26.893621
26.933471
26.955068
27.050412
