                1       032:32:32:32:32:3  6Bm N  ov 18, 2018 0 0:50:04.032999000  7          0
                20.05891132:32:32:32:32:3  5Bm N  ov 18, 2018 0 0:50:04.091910000  7          9
                30.30860932:32:32:32:32:3  6Bm N  ov 18, 2018 0 0:50:04.341608000  7        ###
                40.48567432:32:32:32:32:3  7Bm N  ov 18, 2018 0 0:50:04.518673000  7        ###
                50.61931432:32:32:32:32:3  7Bm N  ov 18, 2018 0 0:50:04.652313000  7        ###
                60.65082132:32:32:32:32:3  7Bm N  ov 18, 2018 0 0:50:04.683820000  7
                70.67993932:32:32:32:32:3  2Bm N  ov 18, 2018 0 0:50:04.712938000  7
                80.70611432:32:32:32:32:3  7Bm N  ov 18, 2018 0 0:50:04.739113000  7
                90.73074132:32:32:32:32:3  7Bm N  ov 18, 2018 0 0:50:04.763740000  7
               100.75469432:32:32:32:32:3  6Bm N  ov 18, 2018 0 0:50:04.787693000  7
               110.88519332:32:32:32:32:3  6Bm N  ov 18, 2018 0 0:50:04.918192000  7
               120.93081132:32:32:32:32:3  7Bm N  ov 18, 2018 0 0:50:04.963810000  7
               130.96993432:32:32:32:32:3  8Bm N  ov 18, 2018 0 0:50:05.002933000  7
               140.99537132:32:32:32:32:3  8Bm N  ov 18, 2018 0 0:50:05.028370000  7
               151.02016232:32:32:32:32:3  6Bm N  ov 18, 2018 0 0:50:05.053161000  7
               161.04410732:32:32:32:32:3  7Bm N  ov 18, 2018 0 0:50:05.077106000  7
               171.06107432:32:32:32:32:3  8Bm N  ov 18, 2018 0 0:50:05.094073000  7
               181.07453132:32:32:32:32:3  8Bm N  ov 18, 2018 0 0:50:05.107530000  7
               191.21244832:32:32:32:32:3  6Bm N  ov 18, 2018 0 0:50:05.245447000  7
               20 1.4032832:32:32:32:32:3  5Bm N  ov 18, 2018 0 0:50:05.436279000  7
               211.48326432:32:32:32:32:3  5Bm N  ov 18, 2018 0 0:50:05.516263000  7
               221.56379432:32:32:32:32:3  6Bm N  ov 18, 2018 0 0:50:05.596793000  7
               231.62536732:32:32:32:32:3  7Bm N  ov 18, 2018 0 0:50:05.658366000  7
               241.73331732:32:32:32:32:3  5Bm N  ov 18, 2018 0 0:50:05.766316000  7
               251.85838332:32:32:32:32:3  6Bm N  ov 18, 2018 0 0:50:05.891382000  7
               262.01140432:32:32:32:32:3  5Bm N  ov 18, 2018 0 0:50:06.044403000  7
               272.16513232:32:32:32:32:3  5Bm N  ov 18, 2018 0 0:50:06.198131000  7
               28 2.2302432:32:32:32:32:3  5Bm N  ov 18, 2018 0 0:50:06.263239000  7
               292.37668132:32:32:32:32:3  6Bm N  ov 18, 2018 0 0:50:06.409680000  7
               302.76111332:32:32:32:32:3  7Bm N  ov 18, 2018 0 0:50:06.794112000  7
               312.93046732:32:32:32:32:3  8Bm N  ov 18, 2018 0 0:50:06.963466000  7
               322.95824732:32:32:32:32:3  6Bm N  ov 18, 2018 0 0:50:06.991246000  7
               333.19228232:32:32:32:32:3  6Bm N  ov 18, 2018 0 0:50:07.225281000  7
               343.26144632:32:32:32:32:3  7Bm N  ov 18, 2018 0 0:50:07.294445000  7
               35 3.3456632:32:32:32:32:3  6Bm N  ov 18, 2018 0 0:50:07.378659000  7
               363.43185632:32:32:32:32:3  7Bm N  ov 18, 2018 0 0:50:07.464855000  7
               373.46059232:32:32:32:32:3  4Bm N  ov 18, 2018 0 0:50:07.493591000  7
               383.50768632:32:32:32:32:3  5Bm N  ov 18, 2018 0 0:50:07.540685000  7
               39 3.5949232:32:32:32:32:3  9Bm N  ov 18, 2018 0 0:50:07.627919000  7
               403.76367932:32:32:32:32:3  7Bm N  ov 18, 2018 0 0:50:07.796678000  7
               413.85857532:32:32:32:32:3  6Bm N  ov 18, 2018 0 0:50:07.891574000  7
               423.94132332:32:32:32:32:3  8Bm N  ov 18, 2018 0 0:50:07.974322000  7
               433.95906132:32:32:32:32:3  7Bm N  ov 18, 2018 0 0:50:07.992060000  7
               44 4.0014832:32:32:32:32:3  7Bm N  ov 18, 2018 0 0:50:08.034479000  7
               454.05745332:32:32:32:32:3  7Bm N  ov 18, 2018 0 0:50:08.090452000  7
               464.09374832:32:32:32:32:3  7Bm N  ov 18, 2018 0 0:50:08.126747000  7
               474.13936632:32:32:32:32:3  8Bm N  ov 18, 2018 0 0:50:08.172365000  7
               484.16628932:32:32:32:32:3  8Bm N  ov 18, 2018 0 0:50:08.199288000  7
               494.28674432:32:32:32:32:3  6Bm N  ov 18, 2018 0 0:50:08.319743000  7
               50 4.3677832:32:32:32:32:3  6Bm N  ov 18, 2018 0 0:50:08.400779000  7
               514.54099132:32:32:32:32:3  6Bm N  ov 18, 2018 0 0:50:08.573990000  7
               524.60232332:32:32:32:32:3  7Bm N  ov 18, 2018 0 0:50:08.635322000  7
               534.61920732:32:32:32:32:3  7Bm N  ov 18, 2018 0 0:50:08.652206000  7
               54 4.6527732:32:32:32:32:3  5Bm N  ov 18, 2018 0 0:50:08.685769000  7
               554.74653232:32:32:32:32:3  6Bm N  ov 18, 2018 0 0:50:08.779531000  7
               564.80341532:32:32:32:32:3  6Bm N  ov 18, 2018 0 0:50:08.836414000  7
               574.83358832:32:32:32:32:3  6Bm N  ov 18, 2018 0 0:50:08.866587000  7
               584.94365932:32:32:32:32:3  7Bm N  ov 18, 2018 0 0:50:08.976658000  7
               59 5.0245932:32:32:32:32:3  6Bm N  ov 18, 2018 0 0:50:09.057589000  7
               605.08012932:32:32:32:32:3  8Bm N  ov 18, 2018 0 0:50:09.113128000  7
               615.23546532:32:32:32:32:3  6Bm N  ov 18, 2018 0 0:50:09.268464000  7
               625.33178732:32:32:32:32:3  6Bm N  ov 18, 2018 0 0:50:09.364786000  7
               635.41920532:32:32:32:32:3  7Bm N  ov 18, 2018 0 0:50:09.452204000  7
               645.48166632:32:32:32:32:3  7Bm N  ov 18, 2018 0 0:50:09.514665000  7
               65 5.5323732:32:32:32:32:3  6Bm N  ov 18, 2018 0 0:50:09.565369000  7
               665.53509332:32:32:32:32:3  7Bm N  ov 18, 2018 0 0:50:09.568092000  7
               675.57358332:32:32:32:32:3  7Bm N  ov 18, 2018 0 0:50:09.606582000  7
               685.62843532:32:32:32:32:3  7Bm N  ov 18, 2018 0 0:50:09.661434000  7
               695.69485832:32:32:32:32:3  7Bm N  ov 18, 2018 0 0:50:09.727857000  7
               705.76628832:32:32:32:32:3  7Bm N  ov 18, 2018 0 0:50:09.799287000  7
               715.80288632:32:32:32:32:3  4Bm N  ov 18, 2018 0 0:50:09.835885000  7
               725.90654832:32:32:32:32:3  6Bm N  ov 18, 2018 0 0:50:09.939547000  7
               735.94549732:32:32:32:32:3  6Bm N  ov 18, 2018 0 0:50:09.978496000  7
               745.99870932:32:32:32:32:3  7Bm N  ov 18, 2018 0 0:50:10.031708000  7
               756.30140132:32:32:32:32:3  7Bm N  ov 18, 2018 0 0:50:10.334400000  7
               766.32270932:32:32:32:32:3  5Bm N  ov 18, 2018 0 0:50:10.355708000  7
               776.44731832:32:32:32:32:3  7Bm N  ov 18, 2018 0 0:50:10.480317000  7
               786.49258232:32:32:32:32:3  7Bm N  ov 18, 2018 0 0:50:10.525581000  7
               796.50930932:32:32:32:32:3  7Bm N  ov 18, 2018 0 0:50:10.542308000  7
               806.58089632:32:32:32:32:3  6Bm N  ov 18, 2018 0 0:50:10.613895000  7
               816.59896132:32:32:32:32:3  4Bm N  ov 18, 2018 0 0:50:10.631960000  7
               82 6.6406732:32:32:32:32:3  5Bm N  ov 18, 2018 0 0:50:10.673669000  7
               836.69103732:32:32:32:32:3  5Bm N  ov 18, 2018 0 0:50:10.724036000  7
               84 6.8384732:32:32:32:32:3  5Bm N  ov 18, 2018 0 0:50:10.871469000  7
               856.89878432:32:32:32:32:3  7Bm N  ov 18, 2018 0 0:50:10.931783000  7
               866.98006132:32:32:32:32:3  4Bm N  ov 18, 2018 0 0:50:11.013060000  7
               877.41434232:32:32:32:32:3  6Bm N  ov 18, 2018 0 0:50:11.447341000  7
               88 7.4949132:32:32:32:32:3  8Bm N  ov 18, 2018 0 0:50:11.527909000  7
               897.52615332:32:32:32:32:3  7Bm N  ov 18, 2018 0 0:50:11.559152000  7
               907.57406232:32:32:32:32:3  8Bm N  ov 18, 2018 0 0:50:11.607061000  7
               917.63793432:32:32:32:32:3  6Bm N  ov 18, 2018 0 0:50:11.670933000  7
               927.75664332:32:32:32:32:3  6Bm N  ov 18, 2018 0 0:50:11.789642000  7
               937.80684132:32:32:32:32:3  7Bm N  ov 18, 2018 0 0:50:11.839840000  7
               947.83992232:32:32:32:32:3  5Bm N  ov 18, 2018 0 0:50:11.872921000  7
               958.47912632:32:32:32:32:3  5Bm N  ov 18, 2018 0 0:50:12.512125000  7
               968.49652832:32:32:32:32:3  0Bm N  ov 18, 2018 0 0:50:12.529527000  7
               978.62706432:32:32:32:32:3  6Bm N  ov 18, 2018 0 0:50:12.660063000  7
               988.90649132:32:32:32:32:3  5Bm N  ov 18, 2018 0 0:50:12.939490000  7
               998.97549732:32:32:32:32:3  6Bm N  ov 18, 2018 0 0:50:13.008496000  7
              1009.04652932:32:32:32:32:3  5Bm N  ov 18, 2018 0 0:50:13.079528000  7
              101 9.0706632:32:32:32:32:3  5Bm N  ov 18, 2018 0 0:50:13.103659000  7
              1029.15376832:32:32:32:32:3  6Bm N  ov 18, 2018 0 0:50:13.186767000  7
              1039.47571532:32:32:32:32:3  7Bm N  ov 18, 2018 0 0:50:13.508714000  7
              1049.61136432:32:32:32:32:3  7Bm N  ov 18, 2018 0 0:50:13.644363000  7
              105 9.6509332:32:32:32:32:3  3Bm N  ov 18, 2018 0 0:50:13.683929000  7
              1069.73943632:32:32:32:32:3  7Bm N  ov 18, 2018 0 0:50:13.772435000  7
              1079.86953932:32:32:32:32:3  7Bm N  ov 18, 2018 0 0:50:13.902538000  7
              1089.90870232:32:32:32:32:3  7Bm N  ov 18, 2018 0 0:50:13.941701000  7
           109  10.00711632:32:32:32:32:3  7Bm N  ov 18, 2018 0 0:50:14.040115000  7
           110  10.03721432:32:32:32:32:3  5Bm N  ov 18, 2018 0 0:50:14.070213000  7
           111  1 0.1045432:32:32:32:32:3  6Bm N  ov 18, 2018 0 0:50:14.137539000  7
           112  10.10669132:32:32:32:32:3  7Bm N  ov 18, 2018 0 0:50:14.139690000  7
           113  10.25929332:32:32:32:32:3  7Bm N  ov 18, 2018 0 0:50:14.292292000  7
           114  10.31213932:32:32:32:32:3  6Bm N  ov 18, 2018 0 0:50:14.345138000  7
           115  10.41454632:32:32:32:32:3  4Bm N  ov 18, 2018 0 0:50:14.447545000  7
           116  10.54286732:32:32:32:32:3  7Bm N  ov 18, 2018 0 0:50:14.575866000  7
           117  10.78695232:32:32:32:32:3  6Bm N  ov 18, 2018 0 0:50:14.819951000  7
           118  10.85539832:32:32:32:32:3  7Bm N  ov 18, 2018 0 0:50:14.888397000  7
           119  10.87669532:32:32:32:32:3  5Bm N  ov 18, 2018 0 0:50:14.909694000  7
           120  10.92149332:32:32:32:32:3  5Bm N  ov 18, 2018 0 0:50:14.954492000  7
           121  10.93890532:32:32:32:32:3  6Bm N  ov 18, 2018 0 0:50:14.971904000  7
           122  10.97410932:32:32:32:32:3  6Bm N  ov 18, 2018 0 0:50:15.007108000  7
           123  10.98587932:32:32:32:32:3  7Bm N  ov 18, 2018 0 0:50:15.018878000  7
           124  11.22741632:32:32:32:32:3  6Bm N  ov 18, 2018 0 0:50:15.260415000  7
           125  11.55337132:32:32:32:32:3  6Bm N  ov 18, 2018 0 0:50:15.586370000  7
           126  11.64252932:32:32:32:32:3  7Bm N  ov 18, 2018 0 0:50:15.675528000  7
           127  11.81170632:32:32:32:32:3  7Bm N  ov 18, 2018 0 0:50:15.844705000  7
           128  11.99264932:32:32:32:32:3  5Bm N  ov 18, 2018 0 0:50:16.025648000  7
           129  12.04908732:32:32:32:32:3  5Bm N  ov 18, 2018 0 0:50:16.082086000  7
           130  12.11642132:32:32:32:32:3  5Bm N  ov 18, 2018 0 0:50:16.149420000  7
           131  12.16000432:32:32:32:32:3  5Bm N  ov 18, 2018 0 0:50:16.193003000  7
           132  12.26719132:32:32:32:32:3  7Bm N  ov 18, 2018 0 0:50:16.300190000  7
           133  12.29770932:32:32:32:32:3  8Bm N  ov 18, 2018 0 0:50:16.330708000  7
           134  12.31938132:32:32:32:32:3  6Bm N  ov 18, 2018 0 0:50:16.352380000  7
           135  1 2.3968232:32:32:32:32:3  5Bm N  ov 18, 2018 0 0:50:16.429819000  7
           136  12.42809932:32:32:32:32:3  4Bm N  ov 18, 2018 0 0:50:16.461098000  7
           137  12.58341732:32:32:32:32:3  4Bm N  ov 18, 2018 0 0:50:16.616416000  7
           138  12.65582232:32:32:32:32:3  6Bm N  ov 18, 2018 0 0:50:16.688821000  7
           139  12.80843732:32:32:32:32:3  5Bm N  ov 18, 2018 0 0:50:16.841436000  7
           140  12.82563432:32:32:32:32:3  6Bm N  ov 18, 2018 0 0:50:16.858633000  7
           141  12.84987732:32:32:32:32:3  5Bm N  ov 18, 2018 0 0:50:16.882876000  7
           142  13.02280232:32:32:32:32:3  6Bm N  ov 18, 2018 0 0:50:17.055801000  7
           143  13.08357432:32:32:32:32:3  6Bm N  ov 18, 2018 0 0:50:17.116573000  7
           144  1 3.1873432:32:32:32:32:3  8Bm N  ov 18, 2018 0 0:50:17.220339000  7
           145  1 3.2239632:32:32:32:32:3  6Bm N  ov 18, 2018 0 0:50:17.256959000  7
           146  13.26064132:32:32:32:32:3  7Bm N  ov 18, 2018 0 0:50:17.293640000  7
           147  13.35232632:32:32:32:32:3  6Bm N  ov 18, 2018 0 0:50:17.385325000  7
           148  13.49160432:32:32:32:32:3  5Bm N  ov 18, 2018 0 0:50:17.524603000  7
           149  13.62798632:32:32:32:32:3  7Bm N  ov 18, 2018 0 0:50:17.660985000  7
           150  13.67410632:32:32:32:32:3  7Bm N  ov 18, 2018 0 0:50:17.707105000  7
           151  13.74673232:32:32:32:32:3  7Bm N  ov 18, 2018 0 0:50:17.779731000  7
           152  13.77471232:32:32:32:32:3  6Bm N  ov 18, 2018 0 0:50:17.807711000  7
           153  13.81369932:32:32:32:32:3  6Bm N  ov 18, 2018 0 0:50:17.846698000  7
           154  13.95301832:32:32:32:32:3  7Bm N  ov 18, 2018 0 0:50:17.986017000  7
           155  14.01754432:32:32:32:32:3  5Bm N  ov 18, 2018 0 0:50:18.050543000  7
           156  1 4.0411232:32:32:32:32:3  5Bm N  ov 18, 2018 0 0:50:18.074119000  7
           157  14.15085632:32:32:32:32:3  5Bm N  ov 18, 2018 0 0:50:18.183855000  7
           158  14.18781632:32:32:32:32:3  6Bm N  ov 18, 2018 0 0:50:18.220815000  7
           159  14.21853732:32:32:32:32:3  6Bm N  ov 18, 2018 0 0:50:18.251536000  7
           160  14.33794432:32:32:32:32:3  3Bm N  ov 18, 2018 0 0:50:18.370943000  7
           161  14.35707132:32:32:32:32:3  4Bm N  ov 18, 2018 0 0:50:18.390070000  7
           162  14.53076432:32:32:32:32:3  6Bm N  ov 18, 2018 0 0:50:18.563763000  7
           163  14.84293432:32:32:32:32:3  5Bm N  ov 18, 2018 0 0:50:18.875933000  7
           164  14.88092132:32:32:32:32:3  5Bm N  ov 18, 2018 0 0:50:18.913920000  7
           165  14.94601532:32:32:32:32:3  7Bm N  ov 18, 2018 0 0:50:18.979014000  7
           166  15.04614432:32:32:32:32:3  6Bm N  ov 18, 2018 0 0:50:19.079143000  7
           167  15.14769832:32:32:32:32:3  6Bm N  ov 18, 2018 0 0:50:19.180697000  7
           168  15.53805432:32:32:32:32:3  6Bm N  ov 18, 2018 0 0:50:19.571053000  7
           169  15.70920432:32:32:32:32:3  5Bm N  ov 18, 2018 0 0:50:19.742203000  7
           170  15.72953632:32:32:32:32:3  5Bm N  ov 18, 2018 0 0:50:19.762535000  7
           171  15.85897132:32:32:32:32:3  5Bm N  ov 18, 2018 0 0:50:19.891970000  7
           172  15.97649432:32:32:32:32:3  5Bm N  ov 18, 2018 0 0:50:20.009493000  7
           173  16.14300832:32:32:32:32:3  6Bm N  ov 18, 2018 0 0:50:20.176007000  7
           174  16.27853832:32:32:32:32:3  6Bm N  ov 18, 2018 0 0:50:20.311537000  7
           175  16.31686832:32:32:32:32:3  6Bm N  ov 18, 2018 0 0:50:20.349867000  7
           176  16.41861232:32:32:32:32:3  5Bm N  ov 18, 2018 0 0:50:20.451611000  7
           177  16.46680832:32:32:32:32:3  6Bm N  ov 18, 2018 0 0:50:20.499807000  7
           178  16.78114132:32:32:32:32:3  6Bm N  ov 18, 2018 0 0:50:20.814140000  7
           179  16.84517732:32:32:32:32:3  5Bm N  ov 18, 2018 0 0:50:20.878176000  7
           180  16.92076532:32:32:32:32:3  5Bm N  ov 18, 2018 0 0:50:20.953764000  7
           181  16.97050532:32:32:32:32:3  2Bm N  ov 18, 2018 0 0:50:21.003504000  7
           182  17.02150732:32:32:32:32:3  5Bm N  ov 18, 2018 0 0:50:21.054506000  7
           183  17.03489932:32:32:32:32:3  6Bm N  ov 18, 2018 0 0:50:21.067898000  7
           184  17.07210532:32:32:32:32:3  4Bm N  ov 18, 2018 0 0:50:21.105104000  7
           185  17.09980532:32:32:32:32:3  6Bm N  ov 18, 2018 0 0:50:21.132804000  7
           186  17.28560632:32:32:32:32:3  6Bm N  ov 18, 2018 0 0:50:21.318605000  7
           187  17.40209332:32:32:32:32:3  6Bm N  ov 18, 2018 0 0:50:21.435092000  7
           188  17.42729532:32:32:32:32:3  5Bm N  ov 18, 2018 0 0:50:21.460294000  7
           189  17.44688632:32:32:32:32:3  4Bm N  ov 18, 2018 0 0:50:21.479885000  7
           190  17.50319732:32:32:32:32:3  4Bm N  ov 18, 2018 0 0:50:21.536196000  7
           191  17.52118632:32:32:32:32:3  5Bm N  ov 18, 2018 0 0:50:21.554185000  7
           192  1 7.5772132:32:32:32:32:3  6Bm N  ov 18, 2018 0 0:50:21.610209000  7
           193  17.63141932:32:32:32:32:3  7Bm N  ov 18, 2018 0 0:50:21.664418000  7
           194  17.72889832:32:32:32:32:3  4Bm N  ov 18, 2018 0 0:50:21.761897000  7
           195  17.79020932:32:32:32:32:3  3Bm N  ov 18, 2018 0 0:50:21.823208000  7
           196  17.86692832:32:32:32:32:3  6Bm N  ov 18, 2018 0 0:50:21.899927000  7
           197  17.91844632:32:32:32:32:3  6Bm N  ov 18, 2018 0 0:50:21.951445000  7
           198  17.96746732:32:32:32:32:3  6Bm N  ov 18, 2018 0 0:50:22.000466000  7
           199  18.02725632:32:32:32:32:3  5Bm N  ov 18, 2018 0 0:50:22.060255000  7
           200  18.16116432:32:32:32:32:3  4Bm N  ov 18, 2018 0 0:50:22.194163000  7
           201  18.28699932:32:32:32:32:3  6Bm N  ov 18, 2018 0 0:50:22.319998000  7
           202  18.33272832:32:32:32:32:3  6Bm N  ov 18, 2018 0 0:50:22.365727000  7
           203  18.49540732:32:32:32:32:3  7Bm N  ov 18, 2018 0 0:50:22.528406000  7
           204  18.63311932:32:32:32:32:3  6Bm N  ov 18, 2018 0 0:50:22.666118000  7
           205  1 8.7601832:32:32:32:32:3  6Bm N  ov 18, 2018 0 0:50:22.793179000  7
           206  18.77948832:32:32:32:32:3  7Bm N  ov 18, 2018 0 0:50:22.812487000  7
           207  1 8.9045632:32:32:32:32:3  6Bm N  ov 18, 2018 0 0:50:22.937559000  7
           208  19.01958332:32:32:32:32:3  5Bm N  ov 18, 2018 0 0:50:23.052582000  7
           209  19.21925332:32:32:32:32:3  6Bm N  ov 18, 2018 0 0:50:23.252252000  7
           210  19.25059332:32:32:32:32:3  5Bm N  ov 18, 2018 0 0:50:23.283592000  7
           211  1 9.2532832:32:32:32:32:3  6Bm N  ov 18, 2018 0 0:50:23.286279000  7
           212  19.29977232:32:32:32:32:3  7Bm N  ov 18, 2018 0 0:50:23.332771000  7
           213  19.86025732:32:32:32:32:3  6Bm N  ov 18, 2018 0 0:50:23.893256000  7
           214  19.88168932:32:32:32:32:3  5Bm N  ov 18, 2018 0 0:50:23.914688000  7
           215  20.04872332:32:32:32:32:3  5Bm N  ov 18, 2018 0 0:50:24.081722000  7
           216  20.11086632:32:32:32:32:3  6Bm N  ov 18, 2018 0 0:50:24.143865000  7
           217  20.15192632:32:32:32:32:3  6Bm N  ov 18, 2018 0 0:50:24.184925000  7
           218  20.23176832:32:32:32:32:3  6Bm N  ov 18, 2018 0 0:50:24.264767000  7
           219  20.33524632:32:32:32:32:3  7Bm N  ov 18, 2018 0 0:50:24.368245000  7
           220  20.35047332:32:32:32:32:3  4Bm N  ov 18, 2018 0 0:50:24.383472000  7
           221  20.45671432:32:32:32:32:3  7Bm N  ov 18, 2018 0 0:50:24.489713000  7
           222  2 0.5074632:32:32:32:32:3  5Bm N  ov 18, 2018 0 0:50:24.540459000  7
           223  20.59643732:32:32:32:32:3  6Bm N  ov 18, 2018 0 0:50:24.629436000  7
           224  20.62465432:32:32:32:32:3  6Bm N  ov 18, 2018 0 0:50:24.657653000  7
           225  20.65826732:32:32:32:32:3  6Bm N  ov 18, 2018 0 0:50:24.691266000  7
           226  20.67796732:32:32:32:32:3  5Bm N  ov 18, 2018 0 0:50:24.710966000  7
           227  21.11957632:32:32:32:32:3  6Bm N  ov 18, 2018 0 0:50:25.152575000  7
           228  21.15274332:32:32:32:32:3  6Bm N  ov 18, 2018 0 0:50:25.185742000  7
           229  21.32425632:32:32:32:32:3  6Bm N  ov 18, 2018 0 0:50:25.357255000  7
           230  2 1.3943132:32:32:32:32:3  6Bm N  ov 18, 2018 0 0:50:25.427309000  7
           231  21.45300632:32:32:32:32:3  4Bm N  ov 18, 2018 0 0:50:25.486005000  7
           232  21.47172932:32:32:32:32:3  6Bm N  ov 18, 2018 0 0:50:25.504728000  7
           233  21.52545132:32:32:32:32:3  7Bm N  ov 18, 2018 0 0:50:25.558450000  7
           234  21.56323432:32:32:32:32:3  7Bm N  ov 18, 2018 0 0:50:25.596233000  7
           235  21.60573532:32:32:32:32:3  6Bm N  ov 18, 2018 0 0:50:25.638734000  7
           236  21.63019232:32:32:32:32:3  6Bm N  ov 18, 2018 0 0:50:25.663191000  7
           237  21.71324332:32:32:32:32:3  7Bm N  ov 18, 2018 0 0:50:25.746242000  7
           238  21.98507132:32:32:32:32:3  3Bm N  ov 18, 2018 0 0:50:26.018070000  7
           239  22.14025332:32:32:32:32:3  5Bm N  ov 18, 2018 0 0:50:26.173252000  7
           240  22.16413132:32:32:32:32:3  6Bm N  ov 18, 2018 0 0:50:26.197130000  7
           241  22.23485732:32:32:32:32:3  6Bm N  ov 18, 2018 0 0:50:26.267856000  7
           242  22.28285232:32:32:32:32:3  6Bm N  ov 18, 2018 0 0:50:26.315851000  7
           243  22.31943532:32:32:32:32:3  2Bm N  ov 18, 2018 0 0:50:26.352434000  7
           244  22.38742832:32:32:32:32:3  7Bm N  ov 18, 2018 0 0:50:26.420427000  7
           245  22.41179332:32:32:32:32:3  5Bm N  ov 18, 2018 0 0:50:26.444792000  7
           246  22.43184332:32:32:32:32:3  6Bm N  ov 18, 2018 0 0:50:26.464842000  7
           247  22.57367632:32:32:32:32:3  5Bm N  ov 18, 2018 0 0:50:26.606675000  7
           248  22.61399332:32:32:32:32:3  5Bm N  ov 18, 2018 0 0:50:26.646992000  7
           249  22.66128432:32:32:32:32:3  5Bm N  ov 18, 2018 0 0:50:26.694283000  7
           250  22.73875232:32:32:32:32:3  5Bm N  ov 18, 2018 0 0:50:26.771751000  7
           251  22.91504832:32:32:32:32:3  5Bm N  ov 18, 2018 0 0:50:26.948047000  7
           252  23.00635732:32:32:32:32:3  4Bm N  ov 18, 2018 0 0:50:27.039356000  7
           253  23.12533332:32:32:32:32:3  6Bm N  ov 18, 2018 0 0:50:27.158332000  7
           254  23.39179532:32:32:32:32:3  7Bm N  ov 18, 2018 0 0:50:27.424794000  7
           255  23.44579832:32:32:32:32:3  6Bm N  ov 18, 2018 0 0:50:27.478797000  7
           256  2 3.4856632:32:32:32:32:3  6Bm N  ov 18, 2018 0 0:50:27.518659000  7
           257  23.55110432:32:32:32:32:3  7Bm N  ov 18, 2018 0 0:50:27.584103000  7
           258  23.76662132:32:32:32:32:3  5Bm N  ov 18, 2018 0 0:50:27.799620000  7
           259  23.80473232:32:32:32:32:3  5Bm N  ov 18, 2018 0 0:50:27.837731000  7
           260  23.82426332:32:32:32:32:3  6Bm N  ov 18, 2018 0 0:50:27.857262000  7
           261  2 4.4695132:32:32:32:32:3  5Bm N  ov 18, 2018 0 0:50:28.502509000  7
           262  24.61717732:32:32:32:32:3  5Bm N  ov 18, 2018 0 0:50:28.650176000  7
           263  24.64078932:32:32:32:32:3  4Bm N  ov 18, 2018 0 0:50:28.673788000  7
           264  24.69800332:32:32:32:32:3  6Bm N  ov 18, 2018 0 0:50:28.731002000  7
           265  24.70728232:32:32:32:32:3  5Bm N  ov 18, 2018 0 0:50:28.740281000  7
           266  24.73795832:32:32:32:32:3  8Bm N  ov 18, 2018 0 0:50:28.770957000  7
           267  24.74162832:32:32:32:32:3  4Bm N  ov 18, 2018 0 0:50:28.774627000  7
           268  24.83210832:32:32:32:32:3  5Bm N  ov 18, 2018 0 0:50:28.865107000  7
           269  2 4.9838532:32:32:32:32:3  5Bm N  ov 18, 2018 0 0:50:29.016849000  7
           270  25.03053132:32:32:32:32:3  5Bm N  ov 18, 2018 0 0:50:29.063530000  7
           271  25.09388832:32:32:32:32:3  6Bm N  ov 18, 2018 0 0:50:29.126887000  7
           272  25.16671932:32:32:32:32:3  6Bm N  ov 18, 2018 0 0:50:29.199718000  7
           273  25.28919832:32:32:32:32:3  5Bm N  ov 18, 2018 0 0:50:29.322197000  7
           274  25.36067732:32:32:32:32:3  6Bm N  ov 18, 2018 0 0:50:29.393676000  7
           275  26.53615832:32:32:32:32:3  6Bm N  ov 18, 2018 0 0:50:30.569157000  7
           276  26.56832732:32:32:32:32:3  7Bm N  ov 18, 2018 0 0:50:30.601326000  7
           277  26.69581632:32:32:32:32:3  5Bm N  ov 18, 2018 0 0:50:30.728815000  7
           278  26.72468732:32:32:32:32:3  8Bm N  ov 18, 2018 0 0:50:30.757686000  7
           279  26.76264932:32:32:32:32:3  7Bm N  ov 18, 2018 0 0:50:30.795648000  7
           280  27.99487632:32:32:32:32:3  7Bm N  ov 18, 2018 0 0:50:32.027875000  7
           281  28.05894732:32:32:32:32:3  5Bm N  ov 18, 2018 0 0:50:32.091946000  7
           282  28.08385432:32:32:32:32:3  5Bm N  ov 18, 2018 0 0:50:32.116853000  7
           283  28.26348932:32:32:32:32:3  6Bm N  ov 18, 2018 0 0:50:32.296488000  7
           284  28.37261732:32:32:32:32:3  5Bm N  ov 18, 2018 0 0:50:32.405616000  7
           285  28.38690332:32:32:32:32:3  5Bm N  ov 18, 2018 0 0:50:32.419902000  7
           286  28.83252332:32:32:32:32:3  5Bm N  ov 18, 2018 0 0:50:32.865522000  7
           287  28.92138432:32:32:32:32:3  6Bm N  ov 18, 2018 0 0:50:32.954383000  7
           288  29.09443632:32:32:32:32:3  6Bm N  ov 18, 2018 0 0:50:33.127435000  7
           289  29.13987132:32:32:32:32:3  7Bm N  ov 18, 2018 0 0:50:33.172870000  7
           290  3  0.230432:32:32:32:32:3  5Bm N  ov 18, 2018 0 0:50:34.263399000  7
           291  30.24680132:32:32:32:32:3  4Bm N  ov 18, 2018 0 0:50:34.279800000  7
           292  30.31774332:32:32:32:32:3  6Bm N  ov 18, 2018 0 0:50:34.350742000  7
           293  30.44082332:32:32:32:32:3  7Bm N  ov 18, 2018 0 0:50:34.473822000  7
           294  30.74710732:32:32:32:32:3  5Bm N  ov 18, 2018 0 0:50:34.780106000  7
           295  30.88561932:32:32:32:32:3  5Bm N  ov 18, 2018 0 0:50:34.918618000  7
           296  32.27269632:32:32:32:32:3  5Bm N  ov 18, 2018 0 0:50:36.305695000  7
           297  32.32866532:32:32:32:32:3  5Bm N  ov 18, 2018 0 0:50:36.361664000  7
           298  32.44433332:32:32:32:32:3  5Bm N  ov 18, 2018 0 0:50:36.477332000  7
           299  32.87351232:32:32:32:32:3  3Bm N  ov 18, 2018 0 0:50:36.906511000  7
           300  33.39830432:32:32:32:32:3  5Bm N  ov 18, 2018 0 0:50:37.431303000  7
           301  33.92360532:32:32:32:32:3  5Bm N  ov 18, 2018 0 0:50:37.956604000  7
           302  34.17989232:32:32:32:32:3  6Bm N  ov 18, 2018 0 0:50:38.212891000  7
           303  34.35094632:32:32:32:32:3  5Bm N  ov 18, 2018 0 0:50:38.383945000  7
           304  35.27291832:32:32:32:32:3  7Bm N  ov 18, 2018 0 0:50:39.305917000  7
           305  35.53752632:32:32:32:32:3  5Bm N  ov 18, 2018 0 0:50:39.570525000  7
           306  35.93082232:32:32:32:32:3  5Bm N  ov 18, 2018 0 0:50:39.963821000  7
           307  36.35467232:32:32:32:32:3  6Bm N  ov 18, 2018 0 0:50:40.387671000  7
           308  36.64698932:32:32:32:32:3  5Bm N  ov 18, 2018 0 0:50:40.679988000  7
           309  37.29287232:32:32:32:32:3  8Bm N  ov 18, 2018 0 0:50:41.325871000  7
           310  38.43165432:32:32:32:32:3  5Bm N  ov 18, 2018 0 0:50:42.464653000  7
           311  39.15008132:32:32:32:32:3  6Bm N  ov 18, 2018 0 0:50:43.183080000  7
           312  39.21659732:32:32:32:32:3  5Bm N  ov 18, 2018 0 0:50:43.249596000  7
           313  39.40684932:32:32:32:32:3  6Bm N  ov 18, 2018 0 0:50:43.439848000  7
           314  39.76150932:32:32:32:32:3  6Bm N  ov 18, 2018 0 0:50:43.794508000  7
           315  40.41316732:32:32:32:32:3  7Bm N  ov 18, 2018 0 0:50:44.446166000  7
           316  40.68174932:32:32:32:32:3  4Bm N  ov 18, 2018 0 0:50:44.714748000  7
           317  42.36106332:32:32:32:32:3  5Bm N  ov 18, 2018 0 0:50:46.394062000  7
           318  42.49803132:32:32:32:32:3  6Bm N  ov 18, 2018 0 0:50:46.531030000  7
           319  42.76839732:32:32:32:32:3  5Bm N  ov 18, 2018 0 0:50:46.801396000  7
           320  43.30150832:32:32:32:32:3  4Bm N  ov 18, 2018 0 0:50:47.334507000  7
           321  43.50656232:32:32:32:32:3  7Bm N  ov 18, 2018 0 0:50:47.539561000  7
           322  43.61386532:32:32:32:32:3  4Bm N  ov 18, 2018 0 0:50:47.646864000  7
           323  43.88286432:32:32:32:32:3  6Bm N  ov 18, 2018 0 0:50:47.915863000  7
           324  43.95445832:32:32:32:32:3  5Bm N  ov 18, 2018 0 0:50:47.987457000  7
           325  44.02437832:32:32:32:32:3  7Bm N  ov 18, 2018 0 0:50:48.057377000  7
           326  44.49686432:32:32:32:32:3  6Bm N  ov 18, 2018 0 0:50:48.529863000  7
           327  44.57341232:32:32:32:32:3  6Bm N  ov 18, 2018 0 0:50:48.606411000  7
           328  45.34731732:32:32:32:32:3  5Bm N  ov 18, 2018 0 0:50:49.380316000  7
           329  45.71266632:32:32:32:32:3  6Bm N  ov 18, 2018 0 0:50:49.745665000  7
           330  45.91146232:32:32:32:32:3  6Bm N  ov 18, 2018 0 0:50:49.944461000  7
           331  46.00203632:32:32:32:32:3  7Bm N  ov 18, 2018 0 0:50:50.035035000  7
           332  4  6.174232:32:32:32:32:3  6Bm N  ov 18, 2018 0 0:50:50.207199000  7
           333  46.28464532:32:32:32:32:3  6Bm N  ov 18, 2018 0 0:50:50.317644000  7
           334  46.37533532:32:32:32:32:3  7Bm N  ov 18, 2018 0 0:50:50.408334000  7
           335  4 6.4236232:32:32:32:32:3  4Bm N  ov 18, 2018 0 0:50:50.456619000  7
           336  4 6.9115632:32:32:32:32:3  5Bm N  ov 18, 2018 0 0:50:50.944559000  7
           337  47.22438132:32:32:32:32:3  3Bm N  ov 18, 2018 0 0:50:51.257380000  7
           338  47.25960732:32:32:32:32:3  7Bm N  ov 18, 2018 0 0:50:51.292606000  7
           339  47.34723132:32:32:32:32:3  5Bm N  ov 18, 2018 0 0:50:51.380230000  7
           340  47.37268132:32:32:32:32:3  5Bm N  ov 18, 2018 0 0:50:51.405680000  7
           341  47.38650732:32:32:32:32:3  6Bm N  ov 18, 2018 0 0:50:51.419506000  7
           342  47.62050332:32:32:32:32:3  4Bm N  ov 18, 2018 0 0:50:51.653502000  7
           343  47.87163332:32:32:32:32:3  6Bm N  ov 18, 2018 0 0:50:51.904632000  7
           344  48.37816632:32:32:32:32:3  6Bm N  ov 18, 2018 0 0:50:52.411165000  7
           345  48.50924932:32:32:32:32:3  4Bm N  ov 18, 2018 0 0:50:52.542248000  7
           346  48.52969732:32:32:32:32:3  6Bm N  ov 18, 2018 0 0:50:52.562696000  7
           347  48.86632432:32:32:32:32:3  5Bm N  ov 18, 2018 0 0:50:52.899323000  7
           348  48.98985332:32:32:32:32:3  4Bm N  ov 18, 2018 0 0:50:53.022852000  7
           349  49.01148332:32:32:32:32:3  5Bm N  ov 18, 2018 0 0:50:53.044482000  7
           350  50.26443332:32:32:32:32:3  6Bm N  ov 18, 2018 0 0:50:54.297432000  7
           351  50.69436232:32:32:32:32:3  5Bm N  ov 18, 2018 0 0:50:54.727361000  7
           352  50.93697232:32:32:32:32:3  3Bm N  ov 18, 2018 0 0:50:54.969971000  7
           353  51.85556632:32:32:32:32:3  6Bm N  ov 18, 2018 0 0:50:55.888565000  7
           354  52.06768332:32:32:32:32:3  7Bm N  ov 18, 2018 0 0:50:56.100682000  7
           355  52.13017432:32:32:32:32:3  6Bm N  ov 18, 2018 0 0:50:56.163173000  7
           356  52.55939132:32:32:32:32:3  5Bm N  ov 18, 2018 0 0:50:56.592390000  7
           357  53.28827832:32:32:32:32:3  7Bm N  ov 18, 2018 0 0:50:57.321277000  7
           358  54.83824632:32:32:32:32:3  5Bm N  ov 18, 2018 0 0:50:58.871245000  7
           359  55.58018932:32:32:32:32:3  6Bm N  ov 18, 2018 0 0:50:59.613188000  7
           360  56.23899832:32:32:32:32:3  7Bm N  ov 18, 2018 0 0:51:00.271997000  7
           361  5 6.6115832:32:32:32:32:3  7Bm N  ov 18, 2018 0 0:51:00.644579000  7
           362  57.61876332:32:32:32:32:3  6Bm N  ov 18, 2018 0 0:51:01.651762000  7
           363  57.69778932:32:32:32:32:3  6Bm N  ov 18, 2018 0 0:51:01.730788000  7
           364  58.70312832:32:32:32:32:3  7Bm N  ov 18, 2018 0 0:51:02.736127000  7
           365  58.99561232:32:32:32:32:3  5Bm N  ov 18, 2018 0 0:51:03.028611000  7
           366  59.04582832:32:32:32:32:3  7Bm N  ov 18, 2018 0 0:51:03.078827000  7
           367  59.17094132:32:32:32:32:3  7Bm N  ov 18, 2018 0 0:51:03.203940000  7
           368  59.46319232:32:32:32:32:3  7Bm N  ov 18, 2018 0 0:51:03.496191000  7
           369  59.69965232:32:32:32:32:3  5Bm N  ov 18, 2018 0 0:51:03.732651000  7
           370  59.87131732:32:32:32:32:3  6Bm N  ov 18, 2018 0 0:51:03.904316000  7
           371  59.91323632:32:32:32:32:3  5Bm N  ov 18, 2018 0 0:51:03.946235000  7
           372  60.08385732:32:32:32:32:3  5Bm N  ov 18, 2018 0 0:51:04.116856000  7
           373  60.17756532:32:32:32:32:3  7Bm N  ov 18, 2018 0 0:51:04.210564000  7
           374  60.32074632:32:32:32:32:3  5Bm N  ov 18, 2018 0 0:51:04.353745000  7
           375  60.50448832:32:32:32:32:3  8Bm N  ov 18, 2018 0 0:51:04.537487000  7
           376  60.61227732:32:32:32:32:3  7Bm N  ov 18, 2018 0 0:51:04.645276000  7
           377  60.69186632:32:32:32:32:3  5Bm N  ov 18, 2018 0 0:51:04.724865000  7
           378  60.80065732:32:32:32:32:3  7Bm N  ov 18, 2018 0 0:51:04.833656000  7
           379  6 0.8286532:32:32:32:32:3  6Bm N  ov 18, 2018 0 0:51:04.861649000  7
           380  60.84369832:32:32:32:32:3  4Bm N  ov 18, 2018 0 0:51:04.876697000  7
           381  6 1.0512932:32:32:32:32:3  7Bm N  ov 18, 2018 0 0:51:05.084289000  7
           382  61.17471932:32:32:32:32:3  6Bm N  ov 18, 2018 0 0:51:05.207718000  7
           383  61.23442432:32:32:32:32:3  6Bm N  ov 18, 2018 0 0:51:05.267423000  7
           384  61.31519132:32:32:32:32:3  7Bm N  ov 18, 2018 0 0:51:05.348190000  7
           385  61.47271332:32:32:32:32:3  6Bm N  ov 18, 2018 0 0:51:05.505712000  7
           386  61.70310732:32:32:32:32:3  4Bm N  ov 18, 2018 0 0:51:05.736106000  7
           387  61.81907832:32:32:32:32:3  6Bm N  ov 18, 2018 0 0:51:05.852077000  7
           388  62.29217932:32:32:32:32:3  7Bm N  ov 18, 2018 0 0:51:06.325178000  7
           389  62.34356732:32:32:32:32:3  7Bm N  ov 18, 2018 0 0:51:06.376566000  7
           390  62.49267832:32:32:32:32:3  7Bm N  ov 18, 2018 0 0:51:06.525677000  7
           391  62.71180632:32:32:32:32:3  5Bm N  ov 18, 2018 0 0:51:06.744805000  7
           392  62.84145232:32:32:32:32:3  5Bm N  ov 18, 2018 0 0:51:06.874451000  7
           393  63.53010232:32:32:32:32:3  5Bm N  ov 18, 2018 0 0:51:07.563101000  7
           394  63.60113532:32:32:32:32:3  6Bm N  ov 18, 2018 0 0:51:07.634134000  7
           395  63.69819432:32:32:32:32:3  6Bm N  ov 18, 2018 0 0:51:07.731193000  7
           396  63.71641132:32:32:32:32:3  7Bm N  ov 18, 2018 0 0:51:07.749410000  7
           397  63.73029632:32:32:32:32:3  5Bm N  ov 18, 2018 0 0:51:07.763295000  7
           398  63.79269132:32:32:32:32:3  7Bm N  ov 18, 2018 0 0:51:07.825690000  7
           399  63.88195432:32:32:32:32:3  6Bm N  ov 18, 2018 0 0:51:07.914953000  7
           400  63.90024832:32:32:32:32:3  5Bm N  ov 18, 2018 0 0:51:07.933247000  7
           401  64.68848132:32:32:32:32:3  5Bm N  ov 18, 2018 0 0:51:08.721480000  7
           402  64.76921532:32:32:32:32:3  5Bm N  ov 18, 2018 0 0:51:08.802214000  7
           403  64.91861132:32:32:32:32:3  4Bm N  ov 18, 2018 0 0:51:08.951610000  7
           404  64.96070732:32:32:32:32:3  4Bm N  ov 18, 2018 0 0:51:08.993706000  7
           405  65.15175232:32:32:32:32:3  5Bm N  ov 18, 2018 0 0:51:09.184751000  7
           406  65.39149832:32:32:32:32:3  6Bm N  ov 18, 2018 0 0:51:09.424497000  7
           407  65.52195132:32:32:32:32:3  4Bm N  ov 18, 2018 0 0:51:09.554950000  7
           408  65.55681632:32:32:32:32:3  7Bm N  ov 18, 2018 0 0:51:09.589815000  7
           409  65.57566932:32:32:32:32:3  8Bm N  ov 18, 2018 0 0:51:09.608668000  7
           410  65.65434632:32:32:32:32:3  6Bm N  ov 18, 2018 0 0:51:09.687345000  7
           411  65.88473932:32:32:32:32:3  7Bm N  ov 18, 2018 0 0:51:09.917738000  7
           412  66.04470332:32:32:32:32:3  5Bm N  ov 18, 2018 0 0:51:10.077702000  7
           413  66.32492132:32:32:32:32:3  7Bm N  ov 18, 2018 0 0:51:10.357920000  7
           414  66.48381232:32:32:32:32:3  5Bm N  ov 18, 2018 0 0:51:10.516811000  7
           415  66.75690432:32:32:32:32:3  6Bm N  ov 18, 2018 0 0:51:10.789903000  7
           416  66.84233432:32:32:32:32:3  5Bm N  ov 18, 2018 0 0:51:10.875333000  7
           417  67.06662932:32:32:32:32:3  7Bm N  ov 18, 2018 0 0:51:11.099628000  7
           418  67.08957732:32:32:32:32:3  6Bm N  ov 18, 2018 0 0:51:11.122576000  7
           419  67.12393832:32:32:32:32:3  5Bm N  ov 18, 2018 0 0:51:11.156937000  7
           420  67.15360932:32:32:32:32:3  6Bm N  ov 18, 2018 0 0:51:11.186608000  7
           421  6 7.3207532:32:32:32:32:3  6Bm N  ov 18, 2018 0 0:51:11.353749000  7
           422  67.37083232:32:32:32:32:3  7Bm N  ov 18, 2018 0 0:51:11.403831000  7
           423  67.48837332:32:32:32:32:3  5Bm N  ov 18, 2018 0 0:51:11.521372000  7
           424  67.52586232:32:32:32:32:3  8Bm N  ov 18, 2018 0 0:51:11.558861000  7
           425  6 7.9912732:32:32:32:32:3  5Bm N  ov 18, 2018 0 0:51:12.024269000  7
           426  68.36089432:32:32:32:32:3  5Bm N  ov 18, 2018 0 0:51:12.393893000  7
           427  68.45317732:32:32:32:32:3  6Bm N  ov 18, 2018 0 0:51:12.486176000  7
           428  6 8.6044932:32:32:32:32:3  7Bm N  ov 18, 2018 0 0:51:12.637489000  7
           429  68.62457632:32:32:32:32:3  6Bm N  ov 18, 2018 0 0:51:12.657575000  7
           430  6 8.6450732:32:32:32:32:3  6Bm N  ov 18, 2018 0 0:51:12.678069000  7
           431  69.52397832:32:32:32:32:3  5Bm N  ov 18, 2018 0 0:51:13.556977000  7
           432  69.86145432:32:32:32:32:3  6Bm N  ov 18, 2018 0 0:51:13.894453000  7
           433  70.31195232:32:32:32:32:3  5Bm N  ov 18, 2018 0 0:51:14.344951000  7
           434  70.33293432:32:32:32:32:3  6Bm N  ov 18, 2018 0 0:51:14.365933000  7
           435  7 0.5704632:32:32:32:32:3  5Bm N  ov 18, 2018 0 0:51:14.603459000  7
           436  70.70377932:32:32:32:32:3  6Bm N  ov 18, 2018 0 0:51:14.736778000  7
           437  70.77591132:32:32:32:32:3  7Bm N  ov 18, 2018 0 0:51:14.808910000  7
           438  70.82702432:32:32:32:32:3  6Bm N  ov 18, 2018 0 0:51:14.860023000  7
           439  7  1.729732:32:32:32:32:3  4Bm N  ov 18, 2018 0 0:51:15.762699000  7
           440  71.79115832:32:32:32:32:3  6Bm N  ov 18, 2018 0 0:51:15.824157000  7
           441  71.81847232:32:32:32:32:3  5Bm N  ov 18, 2018 0 0:51:15.851471000  7
           442  71.95382932:32:32:32:32:3  4Bm N  ov 18, 2018 0 0:51:15.986828000  7
           443  7 2.2184232:32:32:32:32:3  6Bm N  ov 18, 2018 0 0:51:16.251419000  7
           444  7  2.340832:32:32:32:32:3  6Bm N  ov 18, 2018 0 0:51:16.373799000  7
           445  72.48984332:32:32:32:32:3  5Bm N  ov 18, 2018 0 0:51:16.522842000  7
           446  72.56639332:32:32:32:32:3  6Bm N  ov 18, 2018 0 0:51:16.599392000  7
           447  72.58775732:32:32:32:32:3  5Bm N  ov 18, 2018 0 0:51:16.620756000  7
           448  72.63372932:32:32:32:32:3  6Bm N  ov 18, 2018 0 0:51:16.666728000  7
           449  72.66317832:32:32:32:32:3  5Bm N  ov 18, 2018 0 0:51:16.696177000  7
           450  72.95488532:32:32:32:32:3  5Bm N  ov 18, 2018 0 0:51:16.987884000  7
           451  73.32713332:32:32:32:32:3  7Bm N  ov 18, 2018 0 0:51:17.360132000  7
           452  73.48142332:32:32:32:32:3  4Bm N  ov 18, 2018 0 0:51:17.514422000  7
           453  73.52535332:32:32:32:32:3  4Bm N  ov 18, 2018 0 0:51:17.558352000  7
           454  73.58125832:32:32:32:32:3  6Bm N  ov 18, 2018 0 0:51:17.614257000  7
           455  73.66599432:32:32:32:32:3  8Bm N  ov 18, 2018 0 0:51:17.698993000  7
           456  7 3.7747532:32:32:32:32:3  3Bm N  ov 18, 2018 0 0:51:17.807749000  7
           457  74.16521532:32:32:32:32:3  6Bm N  ov 18, 2018 0 0:51:18.198214000  7
           458  74.68112232:32:32:32:32:3  6Bm N  ov 18, 2018 0 0:51:18.714121000  7
           459  7 4.7758632:32:32:32:32:3  6Bm N  ov 18, 2018 0 0:51:18.808859000  7
           460  74.80611532:32:32:32:32:3  6Bm N  ov 18, 2018 0 0:51:18.839114000  7
           461  75.04805832:32:32:32:32:3  6Bm N  ov 18, 2018 0 0:51:19.081057000  7
           462  75.26559632:32:32:32:32:3  5Bm N  ov 18, 2018 0 0:51:19.298595000  7
           463  75.52124832:32:32:32:32:3  1Bm N  ov 18, 2018 0 0:51:19.554247000  7
           464  7 5.6385732:32:32:32:32:3  6Bm N  ov 18, 2018 0 0:51:19.671569000  7
           465  75.87548832:32:32:32:32:3  4Bm N  ov 18, 2018 0 0:51:19.908487000  7
           466  76.06668232:32:32:32:32:3  6Bm N  ov 18, 2018 0 0:51:20.099681000  7
           467  76.28700132:32:32:32:32:3  6Bm N  ov 18, 2018 0 0:51:20.320000000  7
           468  7 6.4882732:32:32:32:32:3  5Bm N  ov 18, 2018 0 0:51:20.521269000  7
           469  77.46138532:32:32:32:32:3  5Bm N  ov 18, 2018 0 0:51:21.494384000  7
           470  77.53392932:32:32:32:32:3  5Bm N  ov 18, 2018 0 0:51:21.566928000  7
           471  77.69125332:32:32:32:32:3  5Bm N  ov 18, 2018 0 0:51:21.724252000  7
           472  77.88141932:32:32:32:32:3  6Bm N  ov 18, 2018 0 0:51:21.914418000  7
           473  78.01027332:32:32:32:32:3  6Bm N  ov 18, 2018 0 0:51:22.043272000  7
           474  78.03291632:32:32:32:32:3  6Bm N  ov 18, 2018 0 0:51:22.065915000  7
           475  78.36307832:32:32:32:32:3  5Bm N  ov 18, 2018 0 0:51:22.396077000  7
           476  78.91730932:32:32:32:32:3  5Bm N  ov 18, 2018 0 0:51:22.950308000  7
           477  79.02089832:32:32:32:32:3  5Bm N  ov 18, 2018 0 0:51:23.053897000  7
           478  79.09149532:32:32:32:32:3  5Bm N  ov 18, 2018 0 0:51:23.124494000  7
           479  79.17822832:32:32:32:32:3  6Bm N  ov 18, 2018 0 0:51:23.211227000  7
           480  79.37906932:32:32:32:32:3  6Bm N  ov 18, 2018 0 0:51:23.412068000  7
           481  79.39201632:32:32:32:32:3  6Bm N  ov 18, 2018 0 0:51:23.425015000  7
           482  79.76919232:32:32:32:32:3  7Bm N  ov 18, 2018 0 0:51:23.802191000  7
           483  79.91277332:32:32:32:32:3  6Bm N  ov 18, 2018 0 0:51:23.945772000  7
           484  80.18211332:32:32:32:32:3  6Bm N  ov 18, 2018 0 0:51:24.215112000  7
           485  80.78701532:32:32:32:32:3  5Bm N  ov 18, 2018 0 0:51:24.820014000  7
           486  80.99671632:32:32:32:32:3  5Bm N  ov 18, 2018 0 0:51:25.029715000  7
           487  81.16297932:32:32:32:32:3  7Bm N  ov 18, 2018 0 0:51:25.195978000  7
           488  81.21462832:32:32:32:32:3  6Bm N  ov 18, 2018 0 0:51:25.247627000  7
           489  81.24638532:32:32:32:32:3  5Bm N  ov 18, 2018 0 0:51:25.279384000  7
           490  81.28061132:32:32:32:32:3  7Bm N  ov 18, 2018 0 0:51:25.313610000  7
           491  81.31623232:32:32:32:32:3  7Bm N  ov 18, 2018 0 0:51:25.349231000  7
           492  81.58100632:32:32:32:32:3  4Bm N  ov 18, 2018 0 0:51:25.614005000  7
           493  81.85181132:32:32:32:32:3  4Bm N  ov 18, 2018 0 0:51:25.884810000  7
           494  81.87199532:32:32:32:32:3  6Bm N  ov 18, 2018 0 0:51:25.904994000  7
           495  82.21844532:32:32:32:32:3  5Bm N  ov 18, 2018 0 0:51:26.251444000  7
           496  82.29586632:32:32:32:32:3  5Bm N  ov 18, 2018 0 0:51:26.328865000  7
           497  82.63307132:32:32:32:32:3  9Bm N  ov 18, 2018 0 0:51:26.666070000  7
           498  83.49826332:32:32:32:32:3  8Bm N  ov 18, 2018 0 0:51:27.531262000  7
           499  8 3.6073932:32:32:32:32:3  5Bm N  ov 18, 2018 0 0:51:27.640389000  7
           500  84.16454232:32:32:32:32:3  7Bm N  ov 18, 2018 0 0:51:28.197541000  7
           501  85.21393932:32:32:32:32:3  5Bm N  ov 18, 2018 0 0:51:29.246938000  7
           502  85.33421232:32:32:32:32:3  3Bm N  ov 18, 2018 0 0:51:29.367211000  7
           503  85.63240532:32:32:32:32:3  5Bm N  ov 18, 2018 0 0:51:29.665404000  7
           504  86.02486932:32:32:32:32:3  3Bm N  ov 18, 2018 0 0:51:30.057868000  7
           505  86.16735932:32:32:32:32:3  6Bm N  ov 18, 2018 0 0:51:30.200358000  7
           506  86.30989732:32:32:32:32:3  6Bm N  ov 18, 2018 0 0:51:30.342896000  7
           507  86.33899232:32:32:32:32:3  5Bm N  ov 18, 2018 0 0:51:30.371991000  7
           508  86.48052532:32:32:32:32:3  4Bm N  ov 18, 2018 0 0:51:30.513524000  7
           509  86.49370732:32:32:32:32:3  5Bm N  ov 18, 2018 0 0:51:30.526706000  7
           510  86.56049732:32:32:32:32:3  5Bm N  ov 18, 2018 0 0:51:30.593496000  7
           511  86.63799832:32:32:32:32:3  5Bm N  ov 18, 2018 0 0:51:30.670997000  7
           512  86.74123732:32:32:32:32:3  1Bm N  ov 18, 2018 0 0:51:30.774236000  7
           513  86.80564332:32:32:32:32:3  5Bm N  ov 18, 2018 0 0:51:30.838642000  7
           514  86.92784732:32:32:32:32:3  5Bm N  ov 18, 2018 0 0:51:30.960846000  7
           515  87.31743432:32:32:32:32:3  5Bm N  ov 18, 2018 0 0:51:31.350433000  7
           516  87.59906232:32:32:32:32:3  5Bm N  ov 18, 2018 0 0:51:31.632061000  7
           517  87.61575932:32:32:32:32:3  6Bm N  ov 18, 2018 0 0:51:31.648758000  7
           518  87.73433332:32:32:32:32:3  5Bm N  ov 18, 2018 0 0:51:31.767332000  7
           519  87.97139532:32:32:32:32:3  4Bm N  ov 18, 2018 0 0:51:32.004394000  7
           520  87.99859832:32:32:32:32:3  6Bm N  ov 18, 2018 0 0:51:32.031597000  7
           521  88.02982232:32:32:32:32:3  5Bm N  ov 18, 2018 0 0:51:32.062821000  7
           522  88.04169432:32:32:32:32:3  7Bm N  ov 18, 2018 0 0:51:32.074693000  7
           523  88.39016732:32:32:32:32:3  6Bm N  ov 18, 2018 0 0:51:32.423166000  7
           524  88.48347132:32:32:32:32:3  5Bm N  ov 18, 2018 0 0:51:32.516470000  7
           525  88.49869632:32:32:32:32:3  5Bm N  ov 18, 2018 0 0:51:32.531695000  7
           526  88.71006232:32:32:32:32:3  4Bm N  ov 18, 2018 0 0:51:32.743061000  7
           527  88.76077332:32:32:32:32:3  6Bm N  ov 18, 2018 0 0:51:32.793772000  7
           528  88.79860332:32:32:32:32:3  6Bm N  ov 18, 2018 0 0:51:32.831602000  7
           529  88.82180532:32:32:32:32:3  7Bm N  ov 18, 2018 0 0:51:32.854804000  7
           530  88.86797632:32:32:32:32:3  4Bm N  ov 18, 2018 0 0:51:32.900975000  7
           531  89.48529632:32:32:32:32:3  5Bm N  ov 18, 2018 0 0:51:33.518295000  7
           532  89.50625732:32:32:32:32:3  7Bm N  ov 18, 2018 0 0:51:33.539256000  7
           533  89.53179732:32:32:32:32:3  5Bm N  ov 18, 2018 0 0:51:33.564796000  7
           534  89.80808932:32:32:32:32:3  6Bm N  ov 18, 2018 0 0:51:33.841088000  7
           535  89.98186232:32:32:32:32:3  4Bm N  ov 18, 2018 0 0:51:34.014861000  7
           536  90.29245732:32:32:32:32:3  6Bm N  ov 18, 2018 0 0:51:34.325456000  7
           537  90.35114132:32:32:32:32:3  2Bm N  ov 18, 2018 0 0:51:34.384140000  7
           538  90.66943632:32:32:32:32:3  4Bm N  ov 18, 2018 0 0:51:34.702435000  7
           539  90.79724932:32:32:32:32:3  6Bm N  ov 18, 2018 0 0:51:34.830248000  7
           540  9 0.8411132:32:32:32:32:3  8Bm N  ov 18, 2018 0 0:51:34.874109000  7
           541  90.87415232:32:32:32:32:3  6Bm N  ov 18, 2018 0 0:51:34.907151000  7
           542  91.04827432:32:32:32:32:3  6Bm N  ov 18, 2018 0 0:51:35.081273000  7
           543  91.40180932:32:32:32:32:3  5Bm N  ov 18, 2018 0 0:51:35.434808000  7
           544  91.55228132:32:32:32:32:3  7Bm N  ov 18, 2018 0 0:51:35.585280000  7
           545  91.62001332:32:32:32:32:3  5Bm N  ov 18, 2018 0 0:51:35.653012000  7
           546  91.72480932:32:32:32:32:3  7Bm N  ov 18, 2018 0 0:51:35.757808000  7
           547  91.81267732:32:32:32:32:3  3Bm N  ov 18, 2018 0 0:51:35.845676000  7
           548  91.91546132:32:32:32:32:3  6Bm N  ov 18, 2018 0 0:51:35.948460000  7
           549  91.96010432:32:32:32:32:3  6Bm N  ov 18, 2018 0 0:51:35.993103000  7
           550  92.03752732:32:32:32:32:3  4Bm N  ov 18, 2018 0 0:51:36.070526000  7
           551  92.10130832:32:32:32:32:3  4Bm N  ov 18, 2018 0 0:51:36.134307000  7
           552  9 2.1210632:32:32:32:32:3  7Bm N  ov 18, 2018 0 0:51:36.154059000  7
           553  92.20696332:32:32:32:32:3  6Bm N  ov 18, 2018 0 0:51:36.239962000  7
           554  92.24094932:32:32:32:32:3  4Bm N  ov 18, 2018 0 0:51:36.273948000  7
           555  92.33250532:32:32:32:32:3  6Bm N  ov 18, 2018 0 0:51:36.365504000  7
           556  92.42799632:32:32:32:32:3  6Bm N  ov 18, 2018 0 0:51:36.460995000  7
           557  92.53724932:32:32:32:32:3  7Bm N  ov 18, 2018 0 0:51:36.570248000  7
           558  92.71245632:32:32:32:32:3  6Bm N  ov 18, 2018 0 0:51:36.745455000  7
           559  92.79806232:32:32:32:32:3  5Bm N  ov 18, 2018 0 0:51:36.831061000  7
           560  92.81759632:32:32:32:32:3  6Bm N  ov 18, 2018 0 0:51:36.850595000  7
           561  92.92325132:32:32:32:32:3  5Bm N  ov 18, 2018 0 0:51:36.956250000  7
           562  9 2.9483432:32:32:32:32:3  5Bm N  ov 18, 2018 0 0:51:36.981339000  7
           563  92.98425332:32:32:32:32:3  6Bm N  ov 18, 2018 0 0:51:37.017252000  7
           564  9 3.0344832:32:32:32:32:3  5Bm N  ov 18, 2018 0 0:51:37.067479000  7
           565  93.18196732:32:32:32:32:3  6Bm N  ov 18, 2018 0 0:51:37.214966000  7
           566  93.23877332:32:32:32:32:3  3Bm N  ov 18, 2018 0 0:51:37.271772000  7
           567  93.28186932:32:32:32:32:3  7Bm N  ov 18, 2018 0 0:51:37.314868000  7
