    1   0.000000 32:32:32:32:32:32 4dBm Nov 18, 2018 00:52:24.030005000 +07
    2   2.377242 32:32:32:32:32:32 6dBm Nov 18, 2018 00:52:26.407247000 +07
    3   3.665720 32:32:32:32:32:32 6dBm Nov 18, 2018 00:52:27.695725000 +07
    4   3.847104 32:32:32:32:32:32 4dBm Nov 18, 2018 00:52:27.877109000 +07
    5   3.920693 32:32:32:32:32:32 5dBm Nov 18, 2018 00:52:27.950698000 +07
    6   4.104104 32:32:32:32:32:32 3dBm Nov 18, 2018 00:52:28.134109000 +07
    7   4.221522 32:32:32:32:32:32 5dBm Nov 18, 2018 00:52:28.251527000 +07
    8   4.497493 32:32:32:32:32:32 6dBm Nov 18, 2018 00:52:28.527498000 +07
    9   4.578636 32:32:32:32:32:32 5dBm Nov 18, 2018 00:52:28.608641000 +07
   10   4.695546 32:32:32:32:32:32 7dBm Nov 18, 2018 00:52:28.725551000 +07
   11   4.744222 32:32:32:32:32:32 4dBm Nov 18, 2018 00:52:28.774227000 +07
   12   4.856605 32:32:32:32:32:32 6dBm Nov 18, 2018 00:52:28.886610000 +07
   13   4.874651 32:32:32:32:32:32 4dBm Nov 18, 2018 00:52:28.904656000 +07
   14   4.892718 32:32:32:32:32:32 6dBm Nov 18, 2018 00:52:28.922723000 +07
   15   5.031627 32:32:32:32:32:32 6dBm Nov 18, 2018 00:52:29.061632000 +07
   16   5.159907 32:32:32:32:32:32 6dBm Nov 18, 2018 00:52:29.189912000 +07
   17   5.529673 32:32:32:32:32:32 6dBm Nov 18, 2018 00:52:29.559678000 +07
   18   5.908868 32:32:32:32:32:32 7dBm Nov 18, 2018 00:52:29.938873000 +07
   19   6.655111 32:32:32:32:32:32 6dBm Nov 18, 2018 00:52:30.685116000 +07
   20   6.744230 32:32:32:32:32:32 6dBm Nov 18, 2018 00:52:30.774235000 +07
   21   6.763728 32:32:32:32:32:32 5dBm Nov 18, 2018 00:52:30.793733000 +07
   22   6.818670 32:32:32:32:32:32 6dBm Nov 18, 2018 00:52:30.848675000 +07
   23   6.974596 32:32:32:32:32:32 4dBm Nov 18, 2018 00:52:31.004601000 +07
   24   7.001583 32:32:32:32:32:32 6dBm Nov 18, 2018 00:52:31.031588000 +07
   25   7.087521 32:32:32:32:32:32 5dBm Nov 18, 2018 00:52:31.117526000 +07
   26   7.204992 32:32:32:32:32:32 5dBm Nov 18, 2018 00:52:31.234997000 +07
   27   7.374302 32:32:32:32:32:32 6dBm Nov 18, 2018 00:52:31.404307000 +07
   28   7.670625 32:32:32:32:32:32 7dBm Nov 18, 2018 00:52:31.700630000 +07
   29   7.736887 32:32:32:32:32:32 4dBm Nov 18, 2018 00:52:31.766892000 +07
   30   8.152857 32:32:32:32:32:32 6dBm Nov 18, 2018 00:52:32.182862000 +07
   31   8.380475 32:32:32:32:32:32 6dBm Nov 18, 2018 00:52:32.410480000 +07
   32   8.573956 32:32:32:32:32:32 4dBm Nov 18, 2018 00:52:32.603961000 +07
   33   8.643149 32:32:32:32:32:32 5dBm Nov 18, 2018 00:52:32.673154000 +07
   34   9.277218 32:32:32:32:32:32 6dBm Nov 18, 2018 00:52:33.307223000 +07
   35   9.595473 32:32:32:32:32:32 5dBm Nov 18, 2018 00:52:33.625478000 +07
   36  10.051311 32:32:32:32:32:32 5dBm Nov 18, 2018 00:52:34.081316000 +07
   37  10.451257 32:32:32:32:32:32 4dBm Nov 18, 2018 00:52:34.481262000 +07
   38  10.939302 32:32:32:32:32:32 5dBm Nov 18, 2018 00:52:34.969307000 +07
   39  10.969701 32:32:32:32:32:32 6dBm Nov 18, 2018 00:52:34.999706000 +07
   40  11.717328 32:32:32:32:32:32 6dBm Nov 18, 2018 00:52:35.747333000 +07
   41  11.933288 32:32:32:32:32:32 5dBm Nov 18, 2018 00:52:35.963293000 +07
   42  13.039442 32:32:32:32:32:32 6dBm Nov 18, 2018 00:52:37.069447000 +07
   43  13.772400 32:32:32:32:32:32 6dBm Nov 18, 2018 00:52:37.802405000 +07
   44  14.172282 32:32:32:32:32:32 6dBm Nov 18, 2018 00:52:38.202287000 +07
   45  14.204356 32:32:32:32:32:32 5dBm Nov 18, 2018 00:52:38.234361000 +07
   46  14.250538 32:32:32:32:32:32 5dBm Nov 18, 2018 00:52:38.280543000 +07
   47  14.402264 32:32:32:32:32:32 6dBm Nov 18, 2018 00:52:38.432269000 +07
   48  14.571395 32:32:32:32:32:32 3dBm Nov 18, 2018 00:52:38.601400000 +07
   49  14.687733 32:32:32:32:32:32 6dBm Nov 18, 2018 00:52:38.717738000 +07
   50  14.812887 32:32:32:32:32:32 5dBm Nov 18, 2018 00:52:38.842892000 +07
   51  14.856791 32:32:32:32:32:32 6dBm Nov 18, 2018 00:52:38.886796000 +07
   52  14.885628 32:32:32:32:32:32 5dBm Nov 18, 2018 00:52:38.915633000 +07
   53  15.115278 32:32:32:32:32:32 5dBm Nov 18, 2018 00:52:39.145283000 +07
   54  15.305343 32:32:32:32:32:32 4dBm Nov 18, 2018 00:52:39.335348000 +07
   55  15.489398 32:32:32:32:32:32 5dBm Nov 18, 2018 00:52:39.519403000 +07
   56  15.553416 32:32:32:32:32:32 6dBm Nov 18, 2018 00:52:39.583421000 +07
   57  16.157782 32:32:32:32:32:32 4dBm Nov 18, 2018 00:52:40.187787000 +07
   58  16.268369 32:32:32:32:32:32 6dBm Nov 18, 2018 00:52:40.298374000 +07
   59  16.691870 32:32:32:32:32:32 5dBm Nov 18, 2018 00:52:40.721875000 +07
   60  16.733387 32:32:32:32:32:32 5dBm Nov 18, 2018 00:52:40.763392000 +07
   61  16.903824 32:32:32:32:32:32 6dBm Nov 18, 2018 00:52:40.933829000 +07
   62  17.339154 32:32:32:32:32:32 5dBm Nov 18, 2018 00:52:41.369159000 +07
   63  17.441112 32:32:32:32:32:32 3dBm Nov 18, 2018 00:52:41.471117000 +07
   64  17.654553 32:32:32:32:32:32 5dBm Nov 18, 2018 00:52:41.684558000 +07
   65  17.739208 32:32:32:32:32:32 7dBm Nov 18, 2018 00:52:41.769213000 +07
   66  18.050167 32:32:32:32:32:32 7dBm Nov 18, 2018 00:52:42.080172000 +07
   67  18.080161 32:32:32:32:32:32 7dBm Nov 18, 2018 00:52:42.110166000 +07
   68  18.406563 32:32:32:32:32:32 5dBm Nov 18, 2018 00:52:42.436568000 +07
   69  18.432992 32:32:32:32:32:32 6dBm Nov 18, 2018 00:52:42.462997000 +07
   70  18.504594 32:32:32:32:32:32 5dBm Nov 18, 2018 00:52:42.534599000 +07
   71  18.522592 32:32:32:32:32:32 5dBm Nov 18, 2018 00:52:42.552597000 +07
   72  18.609089 32:32:32:32:32:32 5dBm Nov 18, 2018 00:52:42.639094000 +07
   73  19.128256 32:32:32:32:32:32 5dBm Nov 18, 2018 00:52:43.158261000 +07
   74  19.182815 32:32:32:32:32:32 6dBm Nov 18, 2018 00:52:43.212820000 +07
   75  19.281653 32:32:32:32:32:32 6dBm Nov 18, 2018 00:52:43.311658000 +07
   76  19.300058 32:32:32:32:32:32 7dBm Nov 18, 2018 00:52:43.330063000 +07
   77  19.377865 32:32:32:32:32:32 2dBm Nov 18, 2018 00:52:43.407870000 +07
   78  19.720002 32:32:32:32:32:32 6dBm Nov 18, 2018 00:52:43.750007000 +07
   79  20.045261 32:32:32:32:32:32 6dBm Nov 18, 2018 00:52:44.075266000 +07
   80  20.162839 32:32:32:32:32:32 4dBm Nov 18, 2018 00:52:44.192844000 +07
   81  20.197952 32:32:32:32:32:32 5dBm Nov 18, 2018 00:52:44.227957000 +07
   82  20.268547 32:32:32:32:32:32 7dBm Nov 18, 2018 00:52:44.298552000 +07
   83  20.325950 32:32:32:32:32:32 6dBm Nov 18, 2018 00:52:44.355955000 +07
   84  20.364090 32:32:32:32:32:32 6dBm Nov 18, 2018 00:52:44.394095000 +07
   85  20.456275 32:32:32:32:32:32 5dBm Nov 18, 2018 00:52:44.486280000 +07
   86  20.819795 32:32:32:32:32:32 6dBm Nov 18, 2018 00:52:44.849800000 +07
   87  21.404106 32:32:32:32:32:32 6dBm Nov 18, 2018 00:52:45.434111000 +07
   88  21.568098 32:32:32:32:32:32 6dBm Nov 18, 2018 00:52:45.598103000 +07
   89  21.703867 32:32:32:32:32:32 6dBm Nov 18, 2018 00:52:45.733872000 +07
   90  21.765954 32:32:32:32:32:32 6dBm Nov 18, 2018 00:52:45.795959000 +07
   91  21.829617 32:32:32:32:32:32 7dBm Nov 18, 2018 00:52:45.859622000 +07
   92  22.693932 32:32:32:32:32:32 5dBm Nov 18, 2018 00:52:46.723937000 +07
   93  23.080241 32:32:32:32:32:32 7dBm Nov 18, 2018 00:52:47.110246000 +07
   94  23.495522 32:32:32:32:32:32 6dBm Nov 18, 2018 00:52:47.525527000 +07
   95  23.748364 32:32:32:32:32:32 5dBm Nov 18, 2018 00:52:47.778369000 +07
   96  23.790768 32:32:32:32:32:32 6dBm Nov 18, 2018 00:52:47.820773000 +07
   97  23.946974 32:32:32:32:32:32 4dBm Nov 18, 2018 00:52:47.976979000 +07
   98  24.065403 32:32:32:32:32:32 5dBm Nov 18, 2018 00:52:48.095408000 +07
   99  24.093118 32:32:32:32:32:32 5dBm Nov 18, 2018 00:52:48.123123000 +07
  100  24.180158 32:32:32:32:32:32 6dBm Nov 18, 2018 00:52:48.210163000 +07
  101  24.267086 32:32:32:32:32:32 6dBm Nov 18, 2018 00:52:48.297091000 +07
  102  24.375270 32:32:32:32:32:32 7dBm Nov 18, 2018 00:52:48.405275000 +07
  103  24.430776 32:32:32:32:32:32 3dBm Nov 18, 2018 00:52:48.460781000 +07
  104  24.732401 32:32:32:32:32:32 6dBm Nov 18, 2018 00:52:48.762406000 +07
  105  24.767065 32:32:32:32:32:32 4dBm Nov 18, 2018 00:52:48.797070000 +07
  106  24.898669 32:32:32:32:32:32 5dBm Nov 18, 2018 00:52:48.928674000 +07
  107  25.047144 32:32:32:32:32:32 5dBm Nov 18, 2018 00:52:49.077149000 +07
  108  25.088801 32:32:32:32:32:32 5dBm Nov 18, 2018 00:52:49.118806000 +07
  109  25.092245 32:32:32:32:32:32 4dBm Nov 18, 2018 00:52:49.122250000 +07
  110  25.183222 32:32:32:32:32:32 4dBm Nov 18, 2018 00:52:49.213227000 +07
  111  25.989562 32:32:32:32:32:32 8dBm Nov 18, 2018 00:52:50.019567000 +07
  112  26.256543 32:32:32:32:32:32 5dBm Nov 18, 2018 00:52:50.286548000 +07
  113  26.377284 32:32:32:32:32:32 4dBm Nov 18, 2018 00:52:50.407289000 +07
  114  26.426187 32:32:32:32:32:32 6dBm Nov 18, 2018 00:52:50.456192000 +07
  115  27.175545 32:32:32:32:32:32 7dBm Nov 18, 2018 00:52:51.205550000 +07
  116  28.806609 32:32:32:32:32:32 4dBm Nov 18, 2018 00:52:52.836614000 +07
  117  29.209658 32:32:32:32:32:32 5dBm Nov 18, 2018 00:52:53.239663000 +07
  118  30.114092 32:32:32:32:32:32 6dBm Nov 18, 2018 00:52:54.144097000 +07
  119  30.333768 32:32:32:32:32:32 5dBm Nov 18, 2018 00:52:54.363773000 +07
  120  30.946682 32:32:32:32:32:32 4dBm Nov 18, 2018 00:52:54.976687000 +07
  121  33.323114 32:32:32:32:32:32 5dBm Nov 18, 2018 00:52:57.353119000 +07
  122  33.777107 32:32:32:32:32:32 6dBm Nov 18, 2018 00:52:57.807112000 +07
  123  34.271404 32:32:32:32:32:32 6dBm Nov 18, 2018 00:52:58.301409000 +07
  124  34.356841 32:32:32:32:32:32 4dBm Nov 18, 2018 00:52:58.386846000 +07
  125  34.453007 32:32:32:32:32:32 5dBm Nov 18, 2018 00:52:58.483012000 +07
  126  35.747397 32:32:32:32:32:32 6dBm Nov 18, 2018 00:52:59.777402000 +07
  127  36.008210 32:32:32:32:32:32 4dBm Nov 18, 2018 00:53:00.038215000 +07
  128  36.254797 32:32:32:32:32:32 6dBm Nov 18, 2018 00:53:00.284802000 +07
  129  37.480367 32:32:32:32:32:32 6dBm Nov 18, 2018 00:53:01.510372000 +07
  130  37.667392 32:32:32:32:32:32 6dBm Nov 18, 2018 00:53:01.697397000 +07
  131  39.053218 32:32:32:32:32:32 5dBm Nov 18, 2018 00:53:03.083223000 +07
  132  39.273176 32:32:32:32:32:32 4dBm Nov 18, 2018 00:53:03.303181000 +07
  133  40.460822 32:32:32:32:32:32 6dBm Nov 18, 2018 00:53:04.490827000 +07
  134  42.927921 32:32:32:32:32:32 4dBm Nov 18, 2018 00:53:06.957926000 +07
  135  43.330180 32:32:32:32:32:32 5dBm Nov 18, 2018 00:53:07.360185000 +07
  136  44.129647 32:32:32:32:32:32 5dBm Nov 18, 2018 00:53:08.159652000 +07
  137  44.456276 32:32:32:32:32:32 6dBm Nov 18, 2018 00:53:08.486281000 +07
  138  46.895012 32:32:32:32:32:32 6dBm Nov 18, 2018 00:53:10.925017000 +07
  139  48.020600 32:32:32:32:32:32 5dBm Nov 18, 2018 00:53:12.050605000 +07
  140  48.387402 32:32:32:32:32:32 6dBm Nov 18, 2018 00:53:12.417407000 +07
  141  49.607148 32:32:32:32:32:32 5dBm Nov 18, 2018 00:53:13.637153000 +07
  142  49.740564 32:32:32:32:32:32 4dBm Nov 18, 2018 00:53:13.770569000 +07
  143  49.771445 32:32:32:32:32:32 5dBm Nov 18, 2018 00:53:13.801450000 +07
  144  50.434252 32:32:32:32:32:32 4dBm Nov 18, 2018 00:53:14.464257000 +07
  145  51.391768 32:32:32:32:32:32 3dBm Nov 18, 2018 00:53:15.421773000 +07
  146  51.631762 32:32:32:32:32:32 5dBm Nov 18, 2018 00:53:15.661767000 +07
  147  51.977300 32:32:32:32:32:32 4dBm Nov 18, 2018 00:53:16.007305000 +07
  148  52.026458 32:32:32:32:32:32 6dBm Nov 18, 2018 00:53:16.056463000 +07
  149  52.113823 32:32:32:32:32:32 6dBm Nov 18, 2018 00:53:16.143828000 +07
  150  53.161802 32:32:32:32:32:32 5dBm Nov 18, 2018 00:53:17.191807000 +07
  151  53.943218 32:32:32:32:32:32 6dBm Nov 18, 2018 00:53:17.973223000 +07
  152  54.715163 32:32:32:32:32:32 4dBm Nov 18, 2018 00:53:18.745168000 +07
  153  54.763882 32:32:32:32:32:32 5dBm Nov 18, 2018 00:53:18.793887000 +07
  154  55.030752 32:32:32:32:32:32 4dBm Nov 18, 2018 00:53:19.060757000 +07
  155  56.737986 32:32:32:32:32:32 5dBm Nov 18, 2018 00:53:20.767991000 +07
  156  58.457321 32:32:32:32:32:32 4dBm Nov 18, 2018 00:53:22.487326000 +07
  157  59.043038 32:32:32:32:32:32 2dBm Nov 18, 2018 00:53:23.073043000 +07
  158  60.418956 32:32:32:32:32:32 4dBm Nov 18, 2018 00:53:24.448961000 +07
  159  62.389313 32:32:32:32:32:32 6dBm Nov 18, 2018 00:53:26.419318000 +07
  160  62.508299 32:32:32:32:32:32 4dBm Nov 18, 2018 00:53:26.538304000 +07
  161  63.263900 32:32:32:32:32:32 5dBm Nov 18, 2018 00:53:27.293905000 +07
  162  69.050944 32:32:32:32:32:32 4dBm Nov 18, 2018 00:53:33.080949000 +07
  163  69.205275 32:32:32:32:32:32 6dBm Nov 18, 2018 00:53:33.235280000 +07
  164  77.007704 32:32:32:32:32:32 5dBm Nov 18, 2018 00:53:41.037709000 +07
  165  86.457799 32:32:32:32:32:32 6dBm Nov 18, 2018 00:53:50.487804000 +07
  166  94.566244 32:32:32:32:32:32 5dBm Nov 18, 2018 00:53:58.596249000 +07
  167  95.226604 32:32:32:32:32:32 4dBm Nov 18, 2018 00:53:59.256609000 +07
  168  97.617081 32:32:32:32:32:32 4dBm Nov 18, 2018 00:54:01.647086000 +07
  169 102.398828 32:32:32:32:32:32 5dBm Nov 18, 2018 00:54:06.428833000 +07
  170 102.561117 32:32:32:32:32:32 4dBm Nov 18, 2018 00:54:06.591122000 +07
  171 104.159971 32:32:32:32:32:32 4dBm Nov 18, 2018 00:54:08.189976000 +07
  172 104.557116 32:32:32:32:32:32 6dBm Nov 18, 2018 00:54:08.587121000 +07
  173 105.354837 32:32:32:32:32:32 5dBm Nov 18, 2018 00:54:09.384842000 +07
  174 105.559644 32:32:32:32:32:32 6dBm Nov 18, 2018 00:54:09.589649000 +07
  175 105.580198 32:32:32:32:32:32 5dBm Nov 18, 2018 00:54:09.610203000 +07
  176 106.089056 32:32:32:32:32:32 3dBm Nov 18, 2018 00:54:10.119061000 +07
  177 106.967236 32:32:32:32:32:32 4dBm Nov 18, 2018 00:54:10.997241000 +07
  178 111.992822 32:32:32:32:32:32 6dBm Nov 18, 2018 00:54:16.022827000 +07
  179 112.881075 32:32:32:32:32:32 4dBm Nov 18, 2018 00:54:16.911080000 +07
  180 112.935938 32:32:32:32:32:32 4dBm Nov 18, 2018 00:54:16.965943000 +07
  181 113.132541 32:32:32:32:32:32 3dBm Nov 18, 2018 00:54:17.162546000 +07
  182 114.415254 32:32:32:32:32:32 6dBm Nov 18, 2018 00:54:18.445259000 +07
  183 116.647927 32:32:32:32:32:32 3dBm Nov 18, 2018 00:54:20.677932000 +07
  184 117.006421 32:32:32:32:32:32 5dBm Nov 18, 2018 00:54:21.036426000 +07
  185 117.137782 32:32:32:32:32:32 4dBm Nov 18, 2018 00:54:21.167787000 +07
