                1       032:32:32:32:32:3 6dBm N  ov 18, 2018 0 0:19:15.917112000  7          2
                20.47326532:32:32:32:32:3 7dBm N  ov 18, 2018 0 0:19:16.390377000  7          9
                3 1.1309832:32:32:32:32:3 7dBm N  ov 18, 2018 0 0:19:17.048092000  7        ###
                4 1.4814432:32:32:32:32:3 6dBm N  ov 18, 2018 0 0:19:17.398552000  7        ###
                51.58492432:32:32:32:32:3 7dBm N  ov 18, 2018 0 0:19:17.502036000  7        ###
                61.80232832:32:32:32:32:3 7dBm N  ov 18, 2018 0 0:19:17.719440000  7
                72.18038932:32:32:32:32:3 7dBm N  ov 18, 2018 0 0:19:18.097501000  7
                83.27685132:32:32:32:32:3 7dBm N  ov 18, 2018 0 0:19:19.193963000  7
                93.38359632:32:32:32:32:3 8dBm N  ov 18, 2018 0 0:19:19.300708000  7
               103.85589132:32:32:32:32:3 7dBm N  ov 18, 2018 0 0:19:19.773003000  7
               114.24455232:32:32:32:32:3 8dBm N  ov 18, 2018 0 0:19:20.161664000  7
               124.31316532:32:32:32:32:3 7dBm N  ov 18, 2018 0 0:19:20.230277000  7
               134.37978332:32:32:32:32:3 8dBm N  ov 18, 2018 0 0:19:20.296895000  7
               144.45361932:32:32:32:32:3 7dBm N  ov 18, 2018 0 0:19:20.370731000  7
               154.53304232:32:32:32:32:3 6dBm N  ov 18, 2018 0 0:19:20.450154000  7
               165.12797332:32:32:32:32:3 7dBm N  ov 18, 2018 0 0:19:21.045085000  7
               175.72599432:32:32:32:32:3 6dBm N  ov 18, 2018 0 0:19:21.643106000  7
               185.87774832:32:32:32:32:3 5dBm N  ov 18, 2018 0 0:19:21.794860000  7
               195.97788232:32:32:32:32:3 8dBm N  ov 18, 2018 0 0:19:21.894994000  7
               206.37767132:32:32:32:32:3 8dBm N  ov 18, 2018 0 0:19:22.294783000  7
               216.61441732:32:32:32:32:3 8dBm N  ov 18, 2018 0 0:19:22.531529000  7
               226.76012532:32:32:32:32:3 7dBm N  ov 18, 2018 0 0:19:22.677237000  7
               23 6.8805532:32:32:32:32:3 9dBm N  ov 18, 2018 0 0:19:22.797662000  7
               246.95423732:32:32:32:32:3 8dBm N  ov 18, 2018 0 0:19:22.871349000  7
               257.34021732:32:32:32:32:3 7dBm N  ov 18, 2018 0 0:19:23.257329000  7
               267.62483632:32:32:32:32:3 6dBm N  ov 18, 2018 0 0:19:23.541948000  7
               277.87526532:32:32:32:32:3 9dBm N  ov 18, 2018 0 0:19:23.792377000  7
               288.19759432:32:32:32:32:3 7dBm N  ov 18, 2018 0 0:19:24.114706000  7
               298.60941632:32:32:32:32:3 7dBm N  ov 18, 2018 0 0:19:24.526528000  7
               309.03780432:32:32:32:32:3 6dBm N  ov 18, 2018 0 0:19:24.954916000  7
               319.37887832:32:32:32:32:3 7dBm N  ov 18, 2018 0 0:19:25.295990000  7
            32  10.22501332:32:32:32:32:3 7dBm N  ov 18, 2018 0 0:19:26.142125000  7
            33  1  0.799332:32:32:32:32:3 6dBm N  ov 18, 2018 0 0:19:26.716412000  7
            34  11.16432932:32:32:32:32:3 9dBm N  ov 18, 2018 0 0:19:27.081441000  7
            35  11.33924232:32:32:32:32:3 7dBm N  ov 18, 2018 0 0:19:27.256354000  7
            36  11.78822132:32:32:32:32:3 7dBm N  ov 18, 2018 0 0:19:27.705333000  7
            37  12.06287132:32:32:32:32:3 7dBm N  ov 18, 2018 0 0:19:27.979983000  7
            38  12.51013732:32:32:32:32:3 9dBm N  ov 18, 2018 0 0:19:28.427249000  7
            39  12.74169432:32:32:32:32:3 8dBm N  ov 18, 2018 0 0:19:28.658806000  7
            40  13.09875532:32:32:32:32:3 7dBm N  ov 18, 2018 0 0:19:29.015867000  7
            41  13.16543132:32:32:32:32:3 4dBm N  ov 18, 2018 0 0:19:29.082543000  7
            42  14.55300532:32:32:32:32:3 7dBm N  ov 18, 2018 0 0:19:30.470117000  7
            43  14.67561532:32:32:32:32:3 8dBm N  ov 18, 2018 0 0:19:30.592727000  7
            44  15.04677132:32:32:32:32:3 8dBm N  ov 18, 2018 0 0:19:30.963883000  7
            45  15.21360932:32:32:32:32:3 7dBm N  ov 18, 2018 0 0:19:31.130721000  7
            46  15.45353632:32:32:32:32:3 6dBm N  ov 18, 2018 0 0:19:31.370648000  7
            47  15.68895732:32:32:32:32:3 7dBm N  ov 18, 2018 0 0:19:31.606069000  7
            48  15.88458632:32:32:32:32:3 9dBm N  ov 18, 2018 0 0:19:31.801698000  7
            49  15.91082932:32:32:32:32:3 8dBm N  ov 18, 2018 0 0:19:31.827941000  7
            50  16.40496132:32:32:32:32:3 7dBm N  ov 18, 2018 0 0:19:32.322073000  7
            51  17.24188332:32:32:32:32:3 8dBm N  ov 18, 2018 0 0:19:33.158995000  7
            52  17.40436432:32:32:32:32:3 6dBm N  ov 18, 2018 0 0:19:33.321476000  7
            53  17.72745132:32:32:32:32:3 8dBm N  ov 18, 2018 0 0:19:33.644563000  7
            54  1 7.8211732:32:32:32:32:3 8dBm N  ov 18, 2018 0 0:19:33.738282000  7
            55  18.47134432:32:32:32:32:3 9dBm N  ov 18, 2018 0 0:19:34.388456000  7
            56  18.47432932:32:32:32:32:3 8dBm N  ov 18, 2018 0 0:19:34.391441000  7
            57  18.64932232:32:32:32:32:3 8dBm N  ov 18, 2018 0 0:19:34.566434000  7
            58  18.87677932:32:32:32:32:3 9dBm N  ov 18, 2018 0 0:19:34.793891000  7
            59  18.96067132:32:32:32:32:3 7dBm N  ov 18, 2018 0 0:19:34.877783000  7
            60  19.03446532:32:32:32:32:3 7dBm N  ov 18, 2018 0 0:19:34.951577000  7
            61  19.38719232:32:32:32:32:3 8dBm N  ov 18, 2018 0 0:19:35.304304000  7
            62  19.50828832:32:32:32:32:3 6dBm N  ov 18, 2018 0 0:19:35.425400000  7
            63  19.90549332:32:32:32:32:3 7dBm N  ov 18, 2018 0 0:19:35.822605000  7
            64  20.17988332:32:32:32:32:3 7dBm N  ov 18, 2018 0 0:19:36.096995000  7
            65  20.38286632:32:32:32:32:3 8dBm N  ov 18, 2018 0 0:19:36.299978000  7
            66  20.38735532:32:32:32:32:3 9dBm N  ov 18, 2018 0 0:19:36.304467000  7
            67  20.83329232:32:32:32:32:3 6dBm N  ov 18, 2018 0 0:19:36.750404000  7
            68  21.36303332:32:32:32:32:3 7dBm N  ov 18, 2018 0 0:19:37.280145000  7
            69  22.09813432:32:32:32:32:3 8dBm N  ov 18, 2018 0 0:19:38.015246000  7
            70  2 2.4751832:32:32:32:32:3 9dBm N  ov 18, 2018 0 0:19:38.392292000  7
            71  2 2.7368832:32:32:32:32:3 7dBm N  ov 18, 2018 0 0:19:38.653992000  7
            72  22.88564832:32:32:32:32:3 7dBm N  ov 18, 2018 0 0:19:38.802760000  7
            73  22.90124432:32:32:32:32:3 7dBm N  ov 18, 2018 0 0:19:38.818356000  7
            74  23.00692932:32:32:32:32:3 7dBm N  ov 18, 2018 0 0:19:38.924041000  7
            75  23.18512532:32:32:32:32:3 6dBm N  ov 18, 2018 0 0:19:39.102237000  7
            76  23.98400832:32:32:32:32:3 7dBm N  ov 18, 2018 0 0:19:39.901120000  7
            77  25.43482332:32:32:32:32:3 6dBm N  ov 18, 2018 0 0:19:41.351935000  7
            78  25.81477732:32:32:32:32:3 7dBm N  ov 18, 2018 0 0:19:41.731889000  7
            79  26.21641732:32:32:32:32:3 8dBm N  ov 18, 2018 0 0:19:42.133529000  7
            80  26.36843932:32:32:32:32:3 7dBm N  ov 18, 2018 0 0:19:42.285551000  7
            81  26.77495632:32:32:32:32:3 7dBm N  ov 18, 2018 0 0:19:42.692068000  7
            82  27.01649432:32:32:32:32:3 9dBm N  ov 18, 2018 0 0:19:42.933606000  7
            83  27.39876532:32:32:32:32:3 8dBm N  ov 18, 2018 0 0:19:43.315877000  7
            84  27.61634232:32:32:32:32:3 2dBm N  ov 18, 2018 0 0:19:43.533454000  7
            85  27.66008632:32:32:32:32:3 7dBm N  ov 18, 2018 0 0:19:43.577198000  7
            86  28.79877832:32:32:32:32:3 5dBm N  ov 18, 2018 0 0:19:44.715890000  7
            87  28.88174732:32:32:32:32:3 8dBm N  ov 18, 2018 0 0:19:44.798859000  7
            88  29.08573432:32:32:32:32:3 8dBm N  ov 18, 2018 0 0:19:45.002846000  7
            89  29.37886432:32:32:32:32:3 9dBm N  ov 18, 2018 0 0:19:45.295976000  7
            90  30.17287832:32:32:32:32:3 5dBm N  ov 18, 2018 0 0:19:46.089990000  7
            91  30.27958232:32:32:32:32:3 7dBm N  ov 18, 2018 0 0:19:46.196694000  7
            92  30.39931932:32:32:32:32:3 7dBm N  ov 18, 2018 0 0:19:46.316431000  7
            93  30.47097132:32:32:32:32:3 7dBm N  ov 18, 2018 0 0:19:46.388083000  7
            94  30.55519632:32:32:32:32:3 7dBm N  ov 18, 2018 0 0:19:46.472308000  7
            95  30.61364532:32:32:32:32:3 6dBm N  ov 18, 2018 0 0:19:46.530757000  7
            96  31.37255932:32:32:32:32:3 8dBm N  ov 18, 2018 0 0:19:47.289671000  7
            97  31.60091832:32:32:32:32:3 7dBm N  ov 18, 2018 0 0:19:47.518030000  7
            98  31.96048232:32:32:32:32:3 5dBm N  ov 18, 2018 0 0:19:47.877594000  7
            99  32.78045932:32:32:32:32:3 6dBm N  ov 18, 2018 0 0:19:48.697571000  7
           100  32.99030832:32:32:32:32:3 7dBm N  ov 18, 2018 0 0:19:48.907420000  7
           101  33.11721932:32:32:32:32:3 7dBm N  ov 18, 2018 0 0:19:49.034331000  7
           102  33.57787832:32:32:32:32:3 6dBm N  ov 18, 2018 0 0:19:49.494990000  7
           103  33.76445632:32:32:32:32:3 6dBm N  ov 18, 2018 0 0:19:49.681568000  7
           104  34.19073532:32:32:32:32:3 7dBm N  ov 18, 2018 0 0:19:50.107847000  7
           105  34.41004432:32:32:32:32:3 6dBm N  ov 18, 2018 0 0:19:50.327156000  7
           106  34.49701532:32:32:32:32:3 6dBm N  ov 18, 2018 0 0:19:50.414127000  7
           107  35.18628532:32:32:32:32:3 6dBm N  ov 18, 2018 0 0:19:51.103397000  7
           108  35.33332832:32:32:32:32:3 6dBm N  ov 18, 2018 0 0:19:51.250440000  7
           109  35.48807832:32:32:32:32:3 3dBm N  ov 18, 2018 0 0:19:51.405190000  7
           110  35.50476232:32:32:32:32:3 6dBm N  ov 18, 2018 0 0:19:51.421874000  7
           111  35.58803132:32:32:32:32:3 6dBm N  ov 18, 2018 0 0:19:51.505143000  7
           112  35.68512832:32:32:32:32:3 6dBm N  ov 18, 2018 0 0:19:51.602240000  7
           113  35.82169732:32:32:32:32:3 5dBm N  ov 18, 2018 0 0:19:51.738809000  7
           114  35.99335732:32:32:32:32:3 7dBm N  ov 18, 2018 0 0:19:51.910469000  7
           115  36.28910632:32:32:32:32:3 6dBm N  ov 18, 2018 0 0:19:52.206218000  7
           116  36.49097332:32:32:32:32:3 8dBm N  ov 18, 2018 0 0:19:52.408085000  7
           117  36.50183132:32:32:32:32:3 5dBm N  ov 18, 2018 0 0:19:52.418943000  7
           118  36.79237332:32:32:32:32:3 8dBm N  ov 18, 2018 0 0:19:52.709485000  7
           119  3 6.9643632:32:32:32:32:3 5dBm N  ov 18, 2018 0 0:19:52.881472000  7
           120  37.11642932:32:32:32:32:3 6dBm N  ov 18, 2018 0 0:19:53.033541000  7
           121  37.72427232:32:32:32:32:3 7dBm N  ov 18, 2018 0 0:19:53.641384000  7
           122  37.95035332:32:32:32:32:3 6dBm N  ov 18, 2018 0 0:19:53.867465000  7
           123  38.19614332:32:32:32:32:3 7dBm N  ov 18, 2018 0 0:19:54.113255000  7
           124  38.36907632:32:32:32:32:3 8dBm N  ov 18, 2018 0 0:19:54.286188000  7
           125  38.75560532:32:32:32:32:3 8dBm N  ov 18, 2018 0 0:19:54.672717000  7
           126  39.12945732:32:32:32:32:3 8dBm N  ov 18, 2018 0 0:19:55.046569000  7
           127  39.41438532:32:32:32:32:3 8dBm N  ov 18, 2018 0 0:19:55.331497000  7
           128  40.21865932:32:32:32:32:3 7dBm N  ov 18, 2018 0 0:19:56.135771000  7
           129  40.80689932:32:32:32:32:3 7dBm N  ov 18, 2018 0 0:19:56.724011000  7
           130  40.95588932:32:32:32:32:3 8dBm N  ov 18, 2018 0 0:19:56.873001000  7
           131  41.15271132:32:32:32:32:3 8dBm N  ov 18, 2018 0 0:19:57.069823000  7
           132  41.31310632:32:32:32:32:3 6dBm N  ov 18, 2018 0 0:19:57.230218000  7
           133  41.72295532:32:32:32:32:3 7dBm N  ov 18, 2018 0 0:19:57.640067000  7
           134  41.88070632:32:32:32:32:3 9dBm N  ov 18, 2018 0 0:19:57.797818000  7
           135  42.46934332:32:32:32:32:3 8dBm N  ov 18, 2018 0 0:19:58.386455000  7
           136  42.61599532:32:32:32:32:3 9dBm N  ov 18, 2018 0 0:19:58.533107000  7
           137  42.67847832:32:32:32:32:3 6dBm N  ov 18, 2018 0 0:19:58.595590000  7
           138  42.79048332:32:32:32:32:3 7dBm N  ov 18, 2018 0 0:19:58.707595000  7
           139  42.97392732:32:32:32:32:3 7dBm N  ov 18, 2018 0 0:19:58.891039000  7
           140  43.07427832:32:32:32:32:3 8dBm N  ov 18, 2018 0 0:19:58.991390000  7
           141  43.19600632:32:32:32:32:3 7dBm N  ov 18, 2018 0 0:19:59.113118000  7
           142  43.28998132:32:32:32:32:3 6dBm N  ov 18, 2018 0 0:19:59.207093000  7
           143  43.92575132:32:32:32:32:3 5dBm N  ov 18, 2018 0 0:19:59.842863000  7
           144  44.56650632:32:32:32:32:3 7dBm N  ov 18, 2018 0 0:20:00.483618000  7
           145  44.79876432:32:32:32:32:3 8dBm N  ov 18, 2018 0 0:20:00.715876000  7
           146  45.85532732:32:32:32:32:3 6dBm N  ov 18, 2018 0 0:20:01.772439000  7
           147  47.06157632:32:32:32:32:3 7dBm N  ov 18, 2018 0 0:20:02.978688000  7
           148  47.40997132:32:32:32:32:3 7dBm N  ov 18, 2018 0 0:20:03.327083000  7
           149  47.73063432:32:32:32:32:3 7dBm N  ov 18, 2018 0 0:20:03.647746000  7
           150  47.82996232:32:32:32:32:3 8dBm N  ov 18, 2018 0 0:20:03.747074000  7
           151  48.01587732:32:32:32:32:3 7dBm N  ov 18, 2018 0 0:20:03.932989000  7
           152  48.88233432:32:32:32:32:3 8dBm N  ov 18, 2018 0 0:20:04.799446000  7
           153  49.00804332:32:32:32:32:3 7dBm N  ov 18, 2018 0 0:20:04.925155000  7
           154  49.14181132:32:32:32:32:3 6dBm N  ov 18, 2018 0 0:20:05.058923000  7
           155  49.32285132:32:32:32:32:3 5dBm N  ov 18, 2018 0 0:20:05.239963000  7
           156  49.43367932:32:32:32:32:3 4dBm N  ov 18, 2018 0 0:20:05.350791000  7
           157  49.77291332:32:32:32:32:3 8dBm N  ov 18, 2018 0 0:20:05.690025000  7
           158  49.88782932:32:32:32:32:3 7dBm N  ov 18, 2018 0 0:20:05.804941000  7
           159  50.42195232:32:32:32:32:3 6dBm N  ov 18, 2018 0 0:20:06.339064000  7
           160  50.81903432:32:32:32:32:3 8dBm N  ov 18, 2018 0 0:20:06.736146000  7
           161  50.90722232:32:32:32:32:3 9dBm N  ov 18, 2018 0 0:20:06.824334000  7
           162  51.01164432:32:32:32:32:3 6dBm N  ov 18, 2018 0 0:20:06.928756000  7
           163  51.17802932:32:32:32:32:3 7dBm N  ov 18, 2018 0 0:20:07.095141000  7
           164  51.45701432:32:32:32:32:3 9dBm N  ov 18, 2018 0 0:20:07.374126000  7
           165  51.84367532:32:32:32:32:3 6dBm N  ov 18, 2018 0 0:20:07.760787000  7
           166  51.91467232:32:32:32:32:3 8dBm N  ov 18, 2018 0 0:20:07.831784000  7
           167  5 1.9690132:32:32:32:32:3 7dBm N  ov 18, 2018 0 0:20:07.886122000  7
           168  52.81332832:32:32:32:32:3 7dBm N  ov 18, 2018 0 0:20:08.730440000  7
           169  5 2.9549332:32:32:32:32:3 5dBm N  ov 18, 2018 0 0:20:08.872042000  7
           170  53.20502932:32:32:32:32:3 6dBm N  ov 18, 2018 0 0:20:09.122141000  7
           171  53.43484832:32:32:32:32:3 9dBm N  ov 18, 2018 0 0:20:09.351960000  7
           172  53.52046832:32:32:32:32:3 7dBm N  ov 18, 2018 0 0:20:09.437580000  7
           173  54.35536332:32:32:32:32:3 6dBm N  ov 18, 2018 0 0:20:10.272475000  7
           174  54.54290232:32:32:32:32:3 6dBm N  ov 18, 2018 0 0:20:10.460014000  7
           175  54.62073532:32:32:32:32:3 5dBm N  ov 18, 2018 0 0:20:10.537847000  7
           176  56.16628432:32:32:32:32:3 5dBm N  ov 18, 2018 0 0:20:12.083396000  7
           177  56.52471732:32:32:32:32:3 6dBm N  ov 18, 2018 0 0:20:12.441829000  7
           178  57.35531532:32:32:32:32:3 7dBm N  ov 18, 2018 0 0:20:13.272427000  7
           179  57.95079932:32:32:32:32:3 7dBm N  ov 18, 2018 0 0:20:13.867911000  7
           180  58.08625932:32:32:32:32:3 7dBm N  ov 18, 2018 0 0:20:14.003371000  7
           181  58.98482432:32:32:32:32:3 8dBm N  ov 18, 2018 0 0:20:14.901936000  7
           182  59.74515732:32:32:32:32:3 7dBm N  ov 18, 2018 0 0:20:15.662269000  7
           183  60.63331732:32:32:32:32:3 6dBm N  ov 18, 2018 0 0:20:16.550429000  7
           184  60.74377832:32:32:32:32:3 6dBm N  ov 18, 2018 0 0:20:16.660890000  7
           185  60.90400932:32:32:32:32:3 4dBm N  ov 18, 2018 0 0:20:16.821121000  7
           186  61.14349932:32:32:32:32:3 7dBm N  ov 18, 2018 0 0:20:17.060611000  7
           187  61.28302632:32:32:32:32:3 4dBm N  ov 18, 2018 0 0:20:17.200138000  7
           188  61.63257932:32:32:32:32:3 7dBm N  ov 18, 2018 0 0:20:17.549691000  7
           189  61.91922432:32:32:32:32:3 6dBm N  ov 18, 2018 0 0:20:17.836336000  7
           190  62.40967132:32:32:32:32:3 8dBm N  ov 18, 2018 0 0:20:18.326783000  7
           191  62.79102332:32:32:32:32:3 7dBm N  ov 18, 2018 0 0:20:18.708135000  7
           192  64.11408532:32:32:32:32:3 6dBm N  ov 18, 2018 0 0:20:20.031197000  7
           193  64.23379532:32:32:32:32:3 6dBm N  ov 18, 2018 0 0:20:20.150907000  7
           194  64.69797732:32:32:32:32:3 8dBm N  ov 18, 2018 0 0:20:20.615089000  7
           195  66.45882332:32:32:32:32:3 5dBm N  ov 18, 2018 0 0:20:22.375935000  7
           196  66.76662732:32:32:32:32:3 7dBm N  ov 18, 2018 0 0:20:22.683739000  7
           197  66.99403732:32:32:32:32:3 7dBm N  ov 18, 2018 0 0:20:22.911149000  7
           198  67.07695532:32:32:32:32:3 6dBm N  ov 18, 2018 0 0:20:22.994067000  7
           199  67.23638432:32:32:32:32:3 7dBm N  ov 18, 2018 0 0:20:23.153496000  7
           200  67.78182332:32:32:32:32:3 6dBm N  ov 18, 2018 0 0:20:23.698935000  7
           201  69.92660432:32:32:32:32:3 6dBm N  ov 18, 2018 0 0:20:25.843716000  7
           202  69.99229432:32:32:32:32:3 6dBm N  ov 18, 2018 0 0:20:25.909406000  7
           203  70.81366632:32:32:32:32:3 6dBm N  ov 18, 2018 0 0:20:26.730778000  7
           204  70.97652432:32:32:32:32:3 8dBm N  ov 18, 2018 0 0:20:26.893636000  7
           205  71.98221732:32:32:32:32:3 7dBm N  ov 18, 2018 0 0:20:27.899329000  7
           206  72.05183732:32:32:32:32:3 5dBm N  ov 18, 2018 0 0:20:27.968949000  7
           207  72.12293632:32:32:32:32:3 6dBm N  ov 18, 2018 0 0:20:28.040048000  7
           208  72.45278532:32:32:32:32:3 8dBm N  ov 18, 2018 0 0:20:28.369897000  7
           209  72.78116732:32:32:32:32:3 5dBm N  ov 18, 2018 0 0:20:28.698279000  7
           210  72.91173932:32:32:32:32:3 5dBm N  ov 18, 2018 0 0:20:28.828851000  7
           211  72.98513232:32:32:32:32:3 8dBm N  ov 18, 2018 0 0:20:28.902244000  7
           212  73.34265632:32:32:32:32:3 7dBm N  ov 18, 2018 0 0:20:29.259768000  7
           213  74.80989332:32:32:32:32:3 6dBm N  ov 18, 2018 0 0:20:30.727005000  7
           214  74.94704932:32:32:32:32:3 6dBm N  ov 18, 2018 0 0:20:30.864161000  7
           215  75.76835432:32:32:32:32:3 8dBm N  ov 18, 2018 0 0:20:31.685466000  7
           216  76.93928332:32:32:32:32:3 7dBm N  ov 18, 2018 0 0:20:32.856395000  7
           217  7 7.1918432:32:32:32:32:3 7dBm N  ov 18, 2018 0 0:20:33.108952000  7
           218  77.33694932:32:32:32:32:3 6dBm N  ov 18, 2018 0 0:20:33.254061000  7
           219  77.41977532:32:32:32:32:3 8dBm N  ov 18, 2018 0 0:20:33.336887000  7
           220  77.55839132:32:32:32:32:3 7dBm N  ov 18, 2018 0 0:20:33.475503000  7
           221  77.58716932:32:32:32:32:3 7dBm N  ov 18, 2018 0 0:20:33.504281000  7
           222  78.41877332:32:32:32:32:3 7dBm N  ov 18, 2018 0 0:20:34.335885000  7
           223  78.74341132:32:32:32:32:3 9dBm N  ov 18, 2018 0 0:20:34.660523000  7
           224  79.34798532:32:32:32:32:3 7dBm N  ov 18, 2018 0 0:20:35.265097000  7
           225  79.67838532:32:32:32:32:3 8dBm N  ov 18, 2018 0 0:20:35.595497000  7
           226  79.80136932:32:32:32:32:3 6dBm N  ov 18, 2018 0 0:20:35.718481000  7
           227  80.19775632:32:32:32:32:3 8dBm N  ov 18, 2018 0 0:20:36.114868000  7
           228  80.43694832:32:32:32:32:3 8dBm N  ov 18, 2018 0 0:20:36.354060000  7
           229  80.50686432:32:32:32:32:3 6dBm N  ov 18, 2018 0 0:20:36.423976000  7
           230  81.27764132:32:32:32:32:3 9dBm N  ov 18, 2018 0 0:20:37.194753000  7
           231  8 1.9151932:32:32:32:32:3 7dBm N  ov 18, 2018 0 0:20:37.832302000  7
           232  82.03097932:32:32:32:32:3 9dBm N  ov 18, 2018 0 0:20:37.948091000  7
           233  82.59244732:32:32:32:32:3 7dBm N  ov 18, 2018 0 0:20:38.509559000  7
           234  82.76590832:32:32:32:32:3 6dBm N  ov 18, 2018 0 0:20:38.683020000  7
           235  8 3.0573832:32:32:32:32:3 9dBm N  ov 18, 2018 0 0:20:38.974492000  7
           236  83.26446232:32:32:32:32:3 8dBm N  ov 18, 2018 0 0:20:39.181574000  7
           237  84.61071232:32:32:32:32:3 7dBm N  ov 18, 2018 0 0:20:40.527824000  7
           238  85.06456932:32:32:32:32:3 6dBm N  ov 18, 2018 0 0:20:40.981681000  7
           239  85.55083932:32:32:32:32:3 6dBm N  ov 18, 2018 0 0:20:41.467951000  7
           240  85.74508932:32:32:32:32:3 3dBm N  ov 18, 2018 0 0:20:41.662201000  7
           241  8 5.8157432:32:32:32:32:3 7dBm N  ov 18, 2018 0 0:20:41.732852000  7
           242  85.90165532:32:32:32:32:3 8dBm N  ov 18, 2018 0 0:20:41.818767000  7
           243  8 5.9886832:32:32:32:32:3 8dBm N  ov 18, 2018 0 0:20:41.905792000  7
           244  86.06553432:32:32:32:32:3 8dBm N  ov 18, 2018 0 0:20:41.982646000  7
           245  86.72516932:32:32:32:32:3 7dBm N  ov 18, 2018 0 0:20:42.642281000  7
           246  87.19278732:32:32:32:32:3 8dBm N  ov 18, 2018 0 0:20:43.109899000  7
           247  87.53909132:32:32:32:32:3 8dBm N  ov 18, 2018 0 0:20:43.456203000  7
           248  8  7.715432:32:32:32:32:3 7dBm N  ov 18, 2018 0 0:20:43.632512000  7
           249  87.91368932:32:32:32:32:3 6dBm N  ov 18, 2018 0 0:20:43.830801000  7
           250  88.15714732:32:32:32:32:3 7dBm N  ov 18, 2018 0 0:20:44.074259000  7
           251  88.29171832:32:32:32:32:3 6dBm N  ov 18, 2018 0 0:20:44.208830000  7
           252  8 9.0053732:32:32:32:32:3 7dBm N  ov 18, 2018 0 0:20:44.922482000  7
           253  89.10095532:32:32:32:32:3 7dBm N  ov 18, 2018 0 0:20:45.018067000  7
           254  89.11020832:32:32:32:32:3 7dBm N  ov 18, 2018 0 0:20:45.027320000  7
           255  8 9.6722932:32:32:32:32:3 8dBm N  ov 18, 2018 0 0:20:45.589402000  7
           256  89.90569732:32:32:32:32:3 8dBm N  ov 18, 2018 0 0:20:45.822809000  7
           257  90.48353832:32:32:32:32:3 8dBm N  ov 18, 2018 0 0:20:46.400650000  7
           258  90.62525132:32:32:32:32:3 7dBm N  ov 18, 2018 0 0:20:46.542363000  7
           259  90.75978732:32:32:32:32:3 8dBm N  ov 18, 2018 0 0:20:46.676899000  7
           260  9 1.2164932:32:32:32:32:3 7dBm N  ov 18, 2018 0 0:20:47.133602000  7
           261  92.60364732:32:32:32:32:3 7dBm N  ov 18, 2018 0 0:20:48.520759000  7
           262  92.69252932:32:32:32:32:3 7dBm N  ov 18, 2018 0 0:20:48.609641000  7
           263  92.77631432:32:32:32:32:3 9dBm N  ov 18, 2018 0 0:20:48.693426000  7
           264 1170372160          345034    Dec   19, 2055 23: 41:56.262146000 +0  
