      1       032:32:32:32:32:3  6Bm N  ov 18, 2018 0 1:30:16.141515000  7          2
      20.50096232:32:32:32:32:3  6Bm N  ov 18, 2018 0 1:30:16.642477000  7         10
      3 1.9537832:32:32:32:32:3  9Bm N  ov 18, 2018 0 1:30:18.095295000  7        ###
      42.01233532:32:32:32:32:3  8Bm N  ov 18, 2018 0 1:30:18.153850000  7        ###
    5  7.54017532:32:32:32:32:3  8Bm N  ov 18, 2018 0 1:30:43.681690000  7        ###
    6  7.58673532:32:32:32:32:3  7Bm N  ov 18, 2018 0 1:30:43.728250000  7
    7  8.04341732:32:32:32:32:3  6Bm N  ov 18, 2018 0 1:30:44.184932000  7
    8  3.39819132:32:32:32:32:3  7Bm N  ov 18, 2018 0 1:30:49.539706000  7
    9  6.04608932:32:32:32:32:3  8Bm N  ov 18, 2018 0 1:30:52.187604000  7
   10  6.07635332:32:32:32:32:3  8Bm N  ov 18, 2018 0 1:30:52.217868000  7
   11  6.91579632:32:32:32:32:3  5Bm N  ov 18, 2018 0 1:30:53.057311000  7
   12  6.98697632:32:32:32:32:3  6Bm N  ov 18, 2018 0 1:30:53.128491000  7
   13  6.99859932:32:32:32:32:3  6Bm N  ov 18, 2018 0 1:30:53.140114000  7
   14  7.01762132:32:32:32:32:3  7Bm N  ov 18, 2018 0 1:30:53.159136000  7
   15  7.06417332:32:32:32:32:3  5Bm N  ov 18, 2018 0 1:30:53.205688000  7
   16  7.11496532:32:32:32:32:3  5Bm N  ov 18, 2018 0 1:30:53.256480000  7
   17   7.1354432:32:32:32:32:3  4Bm N  ov 18, 2018 0 1:30:53.276955000  7
   18  7.15196532:32:32:32:32:3  7Bm N  ov 18, 2018 0 1:30:53.293480000  7
   19  7.25914932:32:32:32:32:3  5Bm N  ov 18, 2018 0 1:30:53.400664000  7
   20  7.28486332:32:32:32:32:3  5Bm N  ov 18, 2018 0 1:30:53.426378000  7
   21  7.45054332:32:32:32:32:3  6Bm N  ov 18, 2018 0 1:30:53.592058000  7
   22  7.49262532:32:32:32:32:3  5Bm N  ov 18, 2018 0 1:30:53.634140000  7
   23  7.71388132:32:32:32:32:3  5Bm N  ov 18, 2018 0 1:30:53.855396000  7
   24  8.29895932:32:32:32:32:3  5Bm N  ov 18, 2018 0 1:30:54.440474000  7
   25  8.32576732:32:32:32:32:3  5Bm N  ov 18, 2018 0 1:30:54.467282000  7
   26  8.35668832:32:32:32:32:3  8Bm N  ov 18, 2018 0 1:30:54.498203000  7
   27  8.38728832:32:32:32:32:3  7Bm N  ov 18, 2018 0 1:30:54.528803000  7
   28  8.42604632:32:32:32:32:3  8Bm N  ov 18, 2018 0 1:30:54.567561000  7
   29  8.49234332:32:32:32:32:3  6Bm N  ov 18, 2018 0 1:30:54.633858000  7
   30  8.59418832:32:32:32:32:3  4Bm N  ov 18, 2018 0 1:30:54.735703000  7
   31  8.66973532:32:32:32:32:3  8Bm N  ov 18, 2018 0 1:30:54.811250000  7
   32  8.72201432:32:32:32:32:3  8Bm N  ov 18, 2018 0 1:30:54.863529000  7
   33  8.80691232:32:32:32:32:3  9Bm N  ov 18, 2018 0 1:30:54.948427000  7
   34  9.21075532:32:32:32:32:3  7Bm N  ov 18, 2018 0 1:30:55.352270000  7
   35   9.2821132:32:32:32:32:3  7Bm N  ov 18, 2018 0 1:30:55.423625000  7
   36   9.3176332:32:32:32:32:3  6Bm N  ov 18, 2018 0 1:30:55.459145000  7
   37  9.38595232:32:32:32:32:3  7Bm N  ov 18, 2018 0 1:30:55.527467000  7
   38  9.41440232:32:32:32:32:3  6Bm N  ov 18, 2018 0 1:30:55.555917000  7
   39  9.60157832:32:32:32:32:3  7Bm N  ov 18, 2018 0 1:30:55.743093000  7
   40  9.73920832:32:32:32:32:3  6Bm N  ov 18, 2018 0 1:30:55.880723000  7
   41    9.759832:32:32:32:32:3  5Bm N  ov 18, 2018 0 1:30:55.901315000  7
   42   9.8669932:32:32:32:32:3  8Bm N  ov 18, 2018 0 1:30:56.008505000  7
   43  9.88869832:32:32:32:32:3  6Bm N  ov 18, 2018 0 1:30:56.030213000  7
   44   9.8937232:32:32:32:32:3  6Bm N  ov 18, 2018 0 1:30:56.035235000  7
   45  9.92857932:32:32:32:32:3  8Bm N  ov 18, 2018 0 1:30:56.070094000  7
   46  9.97630832:32:32:32:32:3  7Bm N  ov 18, 2018 0 1:30:56.117823000  7
   47  0.07307832:32:32:32:32:3  7Bm N  ov 18, 2018 0 1:30:56.214593000  7
   48  0.10585732:32:32:32:32:3  7Bm N  ov 18, 2018 0 1:30:56.247372000  7
   49  0.13552732:32:32:32:32:3  8Bm N  ov 18, 2018 0 1:30:56.277042000  7
   50  0.15008232:32:32:32:32:3  6Bm N  ov 18, 2018 0 1:30:56.291597000  7
   51  0.22390432:32:32:32:32:3  6Bm N  ov 18, 2018 0 1:30:56.365419000  7
   52  0.28562732:32:32:32:32:3  8Bm N  ov 18, 2018 0 1:30:56.427142000  7
   53  0.39802932:32:32:32:32:3  5Bm N  ov 18, 2018 0 1:30:56.539544000  7
   54  0.56765632:32:32:32:32:3  8Bm N  ov 18, 2018 0 1:30:56.709171000  7
   55  0.78538632:32:32:32:32:3  8Bm N  ov 18, 2018 0 1:30:56.926901000  7
   56  0.79808932:32:32:32:32:3  5Bm N  ov 18, 2018 0 1:30:56.939604000  7
   57  0.87354632:32:32:32:32:3  8Bm N  ov 18, 2018 0 1:30:57.015061000  7
   58  0.89183432:32:32:32:32:3  5Bm N  ov 18, 2018 0 1:30:57.033349000  7
   59  0.94142632:32:32:32:32:3  5Bm N  ov 18, 2018 0 1:30:57.082941000  7
   60  0.96343832:32:32:32:32:3  7Bm N  ov 18, 2018 0 1:30:57.104953000  7
   61  1.01061532:32:32:32:32:3  5Bm N  ov 18, 2018 0 1:30:57.152130000  7
   62  1.06229832:32:32:32:32:3  6Bm N  ov 18, 2018 0 1:30:57.203813000  7
   63  1.19765732:32:32:32:32:3  7Bm N  ov 18, 2018 0 1:30:57.339172000  7
   64  1.23460832:32:32:32:32:3  7Bm N  ov 18, 2018 0 1:30:57.376123000  7
   65  1.25746932:32:32:32:32:3  5Bm N  ov 18, 2018 0 1:30:57.398984000  7
   66  1.34801732:32:32:32:32:3  6Bm N  ov 18, 2018 0 1:30:57.489532000  7
   67  1.40694532:32:32:32:32:3  7Bm N  ov 18, 2018 0 1:30:57.548460000  7
   68  1.59851632:32:32:32:32:3  7Bm N  ov 18, 2018 0 1:30:57.740031000  7
   69  1.65594532:32:32:32:32:3  8Bm N  ov 18, 2018 0 1:30:57.797460000  7
   70  1.68384732:32:32:32:32:3  6Bm N  ov 18, 2018 0 1:30:57.825362000  7
   71  1.70223532:32:32:32:32:3  8Bm N  ov 18, 2018 0 1:30:57.843750000  7
   72  1.75221432:32:32:32:32:3  5Bm N  ov 18, 2018 0 1:30:57.893729000  7
   73  1.77349732:32:32:32:32:3  7Bm N  ov 18, 2018 0 1:30:57.915012000  7
   74  1.90096132:32:32:32:32:3  7Bm N  ov 18, 2018 0 1:30:58.042476000  7
   75  1.97170632:32:32:32:32:3  8Bm N  ov 18, 2018 0 1:30:58.113221000  7
   76  2.00813932:32:32:32:32:3  8Bm N  ov 18, 2018 0 1:30:58.149654000  7
   77  2.03895932:32:32:32:32:3  5Bm N  ov 18, 2018 0 1:30:58.180474000  7
   78  2.15009132:32:32:32:32:3  9Bm N  ov 18, 2018 0 1:30:58.291606000  7
   79  2.15576732:32:32:32:32:3  7Bm N  ov 18, 2018 0 1:30:58.297282000  7
   80  2.21928332:32:32:32:32:3  8Bm N  ov 18, 2018 0 1:30:58.360798000  7
   81  2.37637732:32:32:32:32:3  6Bm N  ov 18, 2018 0 1:30:58.517892000  7
   82  2.43662232:32:32:32:32:3  6Bm N  ov 18, 2018 0 1:30:58.578137000  7
   83   2.4713432:32:32:32:32:3  5Bm N  ov 18, 2018 0 1:30:58.612855000  7
   84  2.52206632:32:32:32:32:3  5Bm N  ov 18, 2018 0 1:30:58.663581000  7
   85   2.5354432:32:32:32:32:3  5Bm N  ov 18, 2018 0 1:30:58.676955000  7
   86   2.6276232:32:32:32:32:3  3Bm N  ov 18, 2018 0 1:30:58.769135000  7
   87  2.65067732:32:32:32:32:3  3Bm N  ov 18, 2018 0 1:30:58.792192000  7
   88  2.71995632:32:32:32:32:3  7Bm N  ov 18, 2018 0 1:30:58.861471000  7
   89  2.73607532:32:32:32:32:3  6Bm N  ov 18, 2018 0 1:30:58.877590000  7
   90  2.75748832:32:32:32:32:3  4Bm N  ov 18, 2018 0 1:30:58.899003000  7
   91  2.78365832:32:32:32:32:3  5Bm N  ov 18, 2018 0 1:30:58.925173000  7
   92  2.82402532:32:32:32:32:3  7Bm N  ov 18, 2018 0 1:30:58.965540000  7
   93  2.91965432:32:32:32:32:3  6Bm N  ov 18, 2018 0 1:30:59.061169000  7
   94  2.93465732:32:32:32:32:3  9Bm N  ov 18, 2018 0 1:30:59.076172000  7
   95  3.04416632:32:32:32:32:3  9Bm N  ov 18, 2018 0 1:30:59.185681000  7
   96  3.26504832:32:32:32:32:3  6Bm N  ov 18, 2018 0 1:30:59.406563000  7
   97  3.33165332:32:32:32:32:3  7Bm N  ov 18, 2018 0 1:30:59.473168000  7
   98  3.38075532:32:32:32:32:3  7Bm N  ov 18, 2018 0 1:30:59.522270000  7
   99  3.50990332:32:32:32:32:3  8Bm N  ov 18, 2018 0 1:30:59.651418000  7
  100  3.61475332:32:32:32:32:3  8Bm N  ov 18, 2018 0 1:30:59.756268000  7
  101  3.77118732:32:32:32:32:3  6Bm N  ov 18, 2018 0 1:30:59.912702000  7
  102  3.88430832:32:32:32:32:3  8Bm N  ov 18, 2018 0 1:31:00.025823000  7
  103  3.96637632:32:32:32:32:3  8Bm N  ov 18, 2018 0 1:31:00.107891000  7
  104  3.97191232:32:32:32:32:3  8Bm N  ov 18, 2018 0 1:31:00.113427000  7
  105    3.984332:32:32:32:32:3  7Bm N  ov 18, 2018 0 1:31:00.125815000  7
  106   3.9906632:32:32:32:32:3  5Bm N  ov 18, 2018 0 1:31:00.132175000  7
  107  4.17021232:32:32:32:32:3  8Bm N  ov 18, 2018 0 1:31:00.311727000  7
  108  4.22008832:32:32:32:32:3  5Bm N  ov 18, 2018 0 1:31:00.361603000  7
  109  4.27733732:32:32:32:32:3  6Bm N  ov 18, 2018 0 1:31:00.418852000  7
  110  4.32431232:32:32:32:32:3  8Bm N  ov 18, 2018 0 1:31:00.465827000  7
  111  4.44403432:32:32:32:32:3  7Bm N  ov 18, 2018 0 1:31:00.585549000  7
  112  4.57365632:32:32:32:32:3  9Bm N  ov 18, 2018 0 1:31:00.715171000  7
  113  4.66851232:32:32:32:32:3  7Bm N  ov 18, 2018 0 1:31:00.810027000  7
  114  4.70842632:32:32:32:32:3  6Bm N  ov 18, 2018 0 1:31:00.849941000  7
  115  4.80073332:32:32:32:32:3  5Bm N  ov 18, 2018 0 1:31:00.942248000  7
  116  5.05233832:32:32:32:32:3  5Bm N  ov 18, 2018 0 1:31:01.193853000  7
  117  5.09022432:32:32:32:32:3  4Bm N  ov 18, 2018 0 1:31:01.231739000  7
  118  5.11579832:32:32:32:32:3  5Bm N  ov 18, 2018 0 1:31:01.257313000  7
  119  5.13307732:32:32:32:32:3  4Bm N  ov 18, 2018 0 1:31:01.274592000  7
  120  5.38632932:32:32:32:32:3  6Bm N  ov 18, 2018 0 1:31:01.527844000  7
  121   5.4627832:32:32:32:32:3  6Bm N  ov 18, 2018 0 1:31:01.604295000  7
  122  5.48001932:32:32:32:32:3  7Bm N  ov 18, 2018 0 1:31:01.621534000  7
  123  5.58518332:32:32:32:32:3  6Bm N  ov 18, 2018 0 1:31:01.726698000  7
  124  5.65272432:32:32:32:32:3  6Bm N  ov 18, 2018 0 1:31:01.794239000  7
  125  5.91999132:32:32:32:32:3  7Bm N  ov 18, 2018 0 1:31:02.061506000  7
  126  5.97282132:32:32:32:32:3  6Bm N  ov 18, 2018 0 1:31:02.114336000  7
  127  6.03990432:32:32:32:32:3  6Bm N  ov 18, 2018 0 1:31:02.181419000  7
  128   6.0754832:32:32:32:32:3  6Bm N  ov 18, 2018 0 1:31:02.216995000  7
  129   6.1325132:32:32:32:32:3  6Bm N  ov 18, 2018 0 1:31:02.274025000  7
  130  6.20818332:32:32:32:32:3  7Bm N  ov 18, 2018 0 1:31:02.349698000  7
  131  6.26034232:32:32:32:32:3  6Bm N  ov 18, 2018 0 1:31:02.401857000  7
  132  6.38519332:32:32:32:32:3  8Bm N  ov 18, 2018 0 1:31:02.526708000  7
  133  6.45332232:32:32:32:32:3  5Bm N  ov 18, 2018 0 1:31:02.594837000  7
  134  6.53464232:32:32:32:32:3  6Bm N  ov 18, 2018 0 1:31:02.676157000  7
  135  6.63754532:32:32:32:32:3  8Bm N  ov 18, 2018 0 1:31:02.779060000  7
  136  6.72070732:32:32:32:32:3  6Bm N  ov 18, 2018 0 1:31:02.862222000  7
  137  6.75043832:32:32:32:32:3  7Bm N  ov 18, 2018 0 1:31:02.891953000  7
  138  6.77790732:32:32:32:32:3  7Bm N  ov 18, 2018 0 1:31:02.919422000  7
  139  6.81224732:32:32:32:32:3  6Bm N  ov 18, 2018 0 1:31:02.953762000  7
  140  7.08881432:32:32:32:32:3  7Bm N  ov 18, 2018 0 1:31:03.230329000  7
  141  7.17353632:32:32:32:32:3  6Bm N  ov 18, 2018 0 1:31:03.315051000  7
  142   7.3311732:32:32:32:32:3  6Bm N  ov 18, 2018 0 1:31:03.472685000  7
  143   7.3695632:32:32:32:32:3  6Bm N  ov 18, 2018 0 1:31:03.511075000  7
  144  7.48553432:32:32:32:32:3  7Bm N  ov 18, 2018 0 1:31:03.627049000  7
  145  7.54211632:32:32:32:32:3  5Bm N  ov 18, 2018 0 1:31:03.683631000  7
  146  7.60141632:32:32:32:32:3  6Bm N  ov 18, 2018 0 1:31:03.742931000  7
  147  7.63854232:32:32:32:32:3  9Bm N  ov 18, 2018 0 1:31:03.780057000  7
  148  7.72798632:32:32:32:32:3  8Bm N  ov 18, 2018 0 1:31:03.869501000  7
  149  7.81600432:32:32:32:32:3  8Bm N  ov 18, 2018 0 1:31:03.957519000  7
  150  7.86780832:32:32:32:32:3  9Bm N  ov 18, 2018 0 1:31:04.009323000  7
  151  7.94294332:32:32:32:32:3  7Bm N  ov 18, 2018 0 1:31:04.084458000  7
  152   7.9963532:32:32:32:32:3  7Bm N  ov 18, 2018 0 1:31:04.137865000  7
  153  8.02394932:32:32:32:32:3  8Bm N  ov 18, 2018 0 1:31:04.165464000  7
  154  8.05046132:32:32:32:32:3  9Bm N  ov 18, 2018 0 1:31:04.191976000  7
  155  8.07864832:32:32:32:32:3 10dBm   Nov 18,   201801:31:04.220163000 7
  156  8.09889332:32:32:32:32:3  6Bm N  ov 18, 2018 0 1:31:04.240408000  7
  157  8.21188132:32:32:32:32:3  7Bm N  ov 18, 2018 0 1:31:04.353396000  7
  158   8.2830932:32:32:32:32:3  9Bm N  ov 18, 2018 0 1:31:04.424605000  7
  159  8.31298432:32:32:32:32:3  6Bm N  ov 18, 2018 0 1:31:04.454499000  7
  160   8.3314332:32:32:32:32:3  8Bm N  ov 18, 2018 0 1:31:04.472945000  7
  161  8.34733832:32:32:32:32:3  8Bm N  ov 18, 2018 0 1:31:04.488853000  7
  162  8.37096832:32:32:32:32:3  8Bm N  ov 18, 2018 0 1:31:04.512483000  7
  163  8.49493632:32:32:32:32:3  8Bm N  ov 18, 2018 0 1:31:04.636451000  7
  164  8.67173732:32:32:32:32:3  5Bm N  ov 18, 2018 0 1:31:04.813252000  7
  165  8.74654232:32:32:32:32:3  7Bm N  ov 18, 2018 0 1:31:04.888057000  7
  166  8.79237332:32:32:32:32:3  8Bm N  ov 18, 2018 0 1:31:04.933888000  7
  167  8.85928932:32:32:32:32:3  7Bm N  ov 18, 2018 0 1:31:05.000804000  7
  168  8.93069632:32:32:32:32:3  7Bm N  ov 18, 2018 0 1:31:05.072211000  7
  169  9.02944432:32:32:32:32:3  7Bm N  ov 18, 2018 0 1:31:05.170959000  7
  170  9.04333832:32:32:32:32:3  8Bm N  ov 18, 2018 0 1:31:05.184853000  7
  171  9.08150832:32:32:32:32:3  7Bm N  ov 18, 2018 0 1:31:05.223023000  7
  172  9.10179132:32:32:32:32:3  8Bm N  ov 18, 2018 0 1:31:05.243306000  7
  173   9.4094132:32:32:32:32:3  7Bm N  ov 18, 2018 0 1:31:05.550925000  7
  174  9.44817332:32:32:32:32:3  7Bm N  ov 18, 2018 0 1:31:05.589688000  7
  175   9.5055932:32:32:32:32:3  5Bm N  ov 18, 2018 0 1:31:05.647105000  7
  176  9.69382132:32:32:32:32:3  5Bm N  ov 18, 2018 0 1:31:05.835336000  7
  177  9.71472832:32:32:32:32:3  8Bm N  ov 18, 2018 0 1:31:05.856243000  7
  178  9.97246132:32:32:32:32:3  7Bm N  ov 18, 2018 0 1:31:06.113976000  7
  179  0.32932532:32:32:32:32:3  7Bm N  ov 18, 2018 0 1:31:06.470840000  7
  180  0.36538432:32:32:32:32:3  7Bm N  ov 18, 2018 0 1:31:06.506899000  7
  181  0.45558932:32:32:32:32:3  7Bm N  ov 18, 2018 0 1:31:06.597104000  7
  182  0.60494532:32:32:32:32:3  8Bm N  ov 18, 2018 0 1:31:06.746460000  7
  183  0.71819432:32:32:32:32:3  8Bm N  ov 18, 2018 0 1:31:06.859709000  7
  184  0.79526732:32:32:32:32:3  8Bm N  ov 18, 2018 0 1:31:06.936782000  7
  185  0.90348732:32:32:32:32:3  5Bm N  ov 18, 2018 0 1:31:07.045002000  7
  186   1.0139732:32:32:32:32:3  8Bm N  ov 18, 2018 0 1:31:07.155485000  7
  187    1.048532:32:32:32:32:3  7Bm N  ov 18, 2018 0 1:31:07.190015000  7
  188  1.12265132:32:32:32:32:3  7Bm N  ov 18, 2018 0 1:31:07.264166000  7
  189  1.16508132:32:32:32:32:3  6Bm N  ov 18, 2018 0 1:31:07.306596000  7
  190  1.20918832:32:32:32:32:3  8Bm N  ov 18, 2018 0 1:31:07.350703000  7
  191  1.27808432:32:32:32:32:3  8Bm N  ov 18, 2018 0 1:31:07.419599000  7
  192  1.39923432:32:32:32:32:3  7Bm N  ov 18, 2018 0 1:31:07.540749000  7
  193  1.42132932:32:32:32:32:3  4Bm N  ov 18, 2018 0 1:31:07.562844000  7
  194  1.50959832:32:32:32:32:3  9Bm N  ov 18, 2018 0 1:31:07.651113000  7
  195  1.59322932:32:32:32:32:3  8Bm N  ov 18, 2018 0 1:31:07.734744000  7
  196  1.61444132:32:32:32:32:3  8Bm N  ov 18, 2018 0 1:31:07.755956000  7
  197  1.70399632:32:32:32:32:3  6Bm N  ov 18, 2018 0 1:31:07.845511000  7
  198   1.7318332:32:32:32:32:3  8Bm N  ov 18, 2018 0 1:31:07.873345000  7
  199  1.84643432:32:32:32:32:3  8Bm N  ov 18, 2018 0 1:31:07.987949000  7
  200  1.86262132:32:32:32:32:3  8Bm N  ov 18, 2018 0 1:31:08.004136000  7
  201  1.88280432:32:32:32:32:3  7Bm N  ov 18, 2018 0 1:31:08.024319000  7
  202   1.9222732:32:32:32:32:3  6Bm N  ov 18, 2018 0 1:31:08.063785000  7
  203  1.95827632:32:32:32:32:3  7Bm N  ov 18, 2018 0 1:31:08.099791000  7
  204  1.97904132:32:32:32:32:3  7Bm N  ov 18, 2018 0 1:31:08.120556000  7
  205  2.05489732:32:32:32:32:3  7Bm N  ov 18, 2018 0 1:31:08.196412000  7
  206  2.07101232:32:32:32:32:3  8Bm N  ov 18, 2018 0 1:31:08.212527000  7
  207  2.20969732:32:32:32:32:3  6Bm N  ov 18, 2018 0 1:31:08.351212000  7
  208  2.30538232:32:32:32:32:3  7Bm N  ov 18, 2018 0 1:31:08.446897000  7
  209  2.36550932:32:32:32:32:3  6Bm N  ov 18, 2018 0 1:31:08.507024000  7
  210  2.43443932:32:32:32:32:3  7Bm N  ov 18, 2018 0 1:31:08.575954000  7
  211    2.515532:32:32:32:32:3  8Bm N  ov 18, 2018 0 1:31:08.657015000  7
  212  2.57360332:32:32:32:32:3  7Bm N  ov 18, 2018 0 1:31:08.715118000  7
  213  2.65614832:32:32:32:32:3  7Bm N  ov 18, 2018 0 1:31:08.797663000  7
  214  2.69760132:32:32:32:32:3  6Bm N  ov 18, 2018 0 1:31:08.839116000  7
  215  2.72946832:32:32:32:32:3  6Bm N  ov 18, 2018 0 1:31:08.870983000  7
  216  2.81401332:32:32:32:32:3  6Bm N  ov 18, 2018 0 1:31:08.955528000  7
  217  2.83154432:32:32:32:32:3  6Bm N  ov 18, 2018 0 1:31:08.973059000  7
  218  2.93812132:32:32:32:32:3  7Bm N  ov 18, 2018 0 1:31:09.079636000  7
  219   3.1164632:32:32:32:32:3  7Bm N  ov 18, 2018 0 1:31:09.257975000  7
  220  3.27479632:32:32:32:32:3  6Bm N  ov 18, 2018 0 1:31:09.416311000  7
  221  3.42833532:32:32:32:32:3  7Bm N  ov 18, 2018 0 1:31:09.569850000  7
  222  3.50771332:32:32:32:32:3  6Bm N  ov 18, 2018 0 1:31:09.649228000  7
  223  3.55723132:32:32:32:32:3  4Bm N  ov 18, 2018 0 1:31:09.698746000  7
  224  3.59858332:32:32:32:32:3  9Bm N  ov 18, 2018 0 1:31:09.740098000  7
  225  3.81483832:32:32:32:32:3  7Bm N  ov 18, 2018 0 1:31:09.956353000  7
  226  3.87273532:32:32:32:32:3  7Bm N  ov 18, 2018 0 1:31:10.014250000  7
  227  3.90297732:32:32:32:32:3  7Bm N  ov 18, 2018 0 1:31:10.044492000  7
  228  3.94666932:32:32:32:32:3  6Bm N  ov 18, 2018 0 1:31:10.088184000  7
  229  4.06043132:32:32:32:32:3  8Bm N  ov 18, 2018 0 1:31:10.201946000  7
  230  4.09595832:32:32:32:32:3  7Bm N  ov 18, 2018 0 1:31:10.237473000  7
  231  4.17912132:32:32:32:32:3  9Bm N  ov 18, 2018 0 1:31:10.320636000  7
  232  4.21832432:32:32:32:32:3  8Bm N  ov 18, 2018 0 1:31:10.359839000  7
  233  4.28893532:32:32:32:32:3  8Bm N  ov 18, 2018 0 1:31:10.430450000  7
  234  4.31347432:32:32:32:32:3  7Bm N  ov 18, 2018 0 1:31:10.454989000  7
  235  4.44641632:32:32:32:32:3  6Bm N  ov 18, 2018 0 1:31:10.587931000  7
  236  4.54156732:32:32:32:32:3  5Bm N  ov 18, 2018 0 1:31:10.683082000  7
  237  4.62202132:32:32:32:32:3  7Bm N  ov 18, 2018 0 1:31:10.763536000  7
  238  4.65347632:32:32:32:32:3  5Bm N  ov 18, 2018 0 1:31:10.794991000  7
  239  4.67554732:32:32:32:32:3  7Bm N  ov 18, 2018 0 1:31:10.817062000  7
  240  4.74529932:32:32:32:32:3  5Bm N  ov 18, 2018 0 1:31:10.886814000  7
  241  4.76769932:32:32:32:32:3  4Bm N  ov 18, 2018 0 1:31:10.909214000  7
  242  4.78759332:32:32:32:32:3  7Bm N  ov 18, 2018 0 1:31:10.929108000  7
  243  4.93482732:32:32:32:32:3  6Bm N  ov 18, 2018 0 1:31:11.076342000  7
  244    4.980732:32:32:32:32:3  6Bm N  ov 18, 2018 0 1:31:11.122215000  7
  245  4.99783332:32:32:32:32:3  9Bm N  ov 18, 2018 0 1:31:11.139348000  7
  246  5.07713932:32:32:32:32:3  8Bm N  ov 18, 2018 0 1:31:11.218654000  7
  247  5.12097632:32:32:32:32:3  9Bm N  ov 18, 2018 0 1:31:11.262491000  7
  248  5.14521332:32:32:32:32:3  8Bm N  ov 18, 2018 0 1:31:11.286728000  7
  249  5.15839432:32:32:32:32:3  7Bm N  ov 18, 2018 0 1:31:11.299909000  7
  250  5.21893532:32:32:32:32:3  6Bm N  ov 18, 2018 0 1:31:11.360450000  7
  251  5.24945132:32:32:32:32:3  4Bm N  ov 18, 2018 0 1:31:11.390966000  7
  252  5.28686832:32:32:32:32:3  7Bm N  ov 18, 2018 0 1:31:11.428383000  7
  253  5.33434432:32:32:32:32:3  4Bm N  ov 18, 2018 0 1:31:11.475859000  7
  254  5.38468232:32:32:32:32:3  8Bm N  ov 18, 2018 0 1:31:11.526197000  7
  255  5.40832432:32:32:32:32:3  8Bm N  ov 18, 2018 0 1:31:11.549839000  7
  256  5.44639232:32:32:32:32:3  8Bm N  ov 18, 2018 0 1:31:11.587907000  7
  257  5.55945432:32:32:32:32:3  9Bm N  ov 18, 2018 0 1:31:11.700969000  7
  258  5.58918432:32:32:32:32:3  9Bm N  ov 18, 2018 0 1:31:11.730699000  7
  259  5.62207132:32:32:32:32:3  8Bm N  ov 18, 2018 0 1:31:11.763586000  7
  260  5.64302532:32:32:32:32:3  8Bm N  ov 18, 2018 0 1:31:11.784540000  7
  261  5.73995932:32:32:32:32:3  8Bm N  ov 18, 2018 0 1:31:11.881474000  7
  262  5.76369232:32:32:32:32:3  6Bm N  ov 18, 2018 0 1:31:11.905207000  7
  263  5.77955232:32:32:32:32:3  9Bm N  ov 18, 2018 0 1:31:11.921067000  7
  264  5.82576432:32:32:32:32:3  7Bm N  ov 18, 2018 0 1:31:11.967279000  7
  265  5.84788132:32:32:32:32:3  7Bm N  ov 18, 2018 0 1:31:11.989396000  7
  266  6.00955732:32:32:32:32:3  8Bm N  ov 18, 2018 0 1:31:12.151072000  7
  267  6.06123232:32:32:32:32:3  8Bm N  ov 18, 2018 0 1:31:12.202747000  7
  268  6.16528932:32:32:32:32:3  8Bm N  ov 18, 2018 0 1:31:12.306804000  7
  269  6.24930632:32:32:32:32:3  9Bm N  ov 18, 2018 0 1:31:12.390821000  7
  270  6.29550632:32:32:32:32:3  7Bm N  ov 18, 2018 0 1:31:12.437021000  7
  271  6.35742232:32:32:32:32:3 10dBm   Nov 18,   201801:31:12.498937000 7
  272   6.4906532:32:32:32:32:3  8Bm N  ov 18, 2018 0 1:31:12.632165000  7
  273  6.52746732:32:32:32:32:3  6Bm N  ov 18, 2018 0 1:31:12.668982000  7
  274  6.54979332:32:32:32:32:3  6Bm N  ov 18, 2018 0 1:31:12.691308000  7
  275  6.56577132:32:32:32:32:3  7Bm N  ov 18, 2018 0 1:31:12.707286000  7
  276  6.59698332:32:32:32:32:3  8Bm N  ov 18, 2018 0 1:31:12.738498000  7
  277  6.61185332:32:32:32:32:3  8Bm N  ov 18, 2018 0 1:31:12.753368000  7
  278  6.70551932:32:32:32:32:3  7Bm N  ov 18, 2018 0 1:31:12.847034000  7
  279   6.7931132:32:32:32:32:3  8Bm N  ov 18, 2018 0 1:31:12.934625000  7
  280  6.80689432:32:32:32:32:3  7Bm N  ov 18, 2018 0 1:31:12.948409000  7
  281  6.87752232:32:32:32:32:3  7Bm N  ov 18, 2018 0 1:31:13.019037000  7
  282  6.96177832:32:32:32:32:3  8Bm N  ov 18, 2018 0 1:31:13.103293000  7
  283  6.99141632:32:32:32:32:3  7Bm N  ov 18, 2018 0 1:31:13.132931000  7
  284  7.02937332:32:32:32:32:3  7Bm N  ov 18, 2018 0 1:31:13.170888000  7
  285  7.05560332:32:32:32:32:3  7Bm N  ov 18, 2018 0 1:31:13.197118000  7
  286  7.10815232:32:32:32:32:3  7Bm N  ov 18, 2018 0 1:31:13.249667000  7
  287  7.13582832:32:32:32:32:3  8Bm N  ov 18, 2018 0 1:31:13.277343000  7
  288  7.23841332:32:32:32:32:3  6Bm N  ov 18, 2018 0 1:31:13.379928000  7
  289  7.26422632:32:32:32:32:3  8Bm N  ov 18, 2018 0 1:31:13.405741000  7
  290  7.33015532:32:32:32:32:3  5Bm N  ov 18, 2018 0 1:31:13.471670000  7
  291  7.34638632:32:32:32:32:3  8Bm N  ov 18, 2018 0 1:31:13.487901000  7
  292  7.38697632:32:32:32:32:3 10dBm   Nov 18,   201801:31:13.528491000 7
  293  7.43201332:32:32:32:32:3  6Bm N  ov 18, 2018 0 1:31:13.573528000  7
  294  7.52513132:32:32:32:32:3  6Bm N  ov 18, 2018 0 1:31:13.666646000  7
  295  7.55658932:32:32:32:32:3  7Bm N  ov 18, 2018 0 1:31:13.698104000  7
  296   7.5951632:32:32:32:32:3  8Bm N  ov 18, 2018 0 1:31:13.736675000  7
  297  7.61669332:32:32:32:32:3  8Bm N  ov 18, 2018 0 1:31:13.758208000  7
  298  7.67364532:32:32:32:32:3  6Bm N  ov 18, 2018 0 1:31:13.815160000  7
  299  7.69482232:32:32:32:32:3  6Bm N  ov 18, 2018 0 1:31:13.836337000  7
  300  7.73206532:32:32:32:32:3  8Bm N  ov 18, 2018 0 1:31:13.873580000  7
  301   7.9530832:32:32:32:32:3  6Bm N  ov 18, 2018 0 1:31:14.094595000  7
  302  8.14811132:32:32:32:32:3  5Bm N  ov 18, 2018 0 1:31:14.289626000  7
  303  8.38629232:32:32:32:32:3  7Bm N  ov 18, 2018 0 1:31:14.527807000  7
  304  8.60208332:32:32:32:32:3  6Bm N  ov 18, 2018 0 1:31:14.743598000  7
  305  8.77346932:32:32:32:32:3  8Bm N  ov 18, 2018 0 1:31:14.914984000  7
  306  8.80589832:32:32:32:32:3  7Bm N  ov 18, 2018 0 1:31:14.947413000  7
  307  9.14101632:32:32:32:32:3  7Bm N  ov 18, 2018 0 1:31:15.282531000  7
  308   9.4219732:32:32:32:32:3  5Bm N  ov 18, 2018 0 1:31:15.563485000  7
  309   9.5841532:32:32:32:32:3  6Bm N  ov 18, 2018 0 1:31:15.725665000  7
  310  9.62448532:32:32:32:32:3  6Bm N  ov 18, 2018 0 1:31:15.766000000  7
  311  9.64999332:32:32:32:32:3  6Bm N  ov 18, 2018 0 1:31:15.791508000  7
  312  9.67371132:32:32:32:32:3  6Bm N  ov 18, 2018 0 1:31:15.815226000  7
  313  9.72143732:32:32:32:32:3  5Bm N  ov 18, 2018 0 1:31:15.862952000  7
  314  9.94090532:32:32:32:32:3  7Bm N  ov 18, 2018 0 1:31:16.082420000  7
  315  9.97485532:32:32:32:32:3  6Bm N  ov 18, 2018 0 1:31:16.116370000  7
  316  9.99987232:32:32:32:32:3  5Bm N  ov 18, 2018 0 1:31:16.141387000  7
  317  0.09805532:32:32:32:32:3  7Bm N  ov 18, 2018 0 1:31:16.239570000  7
  318  0.13720632:32:32:32:32:3  7Bm N  ov 18, 2018 0 1:31:16.278721000  7
  319  0.17703932:32:32:32:32:3  7Bm N  ov 18, 2018 0 1:31:16.318554000  7
  320  0.20758632:32:32:32:32:3  5Bm N  ov 18, 2018 0 1:31:16.349101000  7
  321  0.43929532:32:32:32:32:3  6Bm N  ov 18, 2018 0 1:31:16.580810000  7
  322  0.47011832:32:32:32:32:3  6Bm N  ov 18, 2018 0 1:31:16.611633000  7
  323  0.47528732:32:32:32:32:3  6Bm N  ov 18, 2018 0 1:31:16.616802000  7
  324  0.49327832:32:32:32:32:3  6Bm N  ov 18, 2018 0 1:31:16.634793000  7
  325  0.54628832:32:32:32:32:3  6Bm N  ov 18, 2018 0 1:31:16.687803000  7
  326  0.63613732:32:32:32:32:3  7Bm N  ov 18, 2018 0 1:31:16.777652000  7
  327  0.76201932:32:32:32:32:3  6Bm N  ov 18, 2018 0 1:31:16.903534000  7
  328  0.87114232:32:32:32:32:3  6Bm N  ov 18, 2018 0 1:31:17.012657000  7
  329  0.90512132:32:32:32:32:3  8Bm N  ov 18, 2018 0 1:31:17.046636000  7
  330  0.94672432:32:32:32:32:3  6Bm N  ov 18, 2018 0 1:31:17.088239000  7
  331  0.96217532:32:32:32:32:3  6Bm N  ov 18, 2018 0 1:31:17.103690000  7
  332   1.0160632:32:32:32:32:3  6Bm N  ov 18, 2018 0 1:31:17.157575000  7
  333   1.0385832:32:32:32:32:3  8Bm N  ov 18, 2018 0 1:31:17.180095000  7
  334  1.10597132:32:32:32:32:3  6Bm N  ov 18, 2018 0 1:31:17.247486000  7
  335  1.18464732:32:32:32:32:3  7Bm N  ov 18, 2018 0 1:31:17.326162000  7
  336  1.24067932:32:32:32:32:3  5Bm N  ov 18, 2018 0 1:31:17.382194000  7
  337  1.34306432:32:32:32:32:3  7Bm N  ov 18, 2018 0 1:31:17.484579000  7
  338  1.40686832:32:32:32:32:3  7Bm N  ov 18, 2018 0 1:31:17.548383000  7
  339   1.5029532:32:32:32:32:3  7Bm N  ov 18, 2018 0 1:31:17.644465000  7
  340  1.83097132:32:32:32:32:3  7Bm N  ov 18, 2018 0 1:31:17.972486000  7
  341  2.15523132:32:32:32:32:3  8Bm N  ov 18, 2018 0 1:31:18.296746000  7
  342  2.25840632:32:32:32:32:3  8Bm N  ov 18, 2018 0 1:31:18.399921000  7
  343  2.30267532:32:32:32:32:3  8Bm N  ov 18, 2018 0 1:31:18.444190000  7
  344   2.4802432:32:32:32:32:3  4Bm N  ov 18, 2018 0 1:31:18.621755000  7
  345  2.55465532:32:32:32:32:3  6Bm N  ov 18, 2018 0 1:31:18.696170000  7
  346  2.66614332:32:32:32:32:3  7Bm N  ov 18, 2018 0 1:31:18.807658000  7
  347  2.85825532:32:32:32:32:3  5Bm N  ov 18, 2018 0 1:31:18.999770000  7
  348  2.88365432:32:32:32:32:3  7Bm N  ov 18, 2018 0 1:31:19.025169000  7
  349  2.90660932:32:32:32:32:3  7Bm N  ov 18, 2018 0 1:31:19.048124000  7
  350  2.93553932:32:32:32:32:3  5Bm N  ov 18, 2018 0 1:31:19.077054000  7
  351  3.05325232:32:32:32:32:3  7Bm N  ov 18, 2018 0 1:31:19.194767000  7
  352  3.13790632:32:32:32:32:3  6Bm N  ov 18, 2018 0 1:31:19.279421000  7
  353  3.14279732:32:32:32:32:3  7Bm N  ov 18, 2018 0 1:31:19.284312000  7
  354  3.19852232:32:32:32:32:3  8Bm N  ov 18, 2018 0 1:31:19.340037000  7
  355  3.23619632:32:32:32:32:3  6Bm N  ov 18, 2018 0 1:31:19.377711000  7
  356     3.34532:32:32:32:32:3  6Bm N  ov 18, 2018 0 1:31:19.486515000  7
  357  3.43272932:32:32:32:32:3  5Bm N  ov 18, 2018 0 1:31:19.574244000  7
  358  3.46504832:32:32:32:32:3  7Bm N  ov 18, 2018 0 1:31:19.606563000  7
  359  3.54195532:32:32:32:32:3  6Bm N  ov 18, 2018 0 1:31:19.683470000  7
  360  3.60763332:32:32:32:32:3  8Bm N  ov 18, 2018 0 1:31:19.749148000  7
  361  3.63001532:32:32:32:32:3  6Bm N  ov 18, 2018 0 1:31:19.771530000  7
  362  3.67637432:32:32:32:32:3  7Bm N  ov 18, 2018 0 1:31:19.817889000  7
  363  3.69662132:32:32:32:32:3  5Bm N  ov 18, 2018 0 1:31:19.838136000  7
  364   3.7269732:32:32:32:32:3  7Bm N  ov 18, 2018 0 1:31:19.868485000  7
  365  3.81072432:32:32:32:32:3  6Bm N  ov 18, 2018 0 1:31:19.952239000  7
  366   3.8444332:32:32:32:32:3  8Bm N  ov 18, 2018 0 1:31:19.985945000  7
  367  3.94486232:32:32:32:32:3  3Bm N  ov 18, 2018 0 1:31:20.086377000  7
  368  4.00504332:32:32:32:32:3  8Bm N  ov 18, 2018 0 1:31:20.146558000  7
  369  4.02317932:32:32:32:32:3  7Bm N  ov 18, 2018 0 1:31:20.164694000  7
  370  4.05056832:32:32:32:32:3  5Bm N  ov 18, 2018 0 1:31:20.192083000  7
  371  4.32004232:32:32:32:32:3  7Bm N  ov 18, 2018 0 1:31:20.461557000  7
  372  4.40811132:32:32:32:32:3  6Bm N  ov 18, 2018 0 1:31:20.549626000  7
  373  4.45987432:32:32:32:32:3  5Bm N  ov 18, 2018 0 1:31:20.601389000  7
  374  4.51568432:32:32:32:32:3  6Bm N  ov 18, 2018 0 1:31:20.657199000  7
  375  4.63283432:32:32:32:32:3  8Bm N  ov 18, 2018 0 1:31:20.774349000  7
  376  4.86568432:32:32:32:32:3  7Bm N  ov 18, 2018 0 1:31:21.007199000  7
  377  5.05565532:32:32:32:32:3  7Bm N  ov 18, 2018 0 1:31:21.197170000  7
  378  5.22937232:32:32:32:32:3  6Bm N  ov 18, 2018 0 1:31:21.370887000  7
  379  5.40819632:32:32:32:32:3  7Bm N  ov 18, 2018 0 1:31:21.549711000  7
  380  5.47650832:32:32:32:32:3  7Bm N  ov 18, 2018 0 1:31:21.618023000  7
  381  5.53962532:32:32:32:32:3  9Bm N  ov 18, 2018 0 1:31:21.681140000  7
  382  5.56736732:32:32:32:32:3  7Bm N  ov 18, 2018 0 1:31:21.708882000  7
  383  5.61874132:32:32:32:32:3  7Bm N  ov 18, 2018 0 1:31:21.760256000  7
  384  5.70008732:32:32:32:32:3  7Bm N  ov 18, 2018 0 1:31:21.841602000  7
  385  5.70344332:32:32:32:32:3  8Bm N  ov 18, 2018 0 1:31:21.844958000  7
  386   5.7440532:32:32:32:32:3  8Bm N  ov 18, 2018 0 1:31:21.885565000  7
  387  5.85974932:32:32:32:32:3  5Bm N  ov 18, 2018 0 1:31:22.001264000  7
  388  5.94215932:32:32:32:32:3  7Bm N  ov 18, 2018 0 1:31:22.083674000  7
  389  5.99921832:32:32:32:32:3  7Bm N  ov 18, 2018 0 1:31:22.140733000  7
  390  6.07343332:32:32:32:32:3  8Bm N  ov 18, 2018 0 1:31:22.214948000  7
  391  6.09219832:32:32:32:32:3  7Bm N  ov 18, 2018 0 1:31:22.233713000  7
  392  6.09766132:32:32:32:32:3  7Bm N  ov 18, 2018 0 1:31:22.239176000  7
  393  6.12371932:32:32:32:32:3  8Bm N  ov 18, 2018 0 1:31:22.265234000  7
  394  6.22260932:32:32:32:32:3  8Bm N  ov 18, 2018 0 1:31:22.364124000  7
  395  6.38290332:32:32:32:32:3  6Bm N  ov 18, 2018 0 1:31:22.524418000  7
  396  6.51554632:32:32:32:32:3  7Bm N  ov 18, 2018 0 1:31:22.657061000  7
  397  6.56179732:32:32:32:32:3  7Bm N  ov 18, 2018 0 1:31:22.703312000  7
  398  6.60942732:32:32:32:32:3  4Bm N  ov 18, 2018 0 1:31:22.750942000  7
  399  6.62820432:32:32:32:32:3  6Bm N  ov 18, 2018 0 1:31:22.769719000  7
  400  6.65043432:32:32:32:32:3  7Bm N  ov 18, 2018 0 1:31:22.791949000  7
  401  6.72624132:32:32:32:32:3  6Bm N  ov 18, 2018 0 1:31:22.867756000  7
  402  7.19838532:32:32:32:32:3  8Bm N  ov 18, 2018 0 1:31:23.339900000  7
  403  7.26364732:32:32:32:32:3  7Bm N  ov 18, 2018 0 1:31:23.405162000  7
  404  7.30183332:32:32:32:32:3  8Bm N  ov 18, 2018 0 1:31:23.443348000  7
  405  7.39992932:32:32:32:32:3  6Bm N  ov 18, 2018 0 1:31:23.541444000  7
  406  7.46153732:32:32:32:32:3  6Bm N  ov 18, 2018 0 1:31:23.603052000  7
  407  7.54086832:32:32:32:32:3  6Bm N  ov 18, 2018 0 1:31:23.682383000  7
  408  7.67494332:32:32:32:32:3  6Bm N  ov 18, 2018 0 1:31:23.816458000  7
  409  7.69171932:32:32:32:32:3  6Bm N  ov 18, 2018 0 1:31:23.833234000  7
  410  7.72475532:32:32:32:32:3  7Bm N  ov 18, 2018 0 1:31:23.866270000  7
  411  7.78415532:32:32:32:32:3  5Bm N  ov 18, 2018 0 1:31:23.925670000  7
  412  7.88484432:32:32:32:32:3  6Bm N  ov 18, 2018 0 1:31:24.026359000  7
  413   8.1761632:32:32:32:32:3  4Bm N  ov 18, 2018 0 1:31:24.317675000  7
  414  8.23033832:32:32:32:32:3  7Bm N  ov 18, 2018 0 1:31:24.371853000  7
  415  8.70988532:32:32:32:32:3  7Bm N  ov 18, 2018 0 1:31:24.851400000  7
  416  8.85646632:32:32:32:32:3  6Bm N  ov 18, 2018 0 1:31:24.997981000  7
  417  8.98489632:32:32:32:32:3  6Bm N  ov 18, 2018 0 1:31:25.126411000  7
  418  9.04897132:32:32:32:32:3  5Bm N  ov 18, 2018 0 1:31:25.190486000  7
  419   9.1001832:32:32:32:32:3  8Bm N  ov 18, 2018 0 1:31:25.241695000  7
  420   9.1441732:32:32:32:32:3  6Bm N  ov 18, 2018 0 1:31:25.285685000  7
  421  9.16362132:32:32:32:32:3  7Bm N  ov 18, 2018 0 1:31:25.305136000  7
  422  9.18782432:32:32:32:32:3  6Bm N  ov 18, 2018 0 1:31:25.329339000  7
  423    9.349132:32:32:32:32:3  7Bm N  ov 18, 2018 0 1:31:25.490615000  7
  424  9.40616432:32:32:32:32:3  6Bm N  ov 18, 2018 0 1:31:25.547679000  7
  425  9.45066732:32:32:32:32:3  7Bm N  ov 18, 2018 0 1:31:25.592182000  7
  426  9.49150832:32:32:32:32:3  6Bm N  ov 18, 2018 0 1:31:25.633023000  7
  427  9.55885332:32:32:32:32:3  7Bm N  ov 18, 2018 0 1:31:25.700368000  7
  428  9.66000932:32:32:32:32:3  6Bm N  ov 18, 2018 0 1:31:25.801524000  7
  429  9.91395532:32:32:32:32:3  7Bm N  ov 18, 2018 0 1:31:26.055470000  7
  430  9.98010432:32:32:32:32:3  8Bm N  ov 18, 2018 0 1:31:26.121619000  7
  431  0.01483532:32:32:32:32:3  7Bm N  ov 18, 2018 0 1:31:26.156350000  7
  432   0.1052232:32:32:32:32:3  7Bm N  ov 18, 2018 0 1:31:26.246735000  7
  433   0.1814432:32:32:32:32:3  8Bm N  ov 18, 2018 0 1:31:26.322955000  7
  434  0.28333232:32:32:32:32:3  6Bm N  ov 18, 2018 0 1:31:26.424847000  7
  435  0.35106332:32:32:32:32:3  7Bm N  ov 18, 2018 0 1:31:26.492578000  7
  436  0.36989532:32:32:32:32:3  7Bm N  ov 18, 2018 0 1:31:26.511410000  7
  437  0.41220332:32:32:32:32:3  7Bm N  ov 18, 2018 0 1:31:26.553718000  7
  438   0.5446632:32:32:32:32:3  8Bm N  ov 18, 2018 0 1:31:26.686175000  7
  439  0.60547832:32:32:32:32:3  5Bm N  ov 18, 2018 0 1:31:26.746993000  7
  440   0.6923932:32:32:32:32:3  7Bm N  ov 18, 2018 0 1:31:26.833905000  7
  441  0.72648632:32:32:32:32:3  6Bm N  ov 18, 2018 0 1:31:26.868001000  7
  442  0.74908832:32:32:32:32:3  8Bm N  ov 18, 2018 0 1:31:26.890603000  7
  443   0.8238332:32:32:32:32:3  6Bm N  ov 18, 2018 0 1:31:26.965345000  7
  444  0.89266732:32:32:32:32:3  8Bm N  ov 18, 2018 0 1:31:27.034182000  7
  445  0.99293132:32:32:32:32:3  8Bm N  ov 18, 2018 0 1:31:27.134446000  7
  446  1.05358632:32:32:32:32:3  7Bm N  ov 18, 2018 0 1:31:27.195101000  7
  447  1.13206832:32:32:32:32:3  8Bm N  ov 18, 2018 0 1:31:27.273583000  7
  448  1.45037532:32:32:32:32:3  7Bm N  ov 18, 2018 0 1:31:27.591890000  7
  449  1.55972432:32:32:32:32:3  8Bm N  ov 18, 2018 0 1:31:27.701239000  7
  450  1.59232532:32:32:32:32:3  6Bm N  ov 18, 2018 0 1:31:27.733840000  7
  451  1.64373832:32:32:32:32:3  7Bm N  ov 18, 2018 0 1:31:27.785253000  7
  452  1.71920232:32:32:32:32:3  7Bm N  ov 18, 2018 0 1:31:27.860717000  7
  453  1.79277232:32:32:32:32:3  6Bm N  ov 18, 2018 0 1:31:27.934287000  7
  454  1.96750532:32:32:32:32:3  8Bm N  ov 18, 2018 0 1:31:28.109020000  7
  455  2.00677632:32:32:32:32:3  7Bm N  ov 18, 2018 0 1:31:28.148291000  7
  456  2.03259632:32:32:32:32:3  7Bm N  ov 18, 2018 0 1:31:28.174111000  7
  457    2.134432:32:32:32:32:3  8Bm N  ov 18, 2018 0 1:31:28.275915000  7
  458  2.25887232:32:32:32:32:3  5Bm N  ov 18, 2018 0 1:31:28.400387000  7
  459  2.29231432:32:32:32:32:3  8Bm N  ov 18, 2018 0 1:31:28.433829000  7
  460  2.34819332:32:32:32:32:3  7Bm N  ov 18, 2018 0 1:31:28.489708000  7
  461  2.40591832:32:32:32:32:3  7Bm N  ov 18, 2018 0 1:31:28.547433000  7
  462  2.43013232:32:32:32:32:3  7Bm N  ov 18, 2018 0 1:31:28.571647000  7
  463  2.51735432:32:32:32:32:3  7Bm N  ov 18, 2018 0 1:31:28.658869000  7
  464  2.72534632:32:32:32:32:3  7Bm N  ov 18, 2018 0 1:31:28.866861000  7
  465  2.89015932:32:32:32:32:3  7Bm N  ov 18, 2018 0 1:31:29.031674000  7
  466  2.96903332:32:32:32:32:3  4Bm N  ov 18, 2018 0 1:31:29.110548000  7
  467  3.00344832:32:32:32:32:3  7Bm N  ov 18, 2018 0 1:31:29.144963000  7
  468  3.03647232:32:32:32:32:3  8Bm N  ov 18, 2018 0 1:31:29.177987000  7
  469  3.05105232:32:32:32:32:3  8Bm N  ov 18, 2018 0 1:31:29.192567000  7
  470  3.09909432:32:32:32:32:3  8Bm N  ov 18, 2018 0 1:31:29.240609000  7
  471  3.14083332:32:32:32:32:3  7Bm N  ov 18, 2018 0 1:31:29.282348000  7
  472  3.16219632:32:32:32:32:3  8Bm N  ov 18, 2018 0 1:31:29.303711000  7
  473  3.17940432:32:32:32:32:3  7Bm N  ov 18, 2018 0 1:31:29.320919000  7
  474  3.21537532:32:32:32:32:3  6Bm N  ov 18, 2018 0 1:31:29.356890000  7
  475  3.29752932:32:32:32:32:3  7Bm N  ov 18, 2018 0 1:31:29.439044000  7
  476  3.33773332:32:32:32:32:3  7Bm N  ov 18, 2018 0 1:31:29.479248000  7
  477  3.54417732:32:32:32:32:3  7Bm N  ov 18, 2018 0 1:31:29.685692000  7
  478  3.63020932:32:32:32:32:3  7Bm N  ov 18, 2018 0 1:31:29.771724000  7
  479  3.79792232:32:32:32:32:3  4Bm N  ov 18, 2018 0 1:31:29.939437000  7
  480  3.85183132:32:32:32:32:3  6Bm N  ov 18, 2018 0 1:31:29.993346000  7
  481  4.01502332:32:32:32:32:3  6Bm N  ov 18, 2018 0 1:31:30.156538000  7
  482  4.08175732:32:32:32:32:3  7Bm N  ov 18, 2018 0 1:31:30.223272000  7
  483  4.24588432:32:32:32:32:3  6Bm N  ov 18, 2018 0 1:31:30.387399000  7
  484  4.27615532:32:32:32:32:3  8Bm N  ov 18, 2018 0 1:31:30.417670000  7
  485  4.30706732:32:32:32:32:3  7Bm N  ov 18, 2018 0 1:31:30.448582000  7
  486  4.32322632:32:32:32:32:3  7Bm N  ov 18, 2018 0 1:31:30.464741000  7
  487  4.33446632:32:32:32:32:3  3Bm N  ov 18, 2018 0 1:31:30.475981000  7
  488  4.40496432:32:32:32:32:3  6Bm N  ov 18, 2018 0 1:31:30.546479000  7
  489  4.41721332:32:32:32:32:3  7Bm N  ov 18, 2018 0 1:31:30.558728000  7
  490  4.44224932:32:32:32:32:3  7Bm N  ov 18, 2018 0 1:31:30.583764000  7
  491  4.54549632:32:32:32:32:3  6Bm N  ov 18, 2018 0 1:31:30.687011000  7
  492  4.56989632:32:32:32:32:3  7Bm N  ov 18, 2018 0 1:31:30.711411000  7
  493  4.64119532:32:32:32:32:3  7Bm N  ov 18, 2018 0 1:31:30.782710000  7
  494  4.70252132:32:32:32:32:3  7Bm N  ov 18, 2018 0 1:31:30.844036000  7
  495  4.72245132:32:32:32:32:3  6Bm N  ov 18, 2018 0 1:31:30.863966000  7
  496  4.79106232:32:32:32:32:3  8Bm N  ov 18, 2018 0 1:31:30.932577000  7
  497   5.0796732:32:32:32:32:3  6Bm N  ov 18, 2018 0 1:31:31.221185000  7
  498  5.25848632:32:32:32:32:3  6Bm N  ov 18, 2018 0 1:31:31.400001000  7
  499   5.3767832:32:32:32:32:3  3Bm N  ov 18, 2018 0 1:31:31.518295000  7
  500  5.42203132:32:32:32:32:3  7Bm N  ov 18, 2018 0 1:31:31.563546000  7
  501   5.5111832:32:32:32:32:3  7Bm N  ov 18, 2018 0 1:31:31.652695000  7
  502  5.57360732:32:32:32:32:3  7Bm N  ov 18, 2018 0 1:31:31.715122000  7
  503   5.5934732:32:32:32:32:3  7Bm N  ov 18, 2018 0 1:31:31.734985000  7
  504  5.79020132:32:32:32:32:3  6Bm N  ov 18, 2018 0 1:31:31.931716000  7
  505  5.85960332:32:32:32:32:3  6Bm N  ov 18, 2018 0 1:31:32.001118000  7
  506   5.8999632:32:32:32:32:3  6Bm N  ov 18, 2018 0 1:31:32.041475000  7
  507  6.07659832:32:32:32:32:3  6Bm N  ov 18, 2018 0 1:31:32.218113000  7
  508  6.10036532:32:32:32:32:3  5Bm N  ov 18, 2018 0 1:31:32.241880000  7
  509  6.19210832:32:32:32:32:3  5Bm N  ov 18, 2018 0 1:31:32.333623000  7
  510   6.2077632:32:32:32:32:3  6Bm N  ov 18, 2018 0 1:31:32.349275000  7
  511  6.32482732:32:32:32:32:3  7Bm N  ov 18, 2018 0 1:31:32.466342000  7
  512  6.71849432:32:32:32:32:3  7Bm N  ov 18, 2018 0 1:31:32.860009000  7
  513  6.89663732:32:32:32:32:3  6Bm N  ov 18, 2018 0 1:31:33.038152000  7
  514  6.93662332:32:32:32:32:3  7Bm N  ov 18, 2018 0 1:31:33.078138000  7
  515  6.95122632:32:32:32:32:3  6Bm N  ov 18, 2018 0 1:31:33.092741000  7
  516  6.99776232:32:32:32:32:3  5Bm N  ov 18, 2018 0 1:31:33.139277000  7
  517  7.05969132:32:32:32:32:3  7Bm N  ov 18, 2018 0 1:31:33.201206000  7
  518  7.09109732:32:32:32:32:3  5Bm N  ov 18, 2018 0 1:31:33.232612000  7
  519  7.15212632:32:32:32:32:3  5Bm N  ov 18, 2018 0 1:31:33.293641000  7
  520  7.29588732:32:32:32:32:3  7Bm N  ov 18, 2018 0 1:31:33.437402000  7
  521  7.33310932:32:32:32:32:3  6Bm N  ov 18, 2018 0 1:31:33.474624000  7
  522  7.37107432:32:32:32:32:3  6Bm N  ov 18, 2018 0 1:31:33.512589000  7
  523  7.56496232:32:32:32:32:3  5Bm N  ov 18, 2018 0 1:31:33.706477000  7
  524  7.66483432:32:32:32:32:3  6Bm N  ov 18, 2018 0 1:31:33.806349000  7
  525  7.69379532:32:32:32:32:3  6Bm N  ov 18, 2018 0 1:31:33.835310000  7
  526  7.92922432:32:32:32:32:3  6Bm N  ov 18, 2018 0 1:31:34.070739000  7
  527  8.01942732:32:32:32:32:3  7Bm N  ov 18, 2018 0 1:31:34.160942000  7
  528  8.06164532:32:32:32:32:3  6Bm N  ov 18, 2018 0 1:31:34.203160000  7
  529  8.14005832:32:32:32:32:3  6Bm N  ov 18, 2018 0 1:31:34.281573000  7
  530  8.22976432:32:32:32:32:3  5Bm N  ov 18, 2018 0 1:31:34.371279000  7
  531  8.25872132:32:32:32:32:3  6Bm N  ov 18, 2018 0 1:31:34.400236000  7
  532  8.33716632:32:32:32:32:3  9Bm N  ov 18, 2018 0 1:31:34.478681000  7
  533  8.35828832:32:32:32:32:3  8Bm N  ov 18, 2018 0 1:31:34.499803000  7
  534  8.37686932:32:32:32:32:3  6Bm N  ov 18, 2018 0 1:31:34.518384000  7
  535  8.46418832:32:32:32:32:3  8Bm N  ov 18, 2018 0 1:31:34.605703000  7
  536  8.56906932:32:32:32:32:3  6Bm N  ov 18, 2018 0 1:31:34.710584000  7
  537  8.59065132:32:32:32:32:3  7Bm N  ov 18, 2018 0 1:31:34.732166000  7
  538  8.67714132:32:32:32:32:3  8Bm N  ov 18, 2018 0 1:31:34.818656000  7
  539  8.75385932:32:32:32:32:3  5Bm N  ov 18, 2018 0 1:31:34.895374000  7
  540  8.93029632:32:32:32:32:3  6Bm N  ov 18, 2018 0 1:31:35.071811000  7
  541  8.99182832:32:32:32:32:3  8Bm N  ov 18, 2018 0 1:31:35.133343000  7
  542  9.00966132:32:32:32:32:3  8Bm N  ov 18, 2018 0 1:31:35.151176000  7
  543  9.05009932:32:32:32:32:3  7Bm N  ov 18, 2018 0 1:31:35.191614000  7
  544  9.09125732:32:32:32:32:3  6Bm N  ov 18, 2018 0 1:31:35.232772000  7
  545  9.11012432:32:32:32:32:3  7Bm N  ov 18, 2018 0 1:31:35.251639000  7
  546  9.17830432:32:32:32:32:3  7Bm N  ov 18, 2018 0 1:31:35.319819000  7
  547  9.23893732:32:32:32:32:3  8Bm N  ov 18, 2018 0 1:31:35.380452000  7
  548  9.39996232:32:32:32:32:3  2Bm N  ov 18, 2018 0 1:31:35.541477000  7
  549  9.42553132:32:32:32:32:3  7Bm N  ov 18, 2018 0 1:31:35.567046000  7
  550  9.46350732:32:32:32:32:3  9Bm N  ov 18, 2018 0 1:31:35.605022000  7
  551  9.49188332:32:32:32:32:3  8Bm N  ov 18, 2018 0 1:31:35.633398000  7
  552  9.50395632:32:32:32:32:3  6Bm N  ov 18, 2018 0 1:31:35.645471000  7
  553  9.51640232:32:32:32:32:3  7Bm N  ov 18, 2018 0 1:31:35.657917000  7
  554  9.51996132:32:32:32:32:3  4Bm N  ov 18, 2018 0 1:31:35.661476000  7
  555   9.5675532:32:32:32:32:3  7Bm N  ov 18, 2018 0 1:31:35.709065000  7
  556  9.64057332:32:32:32:32:3  7Bm N  ov 18, 2018 0 1:31:35.782088000  7
  557  9.72341832:32:32:32:32:3  6Bm N  ov 18, 2018 0 1:31:35.864933000  7
  558  9.73909832:32:32:32:32:3  7Bm N  ov 18, 2018 0 1:31:35.880613000  7
  559  9.80308832:32:32:32:32:3  6Bm N  ov 18, 2018 0 1:31:35.944603000  7
  560  9.99484732:32:32:32:32:3  8Bm N  ov 18, 2018 0 1:31:36.136362000  7
  561  0.05958932:32:32:32:32:3  8Bm N  ov 18, 2018 0 1:31:36.201104000  7
  562  0.31186932:32:32:32:32:3  7Bm N  ov 18, 2018 0 1:31:36.453384000  7
  563  0.41633132:32:32:32:32:3  4Bm N  ov 18, 2018 0 1:31:36.557846000  7
  564  0.43512532:32:32:32:32:3  7Bm N  ov 18, 2018 0 1:31:36.576640000  7
  565  0.47231232:32:32:32:32:3  7Bm N  ov 18, 2018 0 1:31:36.613827000  7
  566  0.51825532:32:32:32:32:3  7Bm N  ov 18, 2018 0 1:31:36.659770000  7
  567  0.60921332:32:32:32:32:3  7Bm N  ov 18, 2018 0 1:31:36.750728000  7
  568  0.65062632:32:32:32:32:3  8Bm N  ov 18, 2018 0 1:31:36.792141000  7
  569  0.67250932:32:32:32:32:3  7Bm N  ov 18, 2018 0 1:31:36.814024000  7
  570  0.69099732:32:32:32:32:3  7Bm N  ov 18, 2018 0 1:31:36.832512000  7
  571  0.71450532:32:32:32:32:3  7Bm N  ov 18, 2018 0 1:31:36.856020000  7
  572  0.83769932:32:32:32:32:3  7Bm N  ov 18, 2018 0 1:31:36.979214000  7
  573  0.95270532:32:32:32:32:3  8Bm N  ov 18, 2018 0 1:31:37.094220000  7
  574  0.98891432:32:32:32:32:3  8Bm N  ov 18, 2018 0 1:31:37.130429000  7
  575  1.15633732:32:32:32:32:3  7Bm N  ov 18, 2018 0 1:31:37.297852000  7
  576  1.19272432:32:32:32:32:3  7Bm N  ov 18, 2018 0 1:31:37.334239000  7
  577  1.20616732:32:32:32:32:3  9Bm N  ov 18, 2018 0 1:31:37.347682000  7
  578  1.41020832:32:32:32:32:3  7Bm N  ov 18, 2018 0 1:31:37.551723000  7
  579  1.43928732:32:32:32:32:3  3Bm N  ov 18, 2018 0 1:31:37.580802000  7
  580   1.5569332:32:32:32:32:3  7Bm N  ov 18, 2018 0 1:31:37.698445000  7
  581  1.62048632:32:32:32:32:3  3Bm N  ov 18, 2018 0 1:31:37.762001000  7
  582  1.81790132:32:32:32:32:3  7Bm N  ov 18, 2018 0 1:31:37.959416000  7
  583  1.88495132:32:32:32:32:3  7Bm N  ov 18, 2018 0 1:31:38.026466000  7
  584  1.90801632:32:32:32:32:3  6Bm N  ov 18, 2018 0 1:31:38.049531000  7
  585  2.06691832:32:32:32:32:3  5Bm N  ov 18, 2018 0 1:31:38.208433000  7
  586  2.11854532:32:32:32:32:3  7Bm N  ov 18, 2018 0 1:31:38.260060000  7
  587  2.22371432:32:32:32:32:3  8Bm N  ov 18, 2018 0 1:31:38.365229000  7
  588  2.23840932:32:32:32:32:3  8Bm N  ov 18, 2018 0 1:31:38.379924000  7
  589  2.31443932:32:32:32:32:3  6Bm N  ov 18, 2018 0 1:31:38.455954000  7
  590  2.36347732:32:32:32:32:3  9Bm N  ov 18, 2018 0 1:31:38.504992000  7
  591  2.40403632:32:32:32:32:3  7Bm N  ov 18, 2018 0 1:31:38.545551000  7
  592  2.42121432:32:32:32:32:3  6Bm N  ov 18, 2018 0 1:31:38.562729000  7
  593  2.50896132:32:32:32:32:3  4Bm N  ov 18, 2018 0 1:31:38.650476000  7
  594  2.59938732:32:32:32:32:3  7Bm N  ov 18, 2018 0 1:31:38.740902000  7
  595  2.66114332:32:32:32:32:3  7Bm N  ov 18, 2018 0 1:31:38.802658000  7
  596  2.76785932:32:32:32:32:3  7Bm N  ov 18, 2018 0 1:31:38.909374000  7
  597  2.85450132:32:32:32:32:3  7Bm N  ov 18, 2018 0 1:31:38.996016000  7
  598  2.88653532:32:32:32:32:3 10dBm   Nov 18,   201801:31:39.028050000 7
  599  2.96591332:32:32:32:32:3  7Bm N  ov 18, 2018 0 1:31:39.107428000  7
  600  3.07601332:32:32:32:32:3  7Bm N  ov 18, 2018 0 1:31:39.217528000  7
  601  3.13994732:32:32:32:32:3  8Bm N  ov 18, 2018 0 1:31:39.281462000  7
  602  3.25760132:32:32:32:32:3  7Bm N  ov 18, 2018 0 1:31:39.399116000  7
  603  3.28205632:32:32:32:32:3  7Bm N  ov 18, 2018 0 1:31:39.423571000  7
  604  3.38618732:32:32:32:32:3  9Bm N  ov 18, 2018 0 1:31:39.527702000  7
  605  3.41027732:32:32:32:32:3 10dBm   Nov 18,   201801:31:39.551792000 7
  606  3.63449232:32:32:32:32:3  9Bm N  ov 18, 2018 0 1:31:39.776007000  7
  607  3.65313132:32:32:32:32:3  8Bm N  ov 18, 2018 0 1:31:39.794646000  7
  608  3.73535832:32:32:32:32:3  8Bm N  ov 18, 2018 0 1:31:39.876873000  7
  609  4.08654632:32:32:32:32:3  8Bm N  ov 18, 2018 0 1:31:40.228061000  7
  610  4.16252432:32:32:32:32:3  8Bm N  ov 18, 2018 0 1:31:40.304039000  7
  611  4.21829932:32:32:32:32:3  8Bm N  ov 18, 2018 0 1:31:40.359814000  7
  612  4.28313432:32:32:32:32:3  9Bm N  ov 18, 2018 0 1:31:40.424649000  7
  613  4.40885232:32:32:32:32:3  6Bm N  ov 18, 2018 0 1:31:40.550367000  7
  614   4.4219732:32:32:32:32:3  8Bm N  ov 18, 2018 0 1:31:40.563485000  7
  615  4.47513532:32:32:32:32:3  8Bm N  ov 18, 2018 0 1:31:40.616650000  7
  616  4.60723932:32:32:32:32:3  4Bm N  ov 18, 2018 0 1:31:40.748754000  7
  617  4.63454332:32:32:32:32:3  6Bm N  ov 18, 2018 0 1:31:40.776058000  7
  618   4.6570232:32:32:32:32:3  6Bm N  ov 18, 2018 0 1:31:40.798535000  7
  619  4.83389132:32:32:32:32:3  8Bm N  ov 18, 2018 0 1:31:40.975406000  7
  620  4.90620132:32:32:32:32:3  8Bm N  ov 18, 2018 0 1:31:41.047716000  7
  621   4.9232232:32:32:32:32:3  7Bm N  ov 18, 2018 0 1:31:41.064735000  7
  622  4.95205432:32:32:32:32:3  5Bm N  ov 18, 2018 0 1:31:41.093569000  7
  623  4.98222132:32:32:32:32:3  7Bm N  ov 18, 2018 0 1:31:41.123736000  7
  624  5.00074332:32:32:32:32:3  6Bm N  ov 18, 2018 0 1:31:41.142258000  7
  625  5.04965232:32:32:32:32:3  7Bm N  ov 18, 2018 0 1:31:41.191167000  7
  626  5.06667532:32:32:32:32:3  6Bm N  ov 18, 2018 0 1:31:41.208190000  7
  627  5.08556332:32:32:32:32:3  7Bm N  ov 18, 2018 0 1:31:41.227078000  7
  628  5.13560232:32:32:32:32:3  6Bm N  ov 18, 2018 0 1:31:41.277117000  7
  629  5.16774732:32:32:32:32:3  6Bm N  ov 18, 2018 0 1:31:41.309262000  7
  630  5.19256632:32:32:32:32:3  6Bm N  ov 18, 2018 0 1:31:41.334081000  7
  631  5.21102632:32:32:32:32:3  8Bm N  ov 18, 2018 0 1:31:41.352541000  7
  632  5.28951132:32:32:32:32:3  4Bm N  ov 18, 2018 0 1:31:41.431026000  7
  633  5.36422332:32:32:32:32:3  8Bm N  ov 18, 2018 0 1:31:41.505738000  7
  634   5.4203532:32:32:32:32:3  7Bm N  ov 18, 2018 0 1:31:41.561865000  7
  635  5.44119832:32:32:32:32:3  5Bm N  ov 18, 2018 0 1:31:41.582713000  7
  636  5.51068632:32:32:32:32:3  7Bm N  ov 18, 2018 0 1:31:41.652201000  7
  637  5.54952732:32:32:32:32:3  7Bm N  ov 18, 2018 0 1:31:41.691042000  7
  638  5.60856532:32:32:32:32:3  7Bm N  ov 18, 2018 0 1:31:41.750080000  7
  639  5.68876232:32:32:32:32:3  5Bm N  ov 18, 2018 0 1:31:41.830277000  7
  640  5.92058132:32:32:32:32:3  7Bm N  ov 18, 2018 0 1:31:42.062096000  7
  641  6.03221132:32:32:32:32:3  7Bm N  ov 18, 2018 0 1:31:42.173726000  7
  642  6.35459632:32:32:32:32:3  5Bm N  ov 18, 2018 0 1:31:42.496111000  7
  643  6.42607132:32:32:32:32:3  6Bm N  ov 18, 2018 0 1:31:42.567586000  7
  644  6.46010832:32:32:32:32:3  7Bm N  ov 18, 2018 0 1:31:42.601623000  7
  645   6.5225332:32:32:32:32:3  5Bm N  ov 18, 2018 0 1:31:42.664045000  7
  646  6.63757232:32:32:32:32:3  5Bm N  ov 18, 2018 0 1:31:42.779087000  7
  647  6.69225732:32:32:32:32:3  6Bm N  ov 18, 2018 0 1:31:42.833772000  7
  648  6.73076832:32:32:32:32:3  8Bm N  ov 18, 2018 0 1:31:42.872283000  7
  649  6.75201932:32:32:32:32:3  8Bm N  ov 18, 2018 0 1:31:42.893534000  7
  650  6.77483832:32:32:32:32:3  7Bm N  ov 18, 2018 0 1:31:42.916353000  7
  651  6.79413932:32:32:32:32:3  6Bm N  ov 18, 2018 0 1:31:42.935654000  7
  652  6.89488232:32:32:32:32:3  5Bm N  ov 18, 2018 0 1:31:43.036397000  7
  653  6.94523332:32:32:32:32:3  5Bm N  ov 18, 2018 0 1:31:43.086748000  7
  654  6.98394832:32:32:32:32:3  7Bm N  ov 18, 2018 0 1:31:43.125463000  7
  655   7.0077332:32:32:32:32:3  7Bm N  ov 18, 2018 0 1:31:43.149245000  7
  656  7.02522832:32:32:32:32:3  7Bm N  ov 18, 2018 0 1:31:43.166743000  7
  657  7.14206532:32:32:32:32:3  7Bm N  ov 18, 2018 0 1:31:43.283580000  7
  658  7.26522232:32:32:32:32:3  6Bm N  ov 18, 2018 0 1:31:43.406737000  7
  659  7.37665932:32:32:32:32:3  5Bm N  ov 18, 2018 0 1:31:43.518174000  7
  660  7.47242732:32:32:32:32:3  6Bm N  ov 18, 2018 0 1:31:43.613942000  7
  661  7.57218432:32:32:32:32:3  7Bm N  ov 18, 2018 0 1:31:43.713699000  7
  662  7.63019932:32:32:32:32:3  7Bm N  ov 18, 2018 0 1:31:43.771714000  7
  663  7.75783332:32:32:32:32:3  7Bm N  ov 18, 2018 0 1:31:43.899348000  7
  664  7.80237532:32:32:32:32:3  5Bm N  ov 18, 2018 0 1:31:43.943890000  7
  665  7.80835132:32:32:32:32:3  6Bm N  ov 18, 2018 0 1:31:43.949866000  7
  666  7.93520332:32:32:32:32:3  5Bm N  ov 18, 2018 0 1:31:44.076718000  7
  667  8.06974832:32:32:32:32:3  4Bm N  ov 18, 2018 0 1:31:44.211263000  7
  668  8.29626632:32:32:32:32:3  6Bm N  ov 18, 2018 0 1:31:44.437781000  7
  669  8.34870532:32:32:32:32:3  8Bm N  ov 18, 2018 0 1:31:44.490220000  7
  670  8.41997832:32:32:32:32:3  6Bm N  ov 18, 2018 0 1:31:44.561493000  7
  671  8.47337432:32:32:32:32:3  6Bm N  ov 18, 2018 0 1:31:44.614889000  7
  672  8.50629632:32:32:32:32:3  7Bm N  ov 18, 2018 0 1:31:44.647811000  7
  673  8.57289432:32:32:32:32:3  7Bm N  ov 18, 2018 0 1:31:44.714409000  7
  674  8.62562332:32:32:32:32:3  8Bm N  ov 18, 2018 0 1:31:44.767138000  7
  675  8.66573832:32:32:32:32:3  6Bm N  ov 18, 2018 0 1:31:44.807253000  7
  676  8.70702432:32:32:32:32:3  6Bm N  ov 18, 2018 0 1:31:44.848539000  7
  677  8.71150732:32:32:32:32:3  6Bm N  ov 18, 2018 0 1:31:44.853022000  7
  678  8.73677232:32:32:32:32:3  5Bm N  ov 18, 2018 0 1:31:44.878287000  7
  679  8.75866432:32:32:32:32:3  4Bm N  ov 18, 2018 0 1:31:44.900179000  7
  680  8.77502232:32:32:32:32:3  7Bm N  ov 18, 2018 0 1:31:44.916537000  7
  681  8.84532332:32:32:32:32:3  7Bm N  ov 18, 2018 0 1:31:44.986838000  7
  682  8.85858232:32:32:32:32:3  6Bm N  ov 18, 2018 0 1:31:45.000097000  7
  683  8.88046432:32:32:32:32:3  7Bm N  ov 18, 2018 0 1:31:45.021979000  7
  684  9.03416132:32:32:32:32:3  6Bm N  ov 18, 2018 0 1:31:45.175676000  7
  685  9.15219332:32:32:32:32:3  7Bm N  ov 18, 2018 0 1:31:45.293708000  7
  686  9.17806232:32:32:32:32:3  6Bm N  ov 18, 2018 0 1:31:45.319577000  7
  687  9.21349532:32:32:32:32:3  6Bm N  ov 18, 2018 0 1:31:45.355010000  7
  688  9.58465232:32:32:32:32:3  5Bm N  ov 18, 2018 0 1:31:45.726167000  7
  689  9.61420532:32:32:32:32:3  6Bm N  ov 18, 2018 0 1:31:45.755720000  7
  690  9.70388832:32:32:32:32:3  5Bm N  ov 18, 2018 0 1:31:45.845403000  7
  691  9.76478732:32:32:32:32:3  7Bm N  ov 18, 2018 0 1:31:45.906302000  7
  692  9.81876532:32:32:32:32:3  6Bm N  ov 18, 2018 0 1:31:45.960280000  7
  693   9.8792232:32:32:32:32:3  6Bm N  ov 18, 2018 0 1:31:46.020735000  7
  694  9.89632432:32:32:32:32:3  8Bm N  ov 18, 2018 0 1:31:46.037839000  7
  695  9.92018132:32:32:32:32:3  5Bm N  ov 18, 2018 0 1:31:46.061696000  7
  696  9.93608532:32:32:32:32:3  7Bm N  ov 18, 2018 0 1:31:46.077600000  7
  697  0.11114532:32:32:32:32:3  6Bm N  ov 18, 2018 0 1:31:46.252660000  7
  698  0.13158532:32:32:32:32:3  8Bm N  ov 18, 2018 0 1:31:46.273100000  7
  699  0.16880132:32:32:32:32:3  7Bm N  ov 18, 2018 0 1:31:46.310316000  7
  700  0.19211632:32:32:32:32:3  8Bm N  ov 18, 2018 0 1:31:46.333631000  7
  701   0.3145232:32:32:32:32:3  7Bm N  ov 18, 2018 0 1:31:46.456035000  7
  702   0.3604432:32:32:32:32:3  6Bm N  ov 18, 2018 0 1:31:46.501955000  7
  703   0.3834732:32:32:32:32:3  6Bm N  ov 18, 2018 0 1:31:46.524985000  7
  704  0.54329832:32:32:32:32:3  6Bm N  ov 18, 2018 0 1:31:46.684813000  7
  705  0.57019632:32:32:32:32:3  6Bm N  ov 18, 2018 0 1:31:46.711711000  7
  706  0.66389732:32:32:32:32:3  6Bm N  ov 18, 2018 0 1:31:46.805412000  7
  707  0.68058232:32:32:32:32:3  6Bm N  ov 18, 2018 0 1:31:46.822097000  7
  708  0.69963432:32:32:32:32:3  6Bm N  ov 18, 2018 0 1:31:46.841149000  7
  709  0.83056132:32:32:32:32:3  7Bm N  ov 18, 2018 0 1:31:46.972076000  7
  710  0.84717732:32:32:32:32:3  3Bm N  ov 18, 2018 0 1:31:46.988692000  7
  711  0.88810832:32:32:32:32:3  4Bm N  ov 18, 2018 0 1:31:47.029623000  7
  712  0.92501332:32:32:32:32:3  6Bm N  ov 18, 2018 0 1:31:47.066528000  7
  713  1.01037832:32:32:32:32:3  6Bm N  ov 18, 2018 0 1:31:47.151893000  7
  714  1.05216132:32:32:32:32:3  7Bm N  ov 18, 2018 0 1:31:47.193676000  7
  715  1.19344632:32:32:32:32:3  6Bm N  ov 18, 2018 0 1:31:47.334961000  7
  716  1.21467732:32:32:32:32:3  5Bm N  ov 18, 2018 0 1:31:47.356192000  7
  717   1.3594932:32:32:32:32:3  6Bm N  ov 18, 2018 0 1:31:47.501005000  7
  718  1.44583832:32:32:32:32:3  7Bm N  ov 18, 2018 0 1:31:47.587353000  7
  719  1.48856532:32:32:32:32:3  7Bm N  ov 18, 2018 0 1:31:47.630080000  7
  720  1.58035732:32:32:32:32:3  7Bm N  ov 18, 2018 0 1:31:47.721872000  7
  721  1.92757132:32:32:32:32:3  7Bm N  ov 18, 2018 0 1:31:48.069086000  7
  722  2.03618932:32:32:32:32:3  6Bm N  ov 18, 2018 0 1:31:48.177704000  7
  723  2.05795532:32:32:32:32:3  8Bm N  ov 18, 2018 0 1:31:48.199470000  7
  724  2.10179632:32:32:32:32:3  7Bm N  ov 18, 2018 0 1:31:48.243311000  7
  725  2.14530532:32:32:32:32:3  8Bm N  ov 18, 2018 0 1:31:48.286820000  7
  726   2.1936332:32:32:32:32:3  4Bm N  ov 18, 2018 0 1:31:48.335145000  7
  727  2.21139732:32:32:32:32:3  9Bm N  ov 18, 2018 0 1:31:48.352912000  7
  728    2.231932:32:32:32:32:3  8Bm N  ov 18, 2018 0 1:31:48.373415000  7
  729  2.40548732:32:32:32:32:3  8Bm N  ov 18, 2018 0 1:31:48.547002000  7
  730  2.46081832:32:32:32:32:3  8Bm N  ov 18, 2018 0 1:31:48.602333000  7
  731  2.48465732:32:32:32:32:3  7Bm N  ov 18, 2018 0 1:31:48.626172000  7
  732  2.55540932:32:32:32:32:3  8Bm N  ov 18, 2018 0 1:31:48.696924000  7
  733  2.75777332:32:32:32:32:3  7Bm N  ov 18, 2018 0 1:31:48.899288000  7
  734  2.79220832:32:32:32:32:3  7Bm N  ov 18, 2018 0 1:31:48.933723000  7
  735  2.81087732:32:32:32:32:3  6Bm N  ov 18, 2018 0 1:31:48.952392000  7
  736  2.85275732:32:32:32:32:3  7Bm N  ov 18, 2018 0 1:31:48.994272000  7
  737  2.92433832:32:32:32:32:3  8Bm N  ov 18, 2018 0 1:31:49.065853000  7
  738  3.33061632:32:32:32:32:3  6Bm N  ov 18, 2018 0 1:31:49.472131000  7
  739  3.41993632:32:32:32:32:3  6Bm N  ov 18, 2018 0 1:31:49.561451000  7
  740  3.50845832:32:32:32:32:3  6Bm N  ov 18, 2018 0 1:31:49.649973000  7
  741  3.54032932:32:32:32:32:3  5Bm N  ov 18, 2018 0 1:31:49.681844000  7
  742  3.54384832:32:32:32:32:3  7Bm N  ov 18, 2018 0 1:31:49.685363000  7
  743  3.68913932:32:32:32:32:3  8Bm N  ov 18, 2018 0 1:31:49.830654000  7
  744  3.72964132:32:32:32:32:3  7Bm N  ov 18, 2018 0 1:31:49.871156000  7
  745  3.82714432:32:32:32:32:3  8Bm N  ov 18, 2018 0 1:31:49.968659000  7
  746  3.85857732:32:32:32:32:3  7Bm N  ov 18, 2018 0 1:31:50.000092000  7
  747  3.88726832:32:32:32:32:3  8Bm N  ov 18, 2018 0 1:31:50.028783000  7
  748  3.92229732:32:32:32:32:3  8Bm N  ov 18, 2018 0 1:31:50.063812000  7
  749  3.99560232:32:32:32:32:3  4Bm N  ov 18, 2018 0 1:31:50.137117000  7
  750  4.11677132:32:32:32:32:3  8Bm N  ov 18, 2018 0 1:31:50.258286000  7
  751  4.18884532:32:32:32:32:3  6Bm N  ov 18, 2018 0 1:31:50.330360000  7
  752  4.27622732:32:32:32:32:3  6Bm N  ov 18, 2018 0 1:31:50.417742000  7
  753  4.35691832:32:32:32:32:3  6Bm N  ov 18, 2018 0 1:31:50.498433000  7
  754  4.48719732:32:32:32:32:3  5Bm N  ov 18, 2018 0 1:31:50.628712000  7
  755   4.5611232:32:32:32:32:3  7Bm N  ov 18, 2018 0 1:31:50.702635000  7
  756  4.64601532:32:32:32:32:3  6Bm N  ov 18, 2018 0 1:31:50.787530000  7
  757  4.72132432:32:32:32:32:3  8Bm N  ov 18, 2018 0 1:31:50.862839000  7
  758  4.78057932:32:32:32:32:3  8Bm N  ov 18, 2018 0 1:31:50.922094000  7
  759    4.807432:32:32:32:32:3  8Bm N  ov 18, 2018 0 1:31:50.948915000  7
  760  4.82251232:32:32:32:32:3  7Bm N  ov 18, 2018 0 1:31:50.964027000  7
  761  4.84140432:32:32:32:32:3  8Bm N  ov 18, 2018 0 1:31:50.982919000  7
  762  4.89516432:32:32:32:32:3  5Bm N  ov 18, 2018 0 1:31:51.036679000  7
  763  5.06222732:32:32:32:32:3  7Bm N  ov 18, 2018 0 1:31:51.203742000  7
  764  5.10052932:32:32:32:32:3  8Bm N  ov 18, 2018 0 1:31:51.242044000  7
  765  5.33296732:32:32:32:32:3  8Bm N  ov 18, 2018 0 1:31:51.474482000  7
  766  5.38631932:32:32:32:32:3  7Bm N  ov 18, 2018 0 1:31:51.527834000  7
  767  5.42354132:32:32:32:32:3  7Bm N  ov 18, 2018 0 1:31:51.565056000  7
  768  5.45472232:32:32:32:32:3  7Bm N  ov 18, 2018 0 1:31:51.596237000  7
  769  5.47692932:32:32:32:32:3  8Bm N  ov 18, 2018 0 1:31:51.618444000  7
  770  5.50252332:32:32:32:32:3  5Bm N  ov 18, 2018 0 1:31:51.644038000  7
  771  5.57122932:32:32:32:32:3  5Bm N  ov 18, 2018 0 1:31:51.712744000  7
  772  5.80413832:32:32:32:32:3  6Bm N  ov 18, 2018 0 1:31:51.945653000  7
  773  5.88917532:32:32:32:32:3  7Bm N  ov 18, 2018 0 1:31:52.030690000  7
  774  6.09879632:32:32:32:32:3  8Bm N  ov 18, 2018 0 1:31:52.240311000  7
  775  6.23616832:32:32:32:32:3  6Bm N  ov 18, 2018 0 1:31:52.377683000  7
  776  6.27639132:32:32:32:32:3  7Bm N  ov 18, 2018 0 1:31:52.417906000  7
  777   6.3241732:32:32:32:32:3  5Bm N  ov 18, 2018 0 1:31:52.465685000  7
  778  6.52109632:32:32:32:32:3  8Bm N  ov 18, 2018 0 1:31:52.662611000  7
  779  6.53320932:32:32:32:32:3  7Bm N  ov 18, 2018 0 1:31:52.674724000  7
  780  6.59554732:32:32:32:32:3  7Bm N  ov 18, 2018 0 1:31:52.737062000  7
  781  6.63573432:32:32:32:32:3  5Bm N  ov 18, 2018 0 1:31:52.777249000  7
  782  6.71166532:32:32:32:32:3  6Bm N  ov 18, 2018 0 1:31:52.853180000  7
  783  6.74407532:32:32:32:32:3  6Bm N  ov 18, 2018 0 1:31:52.885590000  7
  784  6.76394132:32:32:32:32:3  4Bm N  ov 18, 2018 0 1:31:52.905456000  7
  785  6.86785832:32:32:32:32:3  6Bm N  ov 18, 2018 0 1:31:53.009373000  7
  786  6.88843132:32:32:32:32:3  6Bm N  ov 18, 2018 0 1:31:53.029946000  7
  787  6.93937632:32:32:32:32:3  5Bm N  ov 18, 2018 0 1:31:53.080891000  7
  788  6.95139532:32:32:32:32:3  8Bm N  ov 18, 2018 0 1:31:53.092910000  7
  789  6.95780132:32:32:32:32:3  7Bm N  ov 18, 2018 0 1:31:53.099316000  7
  790  6.97664732:32:32:32:32:3  7Bm N  ov 18, 2018 0 1:31:53.118162000  7
  791  7.07841232:32:32:32:32:3  8Bm N  ov 18, 2018 0 1:31:53.219927000  7
  792    7.137732:32:32:32:32:3  6Bm N  ov 18, 2018 0 1:31:53.279215000  7
  793  7.16364732:32:32:32:32:3  7Bm N  ov 18, 2018 0 1:31:53.305162000  7
  794  7.18145732:32:32:32:32:3  8Bm N  ov 18, 2018 0 1:31:53.322972000  7
  795  7.39084232:32:32:32:32:3  8Bm N  ov 18, 2018 0 1:31:53.532357000  7
  796  7.46502932:32:32:32:32:3  9Bm N  ov 18, 2018 0 1:31:53.606544000  7
  797  7.54576732:32:32:32:32:3  9Bm N  ov 18, 2018 0 1:31:53.687282000  7
  798  7.59985532:32:32:32:32:3  8Bm N  ov 18, 2018 0 1:31:53.741370000  7
  799  7.71009932:32:32:32:32:3  8Bm N  ov 18, 2018 0 1:31:53.851614000  7
  800  7.79640832:32:32:32:32:3  8Bm N  ov 18, 2018 0 1:31:53.937923000  7
  801  7.83705932:32:32:32:32:3  8Bm N  ov 18, 2018 0 1:31:53.978574000  7
  802  7.89167132:32:32:32:32:3  9Bm N  ov 18, 2018 0 1:31:54.033186000  7
  803  7.94928732:32:32:32:32:3  5Bm N  ov 18, 2018 0 1:31:54.090802000  7
  804  8.11610332:32:32:32:32:3  8Bm N  ov 18, 2018 0 1:31:54.257618000  7
  805  8.54676132:32:32:32:32:3  9Bm N  ov 18, 2018 0 1:31:54.688276000  7
  806  8.60367832:32:32:32:32:3  8Bm N  ov 18, 2018 0 1:31:54.745193000  7
  807  8.65391332:32:32:32:32:3  9Bm N  ov 18, 2018 0 1:31:54.795428000  7
  808  8.66968632:32:32:32:32:3  7Bm N  ov 18, 2018 0 1:31:54.811201000  7
  809   8.8640132:32:32:32:32:3  8Bm N  ov 18, 2018 0 1:31:55.005525000  7
  810  8.87981932:32:32:32:32:3  8Bm N  ov 18, 2018 0 1:31:55.021334000  7
  811  8.90988732:32:32:32:32:3  6Bm N  ov 18, 2018 0 1:31:55.051402000  7
  812  8.95410332:32:32:32:32:3  7Bm N  ov 18, 2018 0 1:31:55.095618000  7
  813  9.01741932:32:32:32:32:3  6Bm N  ov 18, 2018 0 1:31:55.158934000  7
  814  9.04624332:32:32:32:32:3  9Bm N  ov 18, 2018 0 1:31:55.187758000  7
  815  9.07458432:32:32:32:32:3  8Bm N  ov 18, 2018 0 1:31:55.216099000  7
  816  9.13627132:32:32:32:32:3  8Bm N  ov 18, 2018 0 1:31:55.277786000  7
  817  9.19029332:32:32:32:32:3  9Bm N  ov 18, 2018 0 1:31:55.331808000  7
  818  9.35422732:32:32:32:32:3  9Bm N  ov 18, 2018 0 1:31:55.495742000  7
  819  9.37664332:32:32:32:32:3  8Bm N  ov 18, 2018 0 1:31:55.518158000  7
  820  9.43437132:32:32:32:32:3  9Bm N  ov 18, 2018 0 1:31:55.575886000  7
  821  9.64580632:32:32:32:32:3  8Bm N  ov 18, 2018 0 1:31:55.787321000  7
  822  9.73940732:32:32:32:32:3  8Bm N  ov 18, 2018 0 1:31:55.880922000  7
  823  9.80742632:32:32:32:32:3  7Bm N  ov 18, 2018 0 1:31:55.948941000  7
  824  9.98262832:32:32:32:32:3  8Bm N  ov 18, 2018 0 1:31:56.124143000  7
  825 10.03058132:32:32:32:32:3  6Bm N  ov 18, 2018 0 1:31:56.172096000  7
  826 10.04554532:32:32:32:32:3  7Bm N  ov 18, 2018 0 1:31:56.187060000  7
  827 10.09509632:32:32:32:32:3  7Bm N  ov 18, 2018 0 1:31:56.236611000  7
  828 10.11331432:32:32:32:32:3  8Bm N  ov 18, 2018 0 1:31:56.254829000  7
  829 10.12719132:32:32:32:32:3  6Bm N  ov 18, 2018 0 1:31:56.268706000  7
  830 10.18282232:32:32:32:32:3  6Bm N  ov 18, 2018 0 1:31:56.324337000  7
  831 10.27555932:32:32:32:32:3  7Bm N  ov 18, 2018 0 1:31:56.417074000  7
  832 10.35712232:32:32:32:32:3  7Bm N  ov 18, 2018 0 1:31:56.498637000  7
  833 10.42195632:32:32:32:32:3  8Bm N  ov 18, 2018 0 1:31:56.563471000  7
  834 10.47512532:32:32:32:32:3  8Bm N  ov 18, 2018 0 1:31:56.616640000  7
  835 10.66215632:32:32:32:32:3  7Bm N  ov 18, 2018 0 1:31:56.803671000  7
  836 10.76904132:32:32:32:32:3  6Bm N  ov 18, 2018 0 1:31:56.910556000  7
  837 10.79818432:32:32:32:32:3  8Bm N  ov 18, 2018 0 1:31:56.939699000  7
  838 10.86171832:32:32:32:32:3  9Bm N  ov 18, 2018 0 1:31:57.003233000  7
  839 10.88742332:32:32:32:32:3  7Bm N  ov 18, 2018 0 1:31:57.028938000  7
  840 10.92968632:32:32:32:32:3  6Bm N  ov 18, 2018 0 1:31:57.071201000  7
  841 11.05887232:32:32:32:32:3  7Bm N  ov 18, 2018 0 1:31:57.200387000  7
  842 11.13438632:32:32:32:32:3  7Bm N  ov 18, 2018 0 1:31:57.275901000  7
  843 11.15119132:32:32:32:32:3  6Bm N  ov 18, 2018 0 1:31:57.292706000  7
  844 11.32879732:32:32:32:32:3  7Bm N  ov 18, 2018 0 1:31:57.470312000  7
  845 11.47852132:32:32:32:32:3  7Bm N  ov 18, 2018 0 1:31:57.620036000  7
  846 11.55439432:32:32:32:32:3  6Bm N  ov 18, 2018 0 1:31:57.695909000  7
  847 11.81070432:32:32:32:32:3  6Bm N  ov 18, 2018 0 1:31:57.952219000  7
  848 11.92401432:32:32:32:32:3  6Bm N  ov 18, 2018 0 1:31:58.065529000  7
  849 11.96581532:32:32:32:32:3  7Bm N  ov 18, 2018 0 1:31:58.107330000  7
  850 12.04595832:32:32:32:32:3  6Bm N  ov 18, 2018 0 1:31:58.187473000  7
  851 12.10623632:32:32:32:32:3  6Bm N  ov 18, 2018 0 1:31:58.247751000  7
  852 1 2.2189932:32:32:32:32:3  5Bm N  ov 18, 2018 0 1:31:58.360505000  7
  853 12.24817832:32:32:32:32:3  7Bm N  ov 18, 2018 0 1:31:58.389693000  7
  854 12.35899732:32:32:32:32:3  7Bm N  ov 18, 2018 0 1:31:58.500512000  7
  855 12.51470232:32:32:32:32:3  8Bm N  ov 18, 2018 0 1:31:58.656217000  7
  856 12.55693532:32:32:32:32:3  7Bm N  ov 18, 2018 0 1:31:58.698450000  7
  857 12.63800632:32:32:32:32:3  7Bm N  ov 18, 2018 0 1:31:58.779521000  7
  858 12.66433832:32:32:32:32:3  8Bm N  ov 18, 2018 0 1:31:58.805853000  7
  859 12.76990832:32:32:32:32:3  9Bm N  ov 18, 2018 0 1:31:58.911423000  7
  860 12.80886732:32:32:32:32:3  8Bm N  ov 18, 2018 0 1:31:58.950382000  7
  861 12.84526632:32:32:32:32:3  7Bm N  ov 18, 2018 0 1:31:58.986781000  7
  862 1 2.8949132:32:32:32:32:3  8Bm N  ov 18, 2018 0 1:31:59.036425000  7
  863 13.03980532:32:32:32:32:3  8Bm N  ov 18, 2018 0 1:31:59.181320000  7
  864 13.12018832:32:32:32:32:3  7Bm N  ov 18, 2018 0 1:31:59.261703000  7
  865 1 3.1251632:32:32:32:32:3  6Bm N  ov 18, 2018 0 1:31:59.266675000  7
  866 13.20368732:32:32:32:32:3  5Bm N  ov 18, 2018 0 1:31:59.345202000  7
  867 13.25044332:32:32:32:32:3  5Bm N  ov 18, 2018 0 1:31:59.391958000  7
  868 13.28286532:32:32:32:32:3  8Bm N  ov 18, 2018 0 1:31:59.424380000  7
  869 13.40229432:32:32:32:32:3  7Bm N  ov 18, 2018 0 1:31:59.543809000  7
  870 13.45780832:32:32:32:32:3  7Bm N  ov 18, 2018 0 1:31:59.599323000  7
  871 13.56617732:32:32:32:32:3  7Bm N  ov 18, 2018 0 1:31:59.707692000  7
  872 13.56803732:32:32:32:32:3  6Bm N  ov 18, 2018 0 1:31:59.709552000  7
  873 13.59804932:32:32:32:32:3  7Bm N  ov 18, 2018 0 1:31:59.739564000  7
  874 13.61308632:32:32:32:32:3  7Bm N  ov 18, 2018 0 1:31:59.754601000  7
  875 13.79826432:32:32:32:32:3  4Bm N  ov 18, 2018 0 1:31:59.939779000  7
  876 13.83102432:32:32:32:32:3  7Bm N  ov 18, 2018 0 1:31:59.972539000  7
  877 13.88754432:32:32:32:32:3  8Bm N  ov 18, 2018 0 1:32:00.029059000  7
  878 13.97369832:32:32:32:32:3  8Bm N  ov 18, 2018 0 1:32:00.115213000  7
  879 14.06015732:32:32:32:32:3  6Bm N  ov 18, 2018 0 1:32:00.201672000  7
  880 14.14955532:32:32:32:32:3  6Bm N  ov 18, 2018 0 1:32:00.291070000  7
  881 14.17059332:32:32:32:32:3  7Bm N  ov 18, 2018 0 1:32:00.312108000  7
  882 14.20162432:32:32:32:32:3  6Bm N  ov 18, 2018 0 1:32:00.343139000  7
  883 1 4.2607732:32:32:32:32:3  7Bm N  ov 18, 2018 0 1:32:00.402285000  7
  884 1 4.3933832:32:32:32:32:3  7Bm N  ov 18, 2018 0 1:32:00.534895000  7
  885 14.47575332:32:32:32:32:3  8Bm N  ov 18, 2018 0 1:32:00.617268000  7
  886 14.63711932:32:32:32:32:3  8Bm N  ov 18, 2018 0 1:32:00.778634000  7
  887 1 4.7190732:32:32:32:32:3  8Bm N  ov 18, 2018 0 1:32:00.860585000  7
  888 14.77064832:32:32:32:32:3  8Bm N  ov 18, 2018 0 1:32:00.912163000  7
  889 14.81639232:32:32:32:32:3  6Bm N  ov 18, 2018 0 1:32:00.957907000  7
  890 14.90506232:32:32:32:32:3  6Bm N  ov 18, 2018 0 1:32:01.046577000  7
  891 14.94771432:32:32:32:32:3  8Bm N  ov 18, 2018 0 1:32:01.089229000  7
  892 15.00812832:32:32:32:32:3  6Bm N  ov 18, 2018 0 1:32:01.149643000  7
  893 15.04866432:32:32:32:32:3  8Bm N  ov 18, 2018 0 1:32:01.190179000  7
  894 15.14617132:32:32:32:32:3  5Bm N  ov 18, 2018 0 1:32:01.287686000  7
  895 15.28371732:32:32:32:32:3  5Bm N  ov 18, 2018 0 1:32:01.425232000  7
  896 1 5.3219232:32:32:32:32:3  7Bm N  ov 18, 2018 0 1:32:01.463435000  7
  897 15.38928232:32:32:32:32:3  7Bm N  ov 18, 2018 0 1:32:01.530797000  7
  898 15.41365932:32:32:32:32:3  9Bm N  ov 18, 2018 0 1:32:01.555174000  7
  899 15.45140632:32:32:32:32:3  8Bm N  ov 18, 2018 0 1:32:01.592921000  7
  900 15.77894232:32:32:32:32:3  8Bm N  ov 18, 2018 0 1:32:01.920457000  7
  901 15.82476432:32:32:32:32:3  7Bm N  ov 18, 2018 0 1:32:01.966279000  7
  902 15.83626832:32:32:32:32:3  8Bm N  ov 18, 2018 0 1:32:01.977783000  7
  903 15.88953732:32:32:32:32:3  5Bm N  ov 18, 2018 0 1:32:02.031052000  7
  904 15.91018132:32:32:32:32:3  8Bm N  ov 18, 2018 0 1:32:02.051696000  7
  905 15.97536232:32:32:32:32:3  6Bm N  ov 18, 2018 0 1:32:02.116877000  7
  906 15.99487432:32:32:32:32:3  5Bm N  ov 18, 2018 0 1:32:02.136389000  7
  907 16.16113532:32:32:32:32:3  5Bm N  ov 18, 2018 0 1:32:02.302650000  7
  908 16.21623132:32:32:32:32:3  7Bm N  ov 18, 2018 0 1:32:02.357746000  7
  909 16.26995932:32:32:32:32:3  6Bm N  ov 18, 2018 0 1:32:02.411474000  7
  910 16.39036432:32:32:32:32:3  8Bm N  ov 18, 2018 0 1:32:02.531879000  7
  911 1 6.4120832:32:32:32:32:3  7Bm N  ov 18, 2018 0 1:32:02.553595000  7
  912 16.47287732:32:32:32:32:3  6Bm N  ov 18, 2018 0 1:32:02.614392000  7
  913 1 6.5203132:32:32:32:32:3  5Bm N  ov 18, 2018 0 1:32:02.661825000  7
  914 16.74969232:32:32:32:32:3  8Bm N  ov 18, 2018 0 1:32:02.891207000  7
  915 16.79390332:32:32:32:32:3  7Bm N  ov 18, 2018 0 1:32:02.935418000  7
  916 16.87681632:32:32:32:32:3  8Bm N  ov 18, 2018 0 1:32:03.018331000  7
  917 16.92246932:32:32:32:32:3  5Bm N  ov 18, 2018 0 1:32:03.063984000  7
  918 16.99823332:32:32:32:32:3  9Bm N  ov 18, 2018 0 1:32:03.139748000  7
  919 17.00612132:32:32:32:32:3  9Bm N  ov 18, 2018 0 1:32:03.147636000  7
  920 17.05097232:32:32:32:32:3  6Bm N  ov 18, 2018 0 1:32:03.192487000  7
  921 17.08796432:32:32:32:32:3  6Bm N  ov 18, 2018 0 1:32:03.229479000  7
  922 1 7.1642932:32:32:32:32:3  7Bm N  ov 18, 2018 0 1:32:03.305805000  7
  923 17.19332632:32:32:32:32:3  6Bm N  ov 18, 2018 0 1:32:03.334841000  7
  924 17.45341632:32:32:32:32:3  7Bm N  ov 18, 2018 0 1:32:03.594931000  7
  925 17.50310932:32:32:32:32:3  5Bm N  ov 18, 2018 0 1:32:03.644624000  7
  926 17.62380432:32:32:32:32:3  6Bm N  ov 18, 2018 0 1:32:03.765319000  7
  927 17.66865632:32:32:32:32:3  7Bm N  ov 18, 2018 0 1:32:03.810171000  7
  928 17.67775232:32:32:32:32:3  8Bm N  ov 18, 2018 0 1:32:03.819267000  7
  929 17.70323632:32:32:32:32:3  6Bm N  ov 18, 2018 0 1:32:03.844751000  7
  930 17.95636432:32:32:32:32:3  5Bm N  ov 18, 2018 0 1:32:04.097879000  7
  931 18.09236632:32:32:32:32:3  8Bm N  ov 18, 2018 0 1:32:04.233881000  7
  932 18.14021732:32:32:32:32:3  8Bm N  ov 18, 2018 0 1:32:04.281732000  7
  933 18.17397132:32:32:32:32:3  7Bm N  ov 18, 2018 0 1:32:04.315486000  7
  934 18.19428932:32:32:32:32:3  7Bm N  ov 18, 2018 0 1:32:04.335804000  7
  935 18.38106732:32:32:32:32:3  9Bm N  ov 18, 2018 0 1:32:04.522582000  7
  936 18.46463432:32:32:32:32:3  2Bm N  ov 18, 2018 0 1:32:04.606149000  7
  937 18.52083132:32:32:32:32:3  6Bm N  ov 18, 2018 0 1:32:04.662346000  7
  938 18.55095532:32:32:32:32:3  9Bm N  ov 18, 2018 0 1:32:04.692470000  7
  939 18.80270832:32:32:32:32:3  7Bm N  ov 18, 2018 0 1:32:04.944223000  7
  940 1 8.8320832:32:32:32:32:3  8Bm N  ov 18, 2018 0 1:32:04.973595000  7
  941 18.86737332:32:32:32:32:3  8Bm N  ov 18, 2018 0 1:32:05.008888000  7
  942 18.93972332:32:32:32:32:3  8Bm N  ov 18, 2018 0 1:32:05.081238000  7
  943 19.04428832:32:32:32:32:3  7Bm N  ov 18, 2018 0 1:32:05.185803000  7
  944 19.07049732:32:32:32:32:3  7Bm N  ov 18, 2018 0 1:32:05.212012000  7
  945 19.15211832:32:32:32:32:3  7Bm N  ov 18, 2018 0 1:32:05.293633000  7
  946 19.19454632:32:32:32:32:3  8Bm N  ov 18, 2018 0 1:32:05.336061000  7
  947 19.21683732:32:32:32:32:3  8Bm N  ov 18, 2018 0 1:32:05.358352000  7
  948 19.39623132:32:32:32:32:3  8Bm N  ov 18, 2018 0 1:32:05.537746000  7
  949 19.44741232:32:32:32:32:3  8Bm N  ov 18, 2018 0 1:32:05.588927000  7
  950 19.51117132:32:32:32:32:3  9Bm N  ov 18, 2018 0 1:32:05.652686000  7
  951 19.67367932:32:32:32:32:3  7Bm N  ov 18, 2018 0 1:32:05.815194000  7
  952 19.68955932:32:32:32:32:3  9Bm N  ov 18, 2018 0 1:32:05.831074000  7
  953 19.70558832:32:32:32:32:3  6Bm N  ov 18, 2018 0 1:32:05.847103000  7
  954 1 9.7405432:32:32:32:32:3  7Bm N  ov 18, 2018 0 1:32:05.882055000  7
  955 19.83697732:32:32:32:32:3  5Bm N  ov 18, 2018 0 1:32:05.978492000  7
  956 19.92846632:32:32:32:32:3  7Bm N  ov 18, 2018 0 1:32:06.069981000  7
  957 19.94417432:32:32:32:32:3  7Bm N  ov 18, 2018 0 1:32:06.085689000  7
  958 10.00731732:32:32:32:32:3  8Bm N  ov 18, 2018 0 1:32:06.148832000  7
  959 10.03799532:32:32:32:32:3  8Bm N  ov 18, 2018 0 1:32:06.179510000  7
  960 10.04300632:32:32:32:32:3  8Bm N  ov 18, 2018 0 1:32:06.184521000  7
  961 10.09523632:32:32:32:32:3  7Bm N  ov 18, 2018 0 1:32:06.236751000  7
  962 10.14597132:32:32:32:32:3  5Bm N  ov 18, 2018 0 1:32:06.287486000  7
  963 10.20611232:32:32:32:32:3  5Bm N  ov 18, 2018 0 1:32:06.347627000  7
  964 10.23497332:32:32:32:32:3  6Bm N  ov 18, 2018 0 1:32:06.376488000  7
  965 10.26892632:32:32:32:32:3  8Bm N  ov 18, 2018 0 1:32:06.410441000  7
  966 10.41422732:32:32:32:32:3  6Bm N  ov 18, 2018 0 1:32:06.555742000  7
  967 1 0.4425532:32:32:32:32:3  9Bm N  ov 18, 2018 0 1:32:06.584065000  7
  968 10.48758232:32:32:32:32:3  8Bm N  ov 18, 2018 0 1:32:06.629097000  7
  969 1 0.5067432:32:32:32:32:3  8Bm N  ov 18, 2018 0 1:32:06.648255000  7
  970 10.54361632:32:32:32:32:3  8Bm N  ov 18, 2018 0 1:32:06.685131000  7
  971 10.60553532:32:32:32:32:3  6Bm N  ov 18, 2018 0 1:32:06.747050000  7
  972 1 0.6263232:32:32:32:32:3  8Bm N  ov 18, 2018 0 1:32:06.767835000  7
  973 10.71895332:32:32:32:32:3  8Bm N  ov 18, 2018 0 1:32:06.860468000  7
  974 10.73947832:32:32:32:32:3  7Bm N  ov 18, 2018 0 1:32:06.880993000  7
  975 10.87495132:32:32:32:32:3  6Bm N  ov 18, 2018 0 1:32:07.016466000  7
  976 10.96572232:32:32:32:32:3  6Bm N  ov 18, 2018 0 1:32:07.107237000  7
  977 1 0.9933332:32:32:32:32:3  9Bm N  ov 18, 2018 0 1:32:07.134845000  7
  978 11.01246432:32:32:32:32:3  8Bm N  ov 18, 2018 0 1:32:07.153979000  7
  979 11.10608932:32:32:32:32:3  9Bm N  ov 18, 2018 0 1:32:07.247604000  7
  980 11.21739932:32:32:32:32:3  6Bm N  ov 18, 2018 0 1:32:07.358914000  7
  981 11.27315932:32:32:32:32:3  7Bm N  ov 18, 2018 0 1:32:07.414674000  7
  982 11.35972432:32:32:32:32:3  7Bm N  ov 18, 2018 0 1:32:07.501239000  7
  983 11.40419132:32:32:32:32:3  6Bm N  ov 18, 2018 0 1:32:07.545706000  7
  984 11.46094432:32:32:32:32:3  8Bm N  ov 18, 2018 0 1:32:07.602459000  7
  985 11.62629932:32:32:32:32:3  8Bm N  ov 18, 2018 0 1:32:07.767814000  7
  986 11.66188732:32:32:32:32:3  9Bm N  ov 18, 2018 0 1:32:07.803402000  7
  987 11.71118232:32:32:32:32:3  6Bm N  ov 18, 2018 0 1:32:07.852697000  7
  988 11.80710732:32:32:32:32:3  8Bm N  ov 18, 2018 0 1:32:07.948622000  7
  989 11.84140532:32:32:32:32:3  7Bm N  ov 18, 2018 0 1:32:07.982920000  7
  990 11.86252732:32:32:32:32:3  7Bm N  ov 18, 2018 0 1:32:08.004042000  7
  991 11.89621832:32:32:32:32:3  7Bm N  ov 18, 2018 0 1:32:08.037733000  7
  992 12.01614832:32:32:32:32:3  7Bm N  ov 18, 2018 0 1:32:08.157663000  7
  993 12.02874232:32:32:32:32:3  8Bm N  ov 18, 2018 0 1:32:08.170257000  7
  994 12.16278532:32:32:32:32:3  8Bm N  ov 18, 2018 0 1:32:08.304300000  7
  995 12.18714732:32:32:32:32:3  8Bm N  ov 18, 2018 0 1:32:08.328662000  7
  996 12.20679632:32:32:32:32:3  6Bm N  ov 18, 2018 0 1:32:08.348311000  7
  997 12.24038332:32:32:32:32:3  7Bm N  ov 18, 2018 0 1:32:08.381898000  7
  998 12.32100332:32:32:32:32:3  7Bm N  ov 18, 2018 0 1:32:08.462518000  7
  999 12.47542732:32:32:32:32:3  5Bm N  ov 18, 2018 0 1:32:08.616942000  7
 1000 12.48981532:32:32:32:32:3  7Bm N  ov 18, 2018 0 1:32:08.631330000  7
 1001 12.51211832:32:32:32:32:3  7Bm N  ov 18, 2018 0 1:32:08.653633000  7
 1002 12.52923232:32:32:32:32:3  8Bm N  ov 18, 2018 0 1:32:08.670747000  7
 1003 12.68881732:32:32:32:32:3  5Bm N  ov 18, 2018 0 1:32:08.830332000  7
 1004 1 2.7629732:32:32:32:32:3  7Bm N  ov 18, 2018 0 1:32:08.904485000  7
 1005 12.83489232:32:32:32:32:3  6Bm N  ov 18, 2018 0 1:32:08.976407000  7
 1006 12.86227732:32:32:32:32:3  8Bm N  ov 18, 2018 0 1:32:09.003792000  7
 1007 12.87386132:32:32:32:32:3  7Bm N  ov 18, 2018 0 1:32:09.015376000  7
 1008 12.95022332:32:32:32:32:3  7Bm N  ov 18, 2018 0 1:32:09.091738000  7
 1009 13.45210932:32:32:32:32:3  8Bm N  ov 18, 2018 0 1:32:09.593624000  7
 1010 13.47592532:32:32:32:32:3  9Bm N  ov 18, 2018 0 1:32:09.617440000  7
 1011 13.50585432:32:32:32:32:3  8Bm N  ov 18, 2018 0 1:32:09.647369000  7
 1012 1 3.5418332:32:32:32:32:3  9Bm N  ov 18, 2018 0 1:32:09.683345000  7
 1013 13.62814332:32:32:32:32:3  8Bm N  ov 18, 2018 0 1:32:09.769658000  7
 1014 1 3.6469532:32:32:32:32:3  8Bm N  ov 18, 2018 0 1:32:09.788465000  7
 1015 13.66566932:32:32:32:32:3  8Bm N  ov 18, 2018 0 1:32:09.807184000  7
 1016 13.69410232:32:32:32:32:3  7Bm N  ov 18, 2018 0 1:32:09.835617000  7
 1017 13.74384532:32:32:32:32:3  8Bm N  ov 18, 2018 0 1:32:09.885360000  7
