    1   0.000000 32:32:32:32:32:32 9dBm Nov 18, 2018 01:18:51.186744000 +07
    2   0.026272 32:32:32:32:32:32 7dBm Nov 18, 2018 01:18:51.213016000 +07
    3   0.060101 32:32:32:32:32:32 8dBm Nov 18, 2018 01:18:51.246845000 +07
    4   0.153431 32:32:32:32:32:32 7dBm Nov 18, 2018 01:18:51.340175000 +07
    5   0.249890 32:32:32:32:32:32 7dBm Nov 18, 2018 01:18:51.436634000 +07
    6   0.275989 32:32:32:32:32:32 7dBm Nov 18, 2018 01:18:51.462733000 +07
    7   0.289478 32:32:32:32:32:32 9dBm Nov 18, 2018 01:18:51.476222000 +07
    8   0.322189 32:32:32:32:32:32 9dBm Nov 18, 2018 01:18:51.508933000 +07
    9   0.446470 32:32:32:32:32:32 9dBm Nov 18, 2018 01:18:51.633214000 +07
   10   0.567900 32:32:32:32:32:32 7dBm Nov 18, 2018 01:18:51.754644000 +07
   11   0.666099 32:32:32:32:32:32 8dBm Nov 18, 2018 01:18:51.852843000 +07
   12   0.730259 32:32:32:32:32:32 6dBm Nov 18, 2018 01:18:51.917003000 +07
   13   0.763389 32:32:32:32:32:32 7dBm Nov 18, 2018 01:18:51.950133000 +07
   14   0.893527 32:32:32:32:32:32 6dBm Nov 18, 2018 01:18:52.080271000 +07
   15   1.005273 32:32:32:32:32:32 8dBm Nov 18, 2018 01:18:52.192017000 +07
   16   1.044188 32:32:32:32:32:32 5dBm Nov 18, 2018 01:18:52.230932000 +07
   17   1.278159 32:32:32:32:32:32 6dBm Nov 18, 2018 01:18:52.464903000 +07
   18   1.373013 32:32:32:32:32:32 5dBm Nov 18, 2018 01:18:52.559757000 +07
   19   1.522478 32:32:32:32:32:32 5dBm Nov 18, 2018 01:18:52.709222000 +07
   20   2.306901 32:32:32:32:32:32 5dBm Nov 18, 2018 01:18:53.493645000 +07
   21   2.455289 32:32:32:32:32:32 7dBm Nov 18, 2018 01:18:53.642033000 +07
   22   3.371379 32:32:32:32:32:32 6dBm Nov 18, 2018 01:18:54.558123000 +07
   23   3.425034 32:32:32:32:32:32 7dBm Nov 18, 2018 01:18:54.611778000 +07
   24   3.500606 32:32:32:32:32:32 8dBm Nov 18, 2018 01:18:54.687350000 +07
   25   3.542851 32:32:32:32:32:32 6dBm Nov 18, 2018 01:18:54.729595000 +07
   26   3.626559 32:32:32:32:32:32 10dBm Nov 18, 2018 01:18:54.813303000 +07
   27   3.839392 32:32:32:32:32:32 7dBm Nov 18, 2018 01:18:55.026136000 +07
   28   3.857199 32:32:32:32:32:32 6dBm Nov 18, 2018 01:18:55.043943000 +07
   29   3.968361 32:32:32:32:32:32 8dBm Nov 18, 2018 01:18:55.155105000 +07
   30   4.026347 32:32:32:32:32:32 8dBm Nov 18, 2018 01:18:55.213091000 +07
   31   4.050978 32:32:32:32:32:32 5dBm Nov 18, 2018 01:18:55.237722000 +07
   32   4.249011 32:32:32:32:32:32 7dBm Nov 18, 2018 01:18:55.435755000 +07
   33   4.266313 32:32:32:32:32:32 6dBm Nov 18, 2018 01:18:55.453057000 +07
   34   4.280631 32:32:32:32:32:32 6dBm Nov 18, 2018 01:18:55.467375000 +07
   35   4.297527 32:32:32:32:32:32 3dBm Nov 18, 2018 01:18:55.484271000 +07
   36   4.332221 32:32:32:32:32:32 6dBm Nov 18, 2018 01:18:55.518965000 +07
   37   4.411886 32:32:32:32:32:32 4dBm Nov 18, 2018 01:18:55.598630000 +07
   38   4.566936 32:32:32:32:32:32 6dBm Nov 18, 2018 01:18:55.753680000 +07
   39   4.580389 32:32:32:32:32:32 7dBm Nov 18, 2018 01:18:55.767133000 +07
   40   4.605332 32:32:32:32:32:32 6dBm Nov 18, 2018 01:18:55.792076000 +07
   41   4.700939 32:32:32:32:32:32 5dBm Nov 18, 2018 01:18:55.887683000 +07
   42   4.850712 32:32:32:32:32:32 8dBm Nov 18, 2018 01:18:56.037456000 +07
   43   5.007769 32:32:32:32:32:32 5dBm Nov 18, 2018 01:18:56.194513000 +07
   44   5.138536 32:32:32:32:32:32 7dBm Nov 18, 2018 01:18:56.325280000 +07
   45   5.212199 32:32:32:32:32:32 6dBm Nov 18, 2018 01:18:56.398943000 +07
   46   5.344425 32:32:32:32:32:32 6dBm Nov 18, 2018 01:18:56.531169000 +07
   47   5.368919 32:32:32:32:32:32 5dBm Nov 18, 2018 01:18:56.555663000 +07
   48   5.486272 32:32:32:32:32:32 6dBm Nov 18, 2018 01:18:56.673016000 +07
   49   5.703406 32:32:32:32:32:32 6dBm Nov 18, 2018 01:18:56.890150000 +07
   50   5.742471 32:32:32:32:32:32 5dBm Nov 18, 2018 01:18:56.929215000 +07
   51   5.783560 32:32:32:32:32:32 6dBm Nov 18, 2018 01:18:56.970304000 +07
   52   5.820063 32:32:32:32:32:32 7dBm Nov 18, 2018 01:18:57.006807000 +07
   53   5.839998 32:32:32:32:32:32 7dBm Nov 18, 2018 01:18:57.026742000 +07
   54   5.885361 32:32:32:32:32:32 9dBm Nov 18, 2018 01:18:57.072105000 +07
   55   5.922844 32:32:32:32:32:32 5dBm Nov 18, 2018 01:18:57.109588000 +07
   56   5.993689 32:32:32:32:32:32 7dBm Nov 18, 2018 01:18:57.180433000 +07
   57   6.009730 32:32:32:32:32:32 8dBm Nov 18, 2018 01:18:57.196474000 +07
   58   6.035649 32:32:32:32:32:32 4dBm Nov 18, 2018 01:18:57.222393000 +07
   59   6.076387 32:32:32:32:32:32 6dBm Nov 18, 2018 01:18:57.263131000 +07
   60   6.106392 32:32:32:32:32:32 7dBm Nov 18, 2018 01:18:57.293136000 +07
   61   6.122972 32:32:32:32:32:32 7dBm Nov 18, 2018 01:18:57.309716000 +07
   62   6.141309 32:32:32:32:32:32 8dBm Nov 18, 2018 01:18:57.328053000 +07
   63   6.209408 32:32:32:32:32:32 6dBm Nov 18, 2018 01:18:57.396152000 +07
   64   6.223467 32:32:32:32:32:32 5dBm Nov 18, 2018 01:18:57.410211000 +07
   65   6.241996 32:32:32:32:32:32 8dBm Nov 18, 2018 01:18:57.428740000 +07
   66   6.268052 32:32:32:32:32:32 6dBm Nov 18, 2018 01:18:57.454796000 +07
   67   6.284069 32:32:32:32:32:32 7dBm Nov 18, 2018 01:18:57.470813000 +07
   68   6.341296 32:32:32:32:32:32 7dBm Nov 18, 2018 01:18:57.528040000 +07
   69   6.810302 32:32:32:32:32:32 6dBm Nov 18, 2018 01:18:57.997046000 +07
   70   7.174294 32:32:32:32:32:32 4dBm Nov 18, 2018 01:18:58.361038000 +07
   71   7.257988 32:32:32:32:32:32 7dBm Nov 18, 2018 01:18:58.444732000 +07
   72   7.649526 32:32:32:32:32:32 4dBm Nov 18, 2018 01:18:58.836270000 +07
   73   8.030266 32:32:32:32:32:32 8dBm Nov 18, 2018 01:18:59.217010000 +07
   74   8.233871 32:32:32:32:32:32 2dBm Nov 18, 2018 01:18:59.420615000 +07
   75   8.319985 32:32:32:32:32:32 3dBm Nov 18, 2018 01:18:59.506729000 +07
   76   8.413055 32:32:32:32:32:32 7dBm Nov 18, 2018 01:18:59.599799000 +07
   77   8.455392 32:32:32:32:32:32 7dBm Nov 18, 2018 01:18:59.642136000 +07
   78   8.552035 32:32:32:32:32:32 5dBm Nov 18, 2018 01:18:59.738779000 +07
   79   8.622330 32:32:32:32:32:32 7dBm Nov 18, 2018 01:18:59.809074000 +07
   80   8.643091 32:32:32:32:32:32 7dBm Nov 18, 2018 01:18:59.829835000 +07
   81   8.670298 32:32:32:32:32:32 4dBm Nov 18, 2018 01:18:59.857042000 +07
   82   8.729548 32:32:32:32:32:32 7dBm Nov 18, 2018 01:18:59.916292000 +07
   83   8.799669 32:32:32:32:32:32 5dBm Nov 18, 2018 01:18:59.986413000 +07
   84   8.852910 32:32:32:32:32:32 7dBm Nov 18, 2018 01:19:00.039654000 +07
   85   8.871290 32:32:32:32:32:32 8dBm Nov 18, 2018 01:19:00.058034000 +07
   86   8.896785 32:32:32:32:32:32 7dBm Nov 18, 2018 01:19:00.083529000 +07
   87   9.029801 32:32:32:32:32:32 7dBm Nov 18, 2018 01:19:00.216545000 +07
   88   9.083572 32:32:32:32:32:32 7dBm Nov 18, 2018 01:19:00.270316000 +07
   89   9.265693 32:32:32:32:32:32 7dBm Nov 18, 2018 01:19:00.452437000 +07
   90   9.324563 32:32:32:32:32:32 7dBm Nov 18, 2018 01:19:00.511307000 +07
   91   9.358049 32:32:32:32:32:32 7dBm Nov 18, 2018 01:19:00.544793000 +07
   92   9.528691 32:32:32:32:32:32 5dBm Nov 18, 2018 01:19:00.715435000 +07
   93   9.735494 32:32:32:32:32:32 7dBm Nov 18, 2018 01:19:00.922238000 +07
   94   9.780172 32:32:32:32:32:32 8dBm Nov 18, 2018 01:19:00.966916000 +07
   95   9.833021 32:32:32:32:32:32 9dBm Nov 18, 2018 01:19:01.019765000 +07
   96   9.915438 32:32:32:32:32:32 7dBm Nov 18, 2018 01:19:01.102182000 +07
   97  10.023169 32:32:32:32:32:32 8dBm Nov 18, 2018 01:19:01.209913000 +07
   98  10.031808 32:32:32:32:32:32 8dBm Nov 18, 2018 01:19:01.218552000 +07
   99  10.054025 32:32:32:32:32:32 7dBm Nov 18, 2018 01:19:01.240769000 +07
  100  10.098858 32:32:32:32:32:32 7dBm Nov 18, 2018 01:19:01.285602000 +07
  101  10.137250 32:32:32:32:32:32 8dBm Nov 18, 2018 01:19:01.323994000 +07
  102  10.165924 32:32:32:32:32:32 6dBm Nov 18, 2018 01:19:01.352668000 +07
  103  10.243901 32:32:32:32:32:32 8dBm Nov 18, 2018 01:19:01.430645000 +07
  104  10.370774 32:32:32:32:32:32 7dBm Nov 18, 2018 01:19:01.557518000 +07
  105  10.475228 32:32:32:32:32:32 5dBm Nov 18, 2018 01:19:01.661972000 +07
  106  10.512791 32:32:32:32:32:32 7dBm Nov 18, 2018 01:19:01.699535000 +07
  107  10.548360 32:32:32:32:32:32 6dBm Nov 18, 2018 01:19:01.735104000 +07
  108  10.615404 32:32:32:32:32:32 7dBm Nov 18, 2018 01:19:01.802148000 +07
  109  10.650504 32:32:32:32:32:32 6dBm Nov 18, 2018 01:19:01.837248000 +07
  110  10.671243 32:32:32:32:32:32 7dBm Nov 18, 2018 01:19:01.857987000 +07
  111  10.834470 32:32:32:32:32:32 8dBm Nov 18, 2018 01:19:02.021214000 +07
  112  10.918042 32:32:32:32:32:32 7dBm Nov 18, 2018 01:19:02.104786000 +07
  113  11.295838 32:32:32:32:32:32 7dBm Nov 18, 2018 01:19:02.482582000 +07
  114  11.315379 32:32:32:32:32:32 7dBm Nov 18, 2018 01:19:02.502123000 +07
  115  11.356883 32:32:32:32:32:32 8dBm Nov 18, 2018 01:19:02.543627000 +07
  116  11.411967 32:32:32:32:32:32 7dBm Nov 18, 2018 01:19:02.598711000 +07
  117  11.489048 32:32:32:32:32:32 9dBm Nov 18, 2018 01:19:02.675792000 +07
  118  11.569331 32:32:32:32:32:32 5dBm Nov 18, 2018 01:19:02.756075000 +07
  119  11.721632 32:32:32:32:32:32 8dBm Nov 18, 2018 01:19:02.908376000 +07
  120  11.791153 32:32:32:32:32:32 7dBm Nov 18, 2018 01:19:02.977897000 +07
  121  11.846758 32:32:32:32:32:32 6dBm Nov 18, 2018 01:19:03.033502000 +07
  122  11.913534 32:32:32:32:32:32 8dBm Nov 18, 2018 01:19:03.100278000 +07
  123  11.932690 32:32:32:32:32:32 8dBm Nov 18, 2018 01:19:03.119434000 +07
  124  12.013890 32:32:32:32:32:32 7dBm Nov 18, 2018 01:19:03.200634000 +07
  125  12.082785 32:32:32:32:32:32 5dBm Nov 18, 2018 01:19:03.269529000 +07
  126  12.103940 32:32:32:32:32:32 8dBm Nov 18, 2018 01:19:03.290684000 +07
  127  12.373470 32:32:32:32:32:32 6dBm Nov 18, 2018 01:19:03.560214000 +07
  128  12.461668 32:32:32:32:32:32 6dBm Nov 18, 2018 01:19:03.648412000 +07
  129  12.583872 32:32:32:32:32:32 5dBm Nov 18, 2018 01:19:03.770616000 +07
  130  12.703923 32:32:32:32:32:32 6dBm Nov 18, 2018 01:19:03.890667000 +07
  131  12.729156 32:32:32:32:32:32 8dBm Nov 18, 2018 01:19:03.915900000 +07
  132  12.801910 32:32:32:32:32:32 7dBm Nov 18, 2018 01:19:03.988654000 +07
  133  12.859614 32:32:32:32:32:32 7dBm Nov 18, 2018 01:19:04.046358000 +07
  134  12.884548 32:32:32:32:32:32 7dBm Nov 18, 2018 01:19:04.071292000 +07
  135  12.907561 32:32:32:32:32:32 6dBm Nov 18, 2018 01:19:04.094305000 +07
  136  12.962694 32:32:32:32:32:32 7dBm Nov 18, 2018 01:19:04.149438000 +07
  137  13.015322 32:32:32:32:32:32 7dBm Nov 18, 2018 01:19:04.202066000 +07
  138  13.162795 32:32:32:32:32:32 6dBm Nov 18, 2018 01:19:04.349539000 +07
  139  13.336876 32:32:32:32:32:32 4dBm Nov 18, 2018 01:19:04.523620000 +07
  140  13.504539 32:32:32:32:32:32 9dBm Nov 18, 2018 01:19:04.691283000 +07
  141  13.546643 32:32:32:32:32:32 9dBm Nov 18, 2018 01:19:04.733387000 +07
  142  13.637129 32:32:32:32:32:32 8dBm Nov 18, 2018 01:19:04.823873000 +07
  143  13.767790 32:32:32:32:32:32 8dBm Nov 18, 2018 01:19:04.954534000 +07
  144  13.844874 32:32:32:32:32:32 8dBm Nov 18, 2018 01:19:05.031618000 +07
  145  13.863302 32:32:32:32:32:32 6dBm Nov 18, 2018 01:19:05.050046000 +07
  146  13.890860 32:32:32:32:32:32 8dBm Nov 18, 2018 01:19:05.077604000 +07
  147  13.914027 32:32:32:32:32:32 4dBm Nov 18, 2018 01:19:05.100771000 +07
  148  13.938478 32:32:32:32:32:32 7dBm Nov 18, 2018 01:19:05.125222000 +07
  149  13.958453 32:32:32:32:32:32 7dBm Nov 18, 2018 01:19:05.145197000 +07
  150  13.978273 32:32:32:32:32:32 8dBm Nov 18, 2018 01:19:05.165017000 +07
  151  14.113022 32:32:32:32:32:32 7dBm Nov 18, 2018 01:19:05.299766000 +07
  152  14.130142 32:32:32:32:32:32 8dBm Nov 18, 2018 01:19:05.316886000 +07
  153  14.193550 32:32:32:32:32:32 9dBm Nov 18, 2018 01:19:05.380294000 +07
  154  14.243325 32:32:32:32:32:32 6dBm Nov 18, 2018 01:19:05.430069000 +07
  155  14.333093 32:32:32:32:32:32 9dBm Nov 18, 2018 01:19:05.519837000 +07
  156  14.480546 32:32:32:32:32:32 8dBm Nov 18, 2018 01:19:05.667290000 +07
  157  14.516385 32:32:32:32:32:32 6dBm Nov 18, 2018 01:19:05.703129000 +07
  158  14.534640 32:32:32:32:32:32 5dBm Nov 18, 2018 01:19:05.721384000 +07
  159  14.774702 32:32:32:32:32:32 7dBm Nov 18, 2018 01:19:05.961446000 +07
  160  14.799194 32:32:32:32:32:32 7dBm Nov 18, 2018 01:19:05.985938000 +07
  161  14.847526 32:32:32:32:32:32 10dBm Nov 18, 2018 01:19:06.034270000 +07
  162  14.876982 32:32:32:32:32:32 9dBm Nov 18, 2018 01:19:06.063726000 +07
  163  14.921668 32:32:32:32:32:32 9dBm Nov 18, 2018 01:19:06.108412000 +07
  164  15.002575 32:32:32:32:32:32 7dBm Nov 18, 2018 01:19:06.189319000 +07
  165  15.103078 32:32:32:32:32:32 7dBm Nov 18, 2018 01:19:06.289822000 +07
  166  15.178544 32:32:32:32:32:32 7dBm Nov 18, 2018 01:19:06.365288000 +07
  167  15.208379 32:32:32:32:32:32 8dBm Nov 18, 2018 01:19:06.395123000 +07
  168  15.364352 32:32:32:32:32:32 8dBm Nov 18, 2018 01:19:06.551096000 +07
  169  15.411655 32:32:32:32:32:32 8dBm Nov 18, 2018 01:19:06.598399000 +07
  170  15.489887 32:32:32:32:32:32 8dBm Nov 18, 2018 01:19:06.676631000 +07
  171  15.562206 32:32:32:32:32:32 8dBm Nov 18, 2018 01:19:06.748950000 +07
  172  15.681881 32:32:32:32:32:32 9dBm Nov 18, 2018 01:19:06.868625000 +07
  173  15.793026 32:32:32:32:32:32 8dBm Nov 18, 2018 01:19:06.979770000 +07
  174  15.824279 32:32:32:32:32:32 10dBm Nov 18, 2018 01:19:07.011023000 +07
  175  15.849856 32:32:32:32:32:32 9dBm Nov 18, 2018 01:19:07.036600000 +07
  176  15.874531 32:32:32:32:32:32 8dBm Nov 18, 2018 01:19:07.061275000 +07
  177  15.891590 32:32:32:32:32:32 9dBm Nov 18, 2018 01:19:07.078334000 +07
  178  15.910636 32:32:32:32:32:32 6dBm Nov 18, 2018 01:19:07.097380000 +07
  179  15.957826 32:32:32:32:32:32 9dBm Nov 18, 2018 01:19:07.144570000 +07
  180  15.959258 32:32:32:32:32:32 8dBm Nov 18, 2018 01:19:07.146002000 +07
  181  15.983935 32:32:32:32:32:32 8dBm Nov 18, 2018 01:19:07.170679000 +07
  182  16.027584 32:32:32:32:32:32 7dBm Nov 18, 2018 01:19:07.214328000 +07
  183  16.099600 32:32:32:32:32:32 7dBm Nov 18, 2018 01:19:07.286344000 +07
  184  16.201520 32:32:32:32:32:32 9dBm Nov 18, 2018 01:19:07.388264000 +07
  185  16.264676 32:32:32:32:32:32 8dBm Nov 18, 2018 01:19:07.451420000 +07
  186  16.309627 32:32:32:32:32:32 9dBm Nov 18, 2018 01:19:07.496371000 +07
  187  16.364940 32:32:32:32:32:32 9dBm Nov 18, 2018 01:19:07.551684000 +07
  188  16.531197 32:32:32:32:32:32 9dBm Nov 18, 2018 01:19:07.717941000 +07
  189  16.671822 32:32:32:32:32:32 7dBm Nov 18, 2018 01:19:07.858566000 +07
  190  16.864718 32:32:32:32:32:32 9dBm Nov 18, 2018 01:19:08.051462000 +07
  191  17.098341 32:32:32:32:32:32 8dBm Nov 18, 2018 01:19:08.285085000 +07
  192  17.295302 32:32:32:32:32:32 6dBm Nov 18, 2018 01:19:08.482046000 +07
  193  17.329068 32:32:32:32:32:32 8dBm Nov 18, 2018 01:19:08.515812000 +07
  194  17.351677 32:32:32:32:32:32 10dBm Nov 18, 2018 01:19:08.538421000 +07
  195  17.514477 32:32:32:32:32:32 8dBm Nov 18, 2018 01:19:08.701221000 +07
  196  17.569373 32:32:32:32:32:32 9dBm Nov 18, 2018 01:19:08.756117000 +07
  197  17.615370 32:32:32:32:32:32 9dBm Nov 18, 2018 01:19:08.802114000 +07
  198  17.702125 32:32:32:32:32:32 8dBm Nov 18, 2018 01:19:08.888869000 +07
  199  17.765893 32:32:32:32:32:32 5dBm Nov 18, 2018 01:19:08.952637000 +07
  200  17.816350 32:32:32:32:32:32 8dBm Nov 18, 2018 01:19:09.003094000 +07
  201  17.865026 32:32:32:32:32:32 9dBm Nov 18, 2018 01:19:09.051770000 +07
  202  17.883809 32:32:32:32:32:32 6dBm Nov 18, 2018 01:19:09.070553000 +07
  203  18.044056 32:32:32:32:32:32 9dBm Nov 18, 2018 01:19:09.230800000 +07
  204  18.309416 32:32:32:32:32:32 5dBm Nov 18, 2018 01:19:09.496160000 +07
  205  18.347080 32:32:32:32:32:32 9dBm Nov 18, 2018 01:19:09.533824000 +07
  206  18.384310 32:32:32:32:32:32 9dBm Nov 18, 2018 01:19:09.571054000 +07
  207  18.488935 32:32:32:32:32:32 8dBm Nov 18, 2018 01:19:09.675679000 +07
  208  18.582271 32:32:32:32:32:32 8dBm Nov 18, 2018 01:19:09.769015000 +07
  209  18.767521 32:32:32:32:32:32 9dBm Nov 18, 2018 01:19:09.954265000 +07
  210  18.881950 32:32:32:32:32:32 6dBm Nov 18, 2018 01:19:10.068694000 +07
  211  18.944017 32:32:32:32:32:32 5dBm Nov 18, 2018 01:19:10.130761000 +07
  212  18.972562 32:32:32:32:32:32 7dBm Nov 18, 2018 01:19:10.159306000 +07
  213  18.995268 32:32:32:32:32:32 8dBm Nov 18, 2018 01:19:10.182012000 +07
  214  19.074586 32:32:32:32:32:32 8dBm Nov 18, 2018 01:19:10.261330000 +07
  215  19.111767 32:32:32:32:32:32 7dBm Nov 18, 2018 01:19:10.298511000 +07
  216  19.176295 32:32:32:32:32:32 8dBm Nov 18, 2018 01:19:10.363039000 +07
  217  19.399660 32:32:32:32:32:32 7dBm Nov 18, 2018 01:19:10.586404000 +07
  218  19.438529 32:32:32:32:32:32 6dBm Nov 18, 2018 01:19:10.625273000 +07
  219  19.562634 32:32:32:32:32:32 9dBm Nov 18, 2018 01:19:10.749378000 +07
  220  19.579424 32:32:32:32:32:32 6dBm Nov 18, 2018 01:19:10.766168000 +07
  221  19.692683 32:32:32:32:32:32 8dBm Nov 18, 2018 01:19:10.879427000 +07
  222  19.767423 32:32:32:32:32:32 9dBm Nov 18, 2018 01:19:10.954167000 +07
  223  19.865112 32:32:32:32:32:32 7dBm Nov 18, 2018 01:19:11.051856000 +07
  224  20.027119 32:32:32:32:32:32 9dBm Nov 18, 2018 01:19:11.213863000 +07
  225  20.071767 32:32:32:32:32:32 7dBm Nov 18, 2018 01:19:11.258511000 +07
  226  20.096086 32:32:32:32:32:32 8dBm Nov 18, 2018 01:19:11.282830000 +07
  227  20.226649 32:32:32:32:32:32 6dBm Nov 18, 2018 01:19:11.413393000 +07
  228  20.271578 32:32:32:32:32:32 7dBm Nov 18, 2018 01:19:11.458322000 +07
  229  20.284830 32:32:32:32:32:32 7dBm Nov 18, 2018 01:19:11.471574000 +07
  230  20.302907 32:32:32:32:32:32 8dBm Nov 18, 2018 01:19:11.489651000 +07
  231  20.379542 32:32:32:32:32:32 7dBm Nov 18, 2018 01:19:11.566286000 +07
  232  20.421993 32:32:32:32:32:32 8dBm Nov 18, 2018 01:19:11.608737000 +07
  233  20.483683 32:32:32:32:32:32 6dBm Nov 18, 2018 01:19:11.670427000 +07
  234  20.506288 32:32:32:32:32:32 7dBm Nov 18, 2018 01:19:11.693032000 +07
  235  20.533522 32:32:32:32:32:32 7dBm Nov 18, 2018 01:19:11.720266000 +07
  236  20.617732 32:32:32:32:32:32 7dBm Nov 18, 2018 01:19:11.804476000 +07
  237  20.660422 32:32:32:32:32:32 5dBm Nov 18, 2018 01:19:11.847166000 +07
  238  20.727087 32:32:32:32:32:32 9dBm Nov 18, 2018 01:19:11.913831000 +07
  239  20.745737 32:32:32:32:32:32 7dBm Nov 18, 2018 01:19:11.932481000 +07
  240  20.769116 32:32:32:32:32:32 3dBm Nov 18, 2018 01:19:11.955860000 +07
  241  20.773936 32:32:32:32:32:32 6dBm Nov 18, 2018 01:19:11.960680000 +07
  242  20.788832 32:32:32:32:32:32 6dBm Nov 18, 2018 01:19:11.975576000 +07
  243  20.806204 32:32:32:32:32:32 4dBm Nov 18, 2018 01:19:11.992948000 +07
  244  20.886764 32:32:32:32:32:32 6dBm Nov 18, 2018 01:19:12.073508000 +07
  245  20.918676 32:32:32:32:32:32 8dBm Nov 18, 2018 01:19:12.105420000 +07
  246  21.050430 32:32:32:32:32:32 8dBm Nov 18, 2018 01:19:12.237174000 +07
  247  21.081935 32:32:32:32:32:32 8dBm Nov 18, 2018 01:19:12.268679000 +07
  248  21.154038 32:32:32:32:32:32 8dBm Nov 18, 2018 01:19:12.340782000 +07
  249  21.198198 32:32:32:32:32:32 8dBm Nov 18, 2018 01:19:12.384942000 +07
  250  21.259358 32:32:32:32:32:32 7dBm Nov 18, 2018 01:19:12.446102000 +07
  251  21.308966 32:32:32:32:32:32 8dBm Nov 18, 2018 01:19:12.495710000 +07
  252  21.364578 32:32:32:32:32:32 8dBm Nov 18, 2018 01:19:12.551322000 +07
  253  21.443919 32:32:32:32:32:32 7dBm Nov 18, 2018 01:19:12.630663000 +07
  254  21.676985 32:32:32:32:32:32 7dBm Nov 18, 2018 01:19:12.863729000 +07
  255  21.695780 32:32:32:32:32:32 6dBm Nov 18, 2018 01:19:12.882524000 +07
  256  21.812794 32:32:32:32:32:32 7dBm Nov 18, 2018 01:19:12.999538000 +07
  257  21.842247 32:32:32:32:32:32 6dBm Nov 18, 2018 01:19:13.028991000 +07
  258  21.908401 32:32:32:32:32:32 6dBm Nov 18, 2018 01:19:13.095145000 +07
  259  21.945178 32:32:32:32:32:32 9dBm Nov 18, 2018 01:19:13.131922000 +07
  260  22.025360 32:32:32:32:32:32 8dBm Nov 18, 2018 01:19:13.212104000 +07
  261  22.104247 32:32:32:32:32:32 8dBm Nov 18, 2018 01:19:13.290991000 +07
  262  22.105208 32:32:32:32:32:32 7dBm Nov 18, 2018 01:19:13.291952000 +07
  263  22.143730 32:32:32:32:32:32 4dBm Nov 18, 2018 01:19:13.330474000 +07
  264  22.159149 32:32:32:32:32:32 6dBm Nov 18, 2018 01:19:13.345893000 +07
  265  22.314299 32:32:32:32:32:32 8dBm Nov 18, 2018 01:19:13.501043000 +07
  266  22.363036 32:32:32:32:32:32 7dBm Nov 18, 2018 01:19:13.549780000 +07
  267  22.367721 32:32:32:32:32:32 7dBm Nov 18, 2018 01:19:13.554465000 +07
  268  22.400866 32:32:32:32:32:32 8dBm Nov 18, 2018 01:19:13.587610000 +07
  269  22.524077 32:32:32:32:32:32 7dBm Nov 18, 2018 01:19:13.710821000 +07
  270  22.580807 32:32:32:32:32:32 6dBm Nov 18, 2018 01:19:13.767551000 +07
  271  22.851738 32:32:32:32:32:32 8dBm Nov 18, 2018 01:19:14.038482000 +07
  272  22.884940 32:32:32:32:32:32 7dBm Nov 18, 2018 01:19:14.071684000 +07
  273  23.102146 32:32:32:32:32:32 7dBm Nov 18, 2018 01:19:14.288890000 +07
  274  23.210897 32:32:32:32:32:32 8dBm Nov 18, 2018 01:19:14.397641000 +07
  275  23.363300 32:32:32:32:32:32 6dBm Nov 18, 2018 01:19:14.550044000 +07
  276  23.669933 32:32:32:32:32:32 6dBm Nov 18, 2018 01:19:14.856677000 +07
  277  23.694670 32:32:32:32:32:32 7dBm Nov 18, 2018 01:19:14.881414000 +07
  278  23.736620 32:32:32:32:32:32 6dBm Nov 18, 2018 01:19:14.923364000 +07
  279  23.801731 32:32:32:32:32:32 5dBm Nov 18, 2018 01:19:14.988475000 +07
  280  23.874243 32:32:32:32:32:32 5dBm Nov 18, 2018 01:19:15.060987000 +07
  281  23.932417 32:32:32:32:32:32 6dBm Nov 18, 2018 01:19:15.119161000 +07
  282  24.001170 32:32:32:32:32:32 5dBm Nov 18, 2018 01:19:15.187914000 +07
  283  24.037615 32:32:32:32:32:32 6dBm Nov 18, 2018 01:19:15.224359000 +07
  284  24.054897 32:32:32:32:32:32 7dBm Nov 18, 2018 01:19:15.241641000 +07
  285  24.134075 32:32:32:32:32:32 6dBm Nov 18, 2018 01:19:15.320819000 +07
  286  24.151927 32:32:32:32:32:32 7dBm Nov 18, 2018 01:19:15.338671000 +07
  287  24.170868 32:32:32:32:32:32 6dBm Nov 18, 2018 01:19:15.357612000 +07
  288  24.240516 32:32:32:32:32:32 7dBm Nov 18, 2018 01:19:15.427260000 +07
  289  24.282484 32:32:32:32:32:32 6dBm Nov 18, 2018 01:19:15.469228000 +07
  290  24.360602 32:32:32:32:32:32 7dBm Nov 18, 2018 01:19:15.547346000 +07
  291  24.418142 32:32:32:32:32:32 6dBm Nov 18, 2018 01:19:15.604886000 +07
  292  24.527279 32:32:32:32:32:32 9dBm Nov 18, 2018 01:19:15.714023000 +07
  293  24.591724 32:32:32:32:32:32 5dBm Nov 18, 2018 01:19:15.778468000 +07
  294  24.685618 32:32:32:32:32:32 8dBm Nov 18, 2018 01:19:15.872362000 +07
  295  24.711009 32:32:32:32:32:32 9dBm Nov 18, 2018 01:19:15.897753000 +07
  296  24.739919 32:32:32:32:32:32 6dBm Nov 18, 2018 01:19:15.926663000 +07
  297  24.811909 32:32:32:32:32:32 4dBm Nov 18, 2018 01:19:15.998653000 +07
  298  24.872095 32:32:32:32:32:32 6dBm Nov 18, 2018 01:19:16.058839000 +07
  299  25.073093 32:32:32:32:32:32 6dBm Nov 18, 2018 01:19:16.259837000 +07
  300  25.106252 32:32:32:32:32:32 7dBm Nov 18, 2018 01:19:16.292996000 +07
  301  25.178806 32:32:32:32:32:32 4dBm Nov 18, 2018 01:19:16.365550000 +07
  302  25.245565 32:32:32:32:32:32 8dBm Nov 18, 2018 01:19:16.432309000 +07
  303  25.306424 32:32:32:32:32:32 5dBm Nov 18, 2018 01:19:16.493168000 +07
  304  25.355069 32:32:32:32:32:32 6dBm Nov 18, 2018 01:19:16.541813000 +07
  305  25.372777 32:32:32:32:32:32 7dBm Nov 18, 2018 01:19:16.559521000 +07
  306  25.564190 32:32:32:32:32:32 6dBm Nov 18, 2018 01:19:16.750934000 +07
  307  25.589559 32:32:32:32:32:32 6dBm Nov 18, 2018 01:19:16.776303000 +07
  308  25.725955 32:32:32:32:32:32 8dBm Nov 18, 2018 01:19:16.912699000 +07
  309  25.805170 32:32:32:32:32:32 7dBm Nov 18, 2018 01:19:16.991914000 +07
  310  25.902530 32:32:32:32:32:32 9dBm Nov 18, 2018 01:19:17.089274000 +07
  311  25.980126 32:32:32:32:32:32 7dBm Nov 18, 2018 01:19:17.166870000 +07
  312  26.019773 32:32:32:32:32:32 6dBm Nov 18, 2018 01:19:17.206517000 +07
  313  26.164708 32:32:32:32:32:32 5dBm Nov 18, 2018 01:19:17.351452000 +07
  314  26.259088 32:32:32:32:32:32 7dBm Nov 18, 2018 01:19:17.445832000 +07
  315  26.347082 32:32:32:32:32:32 8dBm Nov 18, 2018 01:19:17.533826000 +07
  316  26.367725 32:32:32:32:32:32 8dBm Nov 18, 2018 01:19:17.554469000 +07
  317  26.425500 32:32:32:32:32:32 8dBm Nov 18, 2018 01:19:17.612244000 +07
  318  26.444884 32:32:32:32:32:32 8dBm Nov 18, 2018 01:19:17.631628000 +07
  319  26.495294 32:32:32:32:32:32 7dBm Nov 18, 2018 01:19:17.682038000 +07
  320  26.593163 32:32:32:32:32:32 6dBm Nov 18, 2018 01:19:17.779907000 +07
  321  26.660826 32:32:32:32:32:32 8dBm Nov 18, 2018 01:19:17.847570000 +07
  322  26.702759 32:32:32:32:32:32 7dBm Nov 18, 2018 01:19:17.889503000 +07
  323  26.820363 32:32:32:32:32:32 8dBm Nov 18, 2018 01:19:18.007107000 +07
  324  26.925815 32:32:32:32:32:32 8dBm Nov 18, 2018 01:19:18.112559000 +07
  325  26.974636 32:32:32:32:32:32 9dBm Nov 18, 2018 01:19:18.161380000 +07
  326  27.002248 32:32:32:32:32:32 9dBm Nov 18, 2018 01:19:18.188992000 +07
  327  27.081535 32:32:32:32:32:32 7dBm Nov 18, 2018 01:19:18.268279000 +07
  328  27.100552 32:32:32:32:32:32 10dBm Nov 18, 2018 01:19:18.287296000 +07
  329  27.188365 32:32:32:32:32:32 7dBm Nov 18, 2018 01:19:18.375109000 +07
  330  27.354205 32:32:32:32:32:32 9dBm Nov 18, 2018 01:19:18.540949000 +07
  331  27.386003 32:32:32:32:32:32 9dBm Nov 18, 2018 01:19:18.572747000 +07
  332  27.498732 32:32:32:32:32:32 6dBm Nov 18, 2018 01:19:18.685476000 +07
  333  27.616469 32:32:32:32:32:32 9dBm Nov 18, 2018 01:19:18.803213000 +07
  334  27.620243 32:32:32:32:32:32 7dBm Nov 18, 2018 01:19:18.806987000 +07
  335  27.654925 32:32:32:32:32:32 8dBm Nov 18, 2018 01:19:18.841669000 +07
  336  27.773877 32:32:32:32:32:32 8dBm Nov 18, 2018 01:19:18.960621000 +07
  337  27.864383 32:32:32:32:32:32 8dBm Nov 18, 2018 01:19:19.051127000 +07
  338  27.885301 32:32:32:32:32:32 9dBm Nov 18, 2018 01:19:19.072045000 +07
  339  27.931560 32:32:32:32:32:32 7dBm Nov 18, 2018 01:19:19.118304000 +07
  340  28.315058 32:32:32:32:32:32 8dBm Nov 18, 2018 01:19:19.501802000 +07
  341  28.327062 32:32:32:32:32:32 8dBm Nov 18, 2018 01:19:19.513806000 +07
  342  28.333636 32:32:32:32:32:32 8dBm Nov 18, 2018 01:19:19.520380000 +07
  343  28.345504 32:32:32:32:32:32 9dBm Nov 18, 2018 01:19:19.532248000 +07
  344  28.368498 32:32:32:32:32:32 8dBm Nov 18, 2018 01:19:19.555242000 +07
  345  28.539770 32:32:32:32:32:32 8dBm Nov 18, 2018 01:19:19.726514000 +07
  346  28.607340 32:32:32:32:32:32 8dBm Nov 18, 2018 01:19:19.794084000 +07
  347  28.749127 32:32:32:32:32:32 9dBm Nov 18, 2018 01:19:19.935871000 +07
  348  28.755631 32:32:32:32:32:32 8dBm Nov 18, 2018 01:19:19.942375000 +07
  349  28.800996 32:32:32:32:32:32 9dBm Nov 18, 2018 01:19:19.987740000 +07
  350  28.826272 32:32:32:32:32:32 8dBm Nov 18, 2018 01:19:20.013016000 +07
  351  28.848410 32:32:32:32:32:32 5dBm Nov 18, 2018 01:19:20.035154000 +07
  352  28.874409 32:32:32:32:32:32 9dBm Nov 18, 2018 01:19:20.061153000 +07
  353  28.963947 32:32:32:32:32:32 9dBm Nov 18, 2018 01:19:20.150691000 +07
  354  28.987445 32:32:32:32:32:32 9dBm Nov 18, 2018 01:19:20.174189000 +07
  355  28.990677 32:32:32:32:32:32 10dBm Nov 18, 2018 01:19:20.177421000 +07
  356  29.010860 32:32:32:32:32:32 8dBm Nov 18, 2018 01:19:20.197604000 +07
  357  29.123565 32:32:32:32:32:32 8dBm Nov 18, 2018 01:19:20.310309000 +07
  358  29.247213 32:32:32:32:32:32 8dBm Nov 18, 2018 01:19:20.433957000 +07
  359  29.278955 32:32:32:32:32:32 9dBm Nov 18, 2018 01:19:20.465699000 +07
  360  29.303021 32:32:32:32:32:32 9dBm Nov 18, 2018 01:19:20.489765000 +07
  361  29.333089 32:32:32:32:32:32 8dBm Nov 18, 2018 01:19:20.519833000 +07
  362  29.436355 32:32:32:32:32:32 9dBm Nov 18, 2018 01:19:20.623099000 +07
  363  29.453233 32:32:32:32:32:32 7dBm Nov 18, 2018 01:19:20.639977000 +07
  364  29.529250 32:32:32:32:32:32 9dBm Nov 18, 2018 01:19:20.715994000 +07
  365  29.670714 32:32:32:32:32:32 7dBm Nov 18, 2018 01:19:20.857458000 +07
  366  29.679896 32:32:32:32:32:32 8dBm Nov 18, 2018 01:19:20.866640000 +07
  367  29.784655 32:32:32:32:32:32 7dBm Nov 18, 2018 01:19:20.971399000 +07
  368  29.861169 32:32:32:32:32:32 7dBm Nov 18, 2018 01:19:21.047913000 +07
  369  29.915748 32:32:32:32:32:32 5dBm Nov 18, 2018 01:19:21.102492000 +07
  370  29.961522 32:32:32:32:32:32 6dBm Nov 18, 2018 01:19:21.148266000 +07
  371  29.993306 32:32:32:32:32:32 6dBm Nov 18, 2018 01:19:21.180050000 +07
  372  30.015467 32:32:32:32:32:32 7dBm Nov 18, 2018 01:19:21.202211000 +07
  373  30.095632 32:32:32:32:32:32 6dBm Nov 18, 2018 01:19:21.282376000 +07
  374  30.476639 32:32:32:32:32:32 6dBm Nov 18, 2018 01:19:21.663383000 +07
  375  30.743689 32:32:32:32:32:32 5dBm Nov 18, 2018 01:19:21.930433000 +07
  376  31.715470 32:32:32:32:32:32 5dBm Nov 18, 2018 01:19:22.902214000 +07
  377  31.753042 32:32:32:32:32:32 6dBm Nov 18, 2018 01:19:22.939786000 +07
  378  31.791256 32:32:32:32:32:32 6dBm Nov 18, 2018 01:19:22.978000000 +07
  379  31.845028 32:32:32:32:32:32 5dBm Nov 18, 2018 01:19:23.031772000 +07
  380  31.882465 32:32:32:32:32:32 6dBm Nov 18, 2018 01:19:23.069209000 +07
  381  31.932357 32:32:32:32:32:32 6dBm Nov 18, 2018 01:19:23.119101000 +07
  382  31.990438 32:32:32:32:32:32 7dBm Nov 18, 2018 01:19:23.177182000 +07
  383  32.022307 32:32:32:32:32:32 9dBm Nov 18, 2018 01:19:23.209051000 +07
  384  32.054449 32:32:32:32:32:32 5dBm Nov 18, 2018 01:19:23.241193000 +07
  385  32.100014 32:32:32:32:32:32 9dBm Nov 18, 2018 01:19:23.286758000 +07
  386  32.152389 32:32:32:32:32:32 7dBm Nov 18, 2018 01:19:23.339133000 +07
  387  32.197272 32:32:32:32:32:32 7dBm Nov 18, 2018 01:19:23.384016000 +07
  388  32.324991 32:32:32:32:32:32 7dBm Nov 18, 2018 01:19:23.511735000 +07
  389  32.371966 32:32:32:32:32:32 8dBm Nov 18, 2018 01:19:23.558710000 +07
  390  32.398047 32:32:32:32:32:32 9dBm Nov 18, 2018 01:19:23.584791000 +07
  391  32.537511 32:32:32:32:32:32 7dBm Nov 18, 2018 01:19:23.724255000 +07
  392  32.598326 32:32:32:32:32:32 8dBm Nov 18, 2018 01:19:23.785070000 +07
  393  32.629265 32:32:32:32:32:32 5dBm Nov 18, 2018 01:19:23.816009000 +07
  394  32.649315 32:32:32:32:32:32 7dBm Nov 18, 2018 01:19:23.836059000 +07
  395  32.728429 32:32:32:32:32:32 8dBm Nov 18, 2018 01:19:23.915173000 +07
  396  32.770384 32:32:32:32:32:32 7dBm Nov 18, 2018 01:19:23.957128000 +07
  397  32.798375 32:32:32:32:32:32 7dBm Nov 18, 2018 01:19:23.985119000 +07
  398  32.829216 32:32:32:32:32:32 6dBm Nov 18, 2018 01:19:24.015960000 +07
  399  32.860683 32:32:32:32:32:32 7dBm Nov 18, 2018 01:19:24.047427000 +07
  400  32.884566 32:32:32:32:32:32 9dBm Nov 18, 2018 01:19:24.071310000 +07
  401  32.921362 32:32:32:32:32:32 7dBm Nov 18, 2018 01:19:24.108106000 +07
  402  32.941546 32:32:32:32:32:32 6dBm Nov 18, 2018 01:19:24.128290000 +07
  403  32.961209 32:32:32:32:32:32 6dBm Nov 18, 2018 01:19:24.147953000 +07
  404  32.983372 32:32:32:32:32:32 5dBm Nov 18, 2018 01:19:24.170116000 +07
  405  33.005381 32:32:32:32:32:32 5dBm Nov 18, 2018 01:19:24.192125000 +07
  406  33.040915 32:32:32:32:32:32 5dBm Nov 18, 2018 01:19:24.227659000 +07
  407  33.175350 32:32:32:32:32:32 8dBm Nov 18, 2018 01:19:24.362094000 +07
  408  33.278280 32:32:32:32:32:32 7dBm Nov 18, 2018 01:19:24.465024000 +07
  409  33.299049 32:32:32:32:32:32 9dBm Nov 18, 2018 01:19:24.485793000 +07
  410  33.410393 32:32:32:32:32:32 7dBm Nov 18, 2018 01:19:24.597137000 +07
  411  33.456056 32:32:32:32:32:32 6dBm Nov 18, 2018 01:19:24.642800000 +07
  412  33.504971 32:32:32:32:32:32 5dBm Nov 18, 2018 01:19:24.691715000 +07
  413  33.537734 32:32:32:32:32:32 6dBm Nov 18, 2018 01:19:24.724478000 +07
  414  33.566727 32:32:32:32:32:32 7dBm Nov 18, 2018 01:19:24.753471000 +07
  415  33.666444 32:32:32:32:32:32 7dBm Nov 18, 2018 01:19:24.853188000 +07
  416  33.733932 32:32:32:32:32:32 8dBm Nov 18, 2018 01:19:24.920676000 +07
  417  33.771142 32:32:32:32:32:32 8dBm Nov 18, 2018 01:19:24.957886000 +07
  418  33.777342 32:32:32:32:32:32 7dBm Nov 18, 2018 01:19:24.964086000 +07
  419  33.822284 32:32:32:32:32:32 6dBm Nov 18, 2018 01:19:25.009028000 +07
  420  33.848856 32:32:32:32:32:32 6dBm Nov 18, 2018 01:19:25.035600000 +07
  421  33.909436 32:32:32:32:32:32 8dBm Nov 18, 2018 01:19:25.096180000 +07
  422  33.950116 32:32:32:32:32:32 8dBm Nov 18, 2018 01:19:25.136860000 +07
  423  33.968465 32:32:32:32:32:32 8dBm Nov 18, 2018 01:19:25.155209000 +07
  424  34.040198 32:32:32:32:32:32 5dBm Nov 18, 2018 01:19:25.226942000 +07
  425  34.102431 32:32:32:32:32:32 8dBm Nov 18, 2018 01:19:25.289175000 +07
  426  34.125732 32:32:32:32:32:32 7dBm Nov 18, 2018 01:19:25.312476000 +07
  427  34.158588 32:32:32:32:32:32 10dBm Nov 18, 2018 01:19:25.345332000 +07
  428  34.176647 32:32:32:32:32:32 9dBm Nov 18, 2018 01:19:25.363391000 +07
  429  34.272177 32:32:32:32:32:32 7dBm Nov 18, 2018 01:19:25.458921000 +07
  430  34.333573 32:32:32:32:32:32 9dBm Nov 18, 2018 01:19:25.520317000 +07
  431  34.401705 32:32:32:32:32:32 8dBm Nov 18, 2018 01:19:25.588449000 +07
  432  34.447002 32:32:32:32:32:32 7dBm Nov 18, 2018 01:19:25.633746000 +07
  433  34.465226 32:32:32:32:32:32 7dBm Nov 18, 2018 01:19:25.651970000 +07
  434  34.648833 32:32:32:32:32:32 6dBm Nov 18, 2018 01:19:25.835577000 +07
  435  34.699291 32:32:32:32:32:32 5dBm Nov 18, 2018 01:19:25.886035000 +07
  436  34.728649 32:32:32:32:32:32 6dBm Nov 18, 2018 01:19:25.915393000 +07
  437  34.814157 32:32:32:32:32:32 8dBm Nov 18, 2018 01:19:26.000901000 +07
  438  34.931012 32:32:32:32:32:32 9dBm Nov 18, 2018 01:19:26.117756000 +07
  439  35.049029 32:32:32:32:32:32 5dBm Nov 18, 2018 01:19:26.235773000 +07
  440  35.085032 32:32:32:32:32:32 4dBm Nov 18, 2018 01:19:26.271776000 +07
  441  35.117819 32:32:32:32:32:32 5dBm Nov 18, 2018 01:19:26.304563000 +07
  442  35.233354 32:32:32:32:32:32 6dBm Nov 18, 2018 01:19:26.420098000 +07
  443  35.259194 32:32:32:32:32:32 5dBm Nov 18, 2018 01:19:26.445938000 +07
  444  35.316325 32:32:32:32:32:32 6dBm Nov 18, 2018 01:19:26.503069000 +07
  445  35.507703 32:32:32:32:32:32 6dBm Nov 18, 2018 01:19:26.694447000 +07
  446  35.548987 32:32:32:32:32:32 6dBm Nov 18, 2018 01:19:26.735731000 +07
  447  35.633091 32:32:32:32:32:32 6dBm Nov 18, 2018 01:19:26.819835000 +07
  448  35.683249 32:32:32:32:32:32 6dBm Nov 18, 2018 01:19:26.869993000 +07
  449  35.759837 32:32:32:32:32:32 6dBm Nov 18, 2018 01:19:26.946581000 +07
  450  35.862132 32:32:32:32:32:32 6dBm Nov 18, 2018 01:19:27.048876000 +07
  451  35.976855 32:32:32:32:32:32 7dBm Nov 18, 2018 01:19:27.163599000 +07
  452  36.082901 32:32:32:32:32:32 5dBm Nov 18, 2018 01:19:27.269645000 +07
  453  36.160760 32:32:32:32:32:32 9dBm Nov 18, 2018 01:19:27.347504000 +07
  454  36.246414 32:32:32:32:32:32 5dBm Nov 18, 2018 01:19:27.433158000 +07
  455  36.376251 32:32:32:32:32:32 6dBm Nov 18, 2018 01:19:27.562995000 +07
  456  36.406706 32:32:32:32:32:32 6dBm Nov 18, 2018 01:19:27.593450000 +07
  457  36.444951 32:32:32:32:32:32 6dBm Nov 18, 2018 01:19:27.631695000 +07
  458  36.458601 32:32:32:32:32:32 3dBm Nov 18, 2018 01:19:27.645345000 +07
  459  36.486812 32:32:32:32:32:32 8dBm Nov 18, 2018 01:19:27.673556000 +07
  460  36.513847 32:32:32:32:32:32 7dBm Nov 18, 2018 01:19:27.700591000 +07
  461  36.609854 32:32:32:32:32:32 6dBm Nov 18, 2018 01:19:27.796598000 +07
  462  36.727412 32:32:32:32:32:32 7dBm Nov 18, 2018 01:19:27.914156000 +07
  463  36.743420 32:32:32:32:32:32 8dBm Nov 18, 2018 01:19:27.930164000 +07
  464  36.827716 32:32:32:32:32:32 8dBm Nov 18, 2018 01:19:28.014460000 +07
  465  36.847534 32:32:32:32:32:32 6dBm Nov 18, 2018 01:19:28.034278000 +07
  466  36.978442 32:32:32:32:32:32 8dBm Nov 18, 2018 01:19:28.165186000 +07
  467  36.998200 32:32:32:32:32:32 7dBm Nov 18, 2018 01:19:28.184944000 +07
  468  37.072905 32:32:32:32:32:32 6dBm Nov 18, 2018 01:19:28.259649000 +07
  469  37.168757 32:32:32:32:32:32 6dBm Nov 18, 2018 01:19:28.355501000 +07
  470  37.290446 32:32:32:32:32:32 7dBm Nov 18, 2018 01:19:28.477190000 +07
  471  37.308744 32:32:32:32:32:32 9dBm Nov 18, 2018 01:19:28.495488000 +07
  472  37.325482 32:32:32:32:32:32 7dBm Nov 18, 2018 01:19:28.512226000 +07
  473  37.409541 32:32:32:32:32:32 7dBm Nov 18, 2018 01:19:28.596285000 +07
  474  37.503938 32:32:32:32:32:32 8dBm Nov 18, 2018 01:19:28.690682000 +07
  475  37.518403 32:32:32:32:32:32 7dBm Nov 18, 2018 01:19:28.705147000 +07
  476  37.668712 32:32:32:32:32:32 8dBm Nov 18, 2018 01:19:28.855456000 +07
  477  37.725040 32:32:32:32:32:32 5dBm Nov 18, 2018 01:19:28.911784000 +07
  478  37.788759 32:32:32:32:32:32 8dBm Nov 18, 2018 01:19:28.975503000 +07
  479  37.874972 32:32:32:32:32:32 7dBm Nov 18, 2018 01:19:29.061716000 +07
  480  38.129309 32:32:32:32:32:32 7dBm Nov 18, 2018 01:19:29.316053000 +07
  481  38.184508 32:32:32:32:32:32 7dBm Nov 18, 2018 01:19:29.371252000 +07
  482  38.234833 32:32:32:32:32:32 7dBm Nov 18, 2018 01:19:29.421577000 +07
  483  38.296107 32:32:32:32:32:32 6dBm Nov 18, 2018 01:19:29.482851000 +07
  484  38.313376 32:32:32:32:32:32 6dBm Nov 18, 2018 01:19:29.500120000 +07
  485  38.326478 32:32:32:32:32:32 7dBm Nov 18, 2018 01:19:29.513222000 +07
  486  38.398762 32:32:32:32:32:32 7dBm Nov 18, 2018 01:19:29.585506000 +07
  487  38.480929 32:32:32:32:32:32 9dBm Nov 18, 2018 01:19:29.667673000 +07
  488  38.538185 32:32:32:32:32:32 7dBm Nov 18, 2018 01:19:29.724929000 +07
  489  38.541023 32:32:32:32:32:32 8dBm Nov 18, 2018 01:19:29.727767000 +07
  490  38.612217 32:32:32:32:32:32 8dBm Nov 18, 2018 01:19:29.798961000 +07
  491  38.634064 32:32:32:32:32:32 7dBm Nov 18, 2018 01:19:29.820808000 +07
  492  38.733693 32:32:32:32:32:32 7dBm Nov 18, 2018 01:19:29.920437000 +07
  493  38.771579 32:32:32:32:32:32 7dBm Nov 18, 2018 01:19:29.958323000 +07
  494  38.820950 32:32:32:32:32:32 7dBm Nov 18, 2018 01:19:30.007694000 +07
  495  38.924544 32:32:32:32:32:32 8dBm Nov 18, 2018 01:19:30.111288000 +07
  496  39.022708 32:32:32:32:32:32 7dBm Nov 18, 2018 01:19:30.209452000 +07
  497  39.041804 32:32:32:32:32:32 7dBm Nov 18, 2018 01:19:30.228548000 +07
  498  39.159110 32:32:32:32:32:32 7dBm Nov 18, 2018 01:19:30.345854000 +07
  499  39.213859 32:32:32:32:32:32 4dBm Nov 18, 2018 01:19:30.400603000 +07
  500  39.285319 32:32:32:32:32:32 8dBm Nov 18, 2018 01:19:30.472063000 +07
  501  39.408891 32:32:32:32:32:32 9dBm Nov 18, 2018 01:19:30.595635000 +07
  502  39.456564 32:32:32:32:32:32 6dBm Nov 18, 2018 01:19:30.643308000 +07
  503  39.496037 32:32:32:32:32:32 7dBm Nov 18, 2018 01:19:30.682781000 +07
  504  39.575970 32:32:32:32:32:32 7dBm Nov 18, 2018 01:19:30.762714000 +07
  505  39.696492 32:32:32:32:32:32 6dBm Nov 18, 2018 01:19:30.883236000 +07
  506  39.777133 32:32:32:32:32:32 6dBm Nov 18, 2018 01:19:30.963877000 +07
  507  39.842298 32:32:32:32:32:32 5dBm Nov 18, 2018 01:19:31.029042000 +07
  508  39.864115 32:32:32:32:32:32 8dBm Nov 18, 2018 01:19:31.050859000 +07
  509  39.894911 32:32:32:32:32:32 7dBm Nov 18, 2018 01:19:31.081655000 +07
  510  39.908981 32:32:32:32:32:32 6dBm Nov 18, 2018 01:19:31.095725000 +07
  511  39.925893 32:32:32:32:32:32 6dBm Nov 18, 2018 01:19:31.112637000 +07
  512  40.054699 32:32:32:32:32:32 6dBm Nov 18, 2018 01:19:31.241443000 +07
  513  40.121492 32:32:32:32:32:32 7dBm Nov 18, 2018 01:19:31.308236000 +07
  514  40.144884 32:32:32:32:32:32 7dBm Nov 18, 2018 01:19:31.331628000 +07
  515  40.200606 32:32:32:32:32:32 6dBm Nov 18, 2018 01:19:31.387350000 +07
  516  40.307570 32:32:32:32:32:32 3dBm Nov 18, 2018 01:19:31.494314000 +07
  517  40.328070 32:32:32:32:32:32 7dBm Nov 18, 2018 01:19:31.514814000 +07
  518  40.357338 32:32:32:32:32:32 8dBm Nov 18, 2018 01:19:31.544082000 +07
  519  40.400770 32:32:32:32:32:32 7dBm Nov 18, 2018 01:19:31.587514000 +07
  520  40.441544 32:32:32:32:32:32 7dBm Nov 18, 2018 01:19:31.628288000 +07
  521  40.474578 32:32:32:32:32:32 5dBm Nov 18, 2018 01:19:31.661322000 +07
  522  40.537290 32:32:32:32:32:32 5dBm Nov 18, 2018 01:19:31.724034000 +07
  523  40.561011 32:32:32:32:32:32 7dBm Nov 18, 2018 01:19:31.747755000 +07
  524  40.571521 32:32:32:32:32:32 6dBm Nov 18, 2018 01:19:31.758265000 +07
  525  40.607648 32:32:32:32:32:32 7dBm Nov 18, 2018 01:19:31.794392000 +07
  526  40.785555 32:32:32:32:32:32 7dBm Nov 18, 2018 01:19:31.972299000 +07
  527  40.950852 32:32:32:32:32:32 8dBm Nov 18, 2018 01:19:32.137596000 +07
  528  41.010171 32:32:32:32:32:32 7dBm Nov 18, 2018 01:19:32.196915000 +07
  529  41.039256 32:32:32:32:32:32 6dBm Nov 18, 2018 01:19:32.226000000 +07
  530  41.060469 32:32:32:32:32:32 6dBm Nov 18, 2018 01:19:32.247213000 +07
  531  41.101765 32:32:32:32:32:32 7dBm Nov 18, 2018 01:19:32.288509000 +07
  532  41.132902 32:32:32:32:32:32 5dBm Nov 18, 2018 01:19:32.319646000 +07
  533  41.183929 32:32:32:32:32:32 6dBm Nov 18, 2018 01:19:32.370673000 +07
  534  41.261629 32:32:32:32:32:32 7dBm Nov 18, 2018 01:19:32.448373000 +07
  535  41.345481 32:32:32:32:32:32 6dBm Nov 18, 2018 01:19:32.532225000 +07
  536  41.364628 32:32:32:32:32:32 5dBm Nov 18, 2018 01:19:32.551372000 +07
  537  41.856573 32:32:32:32:32:32 7dBm Nov 18, 2018 01:19:33.043317000 +07
  538  42.009441 32:32:32:32:32:32 8dBm Nov 18, 2018 01:19:33.196185000 +07
  539  42.044091 32:32:32:32:32:32 7dBm Nov 18, 2018 01:19:33.230835000 +07
  540  42.171106 32:32:32:32:32:32 7dBm Nov 18, 2018 01:19:33.357850000 +07
  541  42.221738 32:32:32:32:32:32 6dBm Nov 18, 2018 01:19:33.408482000 +07
  542  42.470670 32:32:32:32:32:32 7dBm Nov 18, 2018 01:19:33.657414000 +07
  543  42.501999 32:32:32:32:32:32 5dBm Nov 18, 2018 01:19:33.688743000 +07
  544  42.531051 32:32:32:32:32:32 7dBm Nov 18, 2018 01:19:33.717795000 +07
  545  42.568970 32:32:32:32:32:32 6dBm Nov 18, 2018 01:19:33.755714000 +07
  546  42.643724 32:32:32:32:32:32 7dBm Nov 18, 2018 01:19:33.830468000 +07
  547  42.661849 32:32:32:32:32:32 5dBm Nov 18, 2018 01:19:33.848593000 +07
  548  42.691511 32:32:32:32:32:32 4dBm Nov 18, 2018 01:19:33.878255000 +07
  549  42.760959 32:32:32:32:32:32 4dBm Nov 18, 2018 01:19:33.947703000 +07
  550  42.858873 32:32:32:32:32:32 7dBm Nov 18, 2018 01:19:34.045617000 +07
  551  42.897806 32:32:32:32:32:32 7dBm Nov 18, 2018 01:19:34.084550000 +07
  552  42.966896 32:32:32:32:32:32 9dBm Nov 18, 2018 01:19:34.153640000 +07
  553  43.030348 32:32:32:32:32:32 8dBm Nov 18, 2018 01:19:34.217092000 +07
  554  43.052618 32:32:32:32:32:32 8dBm Nov 18, 2018 01:19:34.239362000 +07
  555  43.073382 32:32:32:32:32:32 7dBm Nov 18, 2018 01:19:34.260126000 +07
  556  43.136755 32:32:32:32:32:32 6dBm Nov 18, 2018 01:19:34.323499000 +07
  557  43.243863 32:32:32:32:32:32 6dBm Nov 18, 2018 01:19:34.430607000 +07
  558  43.268174 32:32:32:32:32:32 8dBm Nov 18, 2018 01:19:34.454918000 +07
  559  43.413391 32:32:32:32:32:32 8dBm Nov 18, 2018 01:19:34.600135000 +07
  560  43.443633 32:32:32:32:32:32 5dBm Nov 18, 2018 01:19:34.630377000 +07
  561  43.576250 32:32:32:32:32:32 6dBm Nov 18, 2018 01:19:34.762994000 +07
  562  43.802736 32:32:32:32:32:32 6dBm Nov 18, 2018 01:19:34.989480000 +07
  563  43.807032 32:32:32:32:32:32 6dBm Nov 18, 2018 01:19:34.993776000 +07
  564  43.997632 32:32:32:32:32:32 7dBm Nov 18, 2018 01:19:35.184376000 +07
  565  44.051792 32:32:32:32:32:32 6dBm Nov 18, 2018 01:19:35.238536000 +07
  566  44.074912 32:32:32:32:32:32 6dBm Nov 18, 2018 01:19:35.261656000 +07
  567  44.164843 32:32:32:32:32:32 4dBm Nov 18, 2018 01:19:35.351587000 +07
  568  44.275393 32:32:32:32:32:32 6dBm Nov 18, 2018 01:19:35.462137000 +07
  569  44.490683 32:32:32:32:32:32 6dBm Nov 18, 2018 01:19:35.677427000 +07
  570  44.524673 32:32:32:32:32:32 6dBm Nov 18, 2018 01:19:35.711417000 +07
  571  44.542375 32:32:32:32:32:32 6dBm Nov 18, 2018 01:19:35.729119000 +07
  572  44.555024 32:32:32:32:32:32 7dBm Nov 18, 2018 01:19:35.741768000 +07
  573  44.572739 32:32:32:32:32:32 7dBm Nov 18, 2018 01:19:35.759483000 +07
  574  44.609142 32:32:32:32:32:32 6dBm Nov 18, 2018 01:19:35.795886000 +07
  575  44.764477 32:32:32:32:32:32 5dBm Nov 18, 2018 01:19:35.951221000 +07
  576  44.833045 32:32:32:32:32:32 8dBm Nov 18, 2018 01:19:36.019789000 +07
  577  44.887865 32:32:32:32:32:32 8dBm Nov 18, 2018 01:19:36.074609000 +07
  578  44.927063 32:32:32:32:32:32 8dBm Nov 18, 2018 01:19:36.113807000 +07
  579  44.948005 32:32:32:32:32:32 8dBm Nov 18, 2018 01:19:36.134749000 +07
  580  44.979283 32:32:32:32:32:32 7dBm Nov 18, 2018 01:19:36.166027000 +07
  581  45.006226 32:32:32:32:32:32 6dBm Nov 18, 2018 01:19:36.192970000 +07
  582  45.022918 32:32:32:32:32:32 6dBm Nov 18, 2018 01:19:36.209662000 +07
  583  45.128047 32:32:32:32:32:32 7dBm Nov 18, 2018 01:19:36.314791000 +07
  584  45.193925 32:32:32:32:32:32 7dBm Nov 18, 2018 01:19:36.380669000 +07
  585  45.218637 32:32:32:32:32:32 5dBm Nov 18, 2018 01:19:36.405381000 +07
  586  45.275478 32:32:32:32:32:32 8dBm Nov 18, 2018 01:19:36.462222000 +07
  587  45.333843 32:32:32:32:32:32 8dBm Nov 18, 2018 01:19:36.520587000 +07
  588  45.386794 32:32:32:32:32:32 7dBm Nov 18, 2018 01:19:36.573538000 +07
  589  45.406169 32:32:32:32:32:32 7dBm Nov 18, 2018 01:19:36.592913000 +07
  590  45.429732 32:32:32:32:32:32 7dBm Nov 18, 2018 01:19:36.616476000 +07
  591  45.567580 32:32:32:32:32:32 7dBm Nov 18, 2018 01:19:36.754324000 +07
  592  45.641751 32:32:32:32:32:32 5dBm Nov 18, 2018 01:19:36.828495000 +07
  593  45.724488 32:32:32:32:32:32 6dBm Nov 18, 2018 01:19:36.911232000 +07
  594  45.846307 32:32:32:32:32:32 8dBm Nov 18, 2018 01:19:37.033051000 +07
  595  45.897861 32:32:32:32:32:32 7dBm Nov 18, 2018 01:19:37.084605000 +07
  596  45.965383 32:32:32:32:32:32 6dBm Nov 18, 2018 01:19:37.152127000 +07
  597  46.033620 32:32:32:32:32:32 7dBm Nov 18, 2018 01:19:37.220364000 +07
  598  46.314268 32:32:32:32:32:32 8dBm Nov 18, 2018 01:19:37.501012000 +07
  599  46.381010 32:32:32:32:32:32 7dBm Nov 18, 2018 01:19:37.567754000 +07
  600  46.431102 32:32:32:32:32:32 5dBm Nov 18, 2018 01:19:37.617846000 +07
  601  46.447272 32:32:32:32:32:32 7dBm Nov 18, 2018 01:19:37.634016000 +07
  602  46.547855 32:32:32:32:32:32 7dBm Nov 18, 2018 01:19:37.734599000 +07
  603  46.609228 32:32:32:32:32:32 5dBm Nov 18, 2018 01:19:37.795972000 +07
  604  46.631375 32:32:32:32:32:32 6dBm Nov 18, 2018 01:19:37.818119000 +07
  605  46.682165 32:32:32:32:32:32 7dBm Nov 18, 2018 01:19:37.868909000 +07
  606  46.702275 32:32:32:32:32:32 4dBm Nov 18, 2018 01:19:37.889019000 +07
  607  46.920846 32:32:32:32:32:32 6dBm Nov 18, 2018 01:19:38.107590000 +07
  608  47.040913 32:32:32:32:32:32 8dBm Nov 18, 2018 01:19:38.227657000 +07
  609  47.062346 32:32:32:32:32:32 6dBm Nov 18, 2018 01:19:38.249090000 +07
  610  47.085099 32:32:32:32:32:32 6dBm Nov 18, 2018 01:19:38.271843000 +07
  611  47.375281 32:32:32:32:32:32 8dBm Nov 18, 2018 01:19:38.562025000 +07
  612  47.562918 32:32:32:32:32:32 7dBm Nov 18, 2018 01:19:38.749662000 +07
  613  47.679988 32:32:32:32:32:32 7dBm Nov 18, 2018 01:19:38.866732000 +07
  614  47.693521 32:32:32:32:32:32 8dBm Nov 18, 2018 01:19:38.880265000 +07
  615  47.734100 32:32:32:32:32:32 7dBm Nov 18, 2018 01:19:38.920844000 +07
  616  47.752381 32:32:32:32:32:32 7dBm Nov 18, 2018 01:19:38.939125000 +07
  617  47.813567 32:32:32:32:32:32 6dBm Nov 18, 2018 01:19:39.000311000 +07
  618  47.914876 32:32:32:32:32:32 7dBm Nov 18, 2018 01:19:39.101620000 +07
  619  47.915810 32:32:32:32:32:32 2dBm Nov 18, 2018 01:19:39.102554000 +07
  620  48.058389 32:32:32:32:32:32 7dBm Nov 18, 2018 01:19:39.245133000 +07
  621  48.179656 32:32:32:32:32:32 6dBm Nov 18, 2018 01:19:39.366400000 +07
  622  48.439808 32:32:32:32:32:32 8dBm Nov 18, 2018 01:19:39.626552000 +07
  623  48.483458 32:32:32:32:32:32 6dBm Nov 18, 2018 01:19:39.670202000 +07
  624  48.509799 32:32:32:32:32:32 6dBm Nov 18, 2018 01:19:39.696543000 +07
  625  48.546323 32:32:32:32:32:32 8dBm Nov 18, 2018 01:19:39.733067000 +07
  626  48.567693 32:32:32:32:32:32 7dBm Nov 18, 2018 01:19:39.754437000 +07
  627  48.615103 32:32:32:32:32:32 7dBm Nov 18, 2018 01:19:39.801847000 +07
  628  48.621399 32:32:32:32:32:32 9dBm Nov 18, 2018 01:19:39.808143000 +07
  629  48.643718 32:32:32:32:32:32 7dBm Nov 18, 2018 01:19:39.830462000 +07
  630  48.800195 32:32:32:32:32:32 8dBm Nov 18, 2018 01:19:39.986939000 +07
  631  48.881509 32:32:32:32:32:32 8dBm Nov 18, 2018 01:19:40.068253000 +07
  632  48.908518 32:32:32:32:32:32 5dBm Nov 18, 2018 01:19:40.095262000 +07
  633  49.047102 32:32:32:32:32:32 7dBm Nov 18, 2018 01:19:40.233846000 +07
  634  49.078031 32:32:32:32:32:32 8dBm Nov 18, 2018 01:19:40.264775000 +07
  635  49.230107 32:32:32:32:32:32 8dBm Nov 18, 2018 01:19:40.416851000 +07
  636  49.294494 32:32:32:32:32:32 7dBm Nov 18, 2018 01:19:40.481238000 +07
  637  49.352860 32:32:32:32:32:32 7dBm Nov 18, 2018 01:19:40.539604000 +07
  638  49.416743 32:32:32:32:32:32 5dBm Nov 18, 2018 01:19:40.603487000 +07
  639  49.486975 32:32:32:32:32:32 7dBm Nov 18, 2018 01:19:40.673719000 +07
  640  49.515194 32:32:32:32:32:32 7dBm Nov 18, 2018 01:19:40.701938000 +07
  641  49.546005 32:32:32:32:32:32 7dBm Nov 18, 2018 01:19:40.732749000 +07
  642  49.765752 32:32:32:32:32:32 6dBm Nov 18, 2018 01:19:40.952496000 +07
  643  49.781150 32:32:32:32:32:32 7dBm Nov 18, 2018 01:19:40.967894000 +07
  644  49.860051 32:32:32:32:32:32 8dBm Nov 18, 2018 01:19:41.046795000 +07
  645  50.139396 32:32:32:32:32:32 6dBm Nov 18, 2018 01:19:41.326140000 +07
  646  50.182535 32:32:32:32:32:32 9dBm Nov 18, 2018 01:19:41.369279000 +07
  647  50.258573 32:32:32:32:32:32 6dBm Nov 18, 2018 01:19:41.445317000 +07
  648  50.260260 32:32:32:32:32:32 8dBm Nov 18, 2018 01:19:41.447004000 +07
  649  50.272344 32:32:32:32:32:32 7dBm Nov 18, 2018 01:19:41.459088000 +07
  650  50.328830 32:32:32:32:32:32 7dBm Nov 18, 2018 01:19:41.515574000 +07
  651  50.369503 32:32:32:32:32:32 5dBm Nov 18, 2018 01:19:41.556247000 +07
  652  50.398683 32:32:32:32:32:32 7dBm Nov 18, 2018 01:19:41.585427000 +07
  653  50.417322 32:32:32:32:32:32 7dBm Nov 18, 2018 01:19:41.604066000 +07
  654  50.422824 32:32:32:32:32:32 8dBm Nov 18, 2018 01:19:41.609568000 +07
  655  50.508870 32:32:32:32:32:32 9dBm Nov 18, 2018 01:19:41.695614000 +07
  656  50.928496 32:32:32:32:32:32 6dBm Nov 18, 2018 01:19:42.115240000 +07
  657  51.084955 32:32:32:32:32:32 7dBm Nov 18, 2018 01:19:42.271699000 +07
  658  51.108042 32:32:32:32:32:32 7dBm Nov 18, 2018 01:19:42.294786000 +07
  659  51.160727 32:32:32:32:32:32 8dBm Nov 18, 2018 01:19:42.347471000 +07
  660  51.181978 32:32:32:32:32:32 6dBm Nov 18, 2018 01:19:42.368722000 +07
  661  51.190962 32:32:32:32:32:32 6dBm Nov 18, 2018 01:19:42.377706000 +07
  662  51.285918 32:32:32:32:32:32 6dBm Nov 18, 2018 01:19:42.472662000 +07
  663  51.314221 32:32:32:32:32:32 8dBm Nov 18, 2018 01:19:42.500965000 +07
  664  51.374337 32:32:32:32:32:32 7dBm Nov 18, 2018 01:19:42.561081000 +07
  665  51.463422 32:32:32:32:32:32 6dBm Nov 18, 2018 01:19:42.650166000 +07
  666  51.563183 32:32:32:32:32:32 7dBm Nov 18, 2018 01:19:42.749927000 +07
  667  51.594901 32:32:32:32:32:32 9dBm Nov 18, 2018 01:19:42.781645000 +07
  668  51.679402 32:32:32:32:32:32 5dBm Nov 18, 2018 01:19:42.866146000 +07
  669  51.688407 32:32:32:32:32:32 7dBm Nov 18, 2018 01:19:42.875151000 +07
  670  51.715940 32:32:32:32:32:32 6dBm Nov 18, 2018 01:19:42.902684000 +07
  671  51.744229 32:32:32:32:32:32 5dBm Nov 18, 2018 01:19:42.930973000 +07
  672  51.836321 32:32:32:32:32:32 8dBm Nov 18, 2018 01:19:43.023065000 +07
  673  51.867969 32:32:32:32:32:32 6dBm Nov 18, 2018 01:19:43.054713000 +07
  674  51.902238 32:32:32:32:32:32 6dBm Nov 18, 2018 01:19:43.088982000 +07
  675  51.969991 32:32:32:32:32:32 6dBm Nov 18, 2018 01:19:43.156735000 +07
  676  52.566270 32:32:32:32:32:32 7dBm Nov 18, 2018 01:19:43.753014000 +07
  677  52.931949 32:32:32:32:32:32 7dBm Nov 18, 2018 01:19:44.118693000 +07
  678  52.957545 32:32:32:32:32:32 7dBm Nov 18, 2018 01:19:44.144289000 +07
  679  53.005597 32:32:32:32:32:32 8dBm Nov 18, 2018 01:19:44.192341000 +07
  680  53.080000 32:32:32:32:32:32 6dBm Nov 18, 2018 01:19:44.266744000 +07
  681  53.207266 32:32:32:32:32:32 9dBm Nov 18, 2018 01:19:44.394010000 +07
  682  53.368540 32:32:32:32:32:32 9dBm Nov 18, 2018 01:19:44.555284000 +07
  683  53.411818 32:32:32:32:32:32 5dBm Nov 18, 2018 01:19:44.598562000 +07
  684  53.486124 32:32:32:32:32:32 5dBm Nov 18, 2018 01:19:44.672868000 +07
  685  53.499190 32:32:32:32:32:32 6dBm Nov 18, 2018 01:19:44.685934000 +07
  686  53.597349 32:32:32:32:32:32 5dBm Nov 18, 2018 01:19:44.784093000 +07
  687  53.606940 32:32:32:32:32:32 5dBm Nov 18, 2018 01:19:44.793684000 +07
  688  53.788141 32:32:32:32:32:32 10dBm Nov 18, 2018 01:19:44.974885000 +07
  689  53.900971 32:32:32:32:32:32 8dBm Nov 18, 2018 01:19:45.087715000 +07
  690  54.000753 32:32:32:32:32:32 5dBm Nov 18, 2018 01:19:45.187497000 +07
  691  54.063173 32:32:32:32:32:32 9dBm Nov 18, 2018 01:19:45.249917000 +07
  692  54.101844 32:32:32:32:32:32 7dBm Nov 18, 2018 01:19:45.288588000 +07
  693  54.156864 32:32:32:32:32:32 8dBm Nov 18, 2018 01:19:45.343608000 +07
  694  54.180172 32:32:32:32:32:32 6dBm Nov 18, 2018 01:19:45.366916000 +07
  695  54.224834 32:32:32:32:32:32 7dBm Nov 18, 2018 01:19:45.411578000 +07
  696  54.483388 32:32:32:32:32:32 8dBm Nov 18, 2018 01:19:45.670132000 +07
  697  54.718302 32:32:32:32:32:32 5dBm Nov 18, 2018 01:19:45.905046000 +07
  698  54.736555 32:32:32:32:32:32 6dBm Nov 18, 2018 01:19:45.923299000 +07
  699  54.786468 32:32:32:32:32:32 7dBm Nov 18, 2018 01:19:45.973212000 +07
  700  54.885657 32:32:32:32:32:32 4dBm Nov 18, 2018 01:19:46.072401000 +07
  701  54.933286 32:32:32:32:32:32 8dBm Nov 18, 2018 01:19:46.120030000 +07
  702  54.967875 32:32:32:32:32:32 7dBm Nov 18, 2018 01:19:46.154619000 +07
  703  55.198100 32:32:32:32:32:32 8dBm Nov 18, 2018 01:19:46.384844000 +07
  704  55.299263 32:32:32:32:32:32 8dBm Nov 18, 2018 01:19:46.486007000 +07
  705  55.327890 32:32:32:32:32:32 8dBm Nov 18, 2018 01:19:46.514634000 +07
  706  55.355601 32:32:32:32:32:32 7dBm Nov 18, 2018 01:19:46.542345000 +07
  707  55.413149 32:32:32:32:32:32 5dBm Nov 18, 2018 01:19:46.599893000 +07
  708  55.507719 32:32:32:32:32:32 7dBm Nov 18, 2018 01:19:46.694463000 +07
  709  55.524791 32:32:32:32:32:32 7dBm Nov 18, 2018 01:19:46.711535000 +07
  710  55.546645 32:32:32:32:32:32 6dBm Nov 18, 2018 01:19:46.733389000 +07
  711  55.571352 32:32:32:32:32:32 7dBm Nov 18, 2018 01:19:46.758096000 +07
  712  55.850618 32:32:32:32:32:32 6dBm Nov 18, 2018 01:19:47.037362000 +07
  713  56.021171 32:32:32:32:32:32 7dBm Nov 18, 2018 01:19:47.207915000 +07
  714  56.333887 32:32:32:32:32:32 8dBm Nov 18, 2018 01:19:47.520631000 +07
  715  56.370649 32:32:32:32:32:32 8dBm Nov 18, 2018 01:19:47.557393000 +07
  716  56.401307 32:32:32:32:32:32 7dBm Nov 18, 2018 01:19:47.588051000 +07
  717  56.509935 32:32:32:32:32:32 8dBm Nov 18, 2018 01:19:47.696679000 +07
  718  56.564597 32:32:32:32:32:32 7dBm Nov 18, 2018 01:19:47.751341000 +07
  719  56.577066 32:32:32:32:32:32 9dBm Nov 18, 2018 01:19:47.763810000 +07
  720  56.608567 32:32:32:32:32:32 7dBm Nov 18, 2018 01:19:47.795311000 +07
  721  56.624499 32:32:32:32:32:32 8dBm Nov 18, 2018 01:19:47.811243000 +07
  722  56.712400 32:32:32:32:32:32 6dBm Nov 18, 2018 01:19:47.899144000 +07
  723  57.038808 32:32:32:32:32:32 7dBm Nov 18, 2018 01:19:48.225552000 +07
  724  57.107480 32:32:32:32:32:32 7dBm Nov 18, 2018 01:19:48.294224000 +07
  725  57.189518 32:32:32:32:32:32 7dBm Nov 18, 2018 01:19:48.376262000 +07
  726  57.219136 32:32:32:32:32:32 2dBm Nov 18, 2018 01:19:48.405880000 +07
  727  57.232921 32:32:32:32:32:32 8dBm Nov 18, 2018 01:19:48.419665000 +07
  728  57.300093 32:32:32:32:32:32 6dBm Nov 18, 2018 01:19:48.486837000 +07
  729  57.588593 32:32:32:32:32:32 8dBm Nov 18, 2018 01:19:48.775337000 +07
  730  57.680214 32:32:32:32:32:32 7dBm Nov 18, 2018 01:19:48.866958000 +07
  731  57.697598 32:32:32:32:32:32 8dBm Nov 18, 2018 01:19:48.884342000 +07
  732  57.731540 32:32:32:32:32:32 6dBm Nov 18, 2018 01:19:48.918284000 +07
  733  57.764230 32:32:32:32:32:32 7dBm Nov 18, 2018 01:19:48.950974000 +07
  734  57.975051 32:32:32:32:32:32 7dBm Nov 18, 2018 01:19:49.161795000 +07
  735  58.054293 32:32:32:32:32:32 7dBm Nov 18, 2018 01:19:49.241037000 +07
  736  58.077725 32:32:32:32:32:32 8dBm Nov 18, 2018 01:19:49.264469000 +07
  737  58.242881 32:32:32:32:32:32 8dBm Nov 18, 2018 01:19:49.429625000 +07
  738  58.282608 32:32:32:32:32:32 8dBm Nov 18, 2018 01:19:49.469352000 +07
  739  58.470283 32:32:32:32:32:32 8dBm Nov 18, 2018 01:19:49.657027000 +07
  740  58.520444 32:32:32:32:32:32 6dBm Nov 18, 2018 01:19:49.707188000 +07
  741  58.554979 32:32:32:32:32:32 6dBm Nov 18, 2018 01:19:49.741723000 +07
  742  58.637430 32:32:32:32:32:32 6dBm Nov 18, 2018 01:19:49.824174000 +07
  743  58.667796 32:32:32:32:32:32 6dBm Nov 18, 2018 01:19:49.854540000 +07
  744  58.761289 32:32:32:32:32:32 8dBm Nov 18, 2018 01:19:49.948033000 +07
  745  58.865072 32:32:32:32:32:32 7dBm Nov 18, 2018 01:19:50.051816000 +07
  746  58.870863 32:32:32:32:32:32 7dBm Nov 18, 2018 01:19:50.057607000 +07
  747  58.900768 32:32:32:32:32:32 6dBm Nov 18, 2018 01:19:50.087512000 +07
  748  59.026314 32:32:32:32:32:32 8dBm Nov 18, 2018 01:19:50.213058000 +07
  749  59.047112 32:32:32:32:32:32 4dBm Nov 18, 2018 01:19:50.233856000 +07
  750  59.061630 32:32:32:32:32:32 7dBm Nov 18, 2018 01:19:50.248374000 +07
  751  59.115698 32:32:32:32:32:32 6dBm Nov 18, 2018 01:19:50.302442000 +07
  752  59.121817 32:32:32:32:32:32 7dBm Nov 18, 2018 01:19:50.308561000 +07
  753  59.269609 32:32:32:32:32:32 9dBm Nov 18, 2018 01:19:50.456353000 +07
  754  59.399756 32:32:32:32:32:32 7dBm Nov 18, 2018 01:19:50.586500000 +07
  755  59.563445 32:32:32:32:32:32 7dBm Nov 18, 2018 01:19:50.750189000 +07
  756  59.629031 32:32:32:32:32:32 7dBm Nov 18, 2018 01:19:50.815775000 +07
  757  59.778145 32:32:32:32:32:32 7dBm Nov 18, 2018 01:19:50.964889000 +07
  758  59.811016 32:32:32:32:32:32 7dBm Nov 18, 2018 01:19:50.997760000 +07
  759  59.911755 32:32:32:32:32:32 7dBm Nov 18, 2018 01:19:51.098499000 +07
  760  60.013128 32:32:32:32:32:32 6dBm Nov 18, 2018 01:19:51.199872000 +07
  761  60.119484 32:32:32:32:32:32 8dBm Nov 18, 2018 01:19:51.306228000 +07
  762  60.303265 32:32:32:32:32:32 7dBm Nov 18, 2018 01:19:51.490009000 +07
  763  60.353231 32:32:32:32:32:32 8dBm Nov 18, 2018 01:19:51.539975000 +07
  764  60.520942 32:32:32:32:32:32 7dBm Nov 18, 2018 01:19:51.707686000 +07
  765  60.568003 32:32:32:32:32:32 3dBm Nov 18, 2018 01:19:51.754747000 +07
  766  60.653303 32:32:32:32:32:32 8dBm Nov 18, 2018 01:19:51.840047000 +07
  767  60.696665 32:32:32:32:32:32 6dBm Nov 18, 2018 01:19:51.883409000 +07
  768  60.792106 32:32:32:32:32:32 7dBm Nov 18, 2018 01:19:51.978850000 +07
  769  60.987471 32:32:32:32:32:32 7dBm Nov 18, 2018 01:19:52.174215000 +07
  770  61.154048 32:32:32:32:32:32 7dBm Nov 18, 2018 01:19:52.340792000 +07
  771  61.342453 32:32:32:32:32:32 7dBm Nov 18, 2018 01:19:52.529197000 +07
  772  61.449044 32:32:32:32:32:32 8dBm Nov 18, 2018 01:19:52.635788000 +07
  773  61.492290 32:32:32:32:32:32 5dBm Nov 18, 2018 01:19:52.679034000 +07
  774  61.596664 32:32:32:32:32:32 7dBm Nov 18, 2018 01:19:52.783408000 +07
  775  61.610092 32:32:32:32:32:32 7dBm Nov 18, 2018 01:19:52.796836000 +07
  776  61.622454 32:32:32:32:32:32 9dBm Nov 18, 2018 01:19:52.809198000 +07
  777  61.665482 32:32:32:32:32:32 7dBm Nov 18, 2018 01:19:52.852226000 +07
  778  61.811507 32:32:32:32:32:32 5dBm Nov 18, 2018 01:19:52.998251000 +07
  779  61.993126 32:32:32:32:32:32 7dBm Nov 18, 2018 01:19:53.179870000 +07
  780  62.126094 32:32:32:32:32:32 7dBm Nov 18, 2018 01:19:53.312838000 +07
  781  62.148234 32:32:32:32:32:32 7dBm Nov 18, 2018 01:19:53.334978000 +07
  782  62.207386 32:32:32:32:32:32 7dBm Nov 18, 2018 01:19:53.394130000 +07
  783  62.302354 32:32:32:32:32:32 7dBm Nov 18, 2018 01:19:53.489098000 +07
  784  62.341294 32:32:32:32:32:32 6dBm Nov 18, 2018 01:19:53.528038000 +07
  785  62.390414 32:32:32:32:32:32 6dBm Nov 18, 2018 01:19:53.577158000 +07
  786  62.418077 32:32:32:32:32:32 7dBm Nov 18, 2018 01:19:53.604821000 +07
  787  62.584378 32:32:32:32:32:32 7dBm Nov 18, 2018 01:19:53.771122000 +07
  788  62.717832 32:32:32:32:32:32 7dBm Nov 18, 2018 01:19:53.904576000 +07
  789  62.750428 32:32:32:32:32:32 7dBm Nov 18, 2018 01:19:53.937172000 +07
  790  62.752493 32:32:32:32:32:32 6dBm Nov 18, 2018 01:19:53.939237000 +07
  791  62.804884 32:32:32:32:32:32 7dBm Nov 18, 2018 01:19:53.991628000 +07
  792  62.916321 32:32:32:32:32:32 7dBm Nov 18, 2018 01:19:54.103065000 +07
  793  62.930168 32:32:32:32:32:32 5dBm Nov 18, 2018 01:19:54.116912000 +07
  794  62.953629 32:32:32:32:32:32 6dBm Nov 18, 2018 01:19:54.140373000 +07
  795  63.010878 32:32:32:32:32:32 8dBm Nov 18, 2018 01:19:54.197622000 +07
  796  63.052702 32:32:32:32:32:32 7dBm Nov 18, 2018 01:19:54.239446000 +07
  797  63.096682 32:32:32:32:32:32 7dBm Nov 18, 2018 01:19:54.283426000 +07
  798  63.307103 32:32:32:32:32:32 7dBm Nov 18, 2018 01:19:54.493847000 +07
  799  63.316832 32:32:32:32:32:32 8dBm Nov 18, 2018 01:19:54.503576000 +07
  800  63.427465 32:32:32:32:32:32 7dBm Nov 18, 2018 01:19:54.614209000 +07
  801  63.475383 32:32:32:32:32:32 4dBm Nov 18, 2018 01:19:54.662127000 +07
  802  63.584455 32:32:32:32:32:32 4dBm Nov 18, 2018 01:19:54.771199000 +07
  803  63.638266 32:32:32:32:32:32 5dBm Nov 18, 2018 01:19:54.825010000 +07
  804  63.866784 32:32:32:32:32:32 4dBm Nov 18, 2018 01:19:55.053528000 +07
  805  63.950182 32:32:32:32:32:32 1dBm Nov 18, 2018 01:19:55.136926000 +07
  806  63.986096 32:32:32:32:32:32 7dBm Nov 18, 2018 01:19:55.172840000 +07
  807  64.030810 32:32:32:32:32:32 7dBm Nov 18, 2018 01:19:55.217554000 +07
  808  64.116714 32:32:32:32:32:32 7dBm Nov 18, 2018 01:19:55.303458000 +07
  809  64.134942 32:32:32:32:32:32 7dBm Nov 18, 2018 01:19:55.321686000 +07
  810  64.161453 32:32:32:32:32:32 7dBm Nov 18, 2018 01:19:55.348197000 +07
  811  64.181875 32:32:32:32:32:32 7dBm Nov 18, 2018 01:19:55.368619000 +07
  812  64.193970 32:32:32:32:32:32 3dBm Nov 18, 2018 01:19:55.380714000 +07
  813  64.213412 32:32:32:32:32:32 3dBm Nov 18, 2018 01:19:55.400156000 +07
  814  64.325477 32:32:32:32:32:32 6dBm Nov 18, 2018 01:19:55.512221000 +07
  815  64.343324 32:32:32:32:32:32 6dBm Nov 18, 2018 01:19:55.530068000 +07
  816  64.352111 32:32:32:32:32:32 5dBm Nov 18, 2018 01:19:55.538855000 +07
  817  64.599680 32:32:32:32:32:32 7dBm Nov 18, 2018 01:19:55.786424000 +07
  818  64.773843 32:32:32:32:32:32 6dBm Nov 18, 2018 01:19:55.960587000 +07
  819  64.825858 32:32:32:32:32:32 5dBm Nov 18, 2018 01:19:56.012602000 +07
  820  64.860352 32:32:32:32:32:32 3dBm Nov 18, 2018 01:19:56.047096000 +07
  821  64.889104 32:32:32:32:32:32 7dBm Nov 18, 2018 01:19:56.075848000 +07
  822  64.916873 32:32:32:32:32:32 8dBm Nov 18, 2018 01:19:56.103617000 +07
  823  64.985420 32:32:32:32:32:32 5dBm Nov 18, 2018 01:19:56.172164000 +07
  824  65.123583 32:32:32:32:32:32 8dBm Nov 18, 2018 01:19:56.310327000 +07
  825  65.180683 32:32:32:32:32:32 7dBm Nov 18, 2018 01:19:56.367427000 +07
  826  65.223282 32:32:32:32:32:32 7dBm Nov 18, 2018 01:19:56.410026000 +07
  827  65.293388 32:32:32:32:32:32 6dBm Nov 18, 2018 01:19:56.480132000 +07
  828  65.472691 32:32:32:32:32:32 8dBm Nov 18, 2018 01:19:56.659435000 +07
  829  65.569501 32:32:32:32:32:32 7dBm Nov 18, 2018 01:19:56.756245000 +07
  830  65.584125 32:32:32:32:32:32 6dBm Nov 18, 2018 01:19:56.770869000 +07
  831  65.661265 32:32:32:32:32:32 5dBm Nov 18, 2018 01:19:56.848009000 +07
  832  65.915896 32:32:32:32:32:32 6dBm Nov 18, 2018 01:19:57.102640000 +07
  833  66.061245 32:32:32:32:32:32 7dBm Nov 18, 2018 01:19:57.247989000 +07
  834  66.112892 32:32:32:32:32:32 8dBm Nov 18, 2018 01:19:57.299636000 +07
  835  66.338910 32:32:32:32:32:32 6dBm Nov 18, 2018 01:19:57.525654000 +07
  836  66.362844 32:32:32:32:32:32 6dBm Nov 18, 2018 01:19:57.549588000 +07
  837  66.375028 32:32:32:32:32:32 6dBm Nov 18, 2018 01:19:57.561772000 +07
  838  66.393698 32:32:32:32:32:32 5dBm Nov 18, 2018 01:19:57.580442000 +07
  839  66.468342 32:32:32:32:32:32 7dBm Nov 18, 2018 01:19:57.655086000 +07
  840  66.599159 32:32:32:32:32:32 4dBm Nov 18, 2018 01:19:57.785903000 +07
  841  66.629694 32:32:32:32:32:32 4dBm Nov 18, 2018 01:19:57.816438000 +07
  842  66.654327 32:32:32:32:32:32 8dBm Nov 18, 2018 01:19:57.841071000 +07
  843  66.700127 32:32:32:32:32:32 7dBm Nov 18, 2018 01:19:57.886871000 +07
  844  66.733114 32:32:32:32:32:32 5dBm Nov 18, 2018 01:19:57.919858000 +07
  845  66.742969 32:32:32:32:32:32 2dBm Nov 18, 2018 01:19:57.929713000 +07
  846  66.803952 32:32:32:32:32:32 5dBm Nov 18, 2018 01:19:57.990696000 +07
  847  66.884082 32:32:32:32:32:32 7dBm Nov 18, 2018 01:19:58.070826000 +07
  848  66.902874 32:32:32:32:32:32 7dBm Nov 18, 2018 01:19:58.089618000 +07
  849  66.917378 32:32:32:32:32:32 9dBm Nov 18, 2018 01:19:58.104122000 +07
  850  66.930915 32:32:32:32:32:32 7dBm Nov 18, 2018 01:19:58.117659000 +07
  851  67.033939 32:32:32:32:32:32 5dBm Nov 18, 2018 01:19:58.220683000 +07
  852  67.180281 32:32:32:32:32:32 7dBm Nov 18, 2018 01:19:58.367025000 +07
  853  67.248191 32:32:32:32:32:32 8dBm Nov 18, 2018 01:19:58.434935000 +07
  854  67.356791 32:32:32:32:32:32 5dBm Nov 18, 2018 01:19:58.543535000 +07
  855  67.425834 32:32:32:32:32:32 5dBm Nov 18, 2018 01:19:58.612578000 +07
  856  67.565383 32:32:32:32:32:32 7dBm Nov 18, 2018 01:19:58.752127000 +07
  857  67.614064 32:32:32:32:32:32 9dBm Nov 18, 2018 01:19:58.800808000 +07
  858  67.691838 32:32:32:32:32:32 8dBm Nov 18, 2018 01:19:58.878582000 +07
  859  67.765580 32:32:32:32:32:32 7dBm Nov 18, 2018 01:19:58.952324000 +07
  860  67.813437 32:32:32:32:32:32 8dBm Nov 18, 2018 01:19:59.000181000 +07
  861  67.906772 32:32:32:32:32:32 4dBm Nov 18, 2018 01:19:59.093516000 +07
  862  68.062850 32:32:32:32:32:32 5dBm Nov 18, 2018 01:19:59.249594000 +07
  863  68.313852 32:32:32:32:32:32 8dBm Nov 18, 2018 01:19:59.500596000 +07
  864  68.417726 32:32:32:32:32:32 6dBm Nov 18, 2018 01:19:59.604470000 +07
  865  68.475927 32:32:32:32:32:32 7dBm Nov 18, 2018 01:19:59.662671000 +07
  866  68.792906 32:32:32:32:32:32 6dBm Nov 18, 2018 01:19:59.979650000 +07
  867  68.952446 32:32:32:32:32:32 6dBm Nov 18, 2018 01:20:00.139190000 +07
  868  69.011850 32:32:32:32:32:32 6dBm Nov 18, 2018 01:20:00.198594000 +07
  869  69.113301 32:32:32:32:32:32 8dBm Nov 18, 2018 01:20:00.300045000 +07
  870  69.201975 32:32:32:32:32:32 5dBm Nov 18, 2018 01:20:00.388719000 +07
  871  69.635343 32:32:32:32:32:32 5dBm Nov 18, 2018 01:20:00.822087000 +07
  872  69.711573 32:32:32:32:32:32 7dBm Nov 18, 2018 01:20:00.898317000 +07
  873  69.786591 32:32:32:32:32:32 6dBm Nov 18, 2018 01:20:00.973335000 +07
  874  69.808270 32:32:32:32:32:32 6dBm Nov 18, 2018 01:20:00.995014000 +07
  875  69.831952 32:32:32:32:32:32 3dBm Nov 18, 2018 01:20:01.018696000 +07
  876  69.862397 32:32:32:32:32:32 8dBm Nov 18, 2018 01:20:01.049141000 +07
  877  69.900777 32:32:32:32:32:32 8dBm Nov 18, 2018 01:20:01.087521000 +07
  878  69.962344 32:32:32:32:32:32 6dBm Nov 18, 2018 01:20:01.149088000 +07
  879  70.018685 32:32:32:32:32:32 3dBm Nov 18, 2018 01:20:01.205429000 +07
  880  70.037302 32:32:32:32:32:32 6dBm Nov 18, 2018 01:20:01.224046000 +07
  881  70.066867 32:32:32:32:32:32 5dBm Nov 18, 2018 01:20:01.253611000 +07
  882  70.130314 32:32:32:32:32:32 8dBm Nov 18, 2018 01:20:01.317058000 +07
  883  70.419089 32:32:32:32:32:32 9dBm Nov 18, 2018 01:20:01.605833000 +07
  884  70.464720 32:32:32:32:32:32 8dBm Nov 18, 2018 01:20:01.651464000 +07
  885  70.501098 32:32:32:32:32:32 9dBm Nov 18, 2018 01:20:01.687842000 +07
  886  70.533318 32:32:32:32:32:32 10dBm Nov 18, 2018 01:20:01.720062000 +07
  887  70.631213 32:32:32:32:32:32 7dBm Nov 18, 2018 01:20:01.817957000 +07
  888  70.785678 32:32:32:32:32:32 7dBm Nov 18, 2018 01:20:01.972422000 +07
  889  70.885607 32:32:32:32:32:32 6dBm Nov 18, 2018 01:20:02.072351000 +07
  890  70.903248 32:32:32:32:32:32 8dBm Nov 18, 2018 01:20:02.089992000 +07
  891  70.963782 32:32:32:32:32:32 8dBm Nov 18, 2018 01:20:02.150526000 +07
  892  70.996132 32:32:32:32:32:32 4dBm Nov 18, 2018 01:20:02.182876000 +07
  893  71.014991 32:32:32:32:32:32 9dBm Nov 18, 2018 01:20:02.201735000 +07
  894  71.079882 32:32:32:32:32:32 7dBm Nov 18, 2018 01:20:02.266626000 +07
  895  71.095954 32:32:32:32:32:32 6dBm Nov 18, 2018 01:20:02.282698000 +07
  896  71.178543 32:32:32:32:32:32 9dBm Nov 18, 2018 01:20:02.365287000 +07
  897  71.230381 32:32:32:32:32:32 7dBm Nov 18, 2018 01:20:02.417125000 +07
  898  71.269005 32:32:32:32:32:32 6dBm Nov 18, 2018 01:20:02.455749000 +07
  899  71.290935 32:32:32:32:32:32 6dBm Nov 18, 2018 01:20:02.477679000 +07
  900  71.310227 32:32:32:32:32:32 7dBm Nov 18, 2018 01:20:02.496971000 +07
  901  71.332055 32:32:32:32:32:32 8dBm Nov 18, 2018 01:20:02.518799000 +07
  902  71.353130 32:32:32:32:32:32 7dBm Nov 18, 2018 01:20:02.539874000 +07
  903  71.391302 32:32:32:32:32:32 10dBm Nov 18, 2018 01:20:02.578046000 +07
  904  71.409887 32:32:32:32:32:32 9dBm Nov 18, 2018 01:20:02.596631000 +07
  905  71.459800 32:32:32:32:32:32 9dBm Nov 18, 2018 01:20:02.646544000 +07
  906  71.601021 32:32:32:32:32:32 11dBm Nov 18, 2018 01:20:02.787765000 +07
  907  71.648931 32:32:32:32:32:32 9dBm Nov 18, 2018 01:20:02.835675000 +07
  908  71.655623 32:32:32:32:32:32 6dBm Nov 18, 2018 01:20:02.842367000 +07
  909  71.678899 32:32:32:32:32:32 9dBm Nov 18, 2018 01:20:02.865643000 +07
  910  71.700675 32:32:32:32:32:32 7dBm Nov 18, 2018 01:20:02.887419000 +07
  911  71.717135 32:32:32:32:32:32 11dBm Nov 18, 2018 01:20:02.903879000 +07
  912  71.844275 32:32:32:32:32:32 8dBm Nov 18, 2018 01:20:03.031019000 +07
  913  71.912638 32:32:32:32:32:32 12dBm Nov 18, 2018 01:20:03.099382000 +07
  914  71.929259 32:32:32:32:32:32 12dBm Nov 18, 2018 01:20:03.116003000 +07
  915  71.994109 32:32:32:32:32:32 10dBm Nov 18, 2018 01:20:03.180853000 +07
  916  72.013517 32:32:32:32:32:32 8dBm Nov 18, 2018 01:20:03.200261000 +07
  917  72.069155 32:32:32:32:32:32 7dBm Nov 18, 2018 01:20:03.255899000 +07
  918  72.165255 32:32:32:32:32:32 10dBm Nov 18, 2018 01:20:03.351999000 +07
  919  72.298166 32:32:32:32:32:32 4dBm Nov 18, 2018 01:20:03.484910000 +07
  920  72.333715 32:32:32:32:32:32 7dBm Nov 18, 2018 01:20:03.520459000 +07
  921  72.388902 32:32:32:32:32:32 7dBm Nov 18, 2018 01:20:03.575646000 +07
  922  72.597888 32:32:32:32:32:32 7dBm Nov 18, 2018 01:20:03.784632000 +07
  923  72.667657 32:32:32:32:32:32 5dBm Nov 18, 2018 01:20:03.854401000 +07
  924  72.719955 32:32:32:32:32:32 5dBm Nov 18, 2018 01:20:03.906699000 +07
  925  72.740682 32:32:32:32:32:32 4dBm Nov 18, 2018 01:20:03.927426000 +07
  926  72.758967 32:32:32:32:32:32 5dBm Nov 18, 2018 01:20:03.945711000 +07
  927  72.808366 32:32:32:32:32:32 3dBm Nov 18, 2018 01:20:03.995110000 +07
  928  73.226229 32:32:32:32:32:32 7dBm Nov 18, 2018 01:20:04.412973000 +07
  929  73.291442 32:32:32:32:32:32 7dBm Nov 18, 2018 01:20:04.478186000 +07
  930  73.337431 32:32:32:32:32:32 9dBm Nov 18, 2018 01:20:04.524175000 +07
  931  73.429778 32:32:32:32:32:32 8dBm Nov 18, 2018 01:20:04.616522000 +07
  932  73.739794 32:32:32:32:32:32 5dBm Nov 18, 2018 01:20:04.926538000 +07
  933  73.780525 32:32:32:32:32:32 5dBm Nov 18, 2018 01:20:04.967269000 +07
  934  73.827709 32:32:32:32:32:32 5dBm Nov 18, 2018 01:20:05.014453000 +07
  935  73.859746 32:32:32:32:32:32 4dBm Nov 18, 2018 01:20:05.046490000 +07
  936  73.945853 32:32:32:32:32:32 6dBm Nov 18, 2018 01:20:05.132597000 +07
  937  74.009454 32:32:32:32:32:32 6dBm Nov 18, 2018 01:20:05.196198000 +07
  938  74.012910 32:32:32:32:32:32 5dBm Nov 18, 2018 01:20:05.199654000 +07
  939  75.011402 32:32:32:32:32:32 4dBm Nov 18, 2018 01:20:06.198146000 +07
  940  75.076960 32:32:32:32:32:32 7dBm Nov 18, 2018 01:20:06.263704000 +07
  941  75.104172 32:32:32:32:32:32 6dBm Nov 18, 2018 01:20:06.290916000 +07
  942  75.106923 32:32:32:32:32:32 3dBm Nov 18, 2018 01:20:06.293667000 +07
  943  75.178059 32:32:32:32:32:32 8dBm Nov 18, 2018 01:20:06.364803000 +07
  944  75.244994 32:32:32:32:32:32 8dBm Nov 18, 2018 01:20:06.431738000 +07
  945  75.371931 32:32:32:32:32:32 10dBm Nov 18, 2018 01:20:06.558675000 +07
  946  75.414648 32:32:32:32:32:32 10dBm Nov 18, 2018 01:20:06.601392000 +07
  947  75.450468 32:32:32:32:32:32 8dBm Nov 18, 2018 01:20:06.637212000 +07
  948  75.583916 32:32:32:32:32:32 9dBm Nov 18, 2018 01:20:06.770660000 +07
  949  75.618166 32:32:32:32:32:32 8dBm Nov 18, 2018 01:20:06.804910000 +07
  950  75.677440 32:32:32:32:32:32 6dBm Nov 18, 2018 01:20:06.864184000 +07
  951  75.800894 32:32:32:32:32:32 10dBm Nov 18, 2018 01:20:06.987638000 +07
  952  75.858497 32:32:32:32:32:32 9dBm Nov 18, 2018 01:20:07.045241000 +07
  953  75.938975 32:32:32:32:32:32 10dBm Nov 18, 2018 01:20:07.125719000 +07
  954  76.074234 32:32:32:32:32:32 10dBm Nov 18, 2018 01:20:07.260978000 +07
  955  76.149233 32:32:32:32:32:32 8dBm Nov 18, 2018 01:20:07.335977000 +07
  956  76.162413 32:32:32:32:32:32 7dBm Nov 18, 2018 01:20:07.349157000 +07
  957  76.216701 32:32:32:32:32:32 6dBm Nov 18, 2018 01:20:07.403445000 +07
  958  76.344157 32:32:32:32:32:32 8dBm Nov 18, 2018 01:20:07.530901000 +07
  959  76.384643 32:32:32:32:32:32 9dBm Nov 18, 2018 01:20:07.571387000 +07
  960  76.401392 32:32:32:32:32:32 9dBm Nov 18, 2018 01:20:07.588136000 +07
  961  76.442242 32:32:32:32:32:32 9dBm Nov 18, 2018 01:20:07.628986000 +07
  962  76.480573 32:32:32:32:32:32 8dBm Nov 18, 2018 01:20:07.667317000 +07
  963  76.515119 32:32:32:32:32:32 8dBm Nov 18, 2018 01:20:07.701863000 +07
  964  76.533459 32:32:32:32:32:32 9dBm Nov 18, 2018 01:20:07.720203000 +07
  965  76.641626 32:32:32:32:32:32 7dBm Nov 18, 2018 01:20:07.828370000 +07
  966  76.901890 32:32:32:32:32:32 6dBm Nov 18, 2018 01:20:08.088634000 +07
  967  77.008405 32:32:32:32:32:32 9dBm Nov 18, 2018 01:20:08.195149000 +07
  968  77.127679 32:32:32:32:32:32 8dBm Nov 18, 2018 01:20:08.314423000 +07
  969  77.281614 32:32:32:32:32:32 6dBm Nov 18, 2018 01:20:08.468358000 +07
  970  77.389524 32:32:32:32:32:32 6dBm Nov 18, 2018 01:20:08.576268000 +07
  971  77.422714 32:32:32:32:32:32 8dBm Nov 18, 2018 01:20:08.609458000 +07
  972  77.444501 32:32:32:32:32:32 10dBm Nov 18, 2018 01:20:08.631245000 +07
  973  77.584644 32:32:32:32:32:32 7dBm Nov 18, 2018 01:20:08.771388000 +07
  974  77.796112 32:32:32:32:32:32 5dBm Nov 18, 2018 01:20:08.982856000 +07
  975  77.848509 32:32:32:32:32:32 10dBm Nov 18, 2018 01:20:09.035253000 +07
  976  77.926182 32:32:32:32:32:32 8dBm Nov 18, 2018 01:20:09.112926000 +07
  977  77.972925 32:32:32:32:32:32 8dBm Nov 18, 2018 01:20:09.159669000 +07
  978  77.985919 32:32:32:32:32:32 7dBm Nov 18, 2018 01:20:09.172663000 +07
  979  78.081967 32:32:32:32:32:32 7dBm Nov 18, 2018 01:20:09.268711000 +07
  980  78.106719 32:32:32:32:32:32 7dBm Nov 18, 2018 01:20:09.293463000 +07
  981  78.162509 32:32:32:32:32:32 9dBm Nov 18, 2018 01:20:09.349253000 +07
  982  78.175754 32:32:32:32:32:32 9dBm Nov 18, 2018 01:20:09.362498000 +07
  983  78.200888 32:32:32:32:32:32 5dBm Nov 18, 2018 01:20:09.387632000 +07
  984  78.217898 32:32:32:32:32:32 7dBm Nov 18, 2018 01:20:09.404642000 +07
  985  78.265016 32:32:32:32:32:32 8dBm Nov 18, 2018 01:20:09.451760000 +07
  986  78.334023 32:32:32:32:32:32 6dBm Nov 18, 2018 01:20:09.520767000 +07
  987  78.394213 32:32:32:32:32:32 8dBm Nov 18, 2018 01:20:09.580957000 +07
  988  78.495028 32:32:32:32:32:32 8dBm Nov 18, 2018 01:20:09.681772000 +07
  989  78.525984 32:32:32:32:32:32 6dBm Nov 18, 2018 01:20:09.712728000 +07
  990  78.692570 32:32:32:32:32:32 7dBm Nov 18, 2018 01:20:09.879314000 +07
  991  78.814930 32:32:32:32:32:32 6dBm Nov 18, 2018 01:20:10.001674000 +07
  992  78.923989 32:32:32:32:32:32 6dBm Nov 18, 2018 01:20:10.110733000 +07
  993  79.165401 32:32:32:32:32:32 7dBm Nov 18, 2018 01:20:10.352145000 +07
  994  79.579288 32:32:32:32:32:32 4dBm Nov 18, 2018 01:20:10.766032000 +07
  995  79.634029 32:32:32:32:32:32 6dBm Nov 18, 2018 01:20:10.820773000 +07
  996  79.674514 32:32:32:32:32:32 5dBm Nov 18, 2018 01:20:10.861258000 +07
  997  79.707672 32:32:32:32:32:32 7dBm Nov 18, 2018 01:20:10.894416000 +07
  998  79.723051 32:32:32:32:32:32 6dBm Nov 18, 2018 01:20:10.909795000 +07
  999  79.751250 32:32:32:32:32:32 7dBm Nov 18, 2018 01:20:10.937994000 +07
 1000  79.767496 32:32:32:32:32:32 7dBm Nov 18, 2018 01:20:10.954240000 +07
 1001  79.859072 32:32:32:32:32:32 7dBm Nov 18, 2018 01:20:11.045816000 +07
 1002  79.924493 32:32:32:32:32:32 7dBm Nov 18, 2018 01:20:11.111237000 +07
 1003  79.976592 32:32:32:32:32:32 8dBm Nov 18, 2018 01:20:11.163336000 +07
 1004  80.001981 32:32:32:32:32:32 7dBm Nov 18, 2018 01:20:11.188725000 +07
 1005  80.056729 32:32:32:32:32:32 7dBm Nov 18, 2018 01:20:11.243473000 +07
 1006  80.081075 32:32:32:32:32:32 8dBm Nov 18, 2018 01:20:11.267819000 +07
 1007  80.099730 32:32:32:32:32:32 8dBm Nov 18, 2018 01:20:11.286474000 +07
 1008  80.125803 32:32:32:32:32:32 7dBm Nov 18, 2018 01:20:11.312547000 +07
 1009  80.146675 32:32:32:32:32:32 7dBm Nov 18, 2018 01:20:11.333419000 +07
 1010  80.180532 32:32:32:32:32:32 9dBm Nov 18, 2018 01:20:11.367276000 +07
 1011  80.219474 32:32:32:32:32:32 9dBm Nov 18, 2018 01:20:11.406218000 +07
 1012  80.233624 32:32:32:32:32:32 8dBm Nov 18, 2018 01:20:11.420368000 +07
 1013  80.325841 32:32:32:32:32:32 7dBm Nov 18, 2018 01:20:11.512585000 +07
 1014  80.358346 32:32:32:32:32:32 5dBm Nov 18, 2018 01:20:11.545090000 +07
 1015  80.416480 32:32:32:32:32:32 7dBm Nov 18, 2018 01:20:11.603224000 +07
 1016  80.476488 32:32:32:32:32:32 6dBm Nov 18, 2018 01:20:11.663232000 +07
 1017  80.614112 32:32:32:32:32:32 7dBm Nov 18, 2018 01:20:11.800856000 +07
 1018  80.740074 32:32:32:32:32:32 7dBm Nov 18, 2018 01:20:11.926818000 +07
 1019  80.794220 32:32:32:32:32:32 6dBm Nov 18, 2018 01:20:11.980964000 +07
 1020  80.815868 32:32:32:32:32:32 7dBm Nov 18, 2018 01:20:12.002612000 +07
 1021  80.829276 32:32:32:32:32:32 7dBm Nov 18, 2018 01:20:12.016020000 +07
 1022  80.870886 32:32:32:32:32:32 8dBm Nov 18, 2018 01:20:12.057630000 +07
 1023  80.910172 32:32:32:32:32:32 6dBm Nov 18, 2018 01:20:12.096916000 +07
 1024  80.966095 32:32:32:32:32:32 8dBm Nov 18, 2018 01:20:12.152839000 +07
 1025  81.078354 32:32:32:32:32:32 8dBm Nov 18, 2018 01:20:12.265098000 +07
 1026  81.113129 32:32:32:32:32:32 9dBm Nov 18, 2018 01:20:12.299873000 +07
 1027  81.159933 32:32:32:32:32:32 7dBm Nov 18, 2018 01:20:12.346677000 +07
 1028  81.185205 32:32:32:32:32:32 6dBm Nov 18, 2018 01:20:12.371949000 +07
 1029  81.252885 32:32:32:32:32:32 7dBm Nov 18, 2018 01:20:12.439629000 +07
 1030  81.273343 32:32:32:32:32:32 8dBm Nov 18, 2018 01:20:12.460087000 +07
 1031  81.292021 32:32:32:32:32:32 7dBm Nov 18, 2018 01:20:12.478765000 +07
 1032  81.707419 32:32:32:32:32:32 9dBm Nov 18, 2018 01:20:12.894163000 +07
 1033  81.792308 32:32:32:32:32:32 8dBm Nov 18, 2018 01:20:12.979052000 +07
 1034  81.891918 32:32:32:32:32:32 7dBm Nov 18, 2018 01:20:13.078662000 +07
 1035  81.941659 32:32:32:32:32:32 8dBm Nov 18, 2018 01:20:13.128403000 +07
 1036  81.976630 32:32:32:32:32:32 9dBm Nov 18, 2018 01:20:13.163374000 +07
 1037  82.055991 32:32:32:32:32:32 9dBm Nov 18, 2018 01:20:13.242735000 +07
 1038  82.079993 32:32:32:32:32:32 7dBm Nov 18, 2018 01:20:13.266737000 +07
 1039  82.212238 32:32:32:32:32:32 7dBm Nov 18, 2018 01:20:13.398982000 +07
 1040  82.264077 32:32:32:32:32:32 7dBm Nov 18, 2018 01:20:13.450821000 +07
 1041  82.313211 32:32:32:32:32:32 3dBm Nov 18, 2018 01:20:13.499955000 +07
 1042  82.427053 32:32:32:32:32:32 5dBm Nov 18, 2018 01:20:13.613797000 +07
 1043  82.550195 32:32:32:32:32:32 4dBm Nov 18, 2018 01:20:13.736939000 +07
 1044  82.641692 32:32:32:32:32:32 4dBm Nov 18, 2018 01:20:13.828436000 +07
 1045  82.708287 32:32:32:32:32:32 5dBm Nov 18, 2018 01:20:13.895031000 +07
 1046  83.534680 32:32:32:32:32:32 5dBm Nov 18, 2018 01:20:14.721424000 +07
 1047  83.674396 32:32:32:32:32:32 6dBm Nov 18, 2018 01:20:14.861140000 +07
 1048  83.986076 32:32:32:32:32:32 6dBm Nov 18, 2018 01:20:15.172820000 +07
 1049  84.019331 32:32:32:32:32:32 7dBm Nov 18, 2018 01:20:15.206075000 +07
 1050  84.026847 32:32:32:32:32:32 7dBm Nov 18, 2018 01:20:15.213591000 +07
 1051  84.057666 32:32:32:32:32:32 8dBm Nov 18, 2018 01:20:15.244410000 +07
 1052  84.192319 32:32:32:32:32:32 7dBm Nov 18, 2018 01:20:15.379063000 +07
 1053  84.221820 32:32:32:32:32:32 6dBm Nov 18, 2018 01:20:15.408564000 +07
 1054  84.244635 32:32:32:32:32:32 7dBm Nov 18, 2018 01:20:15.431379000 +07
 1055  84.498380 32:32:32:32:32:32 4dBm Nov 18, 2018 01:20:15.685124000 +07
 1056  84.974354 32:32:32:32:32:32 5dBm Nov 18, 2018 01:20:16.161098000 +07
 1057  84.996953 32:32:32:32:32:32 4dBm Nov 18, 2018 01:20:16.183697000 +07
 1058  85.148611 32:32:32:32:32:32 6dBm Nov 18, 2018 01:20:16.335355000 +07
 1059  85.211457 32:32:32:32:32:32 7dBm Nov 18, 2018 01:20:16.398201000 +07
 1060  85.257734 32:32:32:32:32:32 8dBm Nov 18, 2018 01:20:16.444478000 +07
 1061  85.585973 32:32:32:32:32:32 6dBm Nov 18, 2018 01:20:16.772717000 +07
 1062  85.646889 32:32:32:32:32:32 7dBm Nov 18, 2018 01:20:16.833633000 +07
 1063  85.918299 32:32:32:32:32:32 6dBm Nov 18, 2018 01:20:17.105043000 +07
 1064  86.286821 32:32:32:32:32:32 3dBm Nov 18, 2018 01:20:17.473565000 +07
 1065  86.368178 32:32:32:32:32:32 5dBm Nov 18, 2018 01:20:17.554922000 +07
 1066  86.403753 32:32:32:32:32:32 5dBm Nov 18, 2018 01:20:17.590497000 +07
 1067  86.494506 32:32:32:32:32:32 5dBm Nov 18, 2018 01:20:17.681250000 +07
 1068  86.523063 32:32:32:32:32:32 5dBm Nov 18, 2018 01:20:17.709807000 +07
 1069  86.562247 32:32:32:32:32:32 7dBm Nov 18, 2018 01:20:17.748991000 +07
 1070  86.579282 32:32:32:32:32:32 6dBm Nov 18, 2018 01:20:17.766026000 +07
 1071  86.772148 32:32:32:32:32:32 6dBm Nov 18, 2018 01:20:17.958892000 +07
 1072  86.938299 32:32:32:32:32:32 5dBm Nov 18, 2018 01:20:18.125043000 +07
 1073  86.989408 32:32:32:32:32:32 5dBm Nov 18, 2018 01:20:18.176152000 +07
 1074  86.998669 32:32:32:32:32:32 6dBm Nov 18, 2018 01:20:18.185413000 +07
 1075  87.018326 32:32:32:32:32:32 4dBm Nov 18, 2018 01:20:18.205070000 +07
 1076  87.199872 32:32:32:32:32:32 7dBm Nov 18, 2018 01:20:18.386616000 +07
 1077  87.224234 32:32:32:32:32:32 6dBm Nov 18, 2018 01:20:18.410978000 +07
 1078  87.297804 32:32:32:32:32:32 6dBm Nov 18, 2018 01:20:18.484548000 +07
 1079  87.389610 32:32:32:32:32:32 5dBm Nov 18, 2018 01:20:18.576354000 +07
 1080  87.420769 32:32:32:32:32:32 6dBm Nov 18, 2018 01:20:18.607513000 +07
 1081  87.445956 32:32:32:32:32:32 4dBm Nov 18, 2018 01:20:18.632700000 +07
 1082  87.587775 32:32:32:32:32:32 6dBm Nov 18, 2018 01:20:18.774519000 +07
 1083  87.690016 32:32:32:32:32:32 6dBm Nov 18, 2018 01:20:18.876760000 +07
 1084  87.796369 32:32:32:32:32:32 5dBm Nov 18, 2018 01:20:18.983113000 +07
 1085  87.849097 32:32:32:32:32:32 5dBm Nov 18, 2018 01:20:19.035841000 +07
 1086  87.896046 32:32:32:32:32:32 6dBm Nov 18, 2018 01:20:19.082790000 +07
 1087  88.811905 32:32:32:32:32:32 9dBm Nov 18, 2018 01:20:19.998649000 +07
 1088  88.850771 32:32:32:32:32:32 7dBm Nov 18, 2018 01:20:20.037515000 +07
 1089  88.903086 32:32:32:32:32:32 7dBm Nov 18, 2018 01:20:20.089830000 +07
 1090  88.979260 32:32:32:32:32:32 8dBm Nov 18, 2018 01:20:20.166004000 +07
 1091  89.029944 32:32:32:32:32:32 7dBm Nov 18, 2018 01:20:20.216688000 +07
 1092  89.040899 32:32:32:32:32:32 6dBm Nov 18, 2018 01:20:20.227643000 +07
 1093  89.359945 32:32:32:32:32:32 6dBm Nov 18, 2018 01:20:20.546689000 +07
 1094  89.457639 32:32:32:32:32:32 6dBm Nov 18, 2018 01:20:20.644383000 +07
 1095  89.677313 32:32:32:32:32:32 5dBm Nov 18, 2018 01:20:20.864057000 +07
 1096  89.780571 32:32:32:32:32:32 6dBm Nov 18, 2018 01:20:20.967315000 +07
 1097  89.858729 32:32:32:32:32:32 6dBm Nov 18, 2018 01:20:21.045473000 +07
 1098  89.914622 32:32:32:32:32:32 5dBm Nov 18, 2018 01:20:21.101366000 +07
 1099  89.929537 32:32:32:32:32:32 6dBm Nov 18, 2018 01:20:21.116281000 +07
 1100  90.017905 32:32:32:32:32:32 6dBm Nov 18, 2018 01:20:21.204649000 +07
 1101  90.035789 32:32:32:32:32:32 5dBm Nov 18, 2018 01:20:21.222533000 +07
 1102  90.046820 32:32:32:32:32:32 7dBm Nov 18, 2018 01:20:21.233564000 +07
 1103  90.116142 32:32:32:32:32:32 3dBm Nov 18, 2018 01:20:21.302886000 +07
 1104  90.176161 32:32:32:32:32:32 6dBm Nov 18, 2018 01:20:21.362905000 +07
 1105  90.180250 32:32:32:32:32:32 4dBm Nov 18, 2018 01:20:21.366994000 +07
 1106  90.316740 32:32:32:32:32:32 7dBm Nov 18, 2018 01:20:21.503484000 +07
 1107  90.361975 32:32:32:32:32:32 5dBm Nov 18, 2018 01:20:21.548719000 +07
 1108  90.462062 32:32:32:32:32:32 4dBm Nov 18, 2018 01:20:21.648806000 +07
 1109  90.502612 32:32:32:32:32:32 5dBm Nov 18, 2018 01:20:21.689356000 +07
 1110  90.768309 32:32:32:32:32:32 7dBm Nov 18, 2018 01:20:21.955053000 +07
 1111  90.865205 32:32:32:32:32:32 5dBm Nov 18, 2018 01:20:22.051949000 +07
 1112  90.882108 32:32:32:32:32:32 6dBm Nov 18, 2018 01:20:22.068852000 +07
 1113  90.903431 32:32:32:32:32:32 5dBm Nov 18, 2018 01:20:22.090175000 +07
 1114  90.940172 32:32:32:32:32:32 5dBm Nov 18, 2018 01:20:22.126916000 +07
 1115  90.977017 32:32:32:32:32:32 8dBm Nov 18, 2018 01:20:22.163761000 +07
 1116  91.064755 32:32:32:32:32:32 8dBm Nov 18, 2018 01:20:22.251499000 +07
 1117  91.170906 32:32:32:32:32:32 7dBm Nov 18, 2018 01:20:22.357650000 +07
 1118  91.236318 32:32:32:32:32:32 6dBm Nov 18, 2018 01:20:22.423062000 +07
 1119  91.292736 32:32:32:32:32:32 7dBm Nov 18, 2018 01:20:22.479480000 +07
 1120  91.326243 32:32:32:32:32:32 7dBm Nov 18, 2018 01:20:22.512987000 +07
 1121  91.448557 32:32:32:32:32:32 6dBm Nov 18, 2018 01:20:22.635301000 +07
 1122  91.599774 32:32:32:32:32:32 7dBm Nov 18, 2018 01:20:22.786518000 +07
 1123  91.684796 32:32:32:32:32:32 6dBm Nov 18, 2018 01:20:22.871540000 +07
 1124  91.826922 32:32:32:32:32:32 6dBm Nov 18, 2018 01:20:23.013666000 +07
 1125  91.939294 32:32:32:32:32:32 7dBm Nov 18, 2018 01:20:23.126038000 +07
 1126  92.005102 32:32:32:32:32:32 7dBm Nov 18, 2018 01:20:23.191846000 +07
 1127  92.056676 32:32:32:32:32:32 8dBm Nov 18, 2018 01:20:23.243420000 +07
 1128  92.156858 32:32:32:32:32:32 8dBm Nov 18, 2018 01:20:23.343602000 +07
 1129  92.199767 32:32:32:32:32:32 6dBm Nov 18, 2018 01:20:23.386511000 +07
 1130  92.249810 32:32:32:32:32:32 8dBm Nov 18, 2018 01:20:23.436554000 +07
 1131  92.369378 32:32:32:32:32:32 6dBm Nov 18, 2018 01:20:23.556122000 +07
 1132  92.434702 32:32:32:32:32:32 6dBm Nov 18, 2018 01:20:23.621446000 +07
 1133  92.458635 32:32:32:32:32:32 7dBm Nov 18, 2018 01:20:23.645379000 +07
 1134  92.547935 32:32:32:32:32:32 6dBm Nov 18, 2018 01:20:23.734679000 +07
 1135  92.579898 32:32:32:32:32:32 6dBm Nov 18, 2018 01:20:23.766642000 +07
 1136  92.655413 32:32:32:32:32:32 7dBm Nov 18, 2018 01:20:23.842157000 +07
 1137  92.686626 32:32:32:32:32:32 5dBm Nov 18, 2018 01:20:23.873370000 +07
 1138  92.726166 32:32:32:32:32:32 8dBm Nov 18, 2018 01:20:23.912910000 +07
 1139  92.774989 32:32:32:32:32:32 9dBm Nov 18, 2018 01:20:23.961733000 +07
 1140  92.971763 32:32:32:32:32:32 7dBm Nov 18, 2018 01:20:24.158507000 +07
 1141  92.993100 32:32:32:32:32:32 7dBm Nov 18, 2018 01:20:24.179844000 +07
 1142  93.024691 32:32:32:32:32:32 7dBm Nov 18, 2018 01:20:24.211435000 +07
 1143  93.119407 32:32:32:32:32:32 7dBm Nov 18, 2018 01:20:24.306151000 +07
 1144  93.143511 32:32:32:32:32:32 6dBm Nov 18, 2018 01:20:24.330255000 +07
 1145  93.268637 32:32:32:32:32:32 3dBm Nov 18, 2018 01:20:24.455381000 +07
 1146  93.321734 32:32:32:32:32:32 6dBm Nov 18, 2018 01:20:24.508478000 +07
 1147  93.609937 32:32:32:32:32:32 5dBm Nov 18, 2018 01:20:24.796681000 +07
 1148  93.631204 32:32:32:32:32:32 6dBm Nov 18, 2018 01:20:24.817948000 +07
 1149  93.690863 32:32:32:32:32:32 5dBm Nov 18, 2018 01:20:24.877607000 +07
 1150  93.907094 32:32:32:32:32:32 5dBm Nov 18, 2018 01:20:25.093838000 +07
 1151  93.918108 32:32:32:32:32:32 6dBm Nov 18, 2018 01:20:25.104852000 +07
 1152  93.962077 32:32:32:32:32:32 7dBm Nov 18, 2018 01:20:25.148821000 +07
 1153  93.982516 32:32:32:32:32:32 6dBm Nov 18, 2018 01:20:25.169260000 +07
 1154  94.033075 32:32:32:32:32:32 6dBm Nov 18, 2018 01:20:25.219819000 +07
 1155  94.129821 32:32:32:32:32:32 6dBm Nov 18, 2018 01:20:25.316565000 +07
 1156  94.217461 32:32:32:32:32:32 4dBm Nov 18, 2018 01:20:25.404205000 +07
 1157  94.245488 32:32:32:32:32:32 5dBm Nov 18, 2018 01:20:25.432232000 +07
 1158  94.331401 32:32:32:32:32:32 7dBm Nov 18, 2018 01:20:25.518145000 +07
 1159  94.346816 32:32:32:32:32:32 5dBm Nov 18, 2018 01:20:25.533560000 +07
 1160  94.590834 32:32:32:32:32:32 6dBm Nov 18, 2018 01:20:25.777578000 +07
 1161  94.624674 32:32:32:32:32:32 5dBm Nov 18, 2018 01:20:25.811418000 +07
 1162  94.641856 32:32:32:32:32:32 7dBm Nov 18, 2018 01:20:25.828600000 +07
 1163  94.746450 32:32:32:32:32:32 6dBm Nov 18, 2018 01:20:25.933194000 +07
 1164  95.039600 32:32:32:32:32:32 7dBm Nov 18, 2018 01:20:26.226344000 +07
 1165  95.192515 32:32:32:32:32:32 6dBm Nov 18, 2018 01:20:26.379259000 +07
 1166  95.273405 32:32:32:32:32:32 6dBm Nov 18, 2018 01:20:26.460149000 +07
 1167  95.426132 32:32:32:32:32:32 6dBm Nov 18, 2018 01:20:26.612876000 +07
 1168  95.595364 32:32:32:32:32:32 5dBm Nov 18, 2018 01:20:26.782108000 +07
 1169  95.733022 32:32:32:32:32:32 5dBm Nov 18, 2018 01:20:26.919766000 +07
 1170  95.761594 32:32:32:32:32:32 5dBm Nov 18, 2018 01:20:26.948338000 +07
 1171  95.958406 32:32:32:32:32:32 7dBm Nov 18, 2018 01:20:27.145150000 +07
 1172  96.101331 32:32:32:32:32:32 7dBm Nov 18, 2018 01:20:27.288075000 +07
