    1   0.000000 32:32:32:32:32:32 6dBm Nov 18, 2018 00:55:06.589278000 +07
    2   8.350172 32:32:32:32:32:32 5dBm Nov 18, 2018 00:55:14.939450000 +07
    3  27.838976 32:32:32:32:32:32 4dBm Nov 18, 2018 00:55:34.428254000 +07
    4  28.053110 32:32:32:32:32:32 6dBm Nov 18, 2018 00:55:34.642388000 +07
    5  41.751766 32:32:32:32:32:32 5dBm Nov 18, 2018 00:55:48.341044000 +07
    6  41.915963 32:32:32:32:32:32 5dBm Nov 18, 2018 00:55:48.505241000 +07
    7  42.131024 32:32:32:32:32:32 7dBm Nov 18, 2018 00:55:48.720302000 +07
    8  42.193455 32:32:32:32:32:32 6dBm Nov 18, 2018 00:55:48.782733000 +07
    9  42.294562 32:32:32:32:32:32 10dBm Nov 18, 2018 00:55:48.883840000 +07
   10  42.310685 32:32:32:32:32:32 8dBm Nov 18, 2018 00:55:48.899963000 +07
   11  47.254576 32:32:32:32:32:32 5dBm Nov 18, 2018 00:55:53.843854000 +07
   12  47.262635 32:32:32:32:32:32 5dBm Nov 18, 2018 00:55:53.851913000 +07
   13  48.357493 32:32:32:32:32:32 7dBm Nov 18, 2018 00:55:54.946771000 +07
   14  48.645669 32:32:32:32:32:32 3dBm Nov 18, 2018 00:55:55.234947000 +07
   15  48.846555 32:32:32:32:32:32 5dBm Nov 18, 2018 00:55:55.435833000 +07
   16  48.865128 32:32:32:32:32:32 7dBm Nov 18, 2018 00:55:55.454406000 +07
   17  49.337092 32:32:32:32:32:32 3dBm Nov 18, 2018 00:55:55.926370000 +07
   18  50.926249 32:32:32:32:32:32 5dBm Nov 18, 2018 00:55:57.515527000 +07
   19  63.394820 32:32:32:32:32:32 6dBm Nov 18, 2018 00:56:09.984098000 +07
   20  63.693822 32:32:32:32:32:32 6dBm Nov 18, 2018 00:56:10.283100000 +07
   21  64.167571 32:32:32:32:32:32 3dBm Nov 18, 2018 00:56:10.756849000 +07
   22  64.923616 32:32:32:32:32:32 7dBm Nov 18, 2018 00:56:11.512894000 +07
   23  67.961993 32:32:32:32:32:32 6dBm Nov 18, 2018 00:56:14.551271000 +07
   24  68.028221 32:32:32:32:32:32 4dBm Nov 18, 2018 00:56:14.617499000 +07
   25  68.121378 32:32:32:32:32:32 4dBm Nov 18, 2018 00:56:14.710656000 +07
   26  68.293358 32:32:32:32:32:32 7dBm Nov 18, 2018 00:56:14.882636000 +07
   27  68.311510 32:32:32:32:32:32 7dBm Nov 18, 2018 00:56:14.900788000 +07
   28  68.329403 32:32:32:32:32:32 5dBm Nov 18, 2018 00:56:14.918681000 +07
   29  68.348232 32:32:32:32:32:32 7dBm Nov 18, 2018 00:56:14.937510000 +07
   30  68.982773 32:32:32:32:32:32 7dBm Nov 18, 2018 00:56:15.572051000 +07
   31  69.024337 32:32:32:32:32:32 7dBm Nov 18, 2018 00:56:15.613615000 +07
   32  76.389718 32:32:32:32:32:32 3dBm Nov 18, 2018 00:56:22.978996000 +07
   33  93.808139 32:32:32:32:32:32 6dBm Nov 18, 2018 00:56:40.397417000 +07
   34  93.899356 32:32:32:32:32:32 7dBm Nov 18, 2018 00:56:40.488634000 +07
   35  94.286052 32:32:32:32:32:32 8dBm Nov 18, 2018 00:56:40.875330000 +07
   36  94.370103 32:32:32:32:32:32 7dBm Nov 18, 2018 00:56:40.959381000 +07
   37  95.509300 32:32:32:32:32:32 5dBm Nov 18, 2018 00:56:42.098578000 +07
   38  95.687098 32:32:32:32:32:32 6dBm Nov 18, 2018 00:56:42.276376000 +07
   39  95.750276 32:32:32:32:32:32 4dBm Nov 18, 2018 00:56:42.339554000 +07
   40  96.238473 32:32:32:32:32:32 5dBm Nov 18, 2018 00:56:42.827751000 +07
   41  96.359381 32:32:32:32:32:32 7dBm Nov 18, 2018 00:56:42.948659000 +07
   42  96.520216 32:32:32:32:32:32 6dBm Nov 18, 2018 00:56:43.109494000 +07
   43  96.631119 32:32:32:32:32:32 3dBm Nov 18, 2018 00:56:43.220397000 +07
   44  96.689869 32:32:32:32:32:32 5dBm Nov 18, 2018 00:56:43.279147000 +07
   45  96.730451 32:32:32:32:32:32 3dBm Nov 18, 2018 00:56:43.319729000 +07
   46  96.967564 32:32:32:32:32:32 7dBm Nov 18, 2018 00:56:43.556842000 +07
   47  97.033798 32:32:32:32:32:32 5dBm Nov 18, 2018 00:56:43.623076000 +07
   48  97.330904 32:32:32:32:32:32 6dBm Nov 18, 2018 00:56:43.920182000 +07
   49  97.347220 32:32:32:32:32:32 6dBm Nov 18, 2018 00:56:43.936498000 +07
   50  97.501126 32:32:32:32:32:32 5dBm Nov 18, 2018 00:56:44.090404000 +07
   51  97.559550 32:32:32:32:32:32 6dBm Nov 18, 2018 00:56:44.148828000 +07
   52  98.591642 32:32:32:32:32:32 7dBm Nov 18, 2018 00:56:45.180920000 +07
   53  98.668858 32:32:32:32:32:32 6dBm Nov 18, 2018 00:56:45.258136000 +07
   54  98.922462 32:32:32:32:32:32 6dBm Nov 18, 2018 00:56:45.511740000 +07
   55  99.139605 32:32:32:32:32:32 6dBm Nov 18, 2018 00:56:45.728883000 +07
   56  99.706609 32:32:32:32:32:32 4dBm Nov 18, 2018 00:56:46.295887000 +07
   57  99.916245 32:32:32:32:32:32 6dBm Nov 18, 2018 00:56:46.505523000 +07
   58 103.152444 32:32:32:32:32:32 5dBm Nov 18, 2018 00:56:49.741722000 +07
   59 1170370009.672868               Dec 19, 2055 23:41:56.262146000 +07
