0
0.0532663
0.0568037
0.0793562
0.0856148
0.0870166
0.0950466
0.1947390
0.1953280
0.2439492
0.2917855
0.2876449
0.2921918
0.2966523
0.3229513
0.3147774
0.3345618
0.3343940
0.3355746
0.3448148
0.3435273
0.3424679
0.3435186
0.3552054
0.3673693
0.3782136
0.3777979
0.3769123
0.3791309
0.3793660
0.3799924
0.4669615
0.4837034
0.5311402
0.5707987
0.9283298
0.9734848
0.9730643
1.1186232
1.1264519
1.1234074
1.1342363
1.1315747
1.1609970
1.9632223
2.0621511
2.1242760
2.2119150
2.2757493
2.2750424
2.2705565
2.3231927
2.3104377
2.3472771
2.3403420
2.4231244
2.4098603
2.4399910
2.4278744
2.4128315
2.4800111
2.5082172
2.5394709
2.5547118
2.7488927
2.8296267
2.8831397
2.9056022
3.0174807
3.1209283
3.1221751
3.3364564
3.8256785
3.8155737
3.8090933
3.8163013
3.8203451
3.7980602
3.7818475
3.8805071
3.8830312
3.9728958
3.9538470
4.0774886
4.1665410
4.1557631
4.1865374
4.2406792
4.3972446
4.3797592
4.4149046
4.4823126
4.6060647
4.7047858
4.7168036
4.7346247
5.2906678
5.3001235
5.2921003
5.2750227
5.2348744
5.2140558
5.2066687
5.2548958
5.5296192
5.6427520
5.6627606
5.6394497
5.7286357
5.7901882
5.9753283
5.9830545
5.9677465
6.0377429
6.0174466
6.0198432
6.0076424
5.9921079
5.9822723
5.9474256
5.9188183
5.9093910
5.8670436
5.8381471
5.7925515
5.7636574
5.6736665
5.7729188
5.7761950
5.7536653
5.7348643
5.7605704
5.7440123
5.8878710
5.8818461
5.8637471
5.8603298
5.9692710
5.9477134
5.9296301
6.0906255
6.0994134
6.1256646
6.1063457
6.1230738
6.1027065
6.1125680
6.0850187
6.1432396
6.1325523
6.1460020
6.1095399
6.1351598
6.1140780
6.1772942
6.4386620
6.6868241
6.6615542
6.6773008
6.5715560
6.5945932
6.5872853
6.5494568
6.5297019
6.5042669
6.4799657
6.5059473
6.6243556
6.5993811
6.6326864
6.6690786
6.6404396
6.6138113
6.3978557
6.3513269
6.4282396
6.3813041
6.3602141
5.7486386
5.6760790
5.6541475
5.6233066
5.6390905
5.6164078
5.5941735
5.5713531
