0
6.91256338278
1.20971757688
3.3746830166
1.50524252423
0.836709985785
1.46209799921
11.6748101363
0.799575827664
5.88592707473
5.72543509634
0.0
1.1049320163
1.12282194564
3.67166722487
0.0
2.69849175333
0.416471840777
0.496318792864
1.37270840103
0.227011716218
0.194363549466
0.550584889958
1.67997962311
1.66667904866
1.52776022619
0.307348128852
0.332514856899
0.678276228435
0.420721416609
0.585494454149
10.1181155965
2.27758033244
5.81434085735
4.9215791286
40.4178070982
5.90304952175
0.996193387833
16.9675020071
1.61866430939
0.921727513138
2.4016818529
0.713766885337
4.08925010212
89.9625162692
12.1439923083
8.15769449341
10.7069886545
8.30020797747
1.83993614929
0.733573433123
7.34842888117
0.0
6.57970809209
1.56013974855
10.821489319
0.0
4.36117111254
0.0
0.0
8.96246459785
4.62149665453
5.20092198299
3.26541459818
22.7446571619
10.0139019294
7.64180235859
3.99085814222
13.9895854429
12.9888447813
1.37700581714
26.1504329412
57.3228200976
1.97004509644
1.16005883333
2.63862286519
2.31851060823
0.0
1.03195711385
13.2399992775
3.48013558508
13.0458832302
0.914813610845
15.9462373004
12.9502705446
0.642234674596
5.56315356794
9.92298247554
20.4935401707
0.0
5.86195431578
9.45778026507
16.1997955605
12.9575643203
3.92549900653
4.0890680055
63.9500328443
3.36086934615
0.724110570292
0.0
0.0
0.0
1.30516298904
7.48520480747
34.5161546736
15.0460365238
4.13940687833
0.0
12.511871797
9.23498002148
23.1502952444
3.09179972732
0.641657941588
10.8113013921
0.666815497453
2.62481832003
2.60845194582
1.56999392772
1.06131220736
0.352530509337
0.944801569482
4.11562562971
0.49883404744
0.0
0.147699569538
0.263308839651
0.610543891757
18.7419395508
5.66791048566
0.0
0.0
4.66522920105
0.0
18.7902681382
1.85864880809
0.0
2.18485866855
14.8122693388
0.0
0.637675828305
22.5652726356
8.62752413116
5.70558991952
0.830380885989
4.63447555125
0.956980369333
3.17522525438
3.46319102767
9.42488510407
1.21992131882
3.49000587182
0.0
5.52191672298
0.0
9.6399873387
31.4997981906
30.1073820785
0.168902249708
4.17300678886
11.0019859696
7.4446212962
2.30318064392
0.0
3.43718941101
0.433646024934
0.0
7.84634199384
15.7409322444
0.0
5.77724403616
6.00484706294
0.0519056351927
0.0
8.15195796031
0.481378599908
11.2136375183
0.0617492480292
0.673650204922
0.0
1.71619127085
3.43144390472
0.0
4.5517235307
0.0
0.0
0.0
