1
1.1854546
1.2021622
1.0196092
1.0910427
1.1939124
1.2030902
1.3118283
1.1173901
1.1983988
1.1075101
1.1958563
1.0190439
1.0913459
1.1952476
1.2140899
1.3404669
1.1215919
1.3062083
1.3238231
1.4420721
1.4471762
1.3379405
1.1250005
1.2072265
1.1080951
1.1965675
1.3113300
1.3197013
1.1192937
1.1967797
1.2043086
1.3119175
1.2148676
1.3115747
1.2152523
1.2061639
1.1094410
1.5460959
1.1553855
1.2352734
1.1113224
1.1960885
1.0227702
1.0051820
1.0062816
1.1870700
1.0196831
1.0913026
1.1946230
1.2143459
1.4281413
1.2260273
1.2334944
1.1171559
0.9668652
1.0919181
1.2558297
1.2153155
1.1147044
0.7939765
0.6541015
0.6942100
0.6952020
0.7570099
0.8305830
0.8360991
0.8381477
0.9088998
0.8457325
0.9094246
1.0828612
1.4163132
1.1286212
1.0299922
1.0420137
1.0122832
1.0038886
0.8662235
0.8622942
0.7859153
0.8379355
0.8353425
0.9084086
0.8431302
0.9095055
0.9148907
0.8483193
0.9132748
1.0006878
1.1939583
1.0216670
1.0924215
1.2035236
1.0249488
1.0063095
1.1065280
0.9412357
0.9255552
0.8463267
0.7693347
0.9011723
0.9956308
1.0040819
0.9240543
0.9252054
1.1886376
1.2729405
1.0550826
1.0111659
0.7231276
0.9816604
0.9581532
1.2923752
0.7511846
0.9917671
1.1464257
1.0210383
1.0961442
0.8658274
1.0217148
0.9544320
1.2020752
1.7156814
1.0080959
0.5849514
0.6948809
0.6031590
0.9937426
0.5707355
0.6333227
1.1561471
1.2054811
0.9051046
0.7852130
0.9873367
0.6268328
0.6030415
0.8890008
0.7846686
0.7980078
0.6802887
0.5089083
0.7412575
0.6048564
0.6763778
0.5897539
0.5865501
0.5335692
0.7437559
0.5073358
0.7476814
0.5168227
0.4938537
0.4840656
0.6225865
1.0652720
0.5058456
0.4296702
0.2572914
0.3086724
0.3079442
0.4659384
0.4254348
0.4612644
0.4884992
0.4086737
0.2334723
0.3274294
0.1981088
0.2030881
0.2109599
0.1807841
0.1803560
0.1799468
0.2554632
0.2517242
0.2496470
0.2169787
0.1871048
0.1874472
0.1465729
0.1896747
0.1975306
0.1519222
0.1490286
0.1496342
0.1293718
0.1673427
0.1198774
0.1881286
0.1181087
0.1370666
0.1305812
0.1253354
0.1436076
0.1441397
0.1199206
0.1164748
0.1217821
0.1395772
0.1563627
0.1387587
0.2010337
0.1435879
0.1411516
0.1867690
0.1533902
0.1542913
0.1644937
0.1455156
0.1479415
0.1828848
0.1315514
0.1396385
0.1636935
0.1377585
0.1620344
0.1612449
0.1920597
0.1804925
0.1599526
0.1557911
0.1442342
0.1540271
0.1602739
0.1559676
0.1605129
0.1750451
0.1680945
0.1302015
0.1882499
0.1590481
0.1934083
0.1540547
0.1510111
0.1520718
0.1626494
0.1737120
0.1854631
0.1827703
0.1447066
0.1451052
0.1998321
