2.3158265599
2.53169622
2.481757083
2.458279209
2.471792694
2.9555577991
2.620865714
2.571668166
2.208590619
2.565749563
2.700880209
2.171881524
3.077802198
2.794329574
2.726016476
3.04520665
2.421632752
2.347325301
3.034954955
3.08986976
2.592937853
2.187264151
3.06685633
3.174468085
2.520903955
2.366366366
3.15747601
1.939784946
2.568421053
1.782608696
5.548913043
3.51428714
3.363636364
2.714285714
1.866666667
3.3625
4.25
4.872727273
2.204545455
6.904761905
2.446969697
1.444444444
2.54985755
2.935714286
1.606153846
2.12755102

