    1   0.000000 32:32:32:32:32:32 10dBm Nov 19, 2018 22:59:21.643488000 +07
    2   0.086259 32:32:32:32:32:32 10dBm Nov 19, 2018 22:59:21.729747000 +07
    3   0.146341 32:32:32:32:32:32 7dBm Nov 19, 2018 22:59:21.789829000 +07
    4   0.227646 32:32:32:32:32:32 9dBm Nov 19, 2018 22:59:21.871134000 +07
    5   0.248947 32:32:32:32:32:32 10dBm Nov 19, 2018 22:59:21.892435000 +07
    6   0.321462 32:32:32:32:32:32 9dBm Nov 19, 2018 22:59:21.964950000 +07
    7   0.342182 32:32:32:32:32:32 8dBm Nov 19, 2018 22:59:21.985670000 +07
    8   0.360635 32:32:32:32:32:32 9dBm Nov 19, 2018 22:59:22.004123000 +07
    9   0.377135 32:32:32:32:32:32 10dBm Nov 19, 2018 22:59:22.020623000 +07
   10   0.473549 32:32:32:32:32:32 10dBm Nov 19, 2018 22:59:22.117037000 +07
   11   0.519122 32:32:32:32:32:32 9dBm Nov 19, 2018 22:59:22.162610000 +07
   12   0.550367 32:32:32:32:32:32 9dBm Nov 19, 2018 22:59:22.193855000 +07
   13   0.598084 32:32:32:32:32:32 9dBm Nov 19, 2018 22:59:22.241572000 +07
   14   0.685385 32:32:32:32:32:32 7dBm Nov 19, 2018 22:59:22.328873000 +07
   15   0.701446 32:32:32:32:32:32 9dBm Nov 19, 2018 22:59:22.344934000 +07
   16   0.797205 32:32:32:32:32:32 7dBm Nov 19, 2018 22:59:22.440693000 +07
   17   0.885602 32:32:32:32:32:32 9dBm Nov 19, 2018 22:59:22.529090000 +07
   18   1.027026 32:32:32:32:32:32 9dBm Nov 19, 2018 22:59:22.670514000 +07
   19   1.051505 32:32:32:32:32:32 9dBm Nov 19, 2018 22:59:22.694993000 +07
   20   1.091446 32:32:32:32:32:32 9dBm Nov 19, 2018 22:59:22.734934000 +07
   21   1.302512 32:32:32:32:32:32 8dBm Nov 19, 2018 22:59:22.946000000 +07
   22   1.318412 32:32:32:32:32:32 8dBm Nov 19, 2018 22:59:22.961900000 +07
   23   1.332116 32:32:32:32:32:32 8dBm Nov 19, 2018 22:59:22.975604000 +07
   24   1.352163 32:32:32:32:32:32 9dBm Nov 19, 2018 22:59:22.995651000 +07
   25   1.525791 32:32:32:32:32:32 9dBm Nov 19, 2018 22:59:23.169279000 +07
   26   1.598635 32:32:32:32:32:32 9dBm Nov 19, 2018 22:59:23.242123000 +07
   27   1.614187 32:32:32:32:32:32 9dBm Nov 19, 2018 22:59:23.257675000 +07
   28   1.637845 32:32:32:32:32:32 8dBm Nov 19, 2018 22:59:23.281333000 +07
   29   1.725854 32:32:32:32:32:32 8dBm Nov 19, 2018 22:59:23.369342000 +07
   30   1.763092 32:32:32:32:32:32 9dBm Nov 19, 2018 22:59:23.406580000 +07
   31   1.886295 32:32:32:32:32:32 9dBm Nov 19, 2018 22:59:23.529783000 +07
   32   1.905251 32:32:32:32:32:32 9dBm Nov 19, 2018 22:59:23.548739000 +07
   33   2.018969 32:32:32:32:32:32 8dBm Nov 19, 2018 22:59:23.662457000 +07
   34   2.154549 32:32:32:32:32:32 9dBm Nov 19, 2018 22:59:23.798037000 +07
   35   2.247711 32:32:32:32:32:32 10dBm Nov 19, 2018 22:59:23.891199000 +07
   36   2.274863 32:32:32:32:32:32 7dBm Nov 19, 2018 22:59:23.918351000 +07
   37   2.403144 32:32:32:32:32:32 8dBm Nov 19, 2018 22:59:24.046632000 +07
   38   2.537040 32:32:32:32:32:32 8dBm Nov 19, 2018 22:59:24.180528000 +07
   39   2.579159 32:32:32:32:32:32 9dBm Nov 19, 2018 22:59:24.222647000 +07
   40   2.597344 32:32:32:32:32:32 10dBm Nov 19, 2018 22:59:24.240832000 +07
   41   2.627486 32:32:32:32:32:32 9dBm Nov 19, 2018 22:59:24.270974000 +07
   42   2.646237 32:32:32:32:32:32 6dBm Nov 19, 2018 22:59:24.289725000 +07
   43   2.699499 32:32:32:32:32:32 5dBm Nov 19, 2018 22:59:24.342987000 +07
   44   2.824670 32:32:32:32:32:32 10dBm Nov 19, 2018 22:59:24.468158000 +07
   45   2.905963 32:32:32:32:32:32 8dBm Nov 19, 2018 22:59:24.549451000 +07
   46   2.944687 32:32:32:32:32:32 9dBm Nov 19, 2018 22:59:24.588175000 +07
   47   3.056895 32:32:32:32:32:32 8dBm Nov 19, 2018 22:59:24.700383000 +07
   48   3.075014 32:32:32:32:32:32 11dBm Nov 19, 2018 22:59:24.718502000 +07
   49   3.091490 32:32:32:32:32:32 9dBm Nov 19, 2018 22:59:24.734978000 +07
   50   3.164044 32:32:32:32:32:32 9dBm Nov 19, 2018 22:59:24.807532000 +07
   51   3.193609 32:32:32:32:32:32 11dBm Nov 19, 2018 22:59:24.837097000 +07
   52   3.208284 32:32:32:32:32:32 9dBm Nov 19, 2018 22:59:24.851772000 +07
   53   3.230522 32:32:32:32:32:32 7dBm Nov 19, 2018 22:59:24.874010000 +07
   54   3.282976 32:32:32:32:32:32 10dBm Nov 19, 2018 22:59:24.926464000 +07
   55   3.298899 32:32:32:32:32:32 7dBm Nov 19, 2018 22:59:24.942387000 +07
   56   3.350909 32:32:32:32:32:32 9dBm Nov 19, 2018 22:59:24.994397000 +07
   57   3.389785 32:32:32:32:32:32 10dBm Nov 19, 2018 22:59:25.033273000 +07
   58   3.637851 32:32:32:32:32:32 9dBm Nov 19, 2018 22:59:25.281339000 +07
   59   3.652137 32:32:32:32:32:32 11dBm Nov 19, 2018 22:59:25.295625000 +07
   60   3.689780 32:32:32:32:32:32 10dBm Nov 19, 2018 22:59:25.333268000 +07
   61   3.738147 32:32:32:32:32:32 9dBm Nov 19, 2018 22:59:25.381635000 +07
   62   3.798524 32:32:32:32:32:32 10dBm Nov 19, 2018 22:59:25.442012000 +07
   63   3.843957 32:32:32:32:32:32 8dBm Nov 19, 2018 22:59:25.487445000 +07
   64   4.087990 32:32:32:32:32:32 9dBm Nov 19, 2018 22:59:25.731478000 +07
   65   4.145075 32:32:32:32:32:32 7dBm Nov 19, 2018 22:59:25.788563000 +07
   66   4.279260 32:32:32:32:32:32 8dBm Nov 19, 2018 22:59:25.922748000 +07
   67   4.333573 32:32:32:32:32:32 10dBm Nov 19, 2018 22:59:25.977061000 +07
   68   4.349021 32:32:32:32:32:32 8dBm Nov 19, 2018 22:59:25.992509000 +07
   69   4.400796 32:32:32:32:32:32 9dBm Nov 19, 2018 22:59:26.044284000 +07
   70   4.574249 32:32:32:32:32:32 9dBm Nov 19, 2018 22:59:26.217737000 +07
   71   4.758940 32:32:32:32:32:32 11dBm Nov 19, 2018 22:59:26.402428000 +07
   72   4.790264 32:32:32:32:32:32 9dBm Nov 19, 2018 22:59:26.433752000 +07
   73   4.797201 32:32:32:32:32:32 10dBm Nov 19, 2018 22:59:26.440689000 +07
   74   4.955827 32:32:32:32:32:32 10dBm Nov 19, 2018 22:59:26.599315000 +07
   75   4.987495 32:32:32:32:32:32 6dBm Nov 19, 2018 22:59:26.630983000 +07
   76   5.006294 32:32:32:32:32:32 12dBm Nov 19, 2018 22:59:26.649782000 +07
   77   5.010419 32:32:32:32:32:32 9dBm Nov 19, 2018 22:59:26.653907000 +07
   78   5.031709 32:32:32:32:32:32 9dBm Nov 19, 2018 22:59:26.675197000 +07
   79   5.035970 32:32:32:32:32:32 9dBm Nov 19, 2018 22:59:26.679458000 +07
   80   5.095156 32:32:32:32:32:32 8dBm Nov 19, 2018 22:59:26.738644000 +07
   81   5.121827 32:32:32:32:32:32 9dBm Nov 19, 2018 22:59:26.765315000 +07
   82   5.157201 32:32:32:32:32:32 10dBm Nov 19, 2018 22:59:26.800689000 +07
   83   5.319615 32:32:32:32:32:32 7dBm Nov 19, 2018 22:59:26.963103000 +07
   84   5.339282 32:32:32:32:32:32 7dBm Nov 19, 2018 22:59:26.982770000 +07
   85   5.352709 32:32:32:32:32:32 8dBm Nov 19, 2018 22:59:26.996197000 +07
   86   5.461274 32:32:32:32:32:32 9dBm Nov 19, 2018 22:59:27.104762000 +07
   87   5.684578 32:32:32:32:32:32 10dBm Nov 19, 2018 22:59:27.328066000 +07
   88   6.157941 32:32:32:32:32:32 8dBm Nov 19, 2018 22:59:27.801429000 +07
   89   6.181137 32:32:32:32:32:32 9dBm Nov 19, 2018 22:59:27.824625000 +07
   90   6.594256 32:32:32:32:32:32 10dBm Nov 19, 2018 22:59:28.237744000 +07
   91   6.666671 32:32:32:32:32:32 8dBm Nov 19, 2018 22:59:28.310159000 +07
   92   6.870837 32:32:32:32:32:32 9dBm Nov 19, 2018 22:59:28.514325000 +07
   93   6.911630 32:32:32:32:32:32 7dBm Nov 19, 2018 22:59:28.555118000 +07
   94   6.959013 32:32:32:32:32:32 9dBm Nov 19, 2018 22:59:28.602501000 +07
   95   7.107459 32:32:32:32:32:32 8dBm Nov 19, 2018 22:59:28.750947000 +07
   96   7.117064 32:32:32:32:32:32 8dBm Nov 19, 2018 22:59:28.760552000 +07
   97   7.154899 32:32:32:32:32:32 8dBm Nov 19, 2018 22:59:28.798387000 +07
   98   7.177310 32:32:32:32:32:32 7dBm Nov 19, 2018 22:59:28.820798000 +07
   99   7.267457 32:32:32:32:32:32 10dBm Nov 19, 2018 22:59:28.910945000 +07
  100   7.406859 32:32:32:32:32:32 8dBm Nov 19, 2018 22:59:29.050347000 +07
  101   7.430651 32:32:32:32:32:32 10dBm Nov 19, 2018 22:59:29.074139000 +07
  102   7.684481 32:32:32:32:32:32 8dBm Nov 19, 2018 22:59:29.327969000 +07
  103   7.735770 32:32:32:32:32:32 9dBm Nov 19, 2018 22:59:29.379258000 +07
  104   7.851439 32:32:32:32:32:32 7dBm Nov 19, 2018 22:59:29.494927000 +07
  105   7.943762 32:32:32:32:32:32 6dBm Nov 19, 2018 22:59:29.587250000 +07
  106   8.013820 32:32:32:32:32:32 10dBm Nov 19, 2018 22:59:29.657308000 +07
  107   8.090741 32:32:32:32:32:32 10dBm Nov 19, 2018 22:59:29.734229000 +07
  108   8.161215 32:32:32:32:32:32 8dBm Nov 19, 2018 22:59:29.804703000 +07
  109   8.241234 32:32:32:32:32:32 8dBm Nov 19, 2018 22:59:29.884722000 +07
  110   8.326486 32:32:32:32:32:32 10dBm Nov 19, 2018 22:59:29.969974000 +07
  111   8.407066 32:32:32:32:32:32 9dBm Nov 19, 2018 22:59:30.050554000 +07
  112   8.434907 32:32:32:32:32:32 9dBm Nov 19, 2018 22:59:30.078395000 +07
  113   8.445707 32:32:32:32:32:32 9dBm Nov 19, 2018 22:59:30.089195000 +07
  114   8.491382 32:32:32:32:32:32 8dBm Nov 19, 2018 22:59:30.134870000 +07
  115   8.535631 32:32:32:32:32:32 10dBm Nov 19, 2018 22:59:30.179119000 +07
  116   8.718210 32:32:32:32:32:32 8dBm Nov 19, 2018 22:59:30.361698000 +07
  117   8.771390 32:32:32:32:32:32 8dBm Nov 19, 2018 22:59:30.414878000 +07
  118   8.779175 32:32:32:32:32:32 9dBm Nov 19, 2018 22:59:30.422663000 +07
  119   8.821187 32:32:32:32:32:32 7dBm Nov 19, 2018 22:59:30.464675000 +07
  120   8.853684 32:32:32:32:32:32 9dBm Nov 19, 2018 22:59:30.497172000 +07
  121   9.041504 32:32:32:32:32:32 8dBm Nov 19, 2018 22:59:30.684992000 +07
  122   9.075589 32:32:32:32:32:32 9dBm Nov 19, 2018 22:59:30.719077000 +07
  123   9.104781 32:32:32:32:32:32 9dBm Nov 19, 2018 22:59:30.748269000 +07
  124   9.209275 32:32:32:32:32:32 6dBm Nov 19, 2018 22:59:30.852763000 +07
  125   9.353935 32:32:32:32:32:32 9dBm Nov 19, 2018 22:59:30.997423000 +07
  126   9.377372 32:32:32:32:32:32 9dBm Nov 19, 2018 22:59:31.020860000 +07
  127   9.401704 32:32:32:32:32:32 8dBm Nov 19, 2018 22:59:31.045192000 +07
  128   9.438928 32:32:32:32:32:32 8dBm Nov 19, 2018 22:59:31.082416000 +07
  129   9.458117 32:32:32:32:32:32 7dBm Nov 19, 2018 22:59:31.101605000 +07
  130   9.519479 32:32:32:32:32:32 10dBm Nov 19, 2018 22:59:31.162967000 +07
  131   9.544498 32:32:32:32:32:32 9dBm Nov 19, 2018 22:59:31.187986000 +07
  132   9.574596 32:32:32:32:32:32 8dBm Nov 19, 2018 22:59:31.218084000 +07
  133   9.592863 32:32:32:32:32:32 7dBm Nov 19, 2018 22:59:31.236351000 +07
  134   9.669051 32:32:32:32:32:32 8dBm Nov 19, 2018 22:59:31.312539000 +07
  135   9.804944 32:32:32:32:32:32 10dBm Nov 19, 2018 22:59:31.448432000 +07
  136   9.840093 32:32:32:32:32:32 8dBm Nov 19, 2018 22:59:31.483581000 +07
  137   9.889703 32:32:32:32:32:32 8dBm Nov 19, 2018 22:59:31.533191000 +07
  138   9.913232 32:32:32:32:32:32 6dBm Nov 19, 2018 22:59:31.556720000 +07
  139  10.117247 32:32:32:32:32:32 9dBm Nov 19, 2018 22:59:31.760735000 +07
  140  10.158413 32:32:32:32:32:32 10dBm Nov 19, 2018 22:59:31.801901000 +07
  141  10.180326 32:32:32:32:32:32 8dBm Nov 19, 2018 22:59:31.823814000 +07
  142  10.375865 32:32:32:32:32:32 9dBm Nov 19, 2018 22:59:32.019353000 +07
  143  10.526801 32:32:32:32:32:32 8dBm Nov 19, 2018 22:59:32.170289000 +07
  144  10.610668 32:32:32:32:32:32 9dBm Nov 19, 2018 22:59:32.254156000 +07
  145  10.617232 32:32:32:32:32:32 8dBm Nov 19, 2018 22:59:32.260720000 +07
  146  10.679954 32:32:32:32:32:32 9dBm Nov 19, 2018 22:59:32.323442000 +07
  147  10.705894 32:32:32:32:32:32 8dBm Nov 19, 2018 22:59:32.349382000 +07
  148  10.909375 32:32:32:32:32:32 9dBm Nov 19, 2018 22:59:32.552863000 +07
  149  10.931947 32:32:32:32:32:32 8dBm Nov 19, 2018 22:59:32.575435000 +07
  150  10.945182 32:32:32:32:32:32 7dBm Nov 19, 2018 22:59:32.588670000 +07
  151  11.242401 32:32:32:32:32:32 7dBm Nov 19, 2018 22:59:32.885889000 +07
  152  11.538227 32:32:32:32:32:32 11dBm Nov 19, 2018 22:59:33.181715000 +07
  153  11.624837 32:32:32:32:32:32 8dBm Nov 19, 2018 22:59:33.268325000 +07
  154  11.636980 32:32:32:32:32:32 9dBm Nov 19, 2018 22:59:33.280468000 +07
  155  11.654836 32:32:32:32:32:32 11dBm Nov 19, 2018 22:59:33.298324000 +07
  156  11.840037 32:32:32:32:32:32 8dBm Nov 19, 2018 22:59:33.483525000 +07
  157  12.005274 32:32:32:32:32:32 9dBm Nov 19, 2018 22:59:33.648762000 +07
  158  12.488761 32:32:32:32:32:32 10dBm Nov 19, 2018 22:59:34.132249000 +07
  159  12.539196 32:32:32:32:32:32 10dBm Nov 19, 2018 22:59:34.182684000 +07
  160  12.689879 32:32:32:32:32:32 9dBm Nov 19, 2018 22:59:34.333367000 +07
  161  12.719234 32:32:32:32:32:32 10dBm Nov 19, 2018 22:59:34.362722000 +07
  162  12.786331 32:32:32:32:32:32 10dBm Nov 19, 2018 22:59:34.429819000 +07
  163  12.837492 32:32:32:32:32:32 8dBm Nov 19, 2018 22:59:34.480980000 +07
  164  12.878024 32:32:32:32:32:32 8dBm Nov 19, 2018 22:59:34.521512000 +07
  165  12.956092 32:32:32:32:32:32 9dBm Nov 19, 2018 22:59:34.599580000 +07
  166  13.002167 32:32:32:32:32:32 8dBm Nov 19, 2018 22:59:34.645655000 +07
  167  13.006558 32:32:32:32:32:32 5dBm Nov 19, 2018 22:59:34.650046000 +07
  168  13.089037 32:32:32:32:32:32 10dBm Nov 19, 2018 22:59:34.732525000 +07
  169  13.148238 32:32:32:32:32:32 9dBm Nov 19, 2018 22:59:34.791726000 +07
  170  13.167018 32:32:32:32:32:32 8dBm Nov 19, 2018 22:59:34.810506000 +07
  171  13.217557 32:32:32:32:32:32 9dBm Nov 19, 2018 22:59:34.861045000 +07
  172  13.219602 32:32:32:32:32:32 9dBm Nov 19, 2018 22:59:34.863090000 +07
  173  13.241021 32:32:32:32:32:32 10dBm Nov 19, 2018 22:59:34.884509000 +07
  174  13.255565 32:32:32:32:32:32 9dBm Nov 19, 2018 22:59:34.899053000 +07
  175  13.274796 32:32:32:32:32:32 6dBm Nov 19, 2018 22:59:34.918284000 +07
  176  13.358245 32:32:32:32:32:32 9dBm Nov 19, 2018 22:59:35.001733000 +07
  177  13.439301 32:32:32:32:32:32 9dBm Nov 19, 2018 22:59:35.082789000 +07
  178  13.477091 32:32:32:32:32:32 8dBm Nov 19, 2018 22:59:35.120579000 +07
  179  13.557397 32:32:32:32:32:32 8dBm Nov 19, 2018 22:59:35.200885000 +07
  180  13.601942 32:32:32:32:32:32 6dBm Nov 19, 2018 22:59:35.245430000 +07
  181  13.607390 32:32:32:32:32:32 7dBm Nov 19, 2018 22:59:35.250878000 +07
  182  13.645788 32:32:32:32:32:32 9dBm Nov 19, 2018 22:59:35.289276000 +07
  183  13.675990 32:32:32:32:32:32 8dBm Nov 19, 2018 22:59:35.319478000 +07
  184  14.277857 32:32:32:32:32:32 8dBm Nov 19, 2018 22:59:35.921345000 +07
  185  14.310345 32:32:32:32:32:32 8dBm Nov 19, 2018 22:59:35.953833000 +07
  186  14.806835 32:32:32:32:32:32 8dBm Nov 19, 2018 22:59:36.450323000 +07
  187  14.887326 32:32:32:32:32:32 9dBm Nov 19, 2018 22:59:36.530814000 +07
  188  14.952908 32:32:32:32:32:32 8dBm Nov 19, 2018 22:59:36.596396000 +07
  189  15.058104 32:32:32:32:32:32 8dBm Nov 19, 2018 22:59:36.701592000 +07
  190  15.080213 32:32:32:32:32:32 10dBm Nov 19, 2018 22:59:36.723701000 +07
  191  15.463791 32:32:32:32:32:32 8dBm Nov 19, 2018 22:59:37.107279000 +07
  192  15.653372 32:32:32:32:32:32 8dBm Nov 19, 2018 22:59:37.296860000 +07
  193  15.864324 32:32:32:32:32:32 8dBm Nov 19, 2018 22:59:37.507812000 +07
  194  15.930202 32:32:32:32:32:32 9dBm Nov 19, 2018 22:59:37.573690000 +07
  195  16.072028 32:32:32:32:32:32 8dBm Nov 19, 2018 22:59:37.715516000 +07
  196  16.201597 32:32:32:32:32:32 7dBm Nov 19, 2018 22:59:37.845085000 +07
  197  16.274836 32:32:32:32:32:32 8dBm Nov 19, 2018 22:59:37.918324000 +07
  198  16.391836 32:32:32:32:32:32 9dBm Nov 19, 2018 22:59:38.035324000 +07
  199  16.445766 32:32:32:32:32:32 8dBm Nov 19, 2018 22:59:38.089254000 +07
  200  16.501649 32:32:32:32:32:32 9dBm Nov 19, 2018 22:59:38.145137000 +07
  201  16.642989 32:32:32:32:32:32 8dBm Nov 19, 2018 22:59:38.286477000 +07
  202  16.673410 32:32:32:32:32:32 7dBm Nov 19, 2018 22:59:38.316898000 +07
  203  16.692010 32:32:32:32:32:32 7dBm Nov 19, 2018 22:59:38.335498000 +07
  204  16.750175 32:32:32:32:32:32 8dBm Nov 19, 2018 22:59:38.393663000 +07
  205  16.769061 32:32:32:32:32:32 6dBm Nov 19, 2018 22:59:38.412549000 +07
  206  16.909489 32:32:32:32:32:32 8dBm Nov 19, 2018 22:59:38.552977000 +07
  207  17.070957 32:32:32:32:32:32 7dBm Nov 19, 2018 22:59:38.714445000 +07
  208  17.116421 32:32:32:32:32:32 8dBm Nov 19, 2018 22:59:38.759909000 +07
  209  17.208218 32:32:32:32:32:32 6dBm Nov 19, 2018 22:59:38.851706000 +07
  210  17.370140 32:32:32:32:32:32 6dBm Nov 19, 2018 22:59:39.013628000 +07
  211  17.408000 32:32:32:32:32:32 7dBm Nov 19, 2018 22:59:39.051488000 +07
  212  17.516705 32:32:32:32:32:32 9dBm Nov 19, 2018 22:59:39.160193000 +07
  213  17.538071 32:32:32:32:32:32 7dBm Nov 19, 2018 22:59:39.181559000 +07
  214  17.564263 32:32:32:32:32:32 7dBm Nov 19, 2018 22:59:39.207751000 +07
  215  17.585639 32:32:32:32:32:32 7dBm Nov 19, 2018 22:59:39.229127000 +07
  216  17.612694 32:32:32:32:32:32 6dBm Nov 19, 2018 22:59:39.256182000 +07
  217  17.631421 32:32:32:32:32:32 8dBm Nov 19, 2018 22:59:39.274909000 +07
  218  17.696699 32:32:32:32:32:32 9dBm Nov 19, 2018 22:59:39.340187000 +07
  219  17.720840 32:32:32:32:32:32 9dBm Nov 19, 2018 22:59:39.364328000 +07
  220  17.743627 32:32:32:32:32:32 8dBm Nov 19, 2018 22:59:39.387115000 +07
  221  17.761676 32:32:32:32:32:32 8dBm Nov 19, 2018 22:59:39.405164000 +07
  222  17.791463 32:32:32:32:32:32 9dBm Nov 19, 2018 22:59:39.434951000 +07
  223  17.834510 32:32:32:32:32:32 7dBm Nov 19, 2018 22:59:39.477998000 +07
  224  17.851519 32:32:32:32:32:32 7dBm Nov 19, 2018 22:59:39.495007000 +07
  225  17.887657 32:32:32:32:32:32 8dBm Nov 19, 2018 22:59:39.531145000 +07
  226  17.977803 32:32:32:32:32:32 5dBm Nov 19, 2018 22:59:39.621291000 +07
  227  18.120180 32:32:32:32:32:32 8dBm Nov 19, 2018 22:59:39.763668000 +07
  228  18.245378 32:32:32:32:32:32 9dBm Nov 19, 2018 22:59:39.888866000 +07
  229  18.256588 32:32:32:32:32:32 8dBm Nov 19, 2018 22:59:39.900076000 +07
  230  18.376208 32:32:32:32:32:32 9dBm Nov 19, 2018 22:59:40.019696000 +07
  231  18.586015 32:32:32:32:32:32 8dBm Nov 19, 2018 22:59:40.229503000 +07
  232  18.669169 32:32:32:32:32:32 9dBm Nov 19, 2018 22:59:40.312657000 +07
  233  18.783827 32:32:32:32:32:32 8dBm Nov 19, 2018 22:59:40.427315000 +07
  234  18.961362 32:32:32:32:32:32 6dBm Nov 19, 2018 22:59:40.604850000 +07
  235  18.985327 32:32:32:32:32:32 9dBm Nov 19, 2018 22:59:40.628815000 +07
  236  19.146699 32:32:32:32:32:32 9dBm Nov 19, 2018 22:59:40.790187000 +07
  237  19.183664 32:32:32:32:32:32 6dBm Nov 19, 2018 22:59:40.827152000 +07
  238  19.218218 32:32:32:32:32:32 8dBm Nov 19, 2018 22:59:40.861706000 +07
  239  19.228738 32:32:32:32:32:32 8dBm Nov 19, 2018 22:59:40.872226000 +07
  240  19.251853 32:32:32:32:32:32 9dBm Nov 19, 2018 22:59:40.895341000 +07
  241  19.343984 32:32:32:32:32:32 8dBm Nov 19, 2018 22:59:40.987472000 +07
  242  19.487942 32:32:32:32:32:32 8dBm Nov 19, 2018 22:59:41.131430000 +07
  243  19.556190 32:32:32:32:32:32 9dBm Nov 19, 2018 22:59:41.199678000 +07
  244  19.586869 32:32:32:32:32:32 8dBm Nov 19, 2018 22:59:41.230357000 +07
  245  19.641125 32:32:32:32:32:32 8dBm Nov 19, 2018 22:59:41.284613000 +07
  246  19.703696 32:32:32:32:32:32 9dBm Nov 19, 2018 22:59:41.347184000 +07
  247  19.742784 32:32:32:32:32:32 9dBm Nov 19, 2018 22:59:41.386272000 +07
  248  19.764098 32:32:32:32:32:32 7dBm Nov 19, 2018 22:59:41.407586000 +07
  249  19.959855 32:32:32:32:32:32 9dBm Nov 19, 2018 22:59:41.603343000 +07
  250  20.078981 32:32:32:32:32:32 8dBm Nov 19, 2018 22:59:41.722469000 +07
  251  20.400736 32:32:32:32:32:32 10dBm Nov 19, 2018 22:59:42.044224000 +07
  252  20.469194 32:32:32:32:32:32 9dBm Nov 19, 2018 22:59:42.112682000 +07
  253  20.637722 32:32:32:32:32:32 8dBm Nov 19, 2018 22:59:42.281210000 +07
  254  20.711896 32:32:32:32:32:32 8dBm Nov 19, 2018 22:59:42.355384000 +07
  255  20.791619 32:32:32:32:32:32 9dBm Nov 19, 2018 22:59:42.435107000 +07
  256  20.797644 32:32:32:32:32:32 9dBm Nov 19, 2018 22:59:42.441132000 +07
  257  20.843427 32:32:32:32:32:32 7dBm Nov 19, 2018 22:59:42.486915000 +07
  258  20.954956 32:32:32:32:32:32 5dBm Nov 19, 2018 22:59:42.598444000 +07
  259  21.218838 32:32:32:32:32:32 9dBm Nov 19, 2018 22:59:42.862326000 +07
  260  21.356246 32:32:32:32:32:32 8dBm Nov 19, 2018 22:59:42.999734000 +07
  261  21.381531 32:32:32:32:32:32 9dBm Nov 19, 2018 22:59:43.025019000 +07
  262  21.448748 32:32:32:32:32:32 8dBm Nov 19, 2018 22:59:43.092236000 +07
  263  21.452635 32:32:32:32:32:32 8dBm Nov 19, 2018 22:59:43.096123000 +07
  264  21.816632 32:32:32:32:32:32 10dBm Nov 19, 2018 22:59:43.460120000 +07
  265  21.935291 32:32:32:32:32:32 8dBm Nov 19, 2018 22:59:43.578779000 +07
  266  22.037166 32:32:32:32:32:32 9dBm Nov 19, 2018 22:59:43.680654000 +07
  267  22.096996 32:32:32:32:32:32 7dBm Nov 19, 2018 22:59:43.740484000 +07
  268  22.244013 32:32:32:32:32:32 9dBm Nov 19, 2018 22:59:43.887501000 +07
  269  22.298236 32:32:32:32:32:32 8dBm Nov 19, 2018 22:59:43.941724000 +07
  270  22.317853 32:32:32:32:32:32 7dBm Nov 19, 2018 22:59:43.961341000 +07
  271  22.627441 32:32:32:32:32:32 7dBm Nov 19, 2018 22:59:44.270929000 +07
  272  22.647144 32:32:32:32:32:32 9dBm Nov 19, 2018 22:59:44.290632000 +07
  273  22.762395 32:32:32:32:32:32 9dBm Nov 19, 2018 22:59:44.405883000 +07
  274  22.831658 32:32:32:32:32:32 8dBm Nov 19, 2018 22:59:44.475146000 +07
  275  23.028902 32:32:32:32:32:32 10dBm Nov 19, 2018 22:59:44.672390000 +07
  276  23.115161 32:32:32:32:32:32 9dBm Nov 19, 2018 22:59:44.758649000 +07
  277  23.648636 32:32:32:32:32:32 6dBm Nov 19, 2018 22:59:45.292124000 +07
  278  23.686828 32:32:32:32:32:32 9dBm Nov 19, 2018 22:59:45.330316000 +07
  279  23.762832 32:32:32:32:32:32 8dBm Nov 19, 2018 22:59:45.406320000 +07
  280  23.818226 32:32:32:32:32:32 8dBm Nov 19, 2018 22:59:45.461714000 +07
  281  23.832262 32:32:32:32:32:32 8dBm Nov 19, 2018 22:59:45.475750000 +07
  282  23.931175 32:32:32:32:32:32 8dBm Nov 19, 2018 22:59:45.574663000 +07
  283  24.069753 32:32:32:32:32:32 7dBm Nov 19, 2018 22:59:45.713241000 +07
  284  24.329901 32:32:32:32:32:32 8dBm Nov 19, 2018 22:59:45.973389000 +07
  285  24.356545 32:32:32:32:32:32 9dBm Nov 19, 2018 22:59:46.000033000 +07
  286  24.405577 32:32:32:32:32:32 7dBm Nov 19, 2018 22:59:46.049065000 +07
  287  24.811697 32:32:32:32:32:32 8dBm Nov 19, 2018 22:59:46.455185000 +07
  288  25.087961 32:32:32:32:32:32 8dBm Nov 19, 2018 22:59:46.731449000 +07
  289  25.147489 32:32:32:32:32:32 9dBm Nov 19, 2018 22:59:46.790977000 +07
  290  25.222368 32:32:32:32:32:32 9dBm Nov 19, 2018 22:59:46.865856000 +07
  291  25.284466 32:32:32:32:32:32 7dBm Nov 19, 2018 22:59:46.927954000 +07
  292  25.314252 32:32:32:32:32:32 9dBm Nov 19, 2018 22:59:46.957740000 +07
  293  25.483771 32:32:32:32:32:32 8dBm Nov 19, 2018 22:59:47.127259000 +07
  294  25.590535 32:32:32:32:32:32 10dBm Nov 19, 2018 22:59:47.234023000 +07
  295  25.669872 32:32:32:32:32:32 9dBm Nov 19, 2018 22:59:47.313360000 +07
  296  25.743363 32:32:32:32:32:32 8dBm Nov 19, 2018 22:59:47.386851000 +07
  297  25.794659 32:32:32:32:32:32 10dBm Nov 19, 2018 22:59:47.438147000 +07
  298  25.927062 32:32:32:32:32:32 8dBm Nov 19, 2018 22:59:47.570550000 +07
  299  25.940717 32:32:32:32:32:32 7dBm Nov 19, 2018 22:59:47.584205000 +07
  300  25.957741 32:32:32:32:32:32 9dBm Nov 19, 2018 22:59:47.601229000 +07
  301  26.057051 32:32:32:32:32:32 6dBm Nov 19, 2018 22:59:47.700539000 +07
  302  26.170574 32:32:32:32:32:32 8dBm Nov 19, 2018 22:59:47.814062000 +07
  303  26.228645 32:32:32:32:32:32 8dBm Nov 19, 2018 22:59:47.872133000 +07
  304  26.405602 32:32:32:32:32:32 8dBm Nov 19, 2018 22:59:48.049090000 +07
  305  26.554019 32:32:32:32:32:32 8dBm Nov 19, 2018 22:59:48.197507000 +07
  306  26.588283 32:32:32:32:32:32 9dBm Nov 19, 2018 22:59:48.231771000 +07
  307  26.679126 32:32:32:32:32:32 6dBm Nov 19, 2018 22:59:48.322614000 +07
  308  26.778017 32:32:32:32:32:32 9dBm Nov 19, 2018 22:59:48.421505000 +07
  309  27.055641 32:32:32:32:32:32 7dBm Nov 19, 2018 22:59:48.699129000 +07
  310  27.107559 32:32:32:32:32:32 8dBm Nov 19, 2018 22:59:48.751047000 +07
  311  27.271187 32:32:32:32:32:32 6dBm Nov 19, 2018 22:59:48.914675000 +07
  312  27.294218 32:32:32:32:32:32 11dBm Nov 19, 2018 22:59:48.937706000 +07
  313  27.311352 32:32:32:32:32:32 7dBm Nov 19, 2018 22:59:48.954840000 +07
  314  27.318046 32:32:32:32:32:32 8dBm Nov 19, 2018 22:59:48.961534000 +07
  315  27.423220 32:32:32:32:32:32 8dBm Nov 19, 2018 22:59:49.066708000 +07
  316  27.492020 32:32:32:32:32:32 8dBm Nov 19, 2018 22:59:49.135508000 +07
  317  27.527185 32:32:32:32:32:32 8dBm Nov 19, 2018 22:59:49.170673000 +07
  318  27.617720 32:32:32:32:32:32 8dBm Nov 19, 2018 22:59:49.261208000 +07
  319  27.655372 32:32:32:32:32:32 8dBm Nov 19, 2018 22:59:49.298860000 +07
  320  27.797794 32:32:32:32:32:32 8dBm Nov 19, 2018 22:59:49.441282000 +07
  321  28.076284 32:32:32:32:32:32 7dBm Nov 19, 2018 22:59:49.719772000 +07
  322  28.094769 32:32:32:32:32:32 9dBm Nov 19, 2018 22:59:49.738257000 +07
  323  28.267770 32:32:32:32:32:32 6dBm Nov 19, 2018 22:59:49.911258000 +07
  324  28.416353 32:32:32:32:32:32 8dBm Nov 19, 2018 22:59:50.059841000 +07
  325  28.493939 32:32:32:32:32:32 7dBm Nov 19, 2018 22:59:50.137427000 +07
  326  28.837671 32:32:32:32:32:32 8dBm Nov 19, 2018 22:59:50.481159000 +07
  327  28.994526 32:32:32:32:32:32 8dBm Nov 19, 2018 22:59:50.638014000 +07
  328  29.005405 32:32:32:32:32:32 7dBm Nov 19, 2018 22:59:50.648893000 +07
  329  29.445530 32:32:32:32:32:32 10dBm Nov 19, 2018 22:59:51.089018000 +07
  330  29.475480 32:32:32:32:32:32 5dBm Nov 19, 2018 22:59:51.118968000 +07
  331  29.624793 32:32:32:32:32:32 9dBm Nov 19, 2018 22:59:51.268281000 +07
  332  29.656900 32:32:32:32:32:32 7dBm Nov 19, 2018 22:59:51.300388000 +07
  333  29.661160 32:32:32:32:32:32 8dBm Nov 19, 2018 22:59:51.304648000 +07
  334  29.692256 32:32:32:32:32:32 9dBm Nov 19, 2018 22:59:51.335744000 +07
  335  29.757590 32:32:32:32:32:32 8dBm Nov 19, 2018 22:59:51.401078000 +07
  336  29.860153 32:32:32:32:32:32 9dBm Nov 19, 2018 22:59:51.503641000 +07
  337  29.910835 32:32:32:32:32:32 6dBm Nov 19, 2018 22:59:51.554323000 +07
  338  29.955904 32:32:32:32:32:32 8dBm Nov 19, 2018 22:59:51.599392000 +07
  339  30.119749 32:32:32:32:32:32 10dBm Nov 19, 2018 22:59:51.763237000 +07
  340  30.124161 32:32:32:32:32:32 7dBm Nov 19, 2018 22:59:51.767649000 +07
  341  30.130626 32:32:32:32:32:32 11dBm Nov 19, 2018 22:59:51.774114000 +07
  342  30.328312 32:32:32:32:32:32 8dBm Nov 19, 2018 22:59:51.971800000 +07
  343  30.394125 32:32:32:32:32:32 3dBm Nov 19, 2018 22:59:52.037613000 +07
  344  30.410100 32:32:32:32:32:32 8dBm Nov 19, 2018 22:59:52.053588000 +07
  345  30.499085 32:32:32:32:32:32 8dBm Nov 19, 2018 22:59:52.142573000 +07
  346  30.545029 32:32:32:32:32:32 8dBm Nov 19, 2018 22:59:52.188517000 +07
  347  30.623032 32:32:32:32:32:32 9dBm Nov 19, 2018 22:59:52.266520000 +07
  348  30.640424 32:32:32:32:32:32 8dBm Nov 19, 2018 22:59:52.283912000 +07
  349  30.691312 32:32:32:32:32:32 8dBm Nov 19, 2018 22:59:52.334800000 +07
  350  30.818615 32:32:32:32:32:32 8dBm Nov 19, 2018 22:59:52.462103000 +07
  351  30.877496 32:32:32:32:32:32 9dBm Nov 19, 2018 22:59:52.520984000 +07
  352  30.905417 32:32:32:32:32:32 6dBm Nov 19, 2018 22:59:52.548905000 +07
  353  31.012357 32:32:32:32:32:32 9dBm Nov 19, 2018 22:59:52.655845000 +07
  354  31.215430 32:32:32:32:32:32 8dBm Nov 19, 2018 22:59:52.858918000 +07
  355  31.278089 32:32:32:32:32:32 9dBm Nov 19, 2018 22:59:52.921577000 +07
  356  31.391273 32:32:32:32:32:32 8dBm Nov 19, 2018 22:59:53.034761000 +07
  357  31.424161 32:32:32:32:32:32 8dBm Nov 19, 2018 22:59:53.067649000 +07
  358  31.552351 32:32:32:32:32:32 9dBm Nov 19, 2018 22:59:53.195839000 +07
  359  31.681217 32:32:32:32:32:32 8dBm Nov 19, 2018 22:59:53.324705000 +07
  360  31.767936 32:32:32:32:32:32 7dBm Nov 19, 2018 22:59:53.411424000 +07
  361  32.070968 32:32:32:32:32:32 9dBm Nov 19, 2018 22:59:53.714456000 +07
  362  32.103381 32:32:32:32:32:32 8dBm Nov 19, 2018 22:59:53.746869000 +07
  363  32.195218 32:32:32:32:32:32 10dBm Nov 19, 2018 22:59:53.838706000 +07
  364  32.371854 32:32:32:32:32:32 9dBm Nov 19, 2018 22:59:54.015342000 +07
  365  32.416902 32:32:32:32:32:32 8dBm Nov 19, 2018 22:59:54.060390000 +07
  366  32.523682 32:32:32:32:32:32 9dBm Nov 19, 2018 22:59:54.167170000 +07
  367  32.657735 32:32:32:32:32:32 9dBm Nov 19, 2018 22:59:54.301223000 +07
  368  32.869939 32:32:32:32:32:32 6dBm Nov 19, 2018 22:59:54.513427000 +07
  369  32.918618 32:32:32:32:32:32 9dBm Nov 19, 2018 22:59:54.562106000 +07
  370  33.108261 32:32:32:32:32:32 9dBm Nov 19, 2018 22:59:54.751749000 +07
  371  33.226389 32:32:32:32:32:32 8dBm Nov 19, 2018 22:59:54.869877000 +07
  372  33.395902 32:32:32:32:32:32 9dBm Nov 19, 2018 22:59:55.039390000 +07
  373  33.430107 32:32:32:32:32:32 8dBm Nov 19, 2018 22:59:55.073595000 +07
  374  33.461441 32:32:32:32:32:32 10dBm Nov 19, 2018 22:59:55.104929000 +07
  375  33.538371 32:32:32:32:32:32 11dBm Nov 19, 2018 22:59:55.181859000 +07
  376  33.620957 32:32:32:32:32:32 9dBm Nov 19, 2018 22:59:55.264445000 +07
  377  33.652019 32:32:32:32:32:32 10dBm Nov 19, 2018 22:59:55.295507000 +07
  378  33.694974 32:32:32:32:32:32 10dBm Nov 19, 2018 22:59:55.338462000 +07
  379  33.746779 32:32:32:32:32:32 8dBm Nov 19, 2018 22:59:55.390267000 +07
  380  33.824619 32:32:32:32:32:32 8dBm Nov 19, 2018 22:59:55.468107000 +07
  381  33.978015 32:32:32:32:32:32 9dBm Nov 19, 2018 22:59:55.621503000 +07
  382  34.039226 32:32:32:32:32:32 10dBm Nov 19, 2018 22:59:55.682714000 +07
  383  34.121712 32:32:32:32:32:32 8dBm Nov 19, 2018 22:59:55.765200000 +07
  384  34.280197 32:32:32:32:32:32 7dBm Nov 19, 2018 22:59:55.923685000 +07
  385  34.355613 32:32:32:32:32:32 9dBm Nov 19, 2018 22:59:55.999101000 +07
  386  34.471237 32:32:32:32:32:32 9dBm Nov 19, 2018 22:59:56.114725000 +07
  387  34.501918 32:32:32:32:32:32 8dBm Nov 19, 2018 22:59:56.145406000 +07
  388  34.511736 32:32:32:32:32:32 10dBm Nov 19, 2018 22:59:56.155224000 +07
  389  34.523573 32:32:32:32:32:32 8dBm Nov 19, 2018 22:59:56.167061000 +07
  390  34.550019 32:32:32:32:32:32 9dBm Nov 19, 2018 22:59:56.193507000 +07
  391  34.630487 32:32:32:32:32:32 8dBm Nov 19, 2018 22:59:56.273975000 +07
  392  34.801298 32:32:32:32:32:32 6dBm Nov 19, 2018 22:59:56.444786000 +07
  393  34.921406 32:32:32:32:32:32 8dBm Nov 19, 2018 22:59:56.564894000 +07
  394  35.016211 32:32:32:32:32:32 10dBm Nov 19, 2018 22:59:56.659699000 +07
  395  35.032346 32:32:32:32:32:32 7dBm Nov 19, 2018 22:59:56.675834000 +07
  396  35.185103 32:32:32:32:32:32 8dBm Nov 19, 2018 22:59:56.828591000 +07
  397  35.231335 32:32:32:32:32:32 8dBm Nov 19, 2018 22:59:56.874823000 +07
  398  35.285765 32:32:32:32:32:32 9dBm Nov 19, 2018 22:59:56.929253000 +07
  399  35.319335 32:32:32:32:32:32 8dBm Nov 19, 2018 22:59:56.962823000 +07
  400  35.415679 32:32:32:32:32:32 10dBm Nov 19, 2018 22:59:57.059167000 +07
  401  35.465363 32:32:32:32:32:32 8dBm Nov 19, 2018 22:59:57.108851000 +07
  402  35.481817 32:32:32:32:32:32 7dBm Nov 19, 2018 22:59:57.125305000 +07
  403  35.530087 32:32:32:32:32:32 6dBm Nov 19, 2018 22:59:57.173575000 +07
  404  35.715615 32:32:32:32:32:32 10dBm Nov 19, 2018 22:59:57.359103000 +07
  405  35.740552 32:32:32:32:32:32 8dBm Nov 19, 2018 22:59:57.384040000 +07
  406  35.760106 32:32:32:32:32:32 8dBm Nov 19, 2018 22:59:57.403594000 +07
  407  35.814019 32:32:32:32:32:32 9dBm Nov 19, 2018 22:59:57.457507000 +07
  408  35.833605 32:32:32:32:32:32 8dBm Nov 19, 2018 22:59:57.477093000 +07
  409  35.881619 32:32:32:32:32:32 9dBm Nov 19, 2018 22:59:57.525107000 +07
  410  35.967709 32:32:32:32:32:32 8dBm Nov 19, 2018 22:59:57.611197000 +07
  411  36.069230 32:32:32:32:32:32 11dBm Nov 19, 2018 22:59:57.712718000 +07
  412  36.127558 32:32:32:32:32:32 9dBm Nov 19, 2018 22:59:57.771046000 +07
  413  36.307661 32:32:32:32:32:32 9dBm Nov 19, 2018 22:59:57.951149000 +07
  414  36.472376 32:32:32:32:32:32 8dBm Nov 19, 2018 22:59:58.115864000 +07
  415  36.551493 32:32:32:32:32:32 8dBm Nov 19, 2018 22:59:58.194981000 +07
  416  36.623774 32:32:32:32:32:32 10dBm Nov 19, 2018 22:59:58.267262000 +07
  417  36.707254 32:32:32:32:32:32 9dBm Nov 19, 2018 22:59:58.350742000 +07
  418  36.811129 32:32:32:32:32:32 9dBm Nov 19, 2018 22:59:58.454617000 +07
  419  36.896963 32:32:32:32:32:32 9dBm Nov 19, 2018 22:59:58.540451000 +07
  420  36.915105 32:32:32:32:32:32 8dBm Nov 19, 2018 22:59:58.558593000 +07
  421  36.950662 32:32:32:32:32:32 8dBm Nov 19, 2018 22:59:58.594150000 +07
  422  37.072352 32:32:32:32:32:32 8dBm Nov 19, 2018 22:59:58.715840000 +07
  423  37.092364 32:32:32:32:32:32 9dBm Nov 19, 2018 22:59:58.735852000 +07
  424  37.175892 32:32:32:32:32:32 8dBm Nov 19, 2018 22:59:58.819380000 +07
  425  37.349379 32:32:32:32:32:32 8dBm Nov 19, 2018 22:59:58.992867000 +07
  426  37.422157 32:32:32:32:32:32 8dBm Nov 19, 2018 22:59:59.065645000 +07
  427  37.471476 32:32:32:32:32:32 8dBm Nov 19, 2018 22:59:59.114964000 +07
  428  37.538164 32:32:32:32:32:32 9dBm Nov 19, 2018 22:59:59.181652000 +07
  429  37.554294 32:32:32:32:32:32 8dBm Nov 19, 2018 22:59:59.197782000 +07
  430  37.616122 32:32:32:32:32:32 9dBm Nov 19, 2018 22:59:59.259610000 +07
  431  38.236734 32:32:32:32:32:32 8dBm Nov 19, 2018 22:59:59.880222000 +07
  432  38.245413 32:32:32:32:32:32 8dBm Nov 19, 2018 22:59:59.888901000 +07
  433  38.399120 32:32:32:32:32:32 8dBm Nov 19, 2018 23:00:00.042608000 +07
  434  38.486244 32:32:32:32:32:32 7dBm Nov 19, 2018 23:00:00.129732000 +07
  435  38.597574 32:32:32:32:32:32 9dBm Nov 19, 2018 23:00:00.241062000 +07
  436  38.735956 32:32:32:32:32:32 9dBm Nov 19, 2018 23:00:00.379444000 +07
  437  38.805372 32:32:32:32:32:32 8dBm Nov 19, 2018 23:00:00.448860000 +07
  438  39.000827 32:32:32:32:32:32 8dBm Nov 19, 2018 23:00:00.644315000 +07
  439  39.022615 32:32:32:32:32:32 10dBm Nov 19, 2018 23:00:00.666103000 +07
  440  39.029822 32:32:32:32:32:32 10dBm Nov 19, 2018 23:00:00.673310000 +07
  441  39.048678 32:32:32:32:32:32 9dBm Nov 19, 2018 23:00:00.692166000 +07
  442  39.286352 32:32:32:32:32:32 9dBm Nov 19, 2018 23:00:00.929840000 +07
  443  39.321870 32:32:32:32:32:32 10dBm Nov 19, 2018 23:00:00.965358000 +07
  444  39.370330 32:32:32:32:32:32 9dBm Nov 19, 2018 23:00:01.013818000 +07
  445  39.426000 32:32:32:32:32:32 8dBm Nov 19, 2018 23:00:01.069488000 +07
  446  39.507502 32:32:32:32:32:32 9dBm Nov 19, 2018 23:00:01.150990000 +07
  447  39.614158 32:32:32:32:32:32 8dBm Nov 19, 2018 23:00:01.257646000 +07
  448  39.723493 32:32:32:32:32:32 10dBm Nov 19, 2018 23:00:01.366981000 +07
  449  39.891998 32:32:32:32:32:32 9dBm Nov 19, 2018 23:00:01.535486000 +07
  450  40.038895 32:32:32:32:32:32 9dBm Nov 19, 2018 23:00:01.682383000 +07
  451  40.132247 32:32:32:32:32:32 8dBm Nov 19, 2018 23:00:01.775735000 +07
  452  40.229178 32:32:32:32:32:32 8dBm Nov 19, 2018 23:00:01.872666000 +07
  453  40.250109 32:32:32:32:32:32 8dBm Nov 19, 2018 23:00:01.893597000 +07
  454  40.297868 32:32:32:32:32:32 10dBm Nov 19, 2018 23:00:01.941356000 +07
  455  40.312923 32:32:32:32:32:32 9dBm Nov 19, 2018 23:00:01.956411000 +07
  456  40.496581 32:32:32:32:32:32 8dBm Nov 19, 2018 23:00:02.140069000 +07
  457  40.746110 32:32:32:32:32:32 8dBm Nov 19, 2018 23:00:02.389598000 +07
  458  40.832646 32:32:32:32:32:32 8dBm Nov 19, 2018 23:00:02.476134000 +07
  459  40.861610 32:32:32:32:32:32 7dBm Nov 19, 2018 23:00:02.505098000 +07
  460  40.877536 32:32:32:32:32:32 8dBm Nov 19, 2018 23:00:02.521024000 +07
  461  40.886683 32:32:32:32:32:32 9dBm Nov 19, 2018 23:00:02.530171000 +07
  462  40.912023 32:32:32:32:32:32 7dBm Nov 19, 2018 23:00:02.555511000 +07
  463  40.997947 32:32:32:32:32:32 7dBm Nov 19, 2018 23:00:02.641435000 +07
  464  41.142099 32:32:32:32:32:32 9dBm Nov 19, 2018 23:00:02.785587000 +07
  465  41.233833 32:32:32:32:32:32 10dBm Nov 19, 2018 23:00:02.877321000 +07
  466  41.553022 32:32:32:32:32:32 7dBm Nov 19, 2018 23:00:03.196510000 +07
  467  41.714257 32:32:32:32:32:32 8dBm Nov 19, 2018 23:00:03.357745000 +07
  468  41.770575 32:32:32:32:32:32 8dBm Nov 19, 2018 23:00:03.414063000 +07
  469  41.999238 32:32:32:32:32:32 9dBm Nov 19, 2018 23:00:03.642726000 +07
  470  42.013749 32:32:32:32:32:32 10dBm Nov 19, 2018 23:00:03.657237000 +07
  471  42.110552 32:32:32:32:32:32 8dBm Nov 19, 2018 23:00:03.754040000 +07
  472  42.132380 32:32:32:32:32:32 9dBm Nov 19, 2018 23:00:03.775868000 +07
  473  42.220940 32:32:32:32:32:32 9dBm Nov 19, 2018 23:00:03.864428000 +07
  474  42.293630 32:32:32:32:32:32 8dBm Nov 19, 2018 23:00:03.937118000 +07
  475  42.632913 32:32:32:32:32:32 7dBm Nov 19, 2018 23:00:04.276401000 +07
  476  42.665005 32:32:32:32:32:32 8dBm Nov 19, 2018 23:00:04.308493000 +07
  477  42.822154 32:32:32:32:32:32 8dBm Nov 19, 2018 23:00:04.465642000 +07
  478  42.989968 32:32:32:32:32:32 8dBm Nov 19, 2018 23:00:04.633456000 +07
  479  43.020642 32:32:32:32:32:32 9dBm Nov 19, 2018 23:00:04.664130000 +07
  480  43.068546 32:32:32:32:32:32 9dBm Nov 19, 2018 23:00:04.712034000 +07
  481  43.153696 32:32:32:32:32:32 9dBm Nov 19, 2018 23:00:04.797184000 +07
  482  43.305293 32:32:32:32:32:32 7dBm Nov 19, 2018 23:00:04.948781000 +07
  483  43.326757 32:32:32:32:32:32 7dBm Nov 19, 2018 23:00:04.970245000 +07
  484  43.940958 32:32:32:32:32:32 7dBm Nov 19, 2018 23:00:05.584446000 +07
  485  44.045103 32:32:32:32:32:32 8dBm Nov 19, 2018 23:00:05.688591000 +07
  486  44.068252 32:32:32:32:32:32 8dBm Nov 19, 2018 23:00:05.711740000 +07
  487  44.087736 32:32:32:32:32:32 8dBm Nov 19, 2018 23:00:05.731224000 +07
  488  44.124087 32:32:32:32:32:32 8dBm Nov 19, 2018 23:00:05.767575000 +07
  489  44.169664 32:32:32:32:32:32 8dBm Nov 19, 2018 23:00:05.813152000 +07
  490  44.296591 32:32:32:32:32:32 10dBm Nov 19, 2018 23:00:05.940079000 +07
  491  44.414416 32:32:32:32:32:32 8dBm Nov 19, 2018 23:00:06.057904000 +07
  492  44.587414 32:32:32:32:32:32 8dBm Nov 19, 2018 23:00:06.230902000 +07
  493  44.731587 32:32:32:32:32:32 7dBm Nov 19, 2018 23:00:06.375075000 +07
  494  44.762364 32:32:32:32:32:32 10dBm Nov 19, 2018 23:00:06.405852000 +07
  495  44.912162 32:32:32:32:32:32 9dBm Nov 19, 2018 23:00:06.555650000 +07
  496  44.962572 32:32:32:32:32:32 6dBm Nov 19, 2018 23:00:06.606060000 +07
  497  45.127160 32:32:32:32:32:32 9dBm Nov 19, 2018 23:00:06.770648000 +07
  498  45.369599 32:32:32:32:32:32 9dBm Nov 19, 2018 23:00:07.013087000 +07
  499  45.481050 32:32:32:32:32:32 9dBm Nov 19, 2018 23:00:07.124538000 +07
  500  45.579805 32:32:32:32:32:32 7dBm Nov 19, 2018 23:00:07.223293000 +07
  501  45.606318 32:32:32:32:32:32 8dBm Nov 19, 2018 23:00:07.249806000 +07
  502  45.820181 32:32:32:32:32:32 9dBm Nov 19, 2018 23:00:07.463669000 +07
  503  45.885368 32:32:32:32:32:32 11dBm Nov 19, 2018 23:00:07.528856000 +07
  504  45.965927 32:32:32:32:32:32 7dBm Nov 19, 2018 23:00:07.609415000 +07
  505  46.133967 32:32:32:32:32:32 8dBm Nov 19, 2018 23:00:07.777455000 +07
  506  46.179609 32:32:32:32:32:32 9dBm Nov 19, 2018 23:00:07.823097000 +07
  507  46.266362 32:32:32:32:32:32 10dBm Nov 19, 2018 23:00:07.909850000 +07
  508  46.351737 32:32:32:32:32:32 6dBm Nov 19, 2018 23:00:07.995225000 +07
  509  46.431770 32:32:32:32:32:32 9dBm Nov 19, 2018 23:00:08.075258000 +07
  510  46.639081 32:32:32:32:32:32 8dBm Nov 19, 2018 23:00:08.282569000 +07
  511  46.713508 32:32:32:32:32:32 7dBm Nov 19, 2018 23:00:08.356996000 +07
  512  46.767639 32:32:32:32:32:32 8dBm Nov 19, 2018 23:00:08.411127000 +07
  513  46.782794 32:32:32:32:32:32 7dBm Nov 19, 2018 23:00:08.426282000 +07
  514  46.949533 32:32:32:32:32:32 9dBm Nov 19, 2018 23:00:08.593021000 +07
  515  47.037562 32:32:32:32:32:32 7dBm Nov 19, 2018 23:00:08.681050000 +07
  516  47.140790 32:32:32:32:32:32 8dBm Nov 19, 2018 23:00:08.784278000 +07
  517  47.525218 32:32:32:32:32:32 9dBm Nov 19, 2018 23:00:09.168706000 +07
  518  47.568947 32:32:32:32:32:32 8dBm Nov 19, 2018 23:00:09.212435000 +07
  519  47.917693 32:32:32:32:32:32 9dBm Nov 19, 2018 23:00:09.561181000 +07
  520  47.953968 32:32:32:32:32:32 10dBm Nov 19, 2018 23:00:09.597456000 +07
  521  47.962224 32:32:32:32:32:32 9dBm Nov 19, 2018 23:00:09.605712000 +07
  522  47.992816 32:32:32:32:32:32 8dBm Nov 19, 2018 23:00:09.636304000 +07
  523  48.009152 32:32:32:32:32:32 8dBm Nov 19, 2018 23:00:09.652640000 +07
  524  48.027144 32:32:32:32:32:32 10dBm Nov 19, 2018 23:00:09.670632000 +07
  525  48.047112 32:32:32:32:32:32 9dBm Nov 19, 2018 23:00:09.690600000 +07
  526  48.174464 32:32:32:32:32:32 10dBm Nov 19, 2018 23:00:09.817952000 +07
  527  48.618858 32:32:32:32:32:32 8dBm Nov 19, 2018 23:00:10.262346000 +07
  528  48.811584 32:32:32:32:32:32 8dBm Nov 19, 2018 23:00:10.455072000 +07
  529  48.853276 32:32:32:32:32:32 8dBm Nov 19, 2018 23:00:10.496764000 +07
  530  48.956217 32:32:32:32:32:32 8dBm Nov 19, 2018 23:00:10.599705000 +07
  531  48.975518 32:32:32:32:32:32 9dBm Nov 19, 2018 23:00:10.619006000 +07
  532  48.992488 32:32:32:32:32:32 9dBm Nov 19, 2018 23:00:10.635976000 +07
  533  49.111369 32:32:32:32:32:32 9dBm Nov 19, 2018 23:00:10.754857000 +07
  534  49.140990 32:32:32:32:32:32 8dBm Nov 19, 2018 23:00:10.784478000 +07
  535  49.258455 32:32:32:32:32:32 8dBm Nov 19, 2018 23:00:10.901943000 +07
  536  49.296264 32:32:32:32:32:32 7dBm Nov 19, 2018 23:00:10.939752000 +07
  537  49.579025 32:32:32:32:32:32 6dBm Nov 19, 2018 23:00:11.222513000 +07
  538  49.630579 32:32:32:32:32:32 5dBm Nov 19, 2018 23:00:11.274067000 +07
  539  50.313579 32:32:32:32:32:32 8dBm Nov 19, 2018 23:00:11.957067000 +07
  540  50.352171 32:32:32:32:32:32 6dBm Nov 19, 2018 23:00:11.995659000 +07
  541  50.393333 32:32:32:32:32:32 10dBm Nov 19, 2018 23:00:12.036821000 +07
  542  50.481228 32:32:32:32:32:32 10dBm Nov 19, 2018 23:00:12.124716000 +07
  543  50.514629 32:32:32:32:32:32 9dBm Nov 19, 2018 23:00:12.158117000 +07
  544  50.707145 32:32:32:32:32:32 7dBm Nov 19, 2018 23:00:12.350633000 +07
  545  50.922589 32:32:32:32:32:32 8dBm Nov 19, 2018 23:00:12.566077000 +07
  546  51.183746 32:32:32:32:32:32 9dBm Nov 19, 2018 23:00:12.827234000 +07
  547  51.271487 32:32:32:32:32:32 9dBm Nov 19, 2018 23:00:12.914975000 +07
  548  51.404534 32:32:32:32:32:32 6dBm Nov 19, 2018 23:00:13.048022000 +07
  549  51.423569 32:32:32:32:32:32 8dBm Nov 19, 2018 23:00:13.067057000 +07
  550  51.436466 32:32:32:32:32:32 10dBm Nov 19, 2018 23:00:13.079954000 +07
  551  51.571438 32:32:32:32:32:32 9dBm Nov 19, 2018 23:00:13.214926000 +07
  552  51.657780 32:32:32:32:32:32 8dBm Nov 19, 2018 23:00:13.301268000 +07
  553  51.779743 32:32:32:32:32:32 9dBm Nov 19, 2018 23:00:13.423231000 +07
  554  51.799077 32:32:32:32:32:32 9dBm Nov 19, 2018 23:00:13.442565000 +07
  555  51.813196 32:32:32:32:32:32 7dBm Nov 19, 2018 23:00:13.456684000 +07
  556  51.826189 32:32:32:32:32:32 8dBm Nov 19, 2018 23:00:13.469677000 +07
  557  52.133948 32:32:32:32:32:32 8dBm Nov 19, 2018 23:00:13.777436000 +07
  558  52.296948 32:32:32:32:32:32 9dBm Nov 19, 2018 23:00:13.940436000 +07
  559  52.383916 32:32:32:32:32:32 7dBm Nov 19, 2018 23:00:14.027404000 +07
  560  52.404779 32:32:32:32:32:32 10dBm Nov 19, 2018 23:00:14.048267000 +07
  561  52.433009 32:32:32:32:32:32 10dBm Nov 19, 2018 23:00:14.076497000 +07
  562  52.450899 32:32:32:32:32:32 8dBm Nov 19, 2018 23:00:14.094387000 +07
  563  52.533063 32:32:32:32:32:32 7dBm Nov 19, 2018 23:00:14.176551000 +07
  564  52.612811 32:32:32:32:32:32 10dBm Nov 19, 2018 23:00:14.256299000 +07
  565  52.795903 32:32:32:32:32:32 7dBm Nov 19, 2018 23:00:14.439391000 +07
  566  52.819848 32:32:32:32:32:32 9dBm Nov 19, 2018 23:00:14.463336000 +07
  567  52.838061 32:32:32:32:32:32 8dBm Nov 19, 2018 23:00:14.481549000 +07
  568  52.898546 32:32:32:32:32:32 8dBm Nov 19, 2018 23:00:14.542034000 +07
  569  52.986010 32:32:32:32:32:32 9dBm Nov 19, 2018 23:00:14.629498000 +07
  570  53.039040 32:32:32:32:32:32 9dBm Nov 19, 2018 23:00:14.682528000 +07
  571  53.052842 32:32:32:32:32:32 9dBm Nov 19, 2018 23:00:14.696330000 +07
  572  53.106113 32:32:32:32:32:32 10dBm Nov 19, 2018 23:00:14.749601000 +07
  573  53.354291 32:32:32:32:32:32 8dBm Nov 19, 2018 23:00:14.997779000 +07
  574  53.412965 32:32:32:32:32:32 8dBm Nov 19, 2018 23:00:15.056453000 +07
  575  53.427195 32:32:32:32:32:32 10dBm Nov 19, 2018 23:00:15.070683000 +07
  576  53.539386 32:32:32:32:32:32 9dBm Nov 19, 2018 23:00:15.182874000 +07
  577  53.622693 32:32:32:32:32:32 8dBm Nov 19, 2018 23:00:15.266181000 +07
  578  53.736959 32:32:32:32:32:32 8dBm Nov 19, 2018 23:00:15.380447000 +07
  579  53.954753 32:32:32:32:32:32 10dBm Nov 19, 2018 23:00:15.598241000 +07
  580  54.045780 32:32:32:32:32:32 9dBm Nov 19, 2018 23:00:15.689268000 +07
  581  54.103403 32:32:32:32:32:32 9dBm Nov 19, 2018 23:00:15.746891000 +07
  582  54.127195 32:32:32:32:32:32 7dBm Nov 19, 2018 23:00:15.770683000 +07
  583  54.148865 32:32:32:32:32:32 9dBm Nov 19, 2018 23:00:15.792353000 +07
  584  54.162997 32:32:32:32:32:32 9dBm Nov 19, 2018 23:00:15.806485000 +07
  585  54.199055 32:32:32:32:32:32 8dBm Nov 19, 2018 23:00:15.842543000 +07
  586  54.370888 32:32:32:32:32:32 9dBm Nov 19, 2018 23:00:16.014376000 +07
  587  54.476010 32:32:32:32:32:32 9dBm Nov 19, 2018 23:00:16.119498000 +07
  588  54.514228 32:32:32:32:32:32 8dBm Nov 19, 2018 23:00:16.157716000 +07
  589  54.586218 32:32:32:32:32:32 8dBm Nov 19, 2018 23:00:16.229706000 +07
  590  54.616879 32:32:32:32:32:32 6dBm Nov 19, 2018 23:00:16.260367000 +07
  591  54.707345 32:32:32:32:32:32 8dBm Nov 19, 2018 23:00:16.350833000 +07
  592  54.751465 32:32:32:32:32:32 10dBm Nov 19, 2018 23:00:16.394953000 +07
  593  54.761231 32:32:32:32:32:32 9dBm Nov 19, 2018 23:00:16.404719000 +07
  594  54.887834 32:32:32:32:32:32 9dBm Nov 19, 2018 23:00:16.531322000 +07
  595  54.934156 32:32:32:32:32:32 9dBm Nov 19, 2018 23:00:16.577644000 +07
  596  55.153243 32:32:32:32:32:32 9dBm Nov 19, 2018 23:00:16.796731000 +07
  597  55.275844 32:32:32:32:32:32 10dBm Nov 19, 2018 23:00:16.919332000 +07
  598  55.292828 32:32:32:32:32:32 9dBm Nov 19, 2018 23:00:16.936316000 +07
  599  55.359382 32:32:32:32:32:32 7dBm Nov 19, 2018 23:00:17.002870000 +07
  600  55.384773 32:32:32:32:32:32 8dBm Nov 19, 2018 23:00:17.028261000 +07
  601  55.590640 32:32:32:32:32:32 9dBm Nov 19, 2018 23:00:17.234128000 +07
  602  55.724363 32:32:32:32:32:32 9dBm Nov 19, 2018 23:00:17.367851000 +07
  603  55.883328 32:32:32:32:32:32 9dBm Nov 19, 2018 23:00:17.526816000 +07
  604  55.912761 32:32:32:32:32:32 7dBm Nov 19, 2018 23:00:17.556249000 +07
  605  56.059306 32:32:32:32:32:32 9dBm Nov 19, 2018 23:00:17.702794000 +07
  606  56.147750 32:32:32:32:32:32 9dBm Nov 19, 2018 23:00:17.791238000 +07
  607  56.172585 32:32:32:32:32:32 8dBm Nov 19, 2018 23:00:17.816073000 +07
  608  56.366544 32:32:32:32:32:32 10dBm Nov 19, 2018 23:00:18.010032000 +07
  609  56.694049 32:32:32:32:32:32 8dBm Nov 19, 2018 23:00:18.337537000 +07
  610  56.810801 32:32:32:32:32:32 9dBm Nov 19, 2018 23:00:18.454289000 +07
  611  56.851507 32:32:32:32:32:32 9dBm Nov 19, 2018 23:00:18.494995000 +07
  612  57.034530 32:32:32:32:32:32 7dBm Nov 19, 2018 23:00:18.678018000 +07
  613  57.068703 32:32:32:32:32:32 10dBm Nov 19, 2018 23:00:18.712191000 +07
  614  57.115097 32:32:32:32:32:32 9dBm Nov 19, 2018 23:00:18.758585000 +07
  615  57.416787 32:32:32:32:32:32 9dBm Nov 19, 2018 23:00:19.060275000 +07
  616  57.463274 32:32:32:32:32:32 7dBm Nov 19, 2018 23:00:19.106762000 +07
  617  57.738691 32:32:32:32:32:32 5dBm Nov 19, 2018 23:00:19.382179000 +07
  618  57.773907 32:32:32:32:32:32 7dBm Nov 19, 2018 23:00:19.417395000 +07
  619  57.790333 32:32:32:32:32:32 7dBm Nov 19, 2018 23:00:19.433821000 +07
  620  57.995424 32:32:32:32:32:32 7dBm Nov 19, 2018 23:00:19.638912000 +07
  621  58.076109 32:32:32:32:32:32 8dBm Nov 19, 2018 23:00:19.719597000 +07
  622  58.285692 32:32:32:32:32:32 8dBm Nov 19, 2018 23:00:19.929180000 +07
  623  58.447857 32:32:32:32:32:32 7dBm Nov 19, 2018 23:00:20.091345000 +07
  624  58.500495 32:32:32:32:32:32 9dBm Nov 19, 2018 23:00:20.143983000 +07
  625  58.560775 32:32:32:32:32:32 8dBm Nov 19, 2018 23:00:20.204263000 +07
  626  58.596362 32:32:32:32:32:32 7dBm Nov 19, 2018 23:00:20.239850000 +07
  627  58.675206 32:32:32:32:32:32 10dBm Nov 19, 2018 23:00:20.318694000 +07
  628  58.703786 32:32:32:32:32:32 8dBm Nov 19, 2018 23:00:20.347274000 +07
  629  58.865304 32:32:32:32:32:32 9dBm Nov 19, 2018 23:00:20.508792000 +07
  630  58.963308 32:32:32:32:32:32 7dBm Nov 19, 2018 23:00:20.606796000 +07
  631  59.026565 32:32:32:32:32:32 8dBm Nov 19, 2018 23:00:20.670053000 +07
  632  59.053601 32:32:32:32:32:32 8dBm Nov 19, 2018 23:00:20.697089000 +07
  633  59.092206 32:32:32:32:32:32 9dBm Nov 19, 2018 23:00:20.735694000 +07
  634  59.335070 32:32:32:32:32:32 7dBm Nov 19, 2018 23:00:20.978558000 +07
  635  59.361951 32:32:32:32:32:32 9dBm Nov 19, 2018 23:00:21.005439000 +07
  636  59.814252 32:32:32:32:32:32 6dBm Nov 19, 2018 23:00:21.457740000 +07
  637  59.978954 32:32:32:32:32:32 8dBm Nov 19, 2018 23:00:21.622442000 +07
  638  60.040482 32:32:32:32:32:32 8dBm Nov 19, 2018 23:00:21.683970000 +07
  639  60.420885 32:32:32:32:32:32 9dBm Nov 19, 2018 23:00:22.064373000 +07
  640  60.546440 32:32:32:32:32:32 5dBm Nov 19, 2018 23:00:22.189928000 +07
  641  60.942661 32:32:32:32:32:32 7dBm Nov 19, 2018 23:00:22.586149000 +07
  642  60.980730 32:32:32:32:32:32 9dBm Nov 19, 2018 23:00:22.624218000 +07
  643  61.379013 32:32:32:32:32:32 9dBm Nov 19, 2018 23:00:23.022501000 +07
  644  61.422691 32:32:32:32:32:32 9dBm Nov 19, 2018 23:00:23.066179000 +07
  645  61.556909 32:32:32:32:32:32 9dBm Nov 19, 2018 23:00:23.200397000 +07
  646  61.738221 32:32:32:32:32:32 8dBm Nov 19, 2018 23:00:23.381709000 +07
  647  61.861469 32:32:32:32:32:32 7dBm Nov 19, 2018 23:00:23.504957000 +07
  648  61.877729 32:32:32:32:32:32 9dBm Nov 19, 2018 23:00:23.521217000 +07
  649  61.894452 32:32:32:32:32:32 9dBm Nov 19, 2018 23:00:23.537940000 +07
  650  61.907534 32:32:32:32:32:32 9dBm Nov 19, 2018 23:00:23.551022000 +07
  651  62.043915 32:32:32:32:32:32 10dBm Nov 19, 2018 23:00:23.687403000 +07
  652  62.094305 32:32:32:32:32:32 9dBm Nov 19, 2018 23:00:23.737793000 +07
  653  62.323177 32:32:32:32:32:32 9dBm Nov 19, 2018 23:00:23.966665000 +07
  654  62.344475 32:32:32:32:32:32 9dBm Nov 19, 2018 23:00:23.987963000 +07
  655  62.362837 32:32:32:32:32:32 10dBm Nov 19, 2018 23:00:24.006325000 +07
  656  62.441040 32:32:32:32:32:32 7dBm Nov 19, 2018 23:00:24.084528000 +07
  657  62.485656 32:32:32:32:32:32 9dBm Nov 19, 2018 23:00:24.129144000 +07
  658  62.689856 32:32:32:32:32:32 8dBm Nov 19, 2018 23:00:24.333344000 +07
  659  62.747397 32:32:32:32:32:32 8dBm Nov 19, 2018 23:00:24.390885000 +07
  660  62.769405 32:32:32:32:32:32 8dBm Nov 19, 2018 23:00:24.412893000 +07
  661  62.789124 32:32:32:32:32:32 8dBm Nov 19, 2018 23:00:24.432612000 +07
  662  62.820582 32:32:32:32:32:32 8dBm Nov 19, 2018 23:00:24.464070000 +07
  663  62.875360 32:32:32:32:32:32 7dBm Nov 19, 2018 23:00:24.518848000 +07
  664  62.922309 32:32:32:32:32:32 9dBm Nov 19, 2018 23:00:24.565797000 +07
  665  62.956928 32:32:32:32:32:32 8dBm Nov 19, 2018 23:00:24.600416000 +07
  666  62.980566 32:32:32:32:32:32 10dBm Nov 19, 2018 23:00:24.624054000 +07
  667  63.190058 32:32:32:32:32:32 9dBm Nov 19, 2018 23:00:24.833546000 +07
  668  63.244298 32:32:32:32:32:32 6dBm Nov 19, 2018 23:00:24.887786000 +07
  669  63.271359 32:32:32:32:32:32 9dBm Nov 19, 2018 23:00:24.914847000 +07
  670  63.292842 32:32:32:32:32:32 8dBm Nov 19, 2018 23:00:24.936330000 +07
  671  63.594384 32:32:32:32:32:32 9dBm Nov 19, 2018 23:00:25.237872000 +07
  672  63.667741 32:32:32:32:32:32 9dBm Nov 19, 2018 23:00:25.311229000 +07
  673  63.782688 32:32:32:32:32:32 8dBm Nov 19, 2018 23:00:25.426176000 +07
  674  63.849560 32:32:32:32:32:32 9dBm Nov 19, 2018 23:00:25.493048000 +07
  675  63.880774 32:32:32:32:32:32 7dBm Nov 19, 2018 23:00:25.524262000 +07
  676  63.904480 32:32:32:32:32:32 7dBm Nov 19, 2018 23:00:25.547968000 +07
  677  63.960241 32:32:32:32:32:32 8dBm Nov 19, 2018 23:00:25.603729000 +07
  678  64.044706 32:32:32:32:32:32 10dBm Nov 19, 2018 23:00:25.688194000 +07
  679  64.439485 32:32:32:32:32:32 8dBm Nov 19, 2018 23:00:26.082973000 +07
  680  64.458617 32:32:32:32:32:32 10dBm Nov 19, 2018 23:00:26.102105000 +07
  681  64.488903 32:32:32:32:32:32 9dBm Nov 19, 2018 23:00:26.132391000 +07
  682  64.613620 32:32:32:32:32:32 11dBm Nov 19, 2018 23:00:26.257108000 +07
  683  64.681739 32:32:32:32:32:32 7dBm Nov 19, 2018 23:00:26.325227000 +07
  684  64.759532 32:32:32:32:32:32 8dBm Nov 19, 2018 23:00:26.403020000 +07
  685  64.953538 32:32:32:32:32:32 10dBm Nov 19, 2018 23:00:26.597026000 +07
  686  65.007257 32:32:32:32:32:32 8dBm Nov 19, 2018 23:00:26.650745000 +07
  687  65.357163 32:32:32:32:32:32 9dBm Nov 19, 2018 23:00:27.000651000 +07
  688  65.403698 32:32:32:32:32:32 9dBm Nov 19, 2018 23:00:27.047186000 +07
  689  65.463143 32:32:32:32:32:32 8dBm Nov 19, 2018 23:00:27.106631000 +07
  690  65.504156 32:32:32:32:32:32 8dBm Nov 19, 2018 23:00:27.147644000 +07
  691  65.694379 32:32:32:32:32:32 9dBm Nov 19, 2018 23:00:27.337867000 +07
  692  65.754576 32:32:32:32:32:32 9dBm Nov 19, 2018 23:00:27.398064000 +07
  693  65.875834 32:32:32:32:32:32 10dBm Nov 19, 2018 23:00:27.519322000 +07
  694  65.945832 32:32:32:32:32:32 8dBm Nov 19, 2018 23:00:27.589320000 +07
  695  65.990930 32:32:32:32:32:32 9dBm Nov 19, 2018 23:00:27.634418000 +07
  696  66.013862 32:32:32:32:32:32 8dBm Nov 19, 2018 23:00:27.657350000 +07
  697  66.112505 32:32:32:32:32:32 7dBm Nov 19, 2018 23:00:27.755993000 +07
  698  66.180286 32:32:32:32:32:32 8dBm Nov 19, 2018 23:00:27.823774000 +07
  699  66.206241 32:32:32:32:32:32 8dBm Nov 19, 2018 23:00:27.849729000 +07
  700  66.213121 32:32:32:32:32:32 8dBm Nov 19, 2018 23:00:27.856609000 +07
  701  66.454211 32:32:32:32:32:32 8dBm Nov 19, 2018 23:00:28.097699000 +07
  702  66.471478 32:32:32:32:32:32 8dBm Nov 19, 2018 23:00:28.114966000 +07
  703  66.500268 32:32:32:32:32:32 8dBm Nov 19, 2018 23:00:28.143756000 +07
  704  66.657151 32:32:32:32:32:32 8dBm Nov 19, 2018 23:00:28.300639000 +07
  705  66.701262 32:32:32:32:32:32 8dBm Nov 19, 2018 23:00:28.344750000 +07
  706  66.838994 32:32:32:32:32:32 7dBm Nov 19, 2018 23:00:28.482482000 +07
  707  67.097173 32:32:32:32:32:32 8dBm Nov 19, 2018 23:00:28.740661000 +07
  708  67.312258 32:32:32:32:32:32 7dBm Nov 19, 2018 23:00:28.955746000 +07
  709  67.350658 32:32:32:32:32:32 10dBm Nov 19, 2018 23:00:28.994146000 +07
  710  67.531671 32:32:32:32:32:32 9dBm Nov 19, 2018 23:00:29.175159000 +07
  711  67.553020 32:32:32:32:32:32 8dBm Nov 19, 2018 23:00:29.196508000 +07
  712  67.570769 32:32:32:32:32:32 9dBm Nov 19, 2018 23:00:29.214257000 +07
  713  67.680665 32:32:32:32:32:32 8dBm Nov 19, 2018 23:00:29.324153000 +07
  714  67.718862 32:32:32:32:32:32 8dBm Nov 19, 2018 23:00:29.362350000 +07
  715  67.740319 32:32:32:32:32:32 9dBm Nov 19, 2018 23:00:29.383807000 +07
  716  67.760744 32:32:32:32:32:32 9dBm Nov 19, 2018 23:00:29.404232000 +07
  717  67.840674 32:32:32:32:32:32 7dBm Nov 19, 2018 23:00:29.484162000 +07
  718  67.984855 32:32:32:32:32:32 8dBm Nov 19, 2018 23:00:29.628343000 +07
  719  68.049629 32:32:32:32:32:32 8dBm Nov 19, 2018 23:00:29.693117000 +07
  720  68.070293 32:32:32:32:32:32 11dBm Nov 19, 2018 23:00:29.713781000 +07
  721  68.144714 32:32:32:32:32:32 9dBm Nov 19, 2018 23:00:29.788202000 +07
  722  68.203243 32:32:32:32:32:32 8dBm Nov 19, 2018 23:00:29.846731000 +07
  723  68.229013 32:32:32:32:32:32 9dBm Nov 19, 2018 23:00:29.872501000 +07
  724  68.235862 32:32:32:32:32:32 7dBm Nov 19, 2018 23:00:29.879350000 +07
  725  68.349156 32:32:32:32:32:32 9dBm Nov 19, 2018 23:00:29.992644000 +07
  726  68.429227 32:32:32:32:32:32 7dBm Nov 19, 2018 23:00:30.072715000 +07
  727  68.498018 32:32:32:32:32:32 8dBm Nov 19, 2018 23:00:30.141506000 +07
  728  68.742769 32:32:32:32:32:32 6dBm Nov 19, 2018 23:00:30.386257000 +07
  729  68.787123 32:32:32:32:32:32 9dBm Nov 19, 2018 23:00:30.430611000 +07
  730  68.921157 32:32:32:32:32:32 8dBm Nov 19, 2018 23:00:30.564645000 +07
  731  69.008177 32:32:32:32:32:32 7dBm Nov 19, 2018 23:00:30.651665000 +07
  732  69.125334 32:32:32:32:32:32 6dBm Nov 19, 2018 23:00:30.768822000 +07
  733  69.165395 32:32:32:32:32:32 8dBm Nov 19, 2018 23:00:30.808883000 +07
  734  69.208877 32:32:32:32:32:32 10dBm Nov 19, 2018 23:00:30.852365000 +07
  735  69.239591 32:32:32:32:32:32 9dBm Nov 19, 2018 23:00:30.883079000 +07
  736  69.283281 32:32:32:32:32:32 10dBm Nov 19, 2018 23:00:30.926769000 +07
  737  69.311868 32:32:32:32:32:32 8dBm Nov 19, 2018 23:00:30.955356000 +07
  738  69.412305 32:32:32:32:32:32 9dBm Nov 19, 2018 23:00:31.055793000 +07
  739  69.467328 32:32:32:32:32:32 10dBm Nov 19, 2018 23:00:31.110816000 +07
  740  69.500842 32:32:32:32:32:32 9dBm Nov 19, 2018 23:00:31.144330000 +07
  741  69.589895 32:32:32:32:32:32 9dBm Nov 19, 2018 23:00:31.233383000 +07
  742  69.642188 32:32:32:32:32:32 9dBm Nov 19, 2018 23:00:31.285676000 +07
  743  69.658181 32:32:32:32:32:32 9dBm Nov 19, 2018 23:00:31.301669000 +07
  744  69.841769 32:32:32:32:32:32 9dBm Nov 19, 2018 23:00:31.485257000 +07
  745  69.856760 32:32:32:32:32:32 5dBm Nov 19, 2018 23:00:31.500248000 +07
  746  69.902760 32:32:32:32:32:32 9dBm Nov 19, 2018 23:00:31.546248000 +07
  747  70.001631 32:32:32:32:32:32 5dBm Nov 19, 2018 23:00:31.645119000 +07
  748  70.018161 32:32:32:32:32:32 9dBm Nov 19, 2018 23:00:31.661649000 +07
  749  70.080209 32:32:32:32:32:32 7dBm Nov 19, 2018 23:00:31.723697000 +07
  750  70.152261 32:32:32:32:32:32 8dBm Nov 19, 2018 23:00:31.795749000 +07
  751  70.167680 32:32:32:32:32:32 7dBm Nov 19, 2018 23:00:31.811168000 +07
  752  70.240974 32:32:32:32:32:32 9dBm Nov 19, 2018 23:00:31.884462000 +07
  753  70.466626 32:32:32:32:32:32 8dBm Nov 19, 2018 23:00:32.110114000 +07
  754  70.490033 32:32:32:32:32:32 10dBm Nov 19, 2018 23:00:32.133521000 +07
  755  70.598077 32:32:32:32:32:32 9dBm Nov 19, 2018 23:00:32.241565000 +07
  756  70.620876 32:32:32:32:32:32 10dBm Nov 19, 2018 23:00:32.264364000 +07
  757  70.817294 32:32:32:32:32:32 10dBm Nov 19, 2018 23:00:32.460782000 +07
  758  70.929665 32:32:32:32:32:32 9dBm Nov 19, 2018 23:00:32.573153000 +07
  759  70.943514 32:32:32:32:32:32 8dBm Nov 19, 2018 23:00:32.587002000 +07
  760  70.963854 32:32:32:32:32:32 11dBm Nov 19, 2018 23:00:32.607342000 +07
  761  71.054865 32:32:32:32:32:32 9dBm Nov 19, 2018 23:00:32.698353000 +07
  762  71.085543 32:32:32:32:32:32 7dBm Nov 19, 2018 23:00:32.729031000 +07
  763  71.150110 32:32:32:32:32:32 10dBm Nov 19, 2018 23:00:32.793598000 +07
  764  71.272834 32:32:32:32:32:32 7dBm Nov 19, 2018 23:00:32.916322000 +07
  765  71.541870 32:32:32:32:32:32 12dBm Nov 19, 2018 23:00:33.185358000 +07
  766  71.566296 32:32:32:32:32:32 10dBm Nov 19, 2018 23:00:33.209784000 +07
  767  71.646770 32:32:32:32:32:32 7dBm Nov 19, 2018 23:00:33.290258000 +07
  768  71.722020 32:32:32:32:32:32 8dBm Nov 19, 2018 23:00:33.365508000 +07
  769  71.903281 32:32:32:32:32:32 7dBm Nov 19, 2018 23:00:33.546769000 +07
  770  71.934254 32:32:32:32:32:32 6dBm Nov 19, 2018 23:00:33.577742000 +07
  771  72.030101 32:32:32:32:32:32 9dBm Nov 19, 2018 23:00:33.673589000 +07
  772  72.078966 32:32:32:32:32:32 10dBm Nov 19, 2018 23:00:33.722454000 +07
  773  72.197673 32:32:32:32:32:32 8dBm Nov 19, 2018 23:00:33.841161000 +07
  774  72.266248 32:32:32:32:32:32 10dBm Nov 19, 2018 23:00:33.909736000 +07
  775  72.293850 32:32:32:32:32:32 9dBm Nov 19, 2018 23:00:33.937338000 +07
  776  72.335362 32:32:32:32:32:32 8dBm Nov 19, 2018 23:00:33.978850000 +07
  777  72.347586 32:32:32:32:32:32 10dBm Nov 19, 2018 23:00:33.991074000 +07
  778  72.515062 32:32:32:32:32:32 7dBm Nov 19, 2018 23:00:34.158550000 +07
  779  72.702210 32:32:32:32:32:32 7dBm Nov 19, 2018 23:00:34.345698000 +07
  780  72.855143 32:32:32:32:32:32 9dBm Nov 19, 2018 23:00:34.498631000 +07
  781  72.925886 32:32:32:32:32:32 8dBm Nov 19, 2018 23:00:34.569374000 +07
  782  72.951314 32:32:32:32:32:32 9dBm Nov 19, 2018 23:00:34.594802000 +07
  783  72.989714 32:32:32:32:32:32 10dBm Nov 19, 2018 23:00:34.633202000 +07
  784  73.084936 32:32:32:32:32:32 8dBm Nov 19, 2018 23:00:34.728424000 +07
  785  73.483870 32:32:32:32:32:32 8dBm Nov 19, 2018 23:00:35.127358000 +07
  786  73.716327 32:32:32:32:32:32 7dBm Nov 19, 2018 23:00:35.359815000 +07
  787  73.744378 32:32:32:32:32:32 8dBm Nov 19, 2018 23:00:35.387866000 +07
  788  73.753855 32:32:32:32:32:32 7dBm Nov 19, 2018 23:00:35.397343000 +07
  789  73.814784 32:32:32:32:32:32 8dBm Nov 19, 2018 23:00:35.458272000 +07
  790  74.081862 32:32:32:32:32:32 7dBm Nov 19, 2018 23:00:35.725350000 +07
  791  74.178635 32:32:32:32:32:32 7dBm Nov 19, 2018 23:00:35.822123000 +07
  792  74.204014 32:32:32:32:32:32 7dBm Nov 19, 2018 23:00:35.847502000 +07
  793  74.429536 32:32:32:32:32:32 7dBm Nov 19, 2018 23:00:36.073024000 +07
  794  74.480183 32:32:32:32:32:32 8dBm Nov 19, 2018 23:00:36.123671000 +07
  795  74.652131 32:32:32:32:32:32 10dBm Nov 19, 2018 23:00:36.295619000 +07
  796  74.869166 32:32:32:32:32:32 9dBm Nov 19, 2018 23:00:36.512654000 +07
  797  74.955209 32:32:32:32:32:32 7dBm Nov 19, 2018 23:00:36.598697000 +07
  798  74.974623 32:32:32:32:32:32 7dBm Nov 19, 2018 23:00:36.618111000 +07
  799  75.011132 32:32:32:32:32:32 9dBm Nov 19, 2018 23:00:36.654620000 +07
  800  75.023317 32:32:32:32:32:32 8dBm Nov 19, 2018 23:00:36.666805000 +07
  801  75.042586 32:32:32:32:32:32 10dBm Nov 19, 2018 23:00:36.686074000 +07
  802  75.141428 32:32:32:32:32:32 8dBm Nov 19, 2018 23:00:36.784916000 +07
  803  75.449547 32:32:32:32:32:32 9dBm Nov 19, 2018 23:00:37.093035000 +07
  804  75.547374 32:32:32:32:32:32 9dBm Nov 19, 2018 23:00:37.190862000 +07
  805  75.641274 32:32:32:32:32:32 9dBm Nov 19, 2018 23:00:37.284762000 +07
  806  75.733416 32:32:32:32:32:32 8dBm Nov 19, 2018 23:00:37.376904000 +07
  807  75.907552 32:32:32:32:32:32 8dBm Nov 19, 2018 23:00:37.551040000 +07
  808  76.182972 32:32:32:32:32:32 7dBm Nov 19, 2018 23:00:37.826460000 +07
  809  76.224799 32:32:32:32:32:32 8dBm Nov 19, 2018 23:00:37.868287000 +07
  810  76.246788 32:32:32:32:32:32 8dBm Nov 19, 2018 23:00:37.890276000 +07
  811  76.492865 32:32:32:32:32:32 6dBm Nov 19, 2018 23:00:38.136353000 +07
  812  76.554811 32:32:32:32:32:32 8dBm Nov 19, 2018 23:00:38.198299000 +07
  813  76.625747 32:32:32:32:32:32 9dBm Nov 19, 2018 23:00:38.269235000 +07
  814  76.643542 32:32:32:32:32:32 8dBm Nov 19, 2018 23:00:38.287030000 +07
  815  76.798552 32:32:32:32:32:32 10dBm Nov 19, 2018 23:00:38.442040000 +07
  816  76.923380 32:32:32:32:32:32 8dBm Nov 19, 2018 23:00:38.566868000 +07
  817  77.006801 32:32:32:32:32:32 9dBm Nov 19, 2018 23:00:38.650289000 +07
  818  77.026276 32:32:32:32:32:32 7dBm Nov 19, 2018 23:00:38.669764000 +07
  819  77.082543 32:32:32:32:32:32 9dBm Nov 19, 2018 23:00:38.726031000 +07
  820  77.249515 32:32:32:32:32:32 9dBm Nov 19, 2018 23:00:38.893003000 +07
  821  77.299674 32:32:32:32:32:32 7dBm Nov 19, 2018 23:00:38.943162000 +07
  822  77.350860 32:32:32:32:32:32 9dBm Nov 19, 2018 23:00:38.994348000 +07
  823  77.354065 32:32:32:32:32:32 9dBm Nov 19, 2018 23:00:38.997553000 +07
  824  77.460342 32:32:32:32:32:32 8dBm Nov 19, 2018 23:00:39.103830000 +07
  825  77.535597 32:32:32:32:32:32 9dBm Nov 19, 2018 23:00:39.179085000 +07
  826  77.694649 32:32:32:32:32:32 9dBm Nov 19, 2018 23:00:39.338137000 +07
  827  77.942633 32:32:32:32:32:32 8dBm Nov 19, 2018 23:00:39.586121000 +07
  828  78.071768 32:32:32:32:32:32 8dBm Nov 19, 2018 23:00:39.715256000 +07
  829  78.180887 32:32:32:32:32:32 8dBm Nov 19, 2018 23:00:39.824375000 +07
  830  78.200231 32:32:32:32:32:32 9dBm Nov 19, 2018 23:00:39.843719000 +07
  831  78.304720 32:32:32:32:32:32 8dBm Nov 19, 2018 23:00:39.948208000 +07
  832  78.514333 32:32:32:32:32:32 10dBm Nov 19, 2018 23:00:40.157821000 +07
  833  78.538763 32:32:32:32:32:32 7dBm Nov 19, 2018 23:00:40.182251000 +07
  834  78.670972 32:32:32:32:32:32 9dBm Nov 19, 2018 23:00:40.314460000 +07
  835  78.751224 32:32:32:32:32:32 9dBm Nov 19, 2018 23:00:40.394712000 +07
  836  78.788121 32:32:32:32:32:32 7dBm Nov 19, 2018 23:00:40.431609000 +07
  837  78.859658 32:32:32:32:32:32 9dBm Nov 19, 2018 23:00:40.503146000 +07
  838  78.927192 32:32:32:32:32:32 9dBm Nov 19, 2018 23:00:40.570680000 +07
  839  79.066452 32:32:32:32:32:32 8dBm Nov 19, 2018 23:00:40.709940000 +07
  840  79.120155 32:32:32:32:32:32 10dBm Nov 19, 2018 23:00:40.763643000 +07
  841  79.133708 32:32:32:32:32:32 9dBm Nov 19, 2018 23:00:40.777196000 +07
  842  79.179899 32:32:32:32:32:32 8dBm Nov 19, 2018 23:00:40.823387000 +07
  843  79.282997 32:32:32:32:32:32 9dBm Nov 19, 2018 23:00:40.926485000 +07
  844  79.312900 32:32:32:32:32:32 8dBm Nov 19, 2018 23:00:40.956388000 +07
  845  79.337382 32:32:32:32:32:32 10dBm Nov 19, 2018 23:00:40.980870000 +07
  846  79.456997 32:32:32:32:32:32 9dBm Nov 19, 2018 23:00:41.100485000 +07
  847  79.521775 32:32:32:32:32:32 8dBm Nov 19, 2018 23:00:41.165263000 +07
  848  79.538763 32:32:32:32:32:32 6dBm Nov 19, 2018 23:00:41.182251000 +07
  849  79.673052 32:32:32:32:32:32 10dBm Nov 19, 2018 23:00:41.316540000 +07
  850  79.732294 32:32:32:32:32:32 9dBm Nov 19, 2018 23:00:41.375782000 +07
  851  79.751819 32:32:32:32:32:32 10dBm Nov 19, 2018 23:00:41.395307000 +07
  852  79.784717 32:32:32:32:32:32 10dBm Nov 19, 2018 23:00:41.428205000 +07
  853  79.803926 32:32:32:32:32:32 9dBm Nov 19, 2018 23:00:41.447414000 +07
  854  79.853945 32:32:32:32:32:32 8dBm Nov 19, 2018 23:00:41.497433000 +07
  855  79.938815 32:32:32:32:32:32 8dBm Nov 19, 2018 23:00:41.582303000 +07
  856  79.971820 32:32:32:32:32:32 7dBm Nov 19, 2018 23:00:41.615308000 +07
  857  80.035704 32:32:32:32:32:32 9dBm Nov 19, 2018 23:00:41.679192000 +07
  858  80.058412 32:32:32:32:32:32 9dBm Nov 19, 2018 23:00:41.701900000 +07
  859  80.110272 32:32:32:32:32:32 8dBm Nov 19, 2018 23:00:41.753760000 +07
  860  80.205600 32:32:32:32:32:32 9dBm Nov 19, 2018 23:00:41.849088000 +07
  861  80.231157 32:32:32:32:32:32 8dBm Nov 19, 2018 23:00:41.874645000 +07
  862  80.302430 32:32:32:32:32:32 7dBm Nov 19, 2018 23:00:41.945918000 +07
  863  80.333230 32:32:32:32:32:32 8dBm Nov 19, 2018 23:00:41.976718000 +07
  864  80.403027 32:32:32:32:32:32 8dBm Nov 19, 2018 23:00:42.046515000 +07
  865  80.532994 32:32:32:32:32:32 8dBm Nov 19, 2018 23:00:42.176482000 +07
  866  80.558322 32:32:32:32:32:32 8dBm Nov 19, 2018 23:00:42.201810000 +07
  867  80.654544 32:32:32:32:32:32 7dBm Nov 19, 2018 23:00:42.298032000 +07
  868  80.674072 32:32:32:32:32:32 9dBm Nov 19, 2018 23:00:42.317560000 +07
  869  80.778682 32:32:32:32:32:32 9dBm Nov 19, 2018 23:00:42.422170000 +07
  870  80.822153 32:32:32:32:32:32 8dBm Nov 19, 2018 23:00:42.465641000 +07
  871  80.846325 32:32:32:32:32:32 8dBm Nov 19, 2018 23:00:42.489813000 +07
  872  81.005976 32:32:32:32:32:32 8dBm Nov 19, 2018 23:00:42.649464000 +07
  873  81.047177 32:32:32:32:32:32 6dBm Nov 19, 2018 23:00:42.690665000 +07
  874  81.071865 32:32:32:32:32:32 9dBm Nov 19, 2018 23:00:42.715353000 +07
  875  81.235477 32:32:32:32:32:32 9dBm Nov 19, 2018 23:00:42.878965000 +07
  876  81.474398 32:32:32:32:32:32 10dBm Nov 19, 2018 23:00:43.117886000 +07
  877  81.512590 32:32:32:32:32:32 9dBm Nov 19, 2018 23:00:43.156078000 +07
  878  81.530948 32:32:32:32:32:32 7dBm Nov 19, 2018 23:00:43.174436000 +07
  879  81.557642 32:32:32:32:32:32 10dBm Nov 19, 2018 23:00:43.201130000 +07
  880  81.594553 32:32:32:32:32:32 8dBm Nov 19, 2018 23:00:43.238041000 +07
  881  81.614691 32:32:32:32:32:32 8dBm Nov 19, 2018 23:00:43.258179000 +07
  882  81.701083 32:32:32:32:32:32 8dBm Nov 19, 2018 23:00:43.344571000 +07
  883  82.094339 32:32:32:32:32:32 10dBm Nov 19, 2018 23:00:43.737827000 +07
  884  82.124235 32:32:32:32:32:32 8dBm Nov 19, 2018 23:00:43.767723000 +07
  885  82.275177 32:32:32:32:32:32 8dBm Nov 19, 2018 23:00:43.918665000 +07
  886  82.461511 32:32:32:32:32:32 10dBm Nov 19, 2018 23:00:44.104999000 +07
  887  82.519078 32:32:32:32:32:32 8dBm Nov 19, 2018 23:00:44.162566000 +07
  888  82.535964 32:32:32:32:32:32 8dBm Nov 19, 2018 23:00:44.179452000 +07
  889  82.775434 32:32:32:32:32:32 9dBm Nov 19, 2018 23:00:44.418922000 +07
  890  82.864293 32:32:32:32:32:32 8dBm Nov 19, 2018 23:00:44.507781000 +07
  891  82.897862 32:32:32:32:32:32 6dBm Nov 19, 2018 23:00:44.541350000 +07
  892  83.024074 32:32:32:32:32:32 9dBm Nov 19, 2018 23:00:44.667562000 +07
  893  83.032871 32:32:32:32:32:32 9dBm Nov 19, 2018 23:00:44.676359000 +07
  894  83.075161 32:32:32:32:32:32 9dBm Nov 19, 2018 23:00:44.718649000 +07
  895  83.123133 32:32:32:32:32:32 10dBm Nov 19, 2018 23:00:44.766621000 +07
  896  83.308565 32:32:32:32:32:32 10dBm Nov 19, 2018 23:00:44.952053000 +07
  897  83.556519 32:32:32:32:32:32 8dBm Nov 19, 2018 23:00:45.200007000 +07
  898  83.751186 32:32:32:32:32:32 8dBm Nov 19, 2018 23:00:45.394674000 +07
  899  83.799307 32:32:32:32:32:32 10dBm Nov 19, 2018 23:00:45.442795000 +07
  900  83.834236 32:32:32:32:32:32 6dBm Nov 19, 2018 23:00:45.477724000 +07
  901  83.900130 32:32:32:32:32:32 10dBm Nov 19, 2018 23:00:45.543618000 +07
  902  84.006061 32:32:32:32:32:32 10dBm Nov 19, 2018 23:00:45.649549000 +07
  903  84.204026 32:32:32:32:32:32 8dBm Nov 19, 2018 23:00:45.847514000 +07
  904  84.371961 32:32:32:32:32:32 7dBm Nov 19, 2018 23:00:46.015449000 +07
  905  84.452943 32:32:32:32:32:32 9dBm Nov 19, 2018 23:00:46.096431000 +07
  906  84.554900 32:32:32:32:32:32 10dBm Nov 19, 2018 23:00:46.198388000 +07
  907  84.581485 32:32:32:32:32:32 8dBm Nov 19, 2018 23:00:46.224973000 +07
  908  84.597180 32:32:32:32:32:32 10dBm Nov 19, 2018 23:00:46.240668000 +07
  909  84.629310 32:32:32:32:32:32 9dBm Nov 19, 2018 23:00:46.272798000 +07
  910  84.655606 32:32:32:32:32:32 9dBm Nov 19, 2018 23:00:46.299094000 +07
  911  84.688359 32:32:32:32:32:32 10dBm Nov 19, 2018 23:00:46.331847000 +07
  912  84.744620 32:32:32:32:32:32 8dBm Nov 19, 2018 23:00:46.388108000 +07
  913  84.848702 32:32:32:32:32:32 9dBm Nov 19, 2018 23:00:46.492190000 +07
  914  84.870336 32:32:32:32:32:32 7dBm Nov 19, 2018 23:00:46.513824000 +07
  915  84.987329 32:32:32:32:32:32 9dBm Nov 19, 2018 23:00:46.630817000 +07
  916  85.254389 32:32:32:32:32:32 7dBm Nov 19, 2018 23:00:46.897877000 +07
  917  85.275076 32:32:32:32:32:32 7dBm Nov 19, 2018 23:00:46.918564000 +07
  918  85.298667 32:32:32:32:32:32 9dBm Nov 19, 2018 23:00:46.942155000 +07
  919  85.332716 32:32:32:32:32:32 9dBm Nov 19, 2018 23:00:46.976204000 +07
  920  85.393822 32:32:32:32:32:32 10dBm Nov 19, 2018 23:00:47.037310000 +07
  921  85.430838 32:32:32:32:32:32 9dBm Nov 19, 2018 23:00:47.074326000 +07
  922  85.592539 32:32:32:32:32:32 8dBm Nov 19, 2018 23:00:47.236027000 +07
  923  85.623968 32:32:32:32:32:32 9dBm Nov 19, 2018 23:00:47.267456000 +07
  924  85.711454 32:32:32:32:32:32 8dBm Nov 19, 2018 23:00:47.354942000 +07
  925  85.734865 32:32:32:32:32:32 8dBm Nov 19, 2018 23:00:47.378353000 +07
  926  85.881226 32:32:32:32:32:32 10dBm Nov 19, 2018 23:00:47.524714000 +07
  927  86.069846 32:32:32:32:32:32 9dBm Nov 19, 2018 23:00:47.713334000 +07
  928  86.121662 32:32:32:32:32:32 9dBm Nov 19, 2018 23:00:47.765150000 +07
  929  86.471268 32:32:32:32:32:32 9dBm Nov 19, 2018 23:00:48.114756000 +07
  930  86.486313 32:32:32:32:32:32 9dBm Nov 19, 2018 23:00:48.129801000 +07
  931  86.491629 32:32:32:32:32:32 9dBm Nov 19, 2018 23:00:48.135117000 +07
  932  86.520089 32:32:32:32:32:32 10dBm Nov 19, 2018 23:00:48.163577000 +07
  933  86.581446 32:32:32:32:32:32 9dBm Nov 19, 2018 23:00:48.224934000 +07
  934  86.599989 32:32:32:32:32:32 8dBm Nov 19, 2018 23:00:48.243477000 +07
  935  86.685440 32:32:32:32:32:32 9dBm Nov 19, 2018 23:00:48.328928000 +07
  936  86.723605 32:32:32:32:32:32 10dBm Nov 19, 2018 23:00:48.367093000 +07
  937  86.742352 32:32:32:32:32:32 9dBm Nov 19, 2018 23:00:48.385840000 +07
  938  87.344482 32:32:32:32:32:32 9dBm Nov 19, 2018 23:00:48.987970000 +07
  939  87.430400 32:32:32:32:32:32 8dBm Nov 19, 2018 23:00:49.073888000 +07
  940  87.587357 32:32:32:32:32:32 9dBm Nov 19, 2018 23:00:49.230845000 +07
  941  87.615301 32:32:32:32:32:32 10dBm Nov 19, 2018 23:00:49.258789000 +07
  942  87.618905 32:32:32:32:32:32 8dBm Nov 19, 2018 23:00:49.262393000 +07
  943  87.712661 32:32:32:32:32:32 9dBm Nov 19, 2018 23:00:49.356149000 +07
  944  87.796086 32:32:32:32:32:32 9dBm Nov 19, 2018 23:00:49.439574000 +07
  945  87.898720 32:32:32:32:32:32 9dBm Nov 19, 2018 23:00:49.542208000 +07
  946  87.917258 32:32:32:32:32:32 10dBm Nov 19, 2018 23:00:49.560746000 +07
  947  87.921926 32:32:32:32:32:32 8dBm Nov 19, 2018 23:00:49.565414000 +07
  948  87.964446 32:32:32:32:32:32 6dBm Nov 19, 2018 23:00:49.607934000 +07
  949  87.985627 32:32:32:32:32:32 8dBm Nov 19, 2018 23:00:49.629115000 +07
  950  88.010247 32:32:32:32:32:32 9dBm Nov 19, 2018 23:00:49.653735000 +07
  951  88.023728 32:32:32:32:32:32 6dBm Nov 19, 2018 23:00:49.667216000 +07
  952  88.106981 32:32:32:32:32:32 8dBm Nov 19, 2018 23:00:49.750469000 +07
  953  88.264862 32:32:32:32:32:32 9dBm Nov 19, 2018 23:00:49.908350000 +07
  954  88.497533 32:32:32:32:32:32 9dBm Nov 19, 2018 23:00:50.141021000 +07
  955  88.655418 32:32:32:32:32:32 9dBm Nov 19, 2018 23:00:50.298906000 +07
  956  88.695987 32:32:32:32:32:32 10dBm Nov 19, 2018 23:00:50.339475000 +07
  957  88.713053 32:32:32:32:32:32 7dBm Nov 19, 2018 23:00:50.356541000 +07
  958  88.730952 32:32:32:32:32:32 9dBm Nov 19, 2018 23:00:50.374440000 +07
  959  88.744271 32:32:32:32:32:32 10dBm Nov 19, 2018 23:00:50.387759000 +07
  960  88.768224 32:32:32:32:32:32 9dBm Nov 19, 2018 23:00:50.411712000 +07
  961  88.809615 32:32:32:32:32:32 9dBm Nov 19, 2018 23:00:50.453103000 +07
  962  88.875605 32:32:32:32:32:32 8dBm Nov 19, 2018 23:00:50.519093000 +07
  963  88.974771 32:32:32:32:32:32 8dBm Nov 19, 2018 23:00:50.618259000 +07
  964  89.056057 32:32:32:32:32:32 8dBm Nov 19, 2018 23:00:50.699545000 +07
  965  89.109619 32:32:32:32:32:32 9dBm Nov 19, 2018 23:00:50.753107000 +07
  966  89.239020 32:32:32:32:32:32 8dBm Nov 19, 2018 23:00:50.882508000 +07
  967  89.276160 32:32:32:32:32:32 8dBm Nov 19, 2018 23:00:50.919648000 +07
  968  89.608603 32:32:32:32:32:32 10dBm Nov 19, 2018 23:00:51.252091000 +07
  969  89.673477 32:32:32:32:32:32 7dBm Nov 19, 2018 23:00:51.316965000 +07
  970  89.808932 32:32:32:32:32:32 9dBm Nov 19, 2018 23:00:51.452420000 +07
  971  90.164593 32:32:32:32:32:32 8dBm Nov 19, 2018 23:00:51.808081000 +07
  972  90.217573 32:32:32:32:32:32 6dBm Nov 19, 2018 23:00:51.861061000 +07
  973  90.257918 32:32:32:32:32:32 9dBm Nov 19, 2018 23:00:51.901406000 +07
  974  90.295144 32:32:32:32:32:32 9dBm Nov 19, 2018 23:00:51.938632000 +07
  975  90.361013 32:32:32:32:32:32 9dBm Nov 19, 2018 23:00:52.004501000 +07
  976  90.468375 32:32:32:32:32:32 6dBm Nov 19, 2018 23:00:52.111863000 +07
  977  90.490756 32:32:32:32:32:32 7dBm Nov 19, 2018 23:00:52.134244000 +07
  978  90.588291 32:32:32:32:32:32 9dBm Nov 19, 2018 23:00:52.231779000 +07
  979  90.596113 32:32:32:32:32:32 9dBm Nov 19, 2018 23:00:52.239601000 +07
  980  90.613924 32:32:32:32:32:32 7dBm Nov 19, 2018 23:00:52.257412000 +07
  981  90.687782 32:32:32:32:32:32 9dBm Nov 19, 2018 23:00:52.331270000 +07
  982  90.727319 32:32:32:32:32:32 9dBm Nov 19, 2018 23:00:52.370807000 +07
  983  90.748353 32:32:32:32:32:32 7dBm Nov 19, 2018 23:00:52.391841000 +07
  984  90.795357 32:32:32:32:32:32 10dBm Nov 19, 2018 23:00:52.438845000 +07
  985  91.040590 32:32:32:32:32:32 7dBm Nov 19, 2018 23:00:52.684078000 +07
  986  91.124209 32:32:32:32:32:32 9dBm Nov 19, 2018 23:00:52.767697000 +07
  987  91.145690 32:32:32:32:32:32 8dBm Nov 19, 2018 23:00:52.789178000 +07
  988  91.259434 32:32:32:32:32:32 9dBm Nov 19, 2018 23:00:52.902922000 +07
  989  91.501754 32:32:32:32:32:32 9dBm Nov 19, 2018 23:00:53.145242000 +07
  990  91.523345 32:32:32:32:32:32 8dBm Nov 19, 2018 23:00:53.166833000 +07
  991  91.547216 32:32:32:32:32:32 7dBm Nov 19, 2018 23:00:53.190704000 +07
  992  91.572184 32:32:32:32:32:32 10dBm Nov 19, 2018 23:00:53.215672000 +07
  993  91.910448 32:32:32:32:32:32 9dBm Nov 19, 2018 23:00:53.553936000 +07
  994  92.052013 32:32:32:32:32:32 10dBm Nov 19, 2018 23:00:53.695501000 +07
  995  92.267234 32:32:32:32:32:32 8dBm Nov 19, 2018 23:00:53.910722000 +07
  996  92.524976 32:32:32:32:32:32 8dBm Nov 19, 2018 23:00:54.168464000 +07
  997  92.613622 32:32:32:32:32:32 9dBm Nov 19, 2018 23:00:54.257110000 +07
  998  92.641952 32:32:32:32:32:32 6dBm Nov 19, 2018 23:00:54.285440000 +07
  999  92.856134 32:32:32:32:32:32 9dBm Nov 19, 2018 23:00:54.499622000 +07
 1000  93.053667 32:32:32:32:32:32 9dBm Nov 19, 2018 23:00:54.697155000 +07
 1001  93.084586 32:32:32:32:32:32 8dBm Nov 19, 2018 23:00:54.728074000 +07
 1002  93.113383 32:32:32:32:32:32 7dBm Nov 19, 2018 23:00:54.756871000 +07
 1003  93.239884 32:32:32:32:32:32 10dBm Nov 19, 2018 23:00:54.883372000 +07
 1004  93.280695 32:32:32:32:32:32 9dBm Nov 19, 2018 23:00:54.924183000 +07
 1005  93.405065 32:32:32:32:32:32 8dBm Nov 19, 2018 23:00:55.048553000 +07
 1006  93.422643 32:32:32:32:32:32 8dBm Nov 19, 2018 23:00:55.066131000 +07
 1007  93.433814 32:32:32:32:32:32 9dBm Nov 19, 2018 23:00:55.077302000 +07
 1008  93.498878 32:32:32:32:32:32 8dBm Nov 19, 2018 23:00:55.142366000 +07
 1009  93.607391 32:32:32:32:32:32 8dBm Nov 19, 2018 23:00:55.250879000 +07
 1010  93.667733 32:32:32:32:32:32 9dBm Nov 19, 2018 23:00:55.311221000 +07
 1011  93.704759 32:32:32:32:32:32 9dBm Nov 19, 2018 23:00:55.348247000 +07
 1012  94.060187 32:32:32:32:32:32 10dBm Nov 19, 2018 23:00:55.703675000 +07
 1013  94.084730 32:32:32:32:32:32 9dBm Nov 19, 2018 23:00:55.728218000 +07
 1014  94.175838 32:32:32:32:32:32 8dBm Nov 19, 2018 23:00:55.819326000 +07
 1015  94.242858 32:32:32:32:32:32 8dBm Nov 19, 2018 23:00:55.886346000 +07
 1016  94.474953 32:32:32:32:32:32 9dBm Nov 19, 2018 23:00:56.118441000 +07
 1017  94.773358 32:32:32:32:32:32 9dBm Nov 19, 2018 23:00:56.416846000 +07
 1018  94.790994 32:32:32:32:32:32 9dBm Nov 19, 2018 23:00:56.434482000 +07
 1019  94.821232 32:32:32:32:32:32 9dBm Nov 19, 2018 23:00:56.464720000 +07
 1020  94.839906 32:32:32:32:32:32 8dBm Nov 19, 2018 23:00:56.483394000 +07
 1021  94.935619 32:32:32:32:32:32 9dBm Nov 19, 2018 23:00:56.579107000 +07
 1022  95.043800 32:32:32:32:32:32 5dBm Nov 19, 2018 23:00:56.687288000 +07
 1023  95.068990 32:32:32:32:32:32 8dBm Nov 19, 2018 23:00:56.712478000 +07
 1024  95.102792 32:32:32:32:32:32 10dBm Nov 19, 2018 23:00:56.746280000 +07
 1025  95.153848 32:32:32:32:32:32 9dBm Nov 19, 2018 23:00:56.797336000 +07
 1026  95.407562 32:32:32:32:32:32 8dBm Nov 19, 2018 23:00:57.051050000 +07
 1027  95.413817 32:32:32:32:32:32 8dBm Nov 19, 2018 23:00:57.057305000 +07
 1028  95.420232 32:32:32:32:32:32 9dBm Nov 19, 2018 23:00:57.063720000 +07
 1029  95.425937 32:32:32:32:32:32 10dBm Nov 19, 2018 23:00:57.069425000 +07
 1030  95.785091 32:32:32:32:32:32 8dBm Nov 19, 2018 23:00:57.428579000 +07
 1031  96.061436 32:32:32:32:32:32 9dBm Nov 19, 2018 23:00:57.704924000 +07
 1032  96.098927 32:32:32:32:32:32 9dBm Nov 19, 2018 23:00:57.742415000 +07
 1033  96.171618 32:32:32:32:32:32 10dBm Nov 19, 2018 23:00:57.815106000 +07
 1034  96.208761 32:32:32:32:32:32 8dBm Nov 19, 2018 23:00:57.852249000 +07
 1035  96.342448 32:32:32:32:32:32 9dBm Nov 19, 2018 23:00:57.985936000 +07
 1036  96.402192 32:32:32:32:32:32 5dBm Nov 19, 2018 23:00:58.045680000 +07
 1037  96.459077 32:32:32:32:32:32 9dBm Nov 19, 2018 23:00:58.102565000 +07
 1038  96.497763 32:32:32:32:32:32 8dBm Nov 19, 2018 23:00:58.141251000 +07
 1039  96.778207 32:32:32:32:32:32 10dBm Nov 19, 2018 23:00:58.421695000 +07
 1040  96.901545 32:32:32:32:32:32 9dBm Nov 19, 2018 23:00:58.545033000 +07
 1041  97.007915 32:32:32:32:32:32 7dBm Nov 19, 2018 23:00:58.651403000 +07
 1042  97.157125 32:32:32:32:32:32 8dBm Nov 19, 2018 23:00:58.800613000 +07
 1043  97.189659 32:32:32:32:32:32 7dBm Nov 19, 2018 23:00:58.833147000 +07
 1044  97.267762 32:32:32:32:32:32 8dBm Nov 19, 2018 23:00:58.911250000 +07
 1045  97.368683 32:32:32:32:32:32 8dBm Nov 19, 2018 23:00:59.012171000 +07
 1046  97.489950 32:32:32:32:32:32 7dBm Nov 19, 2018 23:00:59.133438000 +07
 1047  97.569390 32:32:32:32:32:32 9dBm Nov 19, 2018 23:00:59.212878000 +07
 1048  97.584829 32:32:32:32:32:32 9dBm Nov 19, 2018 23:00:59.228317000 +07
 1049  97.697315 32:32:32:32:32:32 8dBm Nov 19, 2018 23:00:59.340803000 +07
 1050  97.771382 32:32:32:32:32:32 9dBm Nov 19, 2018 23:00:59.414870000 +07
 1051  98.138826 32:32:32:32:32:32 9dBm Nov 19, 2018 23:00:59.782314000 +07
 1052  98.405137 32:32:32:32:32:32 8dBm Nov 19, 2018 23:01:00.048625000 +07
 1053  98.519563 32:32:32:32:32:32 8dBm Nov 19, 2018 23:01:00.163051000 +07
 1054  98.538504 32:32:32:32:32:32 7dBm Nov 19, 2018 23:01:00.181992000 +07
 1055  98.625276 32:32:32:32:32:32 7dBm Nov 19, 2018 23:01:00.268764000 +07
 1056  98.860827 32:32:32:32:32:32 9dBm Nov 19, 2018 23:01:00.504315000 +07
 1057  99.084591 32:32:32:32:32:32 8dBm Nov 19, 2018 23:01:00.728079000 +07
 1058  99.321599 32:32:32:32:32:32 9dBm Nov 19, 2018 23:01:00.965087000 +07
 1059  99.371945 32:32:32:32:32:32 8dBm Nov 19, 2018 23:01:01.015433000 +07
 1060  99.545420 32:32:32:32:32:32 8dBm Nov 19, 2018 23:01:01.188908000 +07
 1061  99.563350 32:32:32:32:32:32 9dBm Nov 19, 2018 23:01:01.206838000 +07
 1062  99.574949 32:32:32:32:32:32 8dBm Nov 19, 2018 23:01:01.218437000 +07
 1063  99.784926 32:32:32:32:32:32 8dBm Nov 19, 2018 23:01:01.428414000 +07
 1064  99.947917 32:32:32:32:32:32 8dBm Nov 19, 2018 23:01:01.591405000 +07
 1065  99.971710 32:32:32:32:32:32 8dBm Nov 19, 2018 23:01:01.615198000 +07
 1066  99.980414 32:32:32:32:32:32 7dBm Nov 19, 2018 23:01:01.623902000 +07
 1067 100.004358 32:32:32:32:32:32 6dBm Nov 19, 2018 23:01:01.647846000 +07
 1068 100.265907 32:32:32:32:32:32 8dBm Nov 19, 2018 23:01:01.909395000 +07
 1069 100.307524 32:32:32:32:32:32 8dBm Nov 19, 2018 23:01:01.951012000 +07
 1070 100.324304 32:32:32:32:32:32 8dBm Nov 19, 2018 23:01:01.967792000 +07
 1071 100.334545 32:32:32:32:32:32 7dBm Nov 19, 2018 23:01:01.978033000 +07
 1072 100.340367 32:32:32:32:32:32 7dBm Nov 19, 2018 23:01:01.983855000 +07
 1073 100.445752 32:32:32:32:32:32 7dBm Nov 19, 2018 23:01:02.089240000 +07
 1074 100.473264 32:32:32:32:32:32 8dBm Nov 19, 2018 23:01:02.116752000 +07
 1075 100.646804 32:32:32:32:32:32 9dBm Nov 19, 2018 23:01:02.290292000 +07
 1076 100.874413 32:32:32:32:32:32 7dBm Nov 19, 2018 23:01:02.517901000 +07
 1077 100.892907 32:32:32:32:32:32 10dBm Nov 19, 2018 23:01:02.536395000 +07
 1078 100.911177 32:32:32:32:32:32 11dBm Nov 19, 2018 23:01:02.554665000 +07
 1079 100.973321 32:32:32:32:32:32 8dBm Nov 19, 2018 23:01:02.616809000 +07
 1080 101.056760 32:32:32:32:32:32 8dBm Nov 19, 2018 23:01:02.700248000 +07
 1081 101.169437 32:32:32:32:32:32 8dBm Nov 19, 2018 23:01:02.812925000 +07
 1082 101.333363 32:32:32:32:32:32 7dBm Nov 19, 2018 23:01:02.976851000 +07
 1083 101.376483 32:32:32:32:32:32 9dBm Nov 19, 2018 23:01:03.019971000 +07
 1084 101.409824 32:32:32:32:32:32 7dBm Nov 19, 2018 23:01:03.053312000 +07
 1085 101.672037 32:32:32:32:32:32 8dBm Nov 19, 2018 23:01:03.315525000 +07
 1086 101.685956 32:32:32:32:32:32 9dBm Nov 19, 2018 23:01:03.329444000 +07
 1087 101.737052 32:32:32:32:32:32 8dBm Nov 19, 2018 23:01:03.380540000 +07
 1088 101.782103 32:32:32:32:32:32 7dBm Nov 19, 2018 23:01:03.425591000 +07
 1089 101.871031 32:32:32:32:32:32 9dBm Nov 19, 2018 23:01:03.514519000 +07
 1090 101.968071 32:32:32:32:32:32 9dBm Nov 19, 2018 23:01:03.611559000 +07
 1091 102.009499 32:32:32:32:32:32 8dBm Nov 19, 2018 23:01:03.652987000 +07
 1092 102.169507 32:32:32:32:32:32 8dBm Nov 19, 2018 23:01:03.812995000 +07
 1093 102.195800 32:32:32:32:32:32 8dBm Nov 19, 2018 23:01:03.839288000 +07
 1094 102.282913 32:32:32:32:32:32 7dBm Nov 19, 2018 23:01:03.926401000 +07
 1095 102.317408 32:32:32:32:32:32 7dBm Nov 19, 2018 23:01:03.960896000 +07
 1096 102.339473 32:32:32:32:32:32 10dBm Nov 19, 2018 23:01:03.982961000 +07
 1097 102.362853 32:32:32:32:32:32 8dBm Nov 19, 2018 23:01:04.006341000 +07
 1098 102.464153 32:32:32:32:32:32 8dBm Nov 19, 2018 23:01:04.107641000 +07
 1099 102.589975 32:32:32:32:32:32 7dBm Nov 19, 2018 23:01:04.233463000 +07
 1100 102.666808 32:32:32:32:32:32 8dBm Nov 19, 2018 23:01:04.310296000 +07
 1101 102.741322 32:32:32:32:32:32 8dBm Nov 19, 2018 23:01:04.384810000 +07
 1102 102.831197 32:32:32:32:32:32 9dBm Nov 19, 2018 23:01:04.474685000 +07
 1103 102.932502 32:32:32:32:32:32 10dBm Nov 19, 2018 23:01:04.575990000 +07
 1104 102.959310 32:32:32:32:32:32 8dBm Nov 19, 2018 23:01:04.602798000 +07
 1105 103.007367 32:32:32:32:32:32 9dBm Nov 19, 2018 23:01:04.650855000 +07
 1106 103.053167 32:32:32:32:32:32 10dBm Nov 19, 2018 23:01:04.696655000 +07
 1107 103.071507 32:32:32:32:32:32 7dBm Nov 19, 2018 23:01:04.714995000 +07
 1108 103.130615 32:32:32:32:32:32 8dBm Nov 19, 2018 23:01:04.774103000 +07
 1109 103.183155 32:32:32:32:32:32 5dBm Nov 19, 2018 23:01:04.826643000 +07
 1110 103.210811 32:32:32:32:32:32 7dBm Nov 19, 2018 23:01:04.854299000 +07
 1111 103.242465 32:32:32:32:32:32 8dBm Nov 19, 2018 23:01:04.885953000 +07
 1112 103.258187 32:32:32:32:32:32 9dBm Nov 19, 2018 23:01:04.901675000 +07
 1113 103.282840 32:32:32:32:32:32 8dBm Nov 19, 2018 23:01:04.926328000 +07
 1114 103.416220 32:32:32:32:32:32 9dBm Nov 19, 2018 23:01:05.059708000 +07
 1115 103.670798 32:32:32:32:32:32 8dBm Nov 19, 2018 23:01:05.314286000 +07
 1116 103.718042 32:32:32:32:32:32 7dBm Nov 19, 2018 23:01:05.361530000 +07
 1117 103.734329 32:32:32:32:32:32 8dBm Nov 19, 2018 23:01:05.377817000 +07
 1118 103.764026 32:32:32:32:32:32 8dBm Nov 19, 2018 23:01:05.407514000 +07
 1119 103.796177 32:32:32:32:32:32 9dBm Nov 19, 2018 23:01:05.439665000 +07
 1120 103.812774 32:32:32:32:32:32 10dBm Nov 19, 2018 23:01:05.456262000 +07
 1121 103.835791 32:32:32:32:32:32 9dBm Nov 19, 2018 23:01:05.479279000 +07
 1122 103.864113 32:32:32:32:32:32 8dBm Nov 19, 2018 23:01:05.507601000 +07
 1123 103.919307 32:32:32:32:32:32 7dBm Nov 19, 2018 23:01:05.562795000 +07
 1124 103.987292 32:32:32:32:32:32 9dBm Nov 19, 2018 23:01:05.630780000 +07
 1125 104.145237 32:32:32:32:32:32 9dBm Nov 19, 2018 23:01:05.788725000 +07
 1126 104.211975 32:32:32:32:32:32 9dBm Nov 19, 2018 23:01:05.855463000 +07
 1127 104.323080 32:32:32:32:32:32 9dBm Nov 19, 2018 23:01:05.966568000 +07
 1128 104.445817 32:32:32:32:32:32 8dBm Nov 19, 2018 23:01:06.089305000 +07
 1129 104.503593 32:32:32:32:32:32 6dBm Nov 19, 2018 23:01:06.147081000 +07
 1130 104.720224 32:32:32:32:32:32 8dBm Nov 19, 2018 23:01:06.363712000 +07
 1131 104.826589 32:32:32:32:32:32 8dBm Nov 19, 2018 23:01:06.470077000 +07
 1132 104.864778 32:32:32:32:32:32 8dBm Nov 19, 2018 23:01:06.508266000 +07
 1133 104.891827 32:32:32:32:32:32 8dBm Nov 19, 2018 23:01:06.535315000 +07
 1134 104.971678 32:32:32:32:32:32 8dBm Nov 19, 2018 23:01:06.615166000 +07
 1135 105.374524 32:32:32:32:32:32 9dBm Nov 19, 2018 23:01:07.018012000 +07
 1136 105.680940 32:32:32:32:32:32 8dBm Nov 19, 2018 23:01:07.324428000 +07
 1137 105.726772 32:32:32:32:32:32 8dBm Nov 19, 2018 23:01:07.370260000 +07
 1138 105.751905 32:32:32:32:32:32 8dBm Nov 19, 2018 23:01:07.395393000 +07
 1139 105.783919 32:32:32:32:32:32 7dBm Nov 19, 2018 23:01:07.427407000 +07
 1140 105.804278 32:32:32:32:32:32 8dBm Nov 19, 2018 23:01:07.447766000 +07
 1141 105.849802 32:32:32:32:32:32 9dBm Nov 19, 2018 23:01:07.493290000 +07
 1142 105.890980 32:32:32:32:32:32 7dBm Nov 19, 2018 23:01:07.534468000 +07
 1143 105.911372 32:32:32:32:32:32 9dBm Nov 19, 2018 23:01:07.554860000 +07
 1144 105.925039 32:32:32:32:32:32 8dBm Nov 19, 2018 23:01:07.568527000 +07
 1145 105.988621 32:32:32:32:32:32 9dBm Nov 19, 2018 23:01:07.632109000 +07
 1146 106.015837 32:32:32:32:32:32 9dBm Nov 19, 2018 23:01:07.659325000 +07
 1147 106.109724 32:32:32:32:32:32 9dBm Nov 19, 2018 23:01:07.753212000 +07
 1148 106.310334 32:32:32:32:32:32 10dBm Nov 19, 2018 23:01:07.953822000 +07
 1149 106.571627 32:32:32:32:32:32 9dBm Nov 19, 2018 23:01:08.215115000 +07
 1150 106.782737 32:32:32:32:32:32 8dBm Nov 19, 2018 23:01:08.426225000 +07
 1151 106.801471 32:32:32:32:32:32 7dBm Nov 19, 2018 23:01:08.444959000 +07
 1152 106.847558 32:32:32:32:32:32 8dBm Nov 19, 2018 23:01:08.491046000 +07
 1153 106.901306 32:32:32:32:32:32 8dBm Nov 19, 2018 23:01:08.544794000 +07
 1154 106.929644 32:32:32:32:32:32 10dBm Nov 19, 2018 23:01:08.573132000 +07
 1155 107.297682 32:32:32:32:32:32 3dBm Nov 19, 2018 23:01:08.941170000 +07
 1156 107.463504 32:32:32:32:32:32 10dBm Nov 19, 2018 23:01:09.106992000 +07
 1157 107.693541 32:32:32:32:32:32 9dBm Nov 19, 2018 23:01:09.337029000 +07
 1158 107.749630 32:32:32:32:32:32 8dBm Nov 19, 2018 23:01:09.393118000 +07
 1159 107.799290 32:32:32:32:32:32 8dBm Nov 19, 2018 23:01:09.442778000 +07
 1160 107.817147 32:32:32:32:32:32 9dBm Nov 19, 2018 23:01:09.460635000 +07
 1161 107.866909 32:32:32:32:32:32 8dBm Nov 19, 2018 23:01:09.510397000 +07
 1162 107.888709 32:32:32:32:32:32 8dBm Nov 19, 2018 23:01:09.532197000 +07
 1163 107.921972 32:32:32:32:32:32 8dBm Nov 19, 2018 23:01:09.565460000 +07
 1164 107.983570 32:32:32:32:32:32 7dBm Nov 19, 2018 23:01:09.627058000 +07
 1165 108.021023 32:32:32:32:32:32 8dBm Nov 19, 2018 23:01:09.664511000 +07
 1166 108.051516 32:32:32:32:32:32 9dBm Nov 19, 2018 23:01:09.695004000 +07
 1167 108.104326 32:32:32:32:32:32 9dBm Nov 19, 2018 23:01:09.747814000 +07
 1168 108.294253 32:32:32:32:32:32 9dBm Nov 19, 2018 23:01:09.937741000 +07
 1169 108.315200 32:32:32:32:32:32 8dBm Nov 19, 2018 23:01:09.958688000 +07
 1170 108.565275 32:32:32:32:32:32 9dBm Nov 19, 2018 23:01:10.208763000 +07
 1171 108.592100 32:32:32:32:32:32 9dBm Nov 19, 2018 23:01:10.235588000 +07
 1172 108.623209 32:32:32:32:32:32 8dBm Nov 19, 2018 23:01:10.266697000 +07
 1173 108.713557 32:32:32:32:32:32 8dBm Nov 19, 2018 23:01:10.357045000 +07
 1174 108.790508 32:32:32:32:32:32 7dBm Nov 19, 2018 23:01:10.433996000 +07
 1175 108.842979 32:32:32:32:32:32 9dBm Nov 19, 2018 23:01:10.486467000 +07
 1176 108.864645 32:32:32:32:32:32 8dBm Nov 19, 2018 23:01:10.508133000 +07
 1177 108.889428 32:32:32:32:32:32 9dBm Nov 19, 2018 23:01:10.532916000 +07
 1178 109.004099 32:32:32:32:32:32 7dBm Nov 19, 2018 23:01:10.647587000 +07
 1179 109.069688 32:32:32:32:32:32 9dBm Nov 19, 2018 23:01:10.713176000 +07
 1180 109.077335 32:32:32:32:32:32 9dBm Nov 19, 2018 23:01:10.720823000 +07
 1181 109.101190 32:32:32:32:32:32 9dBm Nov 19, 2018 23:01:10.744678000 +07
 1182 109.345746 32:32:32:32:32:32 9dBm Nov 19, 2018 23:01:10.989234000 +07
 1183 109.397970 32:32:32:32:32:32 7dBm Nov 19, 2018 23:01:11.041458000 +07
 1184 109.602643 32:32:32:32:32:32 9dBm Nov 19, 2018 23:01:11.246131000 +07
 1185 109.646002 32:32:32:32:32:32 6dBm Nov 19, 2018 23:01:11.289490000 +07
 1186 109.679358 32:32:32:32:32:32 7dBm Nov 19, 2018 23:01:11.322846000 +07
 1187 109.893621 32:32:32:32:32:32 8dBm Nov 19, 2018 23:01:11.537109000 +07
 1188 109.904430 32:32:32:32:32:32 8dBm Nov 19, 2018 23:01:11.547918000 +07
 1189 110.026673 32:32:32:32:32:32 8dBm Nov 19, 2018 23:01:11.670161000 +07
 1190 110.183582 32:32:32:32:32:32 9dBm Nov 19, 2018 23:01:11.827070000 +07
 1191 110.240251 32:32:32:32:32:32 10dBm Nov 19, 2018 23:01:11.883739000 +07
 1192 110.250953 32:32:32:32:32:32 8dBm Nov 19, 2018 23:01:11.894441000 +07
 1193 110.295326 32:32:32:32:32:32 10dBm Nov 19, 2018 23:01:11.938814000 +07
 1194 110.356461 32:32:32:32:32:32 9dBm Nov 19, 2018 23:01:11.999949000 +07
 1195 110.392736 32:32:32:32:32:32 7dBm Nov 19, 2018 23:01:12.036224000 +07
 1196 110.410115 32:32:32:32:32:32 8dBm Nov 19, 2018 23:01:12.053603000 +07
 1197 110.431004 32:32:32:32:32:32 7dBm Nov 19, 2018 23:01:12.074492000 +07
 1198 110.484993 32:32:32:32:32:32 9dBm Nov 19, 2018 23:01:12.128481000 +07
 1199 110.497538 32:32:32:32:32:32 9dBm Nov 19, 2018 23:01:12.141026000 +07
 1200 110.540976 32:32:32:32:32:32 7dBm Nov 19, 2018 23:01:12.184464000 +07
 1201 110.592030 32:32:32:32:32:32 9dBm Nov 19, 2018 23:01:12.235518000 +07
 1202 110.771170 32:32:32:32:32:32 7dBm Nov 19, 2018 23:01:12.414658000 +07
 1203 110.883403 32:32:32:32:32:32 9dBm Nov 19, 2018 23:01:12.526891000 +07
 1204 110.969258 32:32:32:32:32:32 9dBm Nov 19, 2018 23:01:12.612746000 +07
 1205 111.004125 32:32:32:32:32:32 8dBm Nov 19, 2018 23:01:12.647613000 +07
 1206 111.046913 32:32:32:32:32:32 8dBm Nov 19, 2018 23:01:12.690401000 +07
 1207 111.062571 32:32:32:32:32:32 8dBm Nov 19, 2018 23:01:12.706059000 +07
 1208 111.219539 32:32:32:32:32:32 9dBm Nov 19, 2018 23:01:12.863027000 +07
 1209 111.268258 32:32:32:32:32:32 9dBm Nov 19, 2018 23:01:12.911746000 +07
 1210 111.409152 32:32:32:32:32:32 6dBm Nov 19, 2018 23:01:13.052640000 +07
 1211 111.425556 32:32:32:32:32:32 9dBm Nov 19, 2018 23:01:13.069044000 +07
 1212 111.588991 32:32:32:32:32:32 9dBm Nov 19, 2018 23:01:13.232479000 +07
 1213 111.694582 32:32:32:32:32:32 9dBm Nov 19, 2018 23:01:13.338070000 +07
 1214 111.837069 32:32:32:32:32:32 9dBm Nov 19, 2018 23:01:13.480557000 +07
 1215 111.886313 32:32:32:32:32:32 9dBm Nov 19, 2018 23:01:13.529801000 +07
 1216 111.979759 32:32:32:32:32:32 9dBm Nov 19, 2018 23:01:13.623247000 +07
 1217 112.013341 32:32:32:32:32:32 8dBm Nov 19, 2018 23:01:13.656829000 +07
 1218 112.024625 32:32:32:32:32:32 7dBm Nov 19, 2018 23:01:13.668113000 +07
 1219 112.061238 32:32:32:32:32:32 9dBm Nov 19, 2018 23:01:13.704726000 +07
 1220 112.108689 32:32:32:32:32:32 8dBm Nov 19, 2018 23:01:13.752177000 +07
 1221 112.290937 32:32:32:32:32:32 9dBm Nov 19, 2018 23:01:13.934425000 +07
 1222 112.307218 32:32:32:32:32:32 8dBm Nov 19, 2018 23:01:13.950706000 +07
 1223 112.372918 32:32:32:32:32:32 9dBm Nov 19, 2018 23:01:14.016406000 +07
 1224 112.389451 32:32:32:32:32:32 8dBm Nov 19, 2018 23:01:14.032939000 +07
 1225 112.411818 32:32:32:32:32:32 8dBm Nov 19, 2018 23:01:14.055306000 +07
 1226 112.767315 32:32:32:32:32:32 10dBm Nov 19, 2018 23:01:14.410803000 +07
 1227 112.816816 32:32:32:32:32:32 10dBm Nov 19, 2018 23:01:14.460304000 +07
 1228 112.857416 32:32:32:32:32:32 7dBm Nov 19, 2018 23:01:14.500904000 +07
 1229 112.994092 32:32:32:32:32:32 10dBm Nov 19, 2018 23:01:14.637580000 +07
 1230 113.262368 32:32:32:32:32:32 7dBm Nov 19, 2018 23:01:14.905856000 +07
 1231 113.503586 32:32:32:32:32:32 11dBm Nov 19, 2018 23:01:15.147074000 +07
 1232 113.610277 32:32:32:32:32:32 9dBm Nov 19, 2018 23:01:15.253765000 +07
 1233 113.667801 32:32:32:32:32:32 7dBm Nov 19, 2018 23:01:15.311289000 +07
 1234 113.689746 32:32:32:32:32:32 7dBm Nov 19, 2018 23:01:15.333234000 +07
 1235 113.707459 32:32:32:32:32:32 8dBm Nov 19, 2018 23:01:15.350947000 +07
 1236 113.729438 32:32:32:32:32:32 8dBm Nov 19, 2018 23:01:15.372926000 +07
 1237 113.940221 32:32:32:32:32:32 9dBm Nov 19, 2018 23:01:15.583709000 +07
 1238 114.034391 32:32:32:32:32:32 8dBm Nov 19, 2018 23:01:15.677879000 +07
