    1   0.000000 32:32:32:32:32:32 6dBm Nov 19, 2018 23:02:29.745594000 +07
    2   0.242022 32:32:32:32:32:32 7dBm Nov 19, 2018 23:02:29.987616000 +07
    3   0.257006 32:32:32:32:32:32 4dBm Nov 19, 2018 23:02:30.002600000 +07
    4   0.378222 32:32:32:32:32:32 6dBm Nov 19, 2018 23:02:30.123816000 +07
    5   0.416111 32:32:32:32:32:32 6dBm Nov 19, 2018 23:02:30.161705000 +07
    6   0.590508 32:32:32:32:32:32 4dBm Nov 19, 2018 23:02:30.336102000 +07
    7   0.702467 32:32:32:32:32:32 6dBm Nov 19, 2018 23:02:30.448061000 +07
    8   0.795786 32:32:32:32:32:32 7dBm Nov 19, 2018 23:02:30.541380000 +07
    9   0.811294 32:32:32:32:32:32 7dBm Nov 19, 2018 23:02:30.556888000 +07
   10   0.841079 32:32:32:32:32:32 6dBm Nov 19, 2018 23:02:30.586673000 +07
   11   0.860269 32:32:32:32:32:32 6dBm Nov 19, 2018 23:02:30.605863000 +07
   12   1.101050 32:32:32:32:32:32 6dBm Nov 19, 2018 23:02:30.846644000 +07
   13   1.474608 32:32:32:32:32:32 6dBm Nov 19, 2018 23:02:31.220202000 +07
   14   1.601661 32:32:32:32:32:32 2dBm Nov 19, 2018 23:02:31.347255000 +07
   15   1.779878 32:32:32:32:32:32 5dBm Nov 19, 2018 23:02:31.525472000 +07
   16   1.847550 32:32:32:32:32:32 5dBm Nov 19, 2018 23:02:31.593144000 +07
   17   1.947053 32:32:32:32:32:32 5dBm Nov 19, 2018 23:02:31.692647000 +07
   18   2.155037 32:32:32:32:32:32 6dBm Nov 19, 2018 23:02:31.900631000 +07
   19   2.600929 32:32:32:32:32:32 5dBm Nov 19, 2018 23:02:32.346523000 +07
   20   2.677894 32:32:32:32:32:32 6dBm Nov 19, 2018 23:02:32.423488000 +07
   21   2.741030 32:32:32:32:32:32 5dBm Nov 19, 2018 23:02:32.486624000 +07
   22   2.792388 32:32:32:32:32:32 6dBm Nov 19, 2018 23:02:32.537982000 +07
   23   2.948520 32:32:32:32:32:32 4dBm Nov 19, 2018 23:02:32.694114000 +07
   24   3.054523 32:32:32:32:32:32 7dBm Nov 19, 2018 23:02:32.800117000 +07
   25   3.182332 32:32:32:32:32:32 6dBm Nov 19, 2018 23:02:32.927926000 +07
   26   3.674034 32:32:32:32:32:32 5dBm Nov 19, 2018 23:02:33.419628000 +07
   27   3.827571 32:32:32:32:32:32 6dBm Nov 19, 2018 23:02:33.573165000 +07
   28   3.846820 32:32:32:32:32:32 5dBm Nov 19, 2018 23:02:33.592414000 +07
   29   4.044510 32:32:32:32:32:32 5dBm Nov 19, 2018 23:02:33.790104000 +07
   30   4.200244 32:32:32:32:32:32 4dBm Nov 19, 2018 23:02:33.945838000 +07
   31   4.559334 32:32:32:32:32:32 6dBm Nov 19, 2018 23:02:34.304928000 +07
   32   4.621769 32:32:32:32:32:32 6dBm Nov 19, 2018 23:02:34.367363000 +07
   33   4.804091 32:32:32:32:32:32 5dBm Nov 19, 2018 23:02:34.549685000 +07
   34   5.130364 32:32:32:32:32:32 5dBm Nov 19, 2018 23:02:34.875958000 +07
   35   5.236440 32:32:32:32:32:32 5dBm Nov 19, 2018 23:02:34.982034000 +07
   36   5.284861 32:32:32:32:32:32 6dBm Nov 19, 2018 23:02:35.030455000 +07
   37   5.442037 32:32:32:32:32:32 5dBm Nov 19, 2018 23:02:35.187631000 +07
   38   5.556240 32:32:32:32:32:32 7dBm Nov 19, 2018 23:02:35.301834000 +07
   39   5.756509 32:32:32:32:32:32 6dBm Nov 19, 2018 23:02:35.502103000 +07
   40   5.931394 32:32:32:32:32:32 3dBm Nov 19, 2018 23:02:35.676988000 +07
   41   6.000425 32:32:32:32:32:32 4dBm Nov 19, 2018 23:02:35.746019000 +07
   42   6.177633 32:32:32:32:32:32 7dBm Nov 19, 2018 23:02:35.923227000 +07
   43   6.381760 32:32:32:32:32:32 6dBm Nov 19, 2018 23:02:36.127354000 +07
   44   6.405986 32:32:32:32:32:32 7dBm Nov 19, 2018 23:02:36.151580000 +07
   45   6.489177 32:32:32:32:32:32 6dBm Nov 19, 2018 23:02:36.234771000 +07
   46   6.598609 32:32:32:32:32:32 5dBm Nov 19, 2018 23:02:36.344203000 +07
   47   6.722663 32:32:32:32:32:32 6dBm Nov 19, 2018 23:02:36.468257000 +07
   48   6.833653 32:32:32:32:32:32 6dBm Nov 19, 2018 23:02:36.579247000 +07
   49   6.985764 32:32:32:32:32:32 5dBm Nov 19, 2018 23:02:36.731358000 +07
   50   7.040563 32:32:32:32:32:32 5dBm Nov 19, 2018 23:02:36.786157000 +07
   51   7.126264 32:32:32:32:32:32 5dBm Nov 19, 2018 23:02:36.871858000 +07
   52   7.149113 32:32:32:32:32:32 6dBm Nov 19, 2018 23:02:36.894707000 +07
   53   7.397233 32:32:32:32:32:32 6dBm Nov 19, 2018 23:02:37.142827000 +07
   54   7.527129 32:32:32:32:32:32 5dBm Nov 19, 2018 23:02:37.272723000 +07
   55   7.664158 32:32:32:32:32:32 7dBm Nov 19, 2018 23:02:37.409752000 +07
   56   7.726388 32:32:32:32:32:32 3dBm Nov 19, 2018 23:02:37.471982000 +07
   57   7.755095 32:32:32:32:32:32 5dBm Nov 19, 2018 23:02:37.500689000 +07
   58   8.288969 32:32:32:32:32:32 3dBm Nov 19, 2018 23:02:38.034563000 +07
   59   8.481360 32:32:32:32:32:32 6dBm Nov 19, 2018 23:02:38.226954000 +07
   60   8.899294 32:32:32:32:32:32 7dBm Nov 19, 2018 23:02:38.644888000 +07
   61   9.247107 32:32:32:32:32:32 6dBm Nov 19, 2018 23:02:38.992701000 +07
   62   9.444734 32:32:32:32:32:32 6dBm Nov 19, 2018 23:02:39.190328000 +07
   63   9.685912 32:32:32:32:32:32 5dBm Nov 19, 2018 23:02:39.431506000 +07
   64   9.718338 32:32:32:32:32:32 6dBm Nov 19, 2018 23:02:39.463932000 +07
   65   9.767331 32:32:32:32:32:32 5dBm Nov 19, 2018 23:02:39.512925000 +07
   66   9.878846 32:32:32:32:32:32 6dBm Nov 19, 2018 23:02:39.624440000 +07
   67   9.956346 32:32:32:32:32:32 7dBm Nov 19, 2018 23:02:39.701940000 +07
   68   9.981313 32:32:32:32:32:32 4dBm Nov 19, 2018 23:02:39.726907000 +07
   69  10.142179 32:32:32:32:32:32 6dBm Nov 19, 2018 23:02:39.887773000 +07
   70  10.564330 32:32:32:32:32:32 4dBm Nov 19, 2018 23:02:40.309924000 +07
   71  10.624900 32:32:32:32:32:32 5dBm Nov 19, 2018 23:02:40.370494000 +07
   72  10.716907 32:32:32:32:32:32 6dBm Nov 19, 2018 23:02:40.462501000 +07
   73  10.796971 32:32:32:32:32:32 6dBm Nov 19, 2018 23:02:40.542565000 +07
   74  10.902528 32:32:32:32:32:32 6dBm Nov 19, 2018 23:02:40.648122000 +07
   75  10.934314 32:32:32:32:32:32 7dBm Nov 19, 2018 23:02:40.679908000 +07
   76  11.110379 32:32:32:32:32:32 5dBm Nov 19, 2018 23:02:40.855973000 +07
   77  11.201840 32:32:32:32:32:32 6dBm Nov 19, 2018 23:02:40.947434000 +07
   78  11.551723 32:32:32:32:32:32 6dBm Nov 19, 2018 23:02:41.297317000 +07
   79  11.611947 32:32:32:32:32:32 6dBm Nov 19, 2018 23:02:41.357541000 +07
   80  11.679090 32:32:32:32:32:32 5dBm Nov 19, 2018 23:02:41.424684000 +07
   81  11.777589 32:32:32:32:32:32 6dBm Nov 19, 2018 23:02:41.523183000 +07
   82  11.804363 32:32:32:32:32:32 6dBm Nov 19, 2018 23:02:41.549957000 +07
   83  12.009046 32:32:32:32:32:32 6dBm Nov 19, 2018 23:02:41.754640000 +07
   84  12.024172 32:32:32:32:32:32 5dBm Nov 19, 2018 23:02:41.769766000 +07
   85  12.150959 32:32:32:32:32:32 3dBm Nov 19, 2018 23:02:41.896553000 +07
   86  12.216344 32:32:32:32:32:32 6dBm Nov 19, 2018 23:02:41.961938000 +07
   87  12.274716 32:32:32:32:32:32 5dBm Nov 19, 2018 23:02:42.020310000 +07
   88  12.315699 32:32:32:32:32:32 6dBm Nov 19, 2018 23:02:42.061293000 +07
   89  12.509758 32:32:32:32:32:32 6dBm Nov 19, 2018 23:02:42.255352000 +07
   90  12.575452 32:32:32:32:32:32 6dBm Nov 19, 2018 23:02:42.321046000 +07
   91  12.597535 32:32:32:32:32:32 7dBm Nov 19, 2018 23:02:42.343129000 +07
   92  12.819766 32:32:32:32:32:32 6dBm Nov 19, 2018 23:02:42.565360000 +07
   93  13.062061 32:32:32:32:32:32 4dBm Nov 19, 2018 23:02:42.807655000 +07
   94  13.084668 32:32:32:32:32:32 5dBm Nov 19, 2018 23:02:42.830262000 +07
   95  13.138125 32:32:32:32:32:32 7dBm Nov 19, 2018 23:02:42.883719000 +07
   96  13.166908 32:32:32:32:32:32 5dBm Nov 19, 2018 23:02:42.912502000 +07
   97  13.298302 32:32:32:32:32:32 6dBm Nov 19, 2018 23:02:43.043896000 +07
   98  13.321575 32:32:32:32:32:32 5dBm Nov 19, 2018 23:02:43.067169000 +07
   99  13.878229 32:32:32:32:32:32 6dBm Nov 19, 2018 23:02:43.623823000 +07
  100  13.887851 32:32:32:32:32:32 6dBm Nov 19, 2018 23:02:43.633445000 +07
  101  14.032626 32:32:32:32:32:32 5dBm Nov 19, 2018 23:02:43.778220000 +07
  102  14.062743 32:32:32:32:32:32 6dBm Nov 19, 2018 23:02:43.808337000 +07
  103  14.097122 32:32:32:32:32:32 6dBm Nov 19, 2018 23:02:43.842716000 +07
  104  14.115539 32:32:32:32:32:32 5dBm Nov 19, 2018 23:02:43.861133000 +07
  105  14.168047 32:32:32:32:32:32 5dBm Nov 19, 2018 23:02:43.913641000 +07
  106  14.180828 32:32:32:32:32:32 6dBm Nov 19, 2018 23:02:43.926422000 +07
  107  14.283062 32:32:32:32:32:32 6dBm Nov 19, 2018 23:02:44.028656000 +07
  108  14.324668 32:32:32:32:32:32 6dBm Nov 19, 2018 23:02:44.070262000 +07
  109  14.368613 32:32:32:32:32:32 5dBm Nov 19, 2018 23:02:44.114207000 +07
  110  14.429395 32:32:32:32:32:32 5dBm Nov 19, 2018 23:02:44.174989000 +07
  111  14.638265 32:32:32:32:32:32 5dBm Nov 19, 2018 23:02:44.383859000 +07
  112  14.877607 32:32:32:32:32:32 4dBm Nov 19, 2018 23:02:44.623201000 +07
  113  14.916800 32:32:32:32:32:32 5dBm Nov 19, 2018 23:02:44.662394000 +07
  114  14.937413 32:32:32:32:32:32 4dBm Nov 19, 2018 23:02:44.683007000 +07
  115  15.110258 32:32:32:32:32:32 4dBm Nov 19, 2018 23:02:44.855852000 +07
  116  15.187527 32:32:32:32:32:32 7dBm Nov 19, 2018 23:02:44.933121000 +07
  117  15.286223 32:32:32:32:32:32 5dBm Nov 19, 2018 23:02:45.031817000 +07
  118  15.621707 32:32:32:32:32:32 5dBm Nov 19, 2018 23:02:45.367301000 +07
  119  15.643810 32:32:32:32:32:32 7dBm Nov 19, 2018 23:02:45.389404000 +07
  120  15.804660 32:32:32:32:32:32 3dBm Nov 19, 2018 23:02:45.550254000 +07
  121  15.850421 32:32:32:32:32:32 5dBm Nov 19, 2018 23:02:45.596015000 +07
  122  16.003193 32:32:32:32:32:32 5dBm Nov 19, 2018 23:02:45.748787000 +07
  123  16.054916 32:32:32:32:32:32 6dBm Nov 19, 2018 23:02:45.800510000 +07
  124  16.614341 32:32:32:32:32:32 4dBm Nov 19, 2018 23:02:46.359935000 +07
  125  16.654945 32:32:32:32:32:32 5dBm Nov 19, 2018 23:02:46.400539000 +07
  126  16.691964 32:32:32:32:32:32 5dBm Nov 19, 2018 23:02:46.437558000 +07
  127  16.843464 32:32:32:32:32:32 4dBm Nov 19, 2018 23:02:46.589058000 +07
  128  16.926247 32:32:32:32:32:32 7dBm Nov 19, 2018 23:02:46.671841000 +07
  129  17.101393 32:32:32:32:32:32 6dBm Nov 19, 2018 23:02:46.846987000 +07
  130  17.169450 32:32:32:32:32:32 5dBm Nov 19, 2018 23:02:46.915044000 +07
  131  17.177676 32:32:32:32:32:32 6dBm Nov 19, 2018 23:02:46.923270000 +07
  132  17.241590 32:32:32:32:32:32 5dBm Nov 19, 2018 23:02:46.987184000 +07
  133  17.443513 32:32:32:32:32:32 5dBm Nov 19, 2018 23:02:47.189107000 +07
  134  17.521803 32:32:32:32:32:32 6dBm Nov 19, 2018 23:02:47.267397000 +07
  135  17.541434 32:32:32:32:32:32 5dBm Nov 19, 2018 23:02:47.287028000 +07
  136  17.658024 32:32:32:32:32:32 6dBm Nov 19, 2018 23:02:47.403618000 +07
  137  17.800572 32:32:32:32:32:32 6dBm Nov 19, 2018 23:02:47.546166000 +07
  138  17.851722 32:32:32:32:32:32 4dBm Nov 19, 2018 23:02:47.597316000 +07
  139  17.881993 32:32:32:32:32:32 4dBm Nov 19, 2018 23:02:47.627587000 +07
  140  18.123658 32:32:32:32:32:32 4dBm Nov 19, 2018 23:02:47.869252000 +07
  141  18.159552 32:32:32:32:32:32 4dBm Nov 19, 2018 23:02:47.905146000 +07
  142  18.391971 32:32:32:32:32:32 5dBm Nov 19, 2018 23:02:48.137565000 +07
  143  18.454220 32:32:32:32:32:32 4dBm Nov 19, 2018 23:02:48.199814000 +07
  144  18.454997 32:32:32:32:32:32 6dBm Nov 19, 2018 23:02:48.200591000 +07
  145  18.572375 32:32:32:32:32:32 4dBm Nov 19, 2018 23:02:48.317969000 +07
  146  18.771645 32:32:32:32:32:32 4dBm Nov 19, 2018 23:02:48.517239000 +07
  147  18.792367 32:32:32:32:32:32 5dBm Nov 19, 2018 23:02:48.537961000 +07
  148  18.836903 32:32:32:32:32:32 2dBm Nov 19, 2018 23:02:48.582497000 +07
  149  18.874789 32:32:32:32:32:32 6dBm Nov 19, 2018 23:02:48.620383000 +07
  150  18.993775 32:32:32:32:32:32 5dBm Nov 19, 2018 23:02:48.739369000 +07
  151  19.055286 32:32:32:32:32:32 5dBm Nov 19, 2018 23:02:48.800880000 +07
  152  19.293175 32:32:32:32:32:32 7dBm Nov 19, 2018 23:02:49.038769000 +07
  153  19.761808 32:32:32:32:32:32 4dBm Nov 19, 2018 23:02:49.507402000 +07
  154  19.803925 32:32:32:32:32:32 4dBm Nov 19, 2018 23:02:49.549519000 +07
  155  19.833245 32:32:32:32:32:32 6dBm Nov 19, 2018 23:02:49.578839000 +07
  156  19.842581 32:32:32:32:32:32 5dBm Nov 19, 2018 23:02:49.588175000 +07
  157  19.938793 32:32:32:32:32:32 5dBm Nov 19, 2018 23:02:49.684387000 +07
  158  20.023286 32:32:32:32:32:32 6dBm Nov 19, 2018 23:02:49.768880000 +07
  159  20.133322 32:32:32:32:32:32 5dBm Nov 19, 2018 23:02:49.878916000 +07
  160  20.223168 32:32:32:32:32:32 5dBm Nov 19, 2018 23:02:49.968762000 +07
  161  20.459148 32:32:32:32:32:32 7dBm Nov 19, 2018 23:02:50.204742000 +07
  162  20.540670 32:32:32:32:32:32 3dBm Nov 19, 2018 23:02:50.286264000 +07
  163  20.727391 32:32:32:32:32:32 6dBm Nov 19, 2018 23:02:50.472985000 +07
  164  20.763089 32:32:32:32:32:32 5dBm Nov 19, 2018 23:02:50.508683000 +07
  165  21.011777 32:32:32:32:32:32 6dBm Nov 19, 2018 23:02:50.757371000 +07
  166  21.316205 32:32:32:32:32:32 5dBm Nov 19, 2018 23:02:51.061799000 +07
  167  21.455286 32:32:32:32:32:32 4dBm Nov 19, 2018 23:02:51.200880000 +07
  168  21.581090 32:32:32:32:32:32 4dBm Nov 19, 2018 23:02:51.326684000 +07
  169  21.609572 32:32:32:32:32:32 6dBm Nov 19, 2018 23:02:51.355166000 +07
  170  21.633359 32:32:32:32:32:32 4dBm Nov 19, 2018 23:02:51.378953000 +07
  171  22.078615 32:32:32:32:32:32 7dBm Nov 19, 2018 23:02:51.824209000 +07
  172  22.622298 32:32:32:32:32:32 5dBm Nov 19, 2018 23:02:52.367892000 +07
  173  22.669666 32:32:32:32:32:32 6dBm Nov 19, 2018 23:02:52.415260000 +07
  174  22.767212 32:32:32:32:32:32 4dBm Nov 19, 2018 23:02:52.512806000 +07
  175  22.818740 32:32:32:32:32:32 5dBm Nov 19, 2018 23:02:52.564334000 +07
  176  23.056657 32:32:32:32:32:32 6dBm Nov 19, 2018 23:02:52.802251000 +07
  177  23.274385 32:32:32:32:32:32 4dBm Nov 19, 2018 23:02:53.019979000 +07
  178  23.554482 32:32:32:32:32:32 7dBm Nov 19, 2018 23:02:53.300076000 +07
  179  23.769854 32:32:32:32:32:32 5dBm Nov 19, 2018 23:02:53.515448000 +07
  180  23.819816 32:32:32:32:32:32 6dBm Nov 19, 2018 23:02:53.565410000 +07
  181  24.022743 32:32:32:32:32:32 6dBm Nov 19, 2018 23:02:53.768337000 +07
  182  24.486023 32:32:32:32:32:32 7dBm Nov 19, 2018 23:02:54.231617000 +07
  183  24.613401 32:32:32:32:32:32 6dBm Nov 19, 2018 23:02:54.358995000 +07
  184  25.041154 32:32:32:32:32:32 5dBm Nov 19, 2018 23:02:54.786748000 +07
  185  25.067323 32:32:32:32:32:32 4dBm Nov 19, 2018 23:02:54.812917000 +07
  186  25.212292 32:32:32:32:32:32 7dBm Nov 19, 2018 23:02:54.957886000 +07
  187  25.230810 32:32:32:32:32:32 4dBm Nov 19, 2018 23:02:54.976404000 +07
  188  25.378304 32:32:32:32:32:32 6dBm Nov 19, 2018 23:02:55.123898000 +07
  189  25.405617 32:32:32:32:32:32 6dBm Nov 19, 2018 23:02:55.151211000 +07
  190  25.422225 32:32:32:32:32:32 6dBm Nov 19, 2018 23:02:55.167819000 +07
  191  25.482384 32:32:32:32:32:32 5dBm Nov 19, 2018 23:02:55.227978000 +07
  192  25.501178 32:32:32:32:32:32 7dBm Nov 19, 2018 23:02:55.246772000 +07
  193  25.694818 32:32:32:32:32:32 5dBm Nov 19, 2018 23:02:55.440412000 +07
  194  25.711477 32:32:32:32:32:32 5dBm Nov 19, 2018 23:02:55.457071000 +07
  195  25.825626 32:32:32:32:32:32 6dBm Nov 19, 2018 23:02:55.571220000 +07
  196  26.188438 32:32:32:32:32:32 5dBm Nov 19, 2018 23:02:55.934032000 +07
  197  26.262956 32:32:32:32:32:32 3dBm Nov 19, 2018 23:02:56.008550000 +07
  198  26.531363 32:32:32:32:32:32 5dBm Nov 19, 2018 23:02:56.276957000 +07
  199  26.572729 32:32:32:32:32:32 5dBm Nov 19, 2018 23:02:56.318323000 +07
  200  26.586942 32:32:32:32:32:32 7dBm Nov 19, 2018 23:02:56.332536000 +07
  201  26.627832 32:32:32:32:32:32 6dBm Nov 19, 2018 23:02:56.373426000 +07
  202  26.662718 32:32:32:32:32:32 3dBm Nov 19, 2018 23:02:56.408312000 +07
  203  27.115627 32:32:32:32:32:32 7dBm Nov 19, 2018 23:02:56.861221000 +07
  204  27.493163 32:32:32:32:32:32 5dBm Nov 19, 2018 23:02:57.238757000 +07
  205  27.515224 32:32:32:32:32:32 5dBm Nov 19, 2018 23:02:57.260818000 +07
  206  27.559627 32:32:32:32:32:32 5dBm Nov 19, 2018 23:02:57.305221000 +07
  207  28.062296 32:32:32:32:32:32 2dBm Nov 19, 2018 23:02:57.807890000 +07
  208  28.081893 32:32:32:32:32:32 6dBm Nov 19, 2018 23:02:57.827487000 +07
  209  28.218822 32:32:32:32:32:32 3dBm Nov 19, 2018 23:02:57.964416000 +07
  210  28.354554 32:32:32:32:32:32 6dBm Nov 19, 2018 23:02:58.100148000 +07
  211  28.430297 32:32:32:32:32:32 4dBm Nov 19, 2018 23:02:58.175891000 +07
  212  28.476358 32:32:32:32:32:32 5dBm Nov 19, 2018 23:02:58.221952000 +07
  213  28.529760 32:32:32:32:32:32 4dBm Nov 19, 2018 23:02:58.275354000 +07
  214  28.852211 32:32:32:32:32:32 5dBm Nov 19, 2018 23:02:58.597805000 +07
  215  28.983499 32:32:32:32:32:32 3dBm Nov 19, 2018 23:02:58.729093000 +07
  216  29.093201 32:32:32:32:32:32 5dBm Nov 19, 2018 23:02:58.838795000 +07
  217  29.151270 32:32:32:32:32:32 6dBm Nov 19, 2018 23:02:58.896864000 +07
  218  29.237605 32:32:32:32:32:32 6dBm Nov 19, 2018 23:02:58.983199000 +07
  219  29.502336 32:32:32:32:32:32 7dBm Nov 19, 2018 23:02:59.247930000 +07
  220  29.635641 32:32:32:32:32:32 5dBm Nov 19, 2018 23:02:59.381235000 +07
  221  29.805610 32:32:32:32:32:32 5dBm Nov 19, 2018 23:02:59.551204000 +07
  222  29.853473 32:32:32:32:32:32 5dBm Nov 19, 2018 23:02:59.599067000 +07
  223  29.902198 32:32:32:32:32:32 5dBm Nov 19, 2018 23:02:59.647792000 +07
  224  30.194062 32:32:32:32:32:32 4dBm Nov 19, 2018 23:02:59.939656000 +07
  225  30.401758 32:32:32:32:32:32 6dBm Nov 19, 2018 23:03:00.147352000 +07
  226  30.455253 32:32:32:32:32:32 5dBm Nov 19, 2018 23:03:00.200847000 +07
  227  30.595278 32:32:32:32:32:32 6dBm Nov 19, 2018 23:03:00.340872000 +07
  228  30.954374 32:32:32:32:32:32 5dBm Nov 19, 2018 23:03:00.699968000 +07
  229  31.107206 32:32:32:32:32:32 4dBm Nov 19, 2018 23:03:00.852800000 +07
  230  31.123684 32:32:32:32:32:32 6dBm Nov 19, 2018 23:03:00.869278000 +07
  231  31.178547 32:32:32:32:32:32 5dBm Nov 19, 2018 23:03:00.924141000 +07
  232  31.270001 32:32:32:32:32:32 6dBm Nov 19, 2018 23:03:01.015595000 +07
  233  31.475690 32:32:32:32:32:32 5dBm Nov 19, 2018 23:03:01.221284000 +07
  234  31.487473 32:32:32:32:32:32 3dBm Nov 19, 2018 23:03:01.233067000 +07
  235  31.505431 32:32:32:32:32:32 3dBm Nov 19, 2018 23:03:01.251025000 +07
  236  31.696893 32:32:32:32:32:32 7dBm Nov 19, 2018 23:03:01.442487000 +07
  237  32.026900 32:32:32:32:32:32 5dBm Nov 19, 2018 23:03:01.772494000 +07
  238  32.134428 32:32:32:32:32:32 1dBm Nov 19, 2018 23:03:01.880022000 +07
  239  32.438446 32:32:32:32:32:32 5dBm Nov 19, 2018 23:03:02.184040000 +07
  240  32.540475 32:32:32:32:32:32 6dBm Nov 19, 2018 23:03:02.286069000 +07
  241  32.602708 32:32:32:32:32:32 2dBm Nov 19, 2018 23:03:02.348302000 +07
  242  32.617131 32:32:32:32:32:32 5dBm Nov 19, 2018 23:03:02.362725000 +07
  243  33.418667 32:32:32:32:32:32 4dBm Nov 19, 2018 23:03:03.164261000 +07
  244  33.559921 32:32:32:32:32:32 3dBm Nov 19, 2018 23:03:03.305515000 +07
  245  34.012612 32:32:32:32:32:32 6dBm Nov 19, 2018 23:03:03.758206000 +07
  246  34.213074 32:32:32:32:32:32 6dBm Nov 19, 2018 23:03:03.958668000 +07
  247  34.745331 32:32:32:32:32:32 6dBm Nov 19, 2018 23:03:04.490925000 +07
  248  34.867195 32:32:32:32:32:32 5dBm Nov 19, 2018 23:03:04.612789000 +07
  249  34.923523 32:32:32:32:32:32 6dBm Nov 19, 2018 23:03:04.669117000 +07
  250  34.950493 32:32:32:32:32:32 6dBm Nov 19, 2018 23:03:04.696087000 +07
  251  35.024748 32:32:32:32:32:32 4dBm Nov 19, 2018 23:03:04.770342000 +07
  252  35.319607 32:32:32:32:32:32 7dBm Nov 19, 2018 23:03:05.065201000 +07
  253  35.374271 32:32:32:32:32:32 7dBm Nov 19, 2018 23:03:05.119865000 +07
  254  35.598440 32:32:32:32:32:32 7dBm Nov 19, 2018 23:03:05.344034000 +07
  255  35.670853 32:32:32:32:32:32 6dBm Nov 19, 2018 23:03:05.416447000 +07
  256  35.695717 32:32:32:32:32:32 8dBm Nov 19, 2018 23:03:05.441311000 +07
  257  35.711054 32:32:32:32:32:32 6dBm Nov 19, 2018 23:03:05.456648000 +07
  258  35.810293 32:32:32:32:32:32 7dBm Nov 19, 2018 23:03:05.555887000 +07
  259  35.831222 32:32:32:32:32:32 7dBm Nov 19, 2018 23:03:05.576816000 +07
  260  35.845098 32:32:32:32:32:32 7dBm Nov 19, 2018 23:03:05.590692000 +07
  261  35.929797 32:32:32:32:32:32 7dBm Nov 19, 2018 23:03:05.675391000 +07
  262  36.006190 32:32:32:32:32:32 4dBm Nov 19, 2018 23:03:05.751784000 +07
  263  36.045644 32:32:32:32:32:32 7dBm Nov 19, 2018 23:03:05.791238000 +07
  264  36.078820 32:32:32:32:32:32 5dBm Nov 19, 2018 23:03:05.824414000 +07
  265  36.157014 32:32:32:32:32:32 4dBm Nov 19, 2018 23:03:05.902608000 +07
  266  36.204316 32:32:32:32:32:32 5dBm Nov 19, 2018 23:03:05.949910000 +07
  267  36.274059 32:32:32:32:32:32 4dBm Nov 19, 2018 23:03:06.019653000 +07
  268  36.392437 32:32:32:32:32:32 6dBm Nov 19, 2018 23:03:06.138031000 +07
  269  36.429368 32:32:32:32:32:32 6dBm Nov 19, 2018 23:03:06.174962000 +07
  270  36.457363 32:32:32:32:32:32 6dBm Nov 19, 2018 23:03:06.202957000 +07
  271  36.647430 32:32:32:32:32:32 5dBm Nov 19, 2018 23:03:06.393024000 +07
  272  36.718345 32:32:32:32:32:32 7dBm Nov 19, 2018 23:03:06.463939000 +07
  273  36.741669 32:32:32:32:32:32 4dBm Nov 19, 2018 23:03:06.487263000 +07
  274  36.956903 32:32:32:32:32:32 7dBm Nov 19, 2018 23:03:06.702497000 +07
  275  37.093009 32:32:32:32:32:32 6dBm Nov 19, 2018 23:03:06.838603000 +07
  276  37.153381 32:32:32:32:32:32 7dBm Nov 19, 2018 23:03:06.898975000 +07
  277  37.622223 32:32:32:32:32:32 7dBm Nov 19, 2018 23:03:07.367817000 +07
  278  37.721758 32:32:32:32:32:32 5dBm Nov 19, 2018 23:03:07.467352000 +07
  279  37.913839 32:32:32:32:32:32 4dBm Nov 19, 2018 23:03:07.659433000 +07
  280  38.035316 32:32:32:32:32:32 7dBm Nov 19, 2018 23:03:07.780910000 +07
  281  38.069381 32:32:32:32:32:32 3dBm Nov 19, 2018 23:03:07.814975000 +07
  282  38.092371 32:32:32:32:32:32 4dBm Nov 19, 2018 23:03:07.837965000 +07
  283  38.123656 32:32:32:32:32:32 7dBm Nov 19, 2018 23:03:07.869250000 +07
  284  38.333647 32:32:32:32:32:32 6dBm Nov 19, 2018 23:03:08.079241000 +07
  285  38.370141 32:32:32:32:32:32 6dBm Nov 19, 2018 23:03:08.115735000 +07
  286  38.629282 32:32:32:32:32:32 6dBm Nov 19, 2018 23:03:08.374876000 +07
  287  38.908720 32:32:32:32:32:32 5dBm Nov 19, 2018 23:03:08.654314000 +07
  288  38.929238 32:32:32:32:32:32 6dBm Nov 19, 2018 23:03:08.674832000 +07
  289  39.137489 32:32:32:32:32:32 4dBm Nov 19, 2018 23:03:08.883083000 +07
  290  39.162468 32:32:32:32:32:32 3dBm Nov 19, 2018 23:03:08.908062000 +07
  291  39.224448 32:32:32:32:32:32 5dBm Nov 19, 2018 23:03:08.970042000 +07
  292  39.328648 32:32:32:32:32:32 4dBm Nov 19, 2018 23:03:09.074242000 +07
  293  39.503818 32:32:32:32:32:32 7dBm Nov 19, 2018 23:03:09.249412000 +07
  294  39.551738 32:32:32:32:32:32 5dBm Nov 19, 2018 23:03:09.297332000 +07
  295  39.598683 32:32:32:32:32:32 7dBm Nov 19, 2018 23:03:09.344277000 +07
  296  39.673660 32:32:32:32:32:32 6dBm Nov 19, 2018 23:03:09.419254000 +07
  297  39.892349 32:32:32:32:32:32 6dBm Nov 19, 2018 23:03:09.637943000 +07
  298  39.985186 32:32:32:32:32:32 6dBm Nov 19, 2018 23:03:09.730780000 +07
  299  40.020638 32:32:32:32:32:32 5dBm Nov 19, 2018 23:03:09.766232000 +07
  300  40.025541 32:32:32:32:32:32 5dBm Nov 19, 2018 23:03:09.771135000 +07
  301  40.033301 32:32:32:32:32:32 5dBm Nov 19, 2018 23:03:09.778895000 +07
  302  40.188117 32:32:32:32:32:32 6dBm Nov 19, 2018 23:03:09.933711000 +07
  303  40.217776 32:32:32:32:32:32 7dBm Nov 19, 2018 23:03:09.963370000 +07
  304  40.283537 32:32:32:32:32:32 7dBm Nov 19, 2018 23:03:10.029131000 +07
  305  40.297683 32:32:32:32:32:32 4dBm Nov 19, 2018 23:03:10.043277000 +07
  306  40.394221 32:32:32:32:32:32 6dBm Nov 19, 2018 23:03:10.139815000 +07
  307  40.494878 32:32:32:32:32:32 8dBm Nov 19, 2018 23:03:10.240472000 +07
  308  40.809859 32:32:32:32:32:32 7dBm Nov 19, 2018 23:03:10.555453000 +07
  309  40.840427 32:32:32:32:32:32 6dBm Nov 19, 2018 23:03:10.586021000 +07
  310  40.875678 32:32:32:32:32:32 6dBm Nov 19, 2018 23:03:10.621272000 +07
  311  41.071075 32:32:32:32:32:32 5dBm Nov 19, 2018 23:03:10.816669000 +07
  312  41.133446 32:32:32:32:32:32 5dBm Nov 19, 2018 23:03:10.879040000 +07
  313  41.161332 32:32:32:32:32:32 6dBm Nov 19, 2018 23:03:10.906926000 +07
  314  41.179336 32:32:32:32:32:32 7dBm Nov 19, 2018 23:03:10.924930000 +07
  315  41.255536 32:32:32:32:32:32 6dBm Nov 19, 2018 23:03:11.001130000 +07
  316  41.319304 32:32:32:32:32:32 6dBm Nov 19, 2018 23:03:11.064898000 +07
  317  41.358505 32:32:32:32:32:32 6dBm Nov 19, 2018 23:03:11.104099000 +07
  318  41.377864 32:32:32:32:32:32 7dBm Nov 19, 2018 23:03:11.123458000 +07
  319  41.597432 32:32:32:32:32:32 4dBm Nov 19, 2018 23:03:11.343026000 +07
  320  41.689095 32:32:32:32:32:32 6dBm Nov 19, 2018 23:03:11.434689000 +07
  321  41.798230 32:32:32:32:32:32 5dBm Nov 19, 2018 23:03:11.543824000 +07
  322  41.941976 32:32:32:32:32:32 7dBm Nov 19, 2018 23:03:11.687570000 +07
  323  42.240022 32:32:32:32:32:32 6dBm Nov 19, 2018 23:03:11.985616000 +07
  324  42.671083 32:32:32:32:32:32 5dBm Nov 19, 2018 23:03:12.416677000 +07
  325  42.850127 32:32:32:32:32:32 7dBm Nov 19, 2018 23:03:12.595721000 +07
  326  42.897153 32:32:32:32:32:32 5dBm Nov 19, 2018 23:03:12.642747000 +07
  327  42.962590 32:32:32:32:32:32 3dBm Nov 19, 2018 23:03:12.708184000 +07
  328  43.031400 32:32:32:32:32:32 7dBm Nov 19, 2018 23:03:12.776994000 +07
  329  43.169604 32:32:32:32:32:32 5dBm Nov 19, 2018 23:03:12.915198000 +07
  330  43.223664 32:32:32:32:32:32 7dBm Nov 19, 2018 23:03:12.969258000 +07
  331  43.332767 32:32:32:32:32:32 5dBm Nov 19, 2018 23:03:13.078361000 +07
  332  43.476663 32:32:32:32:32:32 6dBm Nov 19, 2018 23:03:13.222257000 +07
  333  43.616481 32:32:32:32:32:32 5dBm Nov 19, 2018 23:03:13.362075000 +07
  334  43.656941 32:32:32:32:32:32 7dBm Nov 19, 2018 23:03:13.402535000 +07
  335  44.009546 32:32:32:32:32:32 8dBm Nov 19, 2018 23:03:13.755140000 +07
  336  44.025487 32:32:32:32:32:32 6dBm Nov 19, 2018 23:03:13.771081000 +07
  337  44.069165 32:32:32:32:32:32 6dBm Nov 19, 2018 23:03:13.814759000 +07
  338  44.154452 32:32:32:32:32:32 6dBm Nov 19, 2018 23:03:13.900046000 +07
  339  44.172988 32:32:32:32:32:32 7dBm Nov 19, 2018 23:03:13.918582000 +07
  340  44.218573 32:32:32:32:32:32 4dBm Nov 19, 2018 23:03:13.964167000 +07
  341  44.370765 32:32:32:32:32:32 5dBm Nov 19, 2018 23:03:14.116359000 +07
  342  44.478146 32:32:32:32:32:32 6dBm Nov 19, 2018 23:03:14.223740000 +07
  343  44.798289 32:32:32:32:32:32 6dBm Nov 19, 2018 23:03:14.543883000 +07
  344  44.874082 32:32:32:32:32:32 6dBm Nov 19, 2018 23:03:14.619676000 +07
  345  44.956210 32:32:32:32:32:32 6dBm Nov 19, 2018 23:03:14.701804000 +07
  346  45.006699 32:32:32:32:32:32 7dBm Nov 19, 2018 23:03:14.752293000 +07
  347  45.149153 32:32:32:32:32:32 7dBm Nov 19, 2018 23:03:14.894747000 +07
  348  45.267741 32:32:32:32:32:32 7dBm Nov 19, 2018 23:03:15.013335000 +07
  349  45.284132 32:32:32:32:32:32 4dBm Nov 19, 2018 23:03:15.029726000 +07
  350  45.335015 32:32:32:32:32:32 5dBm Nov 19, 2018 23:03:15.080609000 +07
  351  45.459274 32:32:32:32:32:32 6dBm Nov 19, 2018 23:03:15.204868000 +07
  352  45.755326 32:32:32:32:32:32 5dBm Nov 19, 2018 23:03:15.500920000 +07
  353  45.801677 32:32:32:32:32:32 6dBm Nov 19, 2018 23:03:15.547271000 +07
  354  45.811240 32:32:32:32:32:32 7dBm Nov 19, 2018 23:03:15.556834000 +07
  355  45.843988 32:32:32:32:32:32 6dBm Nov 19, 2018 23:03:15.589582000 +07
  356  45.906034 32:32:32:32:32:32 6dBm Nov 19, 2018 23:03:15.651628000 +07
  357  46.041183 32:32:32:32:32:32 5dBm Nov 19, 2018 23:03:15.786777000 +07
  358  46.109730 32:32:32:32:32:32 6dBm Nov 19, 2018 23:03:15.855324000 +07
  359  46.191037 32:32:32:32:32:32 7dBm Nov 19, 2018 23:03:15.936631000 +07
  360  46.223286 32:32:32:32:32:32 6dBm Nov 19, 2018 23:03:15.968880000 +07
  361  46.251915 32:32:32:32:32:32 4dBm Nov 19, 2018 23:03:15.997509000 +07
  362  46.818847 32:32:32:32:32:32 6dBm Nov 19, 2018 23:03:16.564441000 +07
  363  46.872233 32:32:32:32:32:32 5dBm Nov 19, 2018 23:03:16.617827000 +07
  364  47.213209 32:32:32:32:32:32 5dBm Nov 19, 2018 23:03:16.958803000 +07
  365  47.247962 32:32:32:32:32:32 7dBm Nov 19, 2018 23:03:16.993556000 +07
  366  47.520734 32:32:32:32:32:32 7dBm Nov 19, 2018 23:03:17.266328000 +07
  367  47.597497 32:32:32:32:32:32 5dBm Nov 19, 2018 23:03:17.343091000 +07
  368  47.693986 32:32:32:32:32:32 5dBm Nov 19, 2018 23:03:17.439580000 +07
  369  48.059791 32:32:32:32:32:32 6dBm Nov 19, 2018 23:03:17.805385000 +07
  370  48.164833 32:32:32:32:32:32 6dBm Nov 19, 2018 23:03:17.910427000 +07
  371  48.222551 32:32:32:32:32:32 5dBm Nov 19, 2018 23:03:17.968145000 +07
  372  48.239814 32:32:32:32:32:32 7dBm Nov 19, 2018 23:03:17.985408000 +07
  373  48.438815 32:32:32:32:32:32 6dBm Nov 19, 2018 23:03:18.184409000 +07
  374  48.458212 32:32:32:32:32:32 5dBm Nov 19, 2018 23:03:18.203806000 +07
  375  48.523657 32:32:32:32:32:32 4dBm Nov 19, 2018 23:03:18.269251000 +07
  376  48.548490 32:32:32:32:32:32 6dBm Nov 19, 2018 23:03:18.294084000 +07
  377  48.572542 32:32:32:32:32:32 7dBm Nov 19, 2018 23:03:18.318136000 +07
  378  48.590677 32:32:32:32:32:32 2dBm Nov 19, 2018 23:03:18.336271000 +07
  379  48.818874 32:32:32:32:32:32 4dBm Nov 19, 2018 23:03:18.564468000 +07
  380  48.951718 32:32:32:32:32:32 7dBm Nov 19, 2018 23:03:18.697312000 +07
  381  48.982175 32:32:32:32:32:32 6dBm Nov 19, 2018 23:03:18.727769000 +07
  382  48.991022 32:32:32:32:32:32 6dBm Nov 19, 2018 23:03:18.736616000 +07
  383  49.002397 32:32:32:32:32:32 6dBm Nov 19, 2018 23:03:18.747991000 +07
  384  49.054991 32:32:32:32:32:32 8dBm Nov 19, 2018 23:03:18.800585000 +07
  385  49.078679 32:32:32:32:32:32 6dBm Nov 19, 2018 23:03:18.824273000 +07
  386  49.097549 32:32:32:32:32:32 4dBm Nov 19, 2018 23:03:18.843143000 +07
  387  49.346802 32:32:32:32:32:32 6dBm Nov 19, 2018 23:03:19.092396000 +07
  388  49.380623 32:32:32:32:32:32 7dBm Nov 19, 2018 23:03:19.126217000 +07
  389  49.415141 32:32:32:32:32:32 6dBm Nov 19, 2018 23:03:19.160735000 +07
  390  49.527012 32:32:32:32:32:32 6dBm Nov 19, 2018 23:03:19.272606000 +07
  391  49.655578 32:32:32:32:32:32 5dBm Nov 19, 2018 23:03:19.401172000 +07
  392  49.795068 32:32:32:32:32:32 7dBm Nov 19, 2018 23:03:19.540662000 +07
  393  50.007719 32:32:32:32:32:32 5dBm Nov 19, 2018 23:03:19.753313000 +07
  394  50.635551 32:32:32:32:32:32 6dBm Nov 19, 2018 23:03:20.381145000 +07
  395  50.663387 32:32:32:32:32:32 6dBm Nov 19, 2018 23:03:20.408981000 +07
  396  50.799234 32:32:32:32:32:32 5dBm Nov 19, 2018 23:03:20.544828000 +07
  397  51.081974 32:32:32:32:32:32 6dBm Nov 19, 2018 23:03:20.827568000 +07
  398  51.157972 32:32:32:32:32:32 5dBm Nov 19, 2018 23:03:20.903566000 +07
  399  51.394561 32:32:32:32:32:32 6dBm Nov 19, 2018 23:03:21.140155000 +07
  400  51.519642 32:32:32:32:32:32 6dBm Nov 19, 2018 23:03:21.265236000 +07
  401  51.594125 32:32:32:32:32:32 5dBm Nov 19, 2018 23:03:21.339719000 +07
  402  51.776107 32:32:32:32:32:32 4dBm Nov 19, 2018 23:03:21.521701000 +07
  403  51.821230 32:32:32:32:32:32 5dBm Nov 19, 2018 23:03:21.566824000 +07
  404  51.840065 32:32:32:32:32:32 8dBm Nov 19, 2018 23:03:21.585659000 +07
  405  51.861417 32:32:32:32:32:32 6dBm Nov 19, 2018 23:03:21.607011000 +07
  406  51.881976 32:32:32:32:32:32 6dBm Nov 19, 2018 23:03:21.627570000 +07
  407  51.972098 32:32:32:32:32:32 7dBm Nov 19, 2018 23:03:21.717692000 +07
  408  52.101452 32:32:32:32:32:32 6dBm Nov 19, 2018 23:03:21.847046000 +07
  409  52.251263 32:32:32:32:32:32 5dBm Nov 19, 2018 23:03:21.996857000 +07
  410  52.286928 32:32:32:32:32:32 4dBm Nov 19, 2018 23:03:22.032522000 +07
  411  52.484852 32:32:32:32:32:32 6dBm Nov 19, 2018 23:03:22.230446000 +07
  412  52.591427 32:32:32:32:32:32 4dBm Nov 19, 2018 23:03:22.337021000 +07
  413  52.704684 32:32:32:32:32:32 6dBm Nov 19, 2018 23:03:22.450278000 +07
  414  53.120619 32:32:32:32:32:32 7dBm Nov 19, 2018 23:03:22.866213000 +07
  415  53.193254 32:32:32:32:32:32 7dBm Nov 19, 2018 23:03:22.938848000 +07
  416  53.259809 32:32:32:32:32:32 6dBm Nov 19, 2018 23:03:23.005403000 +07
  417  53.427091 32:32:32:32:32:32 6dBm Nov 19, 2018 23:03:23.172685000 +07
  418  53.505493 32:32:32:32:32:32 7dBm Nov 19, 2018 23:03:23.251087000 +07
  419  53.556643 32:32:32:32:32:32 7dBm Nov 19, 2018 23:03:23.302237000 +07
  420  53.662735 32:32:32:32:32:32 5dBm Nov 19, 2018 23:03:23.408329000 +07
  421  53.693739 32:32:32:32:32:32 5dBm Nov 19, 2018 23:03:23.439333000 +07
  422  54.130410 32:32:32:32:32:32 4dBm Nov 19, 2018 23:03:23.876004000 +07
  423  54.382958 32:32:32:32:32:32 6dBm Nov 19, 2018 23:03:24.128552000 +07
  424  54.390234 32:32:32:32:32:32 7dBm Nov 19, 2018 23:03:24.135828000 +07
  425  54.488778 32:32:32:32:32:32 7dBm Nov 19, 2018 23:03:24.234372000 +07
  426  54.637577 32:32:32:32:32:32 5dBm Nov 19, 2018 23:03:24.383171000 +07
  427  54.820874 32:32:32:32:32:32 7dBm Nov 19, 2018 23:03:24.566468000 +07
  428  54.950479 32:32:32:32:32:32 4dBm Nov 19, 2018 23:03:24.696073000 +07
  429  55.004454 32:32:32:32:32:32 6dBm Nov 19, 2018 23:03:24.750048000 +07
  430  55.090644 32:32:32:32:32:32 5dBm Nov 19, 2018 23:03:24.836238000 +07
  431  55.232242 32:32:32:32:32:32 5dBm Nov 19, 2018 23:03:24.977836000 +07
  432  55.305970 32:32:32:32:32:32 6dBm Nov 19, 2018 23:03:25.051564000 +07
  433  55.859877 32:32:32:32:32:32 6dBm Nov 19, 2018 23:03:25.605471000 +07
  434  55.880870 32:32:32:32:32:32 5dBm Nov 19, 2018 23:03:25.626464000 +07
  435  55.893364 32:32:32:32:32:32 3dBm Nov 19, 2018 23:03:25.638958000 +07
  436  55.958121 32:32:32:32:32:32 5dBm Nov 19, 2018 23:03:25.703715000 +07
  437  56.079314 32:32:32:32:32:32 6dBm Nov 19, 2018 23:03:25.824908000 +07
  438  56.160445 32:32:32:32:32:32 5dBm Nov 19, 2018 23:03:25.906039000 +07
  439  56.342592 32:32:32:32:32:32 4dBm Nov 19, 2018 23:03:26.088186000 +07
  440  56.458917 32:32:32:32:32:32 5dBm Nov 19, 2018 23:03:26.204511000 +07
  441  56.522608 32:32:32:32:32:32 5dBm Nov 19, 2018 23:03:26.268202000 +07
  442  56.686073 32:32:32:32:32:32 6dBm Nov 19, 2018 23:03:26.431667000 +07
  443  56.946383 32:32:32:32:32:32 7dBm Nov 19, 2018 23:03:26.691977000 +07
  444  56.994611 32:32:32:32:32:32 5dBm Nov 19, 2018 23:03:26.740205000 +07
  445  57.286378 32:32:32:32:32:32 5dBm Nov 19, 2018 23:03:27.031972000 +07
  446  57.339539 32:32:32:32:32:32 6dBm Nov 19, 2018 23:03:27.085133000 +07
  447  57.408389 32:32:32:32:32:32 5dBm Nov 19, 2018 23:03:27.153983000 +07
  448  57.568498 32:32:32:32:32:32 5dBm Nov 19, 2018 23:03:27.314092000 +07
  449  57.750874 32:32:32:32:32:32 6dBm Nov 19, 2018 23:03:27.496468000 +07
  450  57.758541 32:32:32:32:32:32 5dBm Nov 19, 2018 23:03:27.504135000 +07
  451  58.057898 32:32:32:32:32:32 6dBm Nov 19, 2018 23:03:27.803492000 +07
  452  58.149818 32:32:32:32:32:32 5dBm Nov 19, 2018 23:03:27.895412000 +07
  453  58.241826 32:32:32:32:32:32 5dBm Nov 19, 2018 23:03:27.987420000 +07
  454  58.334949 32:32:32:32:32:32 6dBm Nov 19, 2018 23:03:28.080543000 +07
  455  58.457027 32:32:32:32:32:32 6dBm Nov 19, 2018 23:03:28.202621000 +07
  456  58.530682 32:32:32:32:32:32 6dBm Nov 19, 2018 23:03:28.276276000 +07
  457  58.629755 32:32:32:32:32:32 3dBm Nov 19, 2018 23:03:28.375349000 +07
  458  58.756510 32:32:32:32:32:32 6dBm Nov 19, 2018 23:03:28.502104000 +07
  459  58.801989 32:32:32:32:32:32 6dBm Nov 19, 2018 23:03:28.547583000 +07
  460  58.857191 32:32:32:32:32:32 6dBm Nov 19, 2018 23:03:28.602785000 +07
  461  59.025478 32:32:32:32:32:32 0dBm Nov 19, 2018 23:03:28.771072000 +07
  462  59.403779 32:32:32:32:32:32 5dBm Nov 19, 2018 23:03:29.149373000 +07
  463  59.524831 32:32:32:32:32:32 5dBm Nov 19, 2018 23:03:29.270425000 +07
  464  59.760650 32:32:32:32:32:32 6dBm Nov 19, 2018 23:03:29.506244000 +07
  465  59.818360 32:32:32:32:32:32 6dBm Nov 19, 2018 23:03:29.563954000 +07
  466  59.866044 32:32:32:32:32:32 5dBm Nov 19, 2018 23:03:29.611638000 +07
  467  59.931396 32:32:32:32:32:32 6dBm Nov 19, 2018 23:03:29.676990000 +07
  468  59.986728 32:32:32:32:32:32 4dBm Nov 19, 2018 23:03:29.732322000 +07
  469  60.013785 32:32:32:32:32:32 5dBm Nov 19, 2018 23:03:29.759379000 +07
  470  60.405589 32:32:32:32:32:32 6dBm Nov 19, 2018 23:03:30.151183000 +07
  471  60.784283 32:32:32:32:32:32 5dBm Nov 19, 2018 23:03:30.529877000 +07
  472  60.813742 32:32:32:32:32:32 4dBm Nov 19, 2018 23:03:30.559336000 +07
  473  60.833004 32:32:32:32:32:32 4dBm Nov 19, 2018 23:03:30.578598000 +07
  474  61.115906 32:32:32:32:32:32 5dBm Nov 19, 2018 23:03:30.861500000 +07
  475  61.214143 32:32:32:32:32:32 5dBm Nov 19, 2018 23:03:30.959737000 +07
  476  61.394320 32:32:32:32:32:32 5dBm Nov 19, 2018 23:03:31.139914000 +07
  477  61.750346 32:32:32:32:32:32 5dBm Nov 19, 2018 23:03:31.495940000 +07
  478  61.837832 32:32:32:32:32:32 5dBm Nov 19, 2018 23:03:31.583426000 +07
  479  62.279407 32:32:32:32:32:32 5dBm Nov 19, 2018 23:03:32.025001000 +07
  480  62.304873 32:32:32:32:32:32 5dBm Nov 19, 2018 23:03:32.050467000 +07
  481  62.335339 32:32:32:32:32:32 7dBm Nov 19, 2018 23:03:32.080933000 +07
  482  62.732546 32:32:32:32:32:32 5dBm Nov 19, 2018 23:03:32.478140000 +07
  483  62.742041 32:32:32:32:32:32 7dBm Nov 19, 2018 23:03:32.487635000 +07
  484  62.913344 32:32:32:32:32:32 5dBm Nov 19, 2018 23:03:32.658938000 +07
  485  63.069371 32:32:32:32:32:32 7dBm Nov 19, 2018 23:03:32.814965000 +07
  486  63.457411 32:32:32:32:32:32 6dBm Nov 19, 2018 23:03:33.203005000 +07
  487  63.468517 32:32:32:32:32:32 3dBm Nov 19, 2018 23:03:33.214111000 +07
  488  64.040768 32:32:32:32:32:32 4dBm Nov 19, 2018 23:03:33.786362000 +07
  489  64.057315 32:32:32:32:32:32 6dBm Nov 19, 2018 23:03:33.802909000 +07
  490  64.156572 32:32:32:32:32:32 6dBm Nov 19, 2018 23:03:33.902166000 +07
  491  64.457213 32:32:32:32:32:32 6dBm Nov 19, 2018 23:03:34.202807000 +07
  492  64.677218 32:32:32:32:32:32 3dBm Nov 19, 2018 23:03:34.422812000 +07
  493  64.850239 32:32:32:32:32:32 5dBm Nov 19, 2018 23:03:34.595833000 +07
  494  64.868796 32:32:32:32:32:32 5dBm Nov 19, 2018 23:03:34.614390000 +07
  495  65.094677 32:32:32:32:32:32 5dBm Nov 19, 2018 23:03:34.840271000 +07
  496  65.246497 32:32:32:32:32:32 6dBm Nov 19, 2018 23:03:34.992091000 +07
  497  65.275585 32:32:32:32:32:32 5dBm Nov 19, 2018 23:03:35.021179000 +07
  498  65.316676 32:32:32:32:32:32 3dBm Nov 19, 2018 23:03:35.062270000 +07
  499  65.946211 32:32:32:32:32:32 5dBm Nov 19, 2018 23:03:35.691805000 +07
  500  65.988147 32:32:32:32:32:32 6dBm Nov 19, 2018 23:03:35.733741000 +07
  501  66.174936 32:32:32:32:32:32 3dBm Nov 19, 2018 23:03:35.920530000 +07
  502  66.216084 32:32:32:32:32:32 7dBm Nov 19, 2018 23:03:35.961678000 +07
  503  66.644969 32:32:32:32:32:32 5dBm Nov 19, 2018 23:03:36.390563000 +07
  504  66.664258 32:32:32:32:32:32 6dBm Nov 19, 2018 23:03:36.409852000 +07
  505  66.881553 32:32:32:32:32:32 6dBm Nov 19, 2018 23:03:36.627147000 +07
  506  67.073860 32:32:32:32:32:32 5dBm Nov 19, 2018 23:03:36.819454000 +07
  507  67.286904 32:32:32:32:32:32 5dBm Nov 19, 2018 23:03:37.032498000 +07
  508  67.474497 32:32:32:32:32:32 6dBm Nov 19, 2018 23:03:37.220091000 +07
  509  67.531186 32:32:32:32:32:32 6dBm Nov 19, 2018 23:03:37.276780000 +07
  510  67.555580 32:32:32:32:32:32 6dBm Nov 19, 2018 23:03:37.301174000 +07
  511  67.581335 32:32:32:32:32:32 7dBm Nov 19, 2018 23:03:37.326929000 +07
  512  67.609842 32:32:32:32:32:32 5dBm Nov 19, 2018 23:03:37.355436000 +07
  513  67.652018 32:32:32:32:32:32 5dBm Nov 19, 2018 23:03:37.397612000 +07
  514  67.672136 32:32:32:32:32:32 4dBm Nov 19, 2018 23:03:37.417730000 +07
  515  67.754024 32:32:32:32:32:32 4dBm Nov 19, 2018 23:03:37.499618000 +07
  516  68.123571 32:32:32:32:32:32 6dBm Nov 19, 2018 23:03:37.869165000 +07
  517  68.254846 32:32:32:32:32:32 6dBm Nov 19, 2018 23:03:38.000440000 +07
  518  68.756887 32:32:32:32:32:32 5dBm Nov 19, 2018 23:03:38.502481000 +07
  519  68.860628 32:32:32:32:32:32 4dBm Nov 19, 2018 23:03:38.606222000 +07
  520  68.941295 32:32:32:32:32:32 6dBm Nov 19, 2018 23:03:38.686889000 +07
  521  69.281289 32:32:32:32:32:32 6dBm Nov 19, 2018 23:03:39.026883000 +07
  522  69.444075 32:32:32:32:32:32 7dBm Nov 19, 2018 23:03:39.189669000 +07
  523  69.553417 32:32:32:32:32:32 7dBm Nov 19, 2018 23:03:39.299011000 +07
  524  69.600726 32:32:32:32:32:32 5dBm Nov 19, 2018 23:03:39.346320000 +07
  525  69.635772 32:32:32:32:32:32 6dBm Nov 19, 2018 23:03:39.381366000 +07
  526  69.651351 32:32:32:32:32:32 6dBm Nov 19, 2018 23:03:39.396945000 +07
  527  69.747142 32:32:32:32:32:32 5dBm Nov 19, 2018 23:03:39.492736000 +07
  528  69.993762 32:32:32:32:32:32 6dBm Nov 19, 2018 23:03:39.739356000 +07
  529  70.027286 32:32:32:32:32:32 6dBm Nov 19, 2018 23:03:39.772880000 +07
  530  70.138079 32:32:32:32:32:32 6dBm Nov 19, 2018 23:03:39.883673000 +07
  531  70.195830 32:32:32:32:32:32 5dBm Nov 19, 2018 23:03:39.941424000 +07
  532  70.597898 32:32:32:32:32:32 7dBm Nov 19, 2018 23:03:40.343492000 +07
  533  70.701264 32:32:32:32:32:32 3dBm Nov 19, 2018 23:03:40.446858000 +07
  534  70.716274 32:32:32:32:32:32 4dBm Nov 19, 2018 23:03:40.461868000 +07
  535  70.871397 32:32:32:32:32:32 6dBm Nov 19, 2018 23:03:40.616991000 +07
  536  70.895958 32:32:32:32:32:32 6dBm Nov 19, 2018 23:03:40.641552000 +07
  537  71.043503 32:32:32:32:32:32 5dBm Nov 19, 2018 23:03:40.789097000 +07
  538  71.055284 32:32:32:32:32:32 5dBm Nov 19, 2018 23:03:40.800878000 +07
  539  71.248478 32:32:32:32:32:32 5dBm Nov 19, 2018 23:03:40.994072000 +07
  540  71.281769 32:32:32:32:32:32 4dBm Nov 19, 2018 23:03:41.027363000 +07
  541  71.595285 32:32:32:32:32:32 6dBm Nov 19, 2018 23:03:41.340879000 +07
  542  71.617020 32:32:32:32:32:32 4dBm Nov 19, 2018 23:03:41.362614000 +07
  543  71.629806 32:32:32:32:32:32 2dBm Nov 19, 2018 23:03:41.375400000 +07
  544  71.694984 32:32:32:32:32:32 6dBm Nov 19, 2018 23:03:41.440578000 +07
  545  71.785812 32:32:32:32:32:32 7dBm Nov 19, 2018 23:03:41.531406000 +07
  546  71.846857 32:32:32:32:32:32 4dBm Nov 19, 2018 23:03:41.592451000 +07
  547  71.862652 32:32:32:32:32:32 6dBm Nov 19, 2018 23:03:41.608246000 +07
  548  72.156269 32:32:32:32:32:32 7dBm Nov 19, 2018 23:03:41.901863000 +07
  549  72.167069 32:32:32:32:32:32 5dBm Nov 19, 2018 23:03:41.912663000 +07
  550  72.177791 32:32:32:32:32:32 6dBm Nov 19, 2018 23:03:41.923385000 +07
  551  72.226611 32:32:32:32:32:32 5dBm Nov 19, 2018 23:03:41.972205000 +07
  552  72.464122 32:32:32:32:32:32 5dBm Nov 19, 2018 23:03:42.209716000 +07
  553  72.492312 32:32:32:32:32:32 6dBm Nov 19, 2018 23:03:42.237906000 +07
  554  72.646668 32:32:32:32:32:32 6dBm Nov 19, 2018 23:03:42.392262000 +07
  555  72.773853 32:32:32:32:32:32 7dBm Nov 19, 2018 23:03:42.519447000 +07
  556  72.810199 32:32:32:32:32:32 6dBm Nov 19, 2018 23:03:42.555793000 +07
  557  72.842949 32:32:32:32:32:32 6dBm Nov 19, 2018 23:03:42.588543000 +07
  558  72.884813 32:32:32:32:32:32 5dBm Nov 19, 2018 23:03:42.630407000 +07
  559  72.920166 32:32:32:32:32:32 6dBm Nov 19, 2018 23:03:42.665760000 +07
  560  73.187242 32:32:32:32:32:32 6dBm Nov 19, 2018 23:03:42.932836000 +07
  561  73.301590 32:32:32:32:32:32 5dBm Nov 19, 2018 23:03:43.047184000 +07
  562  73.320650 32:32:32:32:32:32 4dBm Nov 19, 2018 23:03:43.066244000 +07
  563  73.509615 32:32:32:32:32:32 5dBm Nov 19, 2018 23:03:43.255209000 +07
  564  73.556675 32:32:32:32:32:32 7dBm Nov 19, 2018 23:03:43.302269000 +07
  565  73.661333 32:32:32:32:32:32 5dBm Nov 19, 2018 23:03:43.406927000 +07
  566  73.679140 32:32:32:32:32:32 7dBm Nov 19, 2018 23:03:43.424734000 +07
  567  73.976788 32:32:32:32:32:32 4dBm Nov 19, 2018 23:03:43.722382000 +07
  568  74.061342 32:32:32:32:32:32 4dBm Nov 19, 2018 23:03:43.806936000 +07
  569  74.169822 32:32:32:32:32:32 5dBm Nov 19, 2018 23:03:43.915416000 +07
  570  74.216126 32:32:32:32:32:32 6dBm Nov 19, 2018 23:03:43.961720000 +07
  571  74.237473 32:32:32:32:32:32 5dBm Nov 19, 2018 23:03:43.983067000 +07
  572  74.306985 32:32:32:32:32:32 6dBm Nov 19, 2018 23:03:44.052579000 +07
  573  74.377818 32:32:32:32:32:32 5dBm Nov 19, 2018 23:03:44.123412000 +07
  574  74.472176 32:32:32:32:32:32 7dBm Nov 19, 2018 23:03:44.217770000 +07
  575  74.535030 32:32:32:32:32:32 6dBm Nov 19, 2018 23:03:44.280624000 +07
  576  74.744719 32:32:32:32:32:32 6dBm Nov 19, 2018 23:03:44.490313000 +07
  577  75.391503 32:32:32:32:32:32 7dBm Nov 19, 2018 23:03:45.137097000 +07
  578  75.405020 32:32:32:32:32:32 4dBm Nov 19, 2018 23:03:45.150614000 +07
  579  75.490157 32:32:32:32:32:32 6dBm Nov 19, 2018 23:03:45.235751000 +07
  580  75.509363 32:32:32:32:32:32 6dBm Nov 19, 2018 23:03:45.254957000 +07
  581  75.578920 32:32:32:32:32:32 4dBm Nov 19, 2018 23:03:45.324514000 +07
  582  75.933872 32:32:32:32:32:32 6dBm Nov 19, 2018 23:03:45.679466000 +07
  583  76.044875 32:32:32:32:32:32 6dBm Nov 19, 2018 23:03:45.790469000 +07
  584  76.309310 32:32:32:32:32:32 6dBm Nov 19, 2018 23:03:46.054904000 +07
  585  76.631497 32:32:32:32:32:32 6dBm Nov 19, 2018 23:03:46.377091000 +07
  586  76.673490 32:32:32:32:32:32 6dBm Nov 19, 2018 23:03:46.419084000 +07
  587  76.694051 32:32:32:32:32:32 5dBm Nov 19, 2018 23:03:46.439645000 +07
  588  76.736240 32:32:32:32:32:32 7dBm Nov 19, 2018 23:03:46.481834000 +07
  589  76.851658 32:32:32:32:32:32 6dBm Nov 19, 2018 23:03:46.597252000 +07
  590  76.976453 32:32:32:32:32:32 5dBm Nov 19, 2018 23:03:46.722047000 +07
  591  77.072024 32:32:32:32:32:32 5dBm Nov 19, 2018 23:03:46.817618000 +07
  592  77.315414 32:32:32:32:32:32 5dBm Nov 19, 2018 23:03:47.061008000 +07
  593  77.322603 32:32:32:32:32:32 5dBm Nov 19, 2018 23:03:47.068197000 +07
  594  77.351991 32:32:32:32:32:32 7dBm Nov 19, 2018 23:03:47.097585000 +07
  595  77.379201 32:32:32:32:32:32 6dBm Nov 19, 2018 23:03:47.124795000 +07
  596  77.437365 32:32:32:32:32:32 6dBm Nov 19, 2018 23:03:47.182959000 +07
  597  77.520437 32:32:32:32:32:32 7dBm Nov 19, 2018 23:03:47.266031000 +07
  598  77.721402 32:32:32:32:32:32 5dBm Nov 19, 2018 23:03:47.466996000 +07
  599  77.784881 32:32:32:32:32:32 7dBm Nov 19, 2018 23:03:47.530475000 +07
  600  77.894109 32:32:32:32:32:32 6dBm Nov 19, 2018 23:03:47.639703000 +07
  601  77.926604 32:32:32:32:32:32 5dBm Nov 19, 2018 23:03:47.672198000 +07
  602  77.999661 32:32:32:32:32:32 5dBm Nov 19, 2018 23:03:47.745255000 +07
  603  78.068036 32:32:32:32:32:32 5dBm Nov 19, 2018 23:03:47.813630000 +07
  604  78.503479 32:32:32:32:32:32 5dBm Nov 19, 2018 23:03:48.249073000 +07
  605  78.650125 32:32:32:32:32:32 6dBm Nov 19, 2018 23:03:48.395719000 +07
  606  78.692123 32:32:32:32:32:32 4dBm Nov 19, 2018 23:03:48.437717000 +07
  607  78.748231 32:32:32:32:32:32 5dBm Nov 19, 2018 23:03:48.493825000 +07
  608  78.773609 32:32:32:32:32:32 4dBm Nov 19, 2018 23:03:48.519203000 +07
  609  78.773620 32:32:32:32:32:32 4dBm Nov 19, 2018 23:03:48.519214000 +07
  610  79.072982 32:32:32:32:32:32 4dBm Nov 19, 2018 23:03:48.818576000 +07
  611  79.622348 32:32:32:32:32:32 6dBm Nov 19, 2018 23:03:49.367942000 +07
  612  79.731669 32:32:32:32:32:32 4dBm Nov 19, 2018 23:03:49.477263000 +07
  613  80.274207 32:32:32:32:32:32 7dBm Nov 19, 2018 23:03:50.019801000 +07
  614  80.288693 32:32:32:32:32:32 5dBm Nov 19, 2018 23:03:50.034287000 +07
  615  80.327644 32:32:32:32:32:32 5dBm Nov 19, 2018 23:03:50.073238000 +07
  616  80.552527 32:32:32:32:32:32 6dBm Nov 19, 2018 23:03:50.298121000 +07
  617  80.569720 32:32:32:32:32:32 4dBm Nov 19, 2018 23:03:50.315314000 +07
  618  80.600304 32:32:32:32:32:32 5dBm Nov 19, 2018 23:03:50.345898000 +07
  619  80.695931 32:32:32:32:32:32 4dBm Nov 19, 2018 23:03:50.441525000 +07
  620  81.161117 32:32:32:32:32:32 4dBm Nov 19, 2018 23:03:50.906711000 +07
  621  81.174177 32:32:32:32:32:32 3dBm Nov 19, 2018 23:03:50.919771000 +07
  622  81.235974 32:32:32:32:32:32 6dBm Nov 19, 2018 23:03:50.981568000 +07
  623  81.341598 32:32:32:32:32:32 5dBm Nov 19, 2018 23:03:51.087192000 +07
  624  81.449756 32:32:32:32:32:32 6dBm Nov 19, 2018 23:03:51.195350000 +07
  625  81.549368 32:32:32:32:32:32 3dBm Nov 19, 2018 23:03:51.294962000 +07
  626  81.565688 32:32:32:32:32:32 6dBm Nov 19, 2018 23:03:51.311282000 +07
  627  81.636774 32:32:32:32:32:32 6dBm Nov 19, 2018 23:03:51.382368000 +07
  628  81.744886 32:32:32:32:32:32 6dBm Nov 19, 2018 23:03:51.490480000 +07
  629  81.837921 32:32:32:32:32:32 8dBm Nov 19, 2018 23:03:51.583515000 +07
  630  81.888688 32:32:32:32:32:32 3dBm Nov 19, 2018 23:03:51.634282000 +07
  631  81.924102 32:32:32:32:32:32 6dBm Nov 19, 2018 23:03:51.669696000 +07
  632  81.945514 32:32:32:32:32:32 6dBm Nov 19, 2018 23:03:51.691108000 +07
  633  82.247182 32:32:32:32:32:32 7dBm Nov 19, 2018 23:03:51.992776000 +07
  634  82.407494 32:32:32:32:32:32 5dBm Nov 19, 2018 23:03:52.153088000 +07
  635  82.868605 32:32:32:32:32:32 6dBm Nov 19, 2018 23:03:52.614199000 +07
  636  82.924448 32:32:32:32:32:32 5dBm Nov 19, 2018 23:03:52.670042000 +07
  637  83.000629 32:32:32:32:32:32 5dBm Nov 19, 2018 23:03:52.746223000 +07
  638  83.466328 32:32:32:32:32:32 4dBm Nov 19, 2018 23:03:53.211922000 +07
  639  83.597499 32:32:32:32:32:32 6dBm Nov 19, 2018 23:03:53.343093000 +07
  640  83.628220 32:32:32:32:32:32 6dBm Nov 19, 2018 23:03:53.373814000 +07
  641  83.779188 32:32:32:32:32:32 5dBm Nov 19, 2018 23:03:53.524782000 +07
  642  83.866871 32:32:32:32:32:32 1dBm Nov 19, 2018 23:03:53.612465000 +07
  643  84.017988 32:32:32:32:32:32 4dBm Nov 19, 2018 23:03:53.763582000 +07
  644  84.078267 32:32:32:32:32:32 6dBm Nov 19, 2018 23:03:53.823861000 +07
  645  84.136620 32:32:32:32:32:32 4dBm Nov 19, 2018 23:03:53.882214000 +07
  646  84.292115 32:32:32:32:32:32 6dBm Nov 19, 2018 23:03:54.037709000 +07
  647  84.354471 32:32:32:32:32:32 4dBm Nov 19, 2018 23:03:54.100065000 +07
  648  84.436571 32:32:32:32:32:32 3dBm Nov 19, 2018 23:03:54.182165000 +07
  649  84.769941 32:32:32:32:32:32 5dBm Nov 19, 2018 23:03:54.515535000 +07
  650  84.835013 32:32:32:32:32:32 6dBm Nov 19, 2018 23:03:54.580607000 +07
  651  85.164953 32:32:32:32:32:32 5dBm Nov 19, 2018 23:03:54.910547000 +07
  652  85.554820 32:32:32:32:32:32 5dBm Nov 19, 2018 23:03:55.300414000 +07
  653  85.736828 32:32:32:32:32:32 5dBm Nov 19, 2018 23:03:55.482422000 +07
  654  85.938284 32:32:32:32:32:32 6dBm Nov 19, 2018 23:03:55.683878000 +07
  655  86.181315 32:32:32:32:32:32 4dBm Nov 19, 2018 23:03:55.926909000 +07
  656  86.316750 32:32:32:32:32:32 7dBm Nov 19, 2018 23:03:56.062344000 +07
  657  86.434623 32:32:32:32:32:32 5dBm Nov 19, 2018 23:03:56.180217000 +07
  658  86.723140 32:32:32:32:32:32 4dBm Nov 19, 2018 23:03:56.468734000 +07
  659  86.746122 32:32:32:32:32:32 6dBm Nov 19, 2018 23:03:56.491716000 +07
  660  86.851952 32:32:32:32:32:32 5dBm Nov 19, 2018 23:03:56.597546000 +07
  661  86.863098 32:32:32:32:32:32 5dBm Nov 19, 2018 23:03:56.608692000 +07
  662  87.093214 32:32:32:32:32:32 5dBm Nov 19, 2018 23:03:56.838808000 +07
  663  87.325234 32:32:32:32:32:32 6dBm Nov 19, 2018 23:03:57.070828000 +07
  664  87.426914 32:32:32:32:32:32 5dBm Nov 19, 2018 23:03:57.172508000 +07
  665  87.957524 32:32:32:32:32:32 4dBm Nov 19, 2018 23:03:57.703118000 +07
  666  87.963843 32:32:32:32:32:32 5dBm Nov 19, 2018 23:03:57.709437000 +07
  667  88.420185 32:32:32:32:32:32 5dBm Nov 19, 2018 23:03:58.165779000 +07
  668  88.444269 32:32:32:32:32:32 5dBm Nov 19, 2018 23:03:58.189863000 +07
  669  88.457003 32:32:32:32:32:32 4dBm Nov 19, 2018 23:03:58.202597000 +07
  670  88.613259 32:32:32:32:32:32 4dBm Nov 19, 2018 23:03:58.358853000 +07
  671  88.803446 32:32:32:32:32:32 2dBm Nov 19, 2018 23:03:58.549040000 +07
  672  88.829754 32:32:32:32:32:32 7dBm Nov 19, 2018 23:03:58.575348000 +07
  673  88.945505 32:32:32:32:32:32 1dBm Nov 19, 2018 23:03:58.691099000 +07
  674  89.249636 32:32:32:32:32:32 6dBm Nov 19, 2018 23:03:58.995230000 +07
  675  89.270329 32:32:32:32:32:32 3dBm Nov 19, 2018 23:03:59.015923000 +07
  676  89.288270 32:32:32:32:32:32 5dBm Nov 19, 2018 23:03:59.033864000 +07
  677  89.495243 32:32:32:32:32:32 2dBm Nov 19, 2018 23:03:59.240837000 +07
  678  89.882651 32:32:32:32:32:32 5dBm Nov 19, 2018 23:03:59.628245000 +07
  679  89.946647 32:32:32:32:32:32 5dBm Nov 19, 2018 23:03:59.692241000 +07
  680  90.179537 32:32:32:32:32:32 7dBm Nov 19, 2018 23:03:59.925131000 +07
  681  90.307669 32:32:32:32:32:32 4dBm Nov 19, 2018 23:04:00.053263000 +07
  682  90.333766 32:32:32:32:32:32 4dBm Nov 19, 2018 23:04:00.079360000 +07
  683  90.366208 32:32:32:32:32:32 6dBm Nov 19, 2018 23:04:00.111802000 +07
  684  90.432793 32:32:32:32:32:32 5dBm Nov 19, 2018 23:04:00.178387000 +07
  685  90.629326 32:32:32:32:32:32 5dBm Nov 19, 2018 23:04:00.374920000 +07
  686  90.916361 32:32:32:32:32:32 6dBm Nov 19, 2018 23:04:00.661955000 +07
  687  91.200784 32:32:32:32:32:32 6dBm Nov 19, 2018 23:04:00.946378000 +07
  688  91.590861 32:32:32:32:32:32 5dBm Nov 19, 2018 23:04:01.336455000 +07
  689  92.026550 32:32:32:32:32:32 6dBm Nov 19, 2018 23:04:01.772144000 +07
  690  92.060642 32:32:32:32:32:32 5dBm Nov 19, 2018 23:04:01.806236000 +07
  691  92.132778 32:32:32:32:32:32 6dBm Nov 19, 2018 23:04:01.878372000 +07
  692  92.566568 32:32:32:32:32:32 4dBm Nov 19, 2018 23:04:02.312162000 +07
  693  92.921012 32:32:32:32:32:32 5dBm Nov 19, 2018 23:04:02.666606000 +07
  694  93.190702 32:32:32:32:32:32 5dBm Nov 19, 2018 23:04:02.936296000 +07
  695  93.258970 32:32:32:32:32:32 6dBm Nov 19, 2018 23:04:03.004564000 +07
  696  93.477096 32:32:32:32:32:32 5dBm Nov 19, 2018 23:04:03.222690000 +07
  697  94.219108 32:32:32:32:32:32 5dBm Nov 19, 2018 23:04:03.964702000 +07
  698  94.378554 32:32:32:32:32:32 4dBm Nov 19, 2018 23:04:04.124148000 +07
  699  94.686698 32:32:32:32:32:32 6dBm Nov 19, 2018 23:04:04.432292000 +07
  700  94.790508 32:32:32:32:32:32 6dBm Nov 19, 2018 23:04:04.536102000 +07
  701  95.130219 32:32:32:32:32:32 6dBm Nov 19, 2018 23:04:04.875813000 +07
  702  95.246217 32:32:32:32:32:32 5dBm Nov 19, 2018 23:04:04.991811000 +07
  703  95.393437 32:32:32:32:32:32 5dBm Nov 19, 2018 23:04:05.139031000 +07
  704  95.624009 32:32:32:32:32:32 5dBm Nov 19, 2018 23:04:05.369603000 +07
  705  95.743244 32:32:32:32:32:32 5dBm Nov 19, 2018 23:04:05.488838000 +07
  706  95.874473 32:32:32:32:32:32 6dBm Nov 19, 2018 23:04:05.620067000 +07
  707  96.012858 32:32:32:32:32:32 5dBm Nov 19, 2018 23:04:05.758452000 +07
  708  96.596481 32:32:32:32:32:32 4dBm Nov 19, 2018 23:04:06.342075000 +07
  709  96.633888 32:32:32:32:32:32 5dBm Nov 19, 2018 23:04:06.379482000 +07
  710  96.844438 32:32:32:32:32:32 6dBm Nov 19, 2018 23:04:06.590032000 +07
  711  96.869914 32:32:32:32:32:32 4dBm Nov 19, 2018 23:04:06.615508000 +07
  712  97.162286 32:32:32:32:32:32 6dBm Nov 19, 2018 23:04:06.907880000 +07
  713  97.216386 32:32:32:32:32:32 6dBm Nov 19, 2018 23:04:06.961980000 +07
  714  97.243535 32:32:32:32:32:32 5dBm Nov 19, 2018 23:04:06.989129000 +07
  715  97.256230 32:32:32:32:32:32 6dBm Nov 19, 2018 23:04:07.001824000 +07
  716  97.518403 32:32:32:32:32:32 4dBm Nov 19, 2018 23:04:07.263997000 +07
  717  97.587009 32:32:32:32:32:32 6dBm Nov 19, 2018 23:04:07.332603000 +07
  718  97.643255 32:32:32:32:32:32 6dBm Nov 19, 2018 23:04:07.388849000 +07
  719  97.791351 32:32:32:32:32:32 6dBm Nov 19, 2018 23:04:07.536945000 +07
  720  97.941423 32:32:32:32:32:32 3dBm Nov 19, 2018 23:04:07.687017000 +07
  721  97.959512 32:32:32:32:32:32 7dBm Nov 19, 2018 23:04:07.705106000 +07
  722  98.123585 32:32:32:32:32:32 5dBm Nov 19, 2018 23:04:07.869179000 +07
  723  98.258912 32:32:32:32:32:32 7dBm Nov 19, 2018 23:04:08.004506000 +07
  724  98.364852 32:32:32:32:32:32 6dBm Nov 19, 2018 23:04:08.110446000 +07
  725  98.383758 32:32:32:32:32:32 5dBm Nov 19, 2018 23:04:08.129352000 +07
  726  98.506204 32:32:32:32:32:32 6dBm Nov 19, 2018 23:04:08.251798000 +07
  727  98.530151 32:32:32:32:32:32 6dBm Nov 19, 2018 23:04:08.275745000 +07
  728  98.553067 32:32:32:32:32:32 6dBm Nov 19, 2018 23:04:08.298661000 +07
  729  98.619865 32:32:32:32:32:32 5dBm Nov 19, 2018 23:04:08.365459000 +07
  730  98.687566 32:32:32:32:32:32 5dBm Nov 19, 2018 23:04:08.433160000 +07
  731  98.804218 32:32:32:32:32:32 8dBm Nov 19, 2018 23:04:08.549812000 +07
  732  98.925238 32:32:32:32:32:32 6dBm Nov 19, 2018 23:04:08.670832000 +07
  733  98.953494 32:32:32:32:32:32 4dBm Nov 19, 2018 23:04:08.699088000 +07
  734  98.958428 32:32:32:32:32:32 5dBm Nov 19, 2018 23:04:08.704022000 +07
  735  98.999904 32:32:32:32:32:32 6dBm Nov 19, 2018 23:04:08.745498000 +07
  736  99.031860 32:32:32:32:32:32 4dBm Nov 19, 2018 23:04:08.777454000 +07
  737  99.051099 32:32:32:32:32:32 5dBm Nov 19, 2018 23:04:08.796693000 +07
  738  99.189864 32:32:32:32:32:32 1dBm Nov 19, 2018 23:04:08.935458000 +07
