    1   0.000000 32:32:32:32:32:32 4dBm Nov 19, 2018 22:30:22.237307000 +07
    2   0.206796 32:32:32:32:32:32 4dBm Nov 19, 2018 22:30:22.444103000 +07
    3   0.294262 32:32:32:32:32:32 5dBm Nov 19, 2018 22:30:22.531569000 +07
    4   1.047679 32:32:32:32:32:32 4dBm Nov 19, 2018 22:30:23.284986000 +07
    5   1.329487 32:32:32:32:32:32 4dBm Nov 19, 2018 22:30:23.566794000 +07
    6   1.820094 32:32:32:32:32:32 5dBm Nov 19, 2018 22:30:24.057401000 +07
    7   6.978561 32:32:32:32:32:32 5dBm Nov 19, 2018 22:30:29.215868000 +07
    8   8.878225 32:32:32:32:32:32 3dBm Nov 19, 2018 22:30:31.115532000 +07
    9  10.456722 32:32:32:32:32:32 4dBm Nov 19, 2018 22:30:32.694029000 +07
   10  13.756152 32:32:32:32:32:32 6dBm Nov 19, 2018 22:30:35.993459000 +07
   11  14.804873 32:32:32:32:32:32 4dBm Nov 19, 2018 22:30:37.042180000 +07
   12  16.961296 32:32:32:32:32:32 5dBm Nov 19, 2018 22:30:39.198603000 +07
   13  17.023817 32:32:32:32:32:32 4dBm Nov 19, 2018 22:30:39.261124000 +07
   14  17.033320 32:32:32:32:32:32 5dBm Nov 19, 2018 22:30:39.270627000 +07
   15  18.354207 32:32:32:32:32:32 5dBm Nov 19, 2018 22:30:40.591514000 +07
   16  18.728355 32:32:32:32:32:32 5dBm Nov 19, 2018 22:30:40.965662000 +07
   17  22.530572 32:32:32:32:32:32 4dBm Nov 19, 2018 22:30:44.767879000 +07
   18  23.269023 32:32:32:32:32:32 4dBm Nov 19, 2018 22:30:45.506330000 +07
   19  23.636900 32:32:32:32:32:32 6dBm Nov 19, 2018 22:30:45.874207000 +07
   20  28.247561 32:32:32:32:32:32 4dBm Nov 19, 2018 22:30:50.484868000 +07
   21  29.237968 32:32:32:32:32:32 2dBm Nov 19, 2018 22:30:51.475275000 +07
   22  34.540331 32:32:32:32:32:32 4dBm Nov 19, 2018 22:30:56.777638000 +07
   23  35.374761 32:32:32:32:32:32 5dBm Nov 19, 2018 22:30:57.612068000 +07
   24  35.608894 32:32:32:32:32:32 6dBm Nov 19, 2018 22:30:57.846201000 +07
   25  62.048349 32:32:32:32:32:32 4dBm Nov 19, 2018 22:31:24.285656000 +07
   26  63.340735 32:32:32:32:32:32 5dBm Nov 19, 2018 22:31:25.578042000 +07
   27  76.786822 32:32:32:32:32:32 4dBm Nov 19, 2018 22:31:39.024129000 +07
   28  92.678693 32:32:32:32:32:32 1dBm Nov 19, 2018 22:31:54.916000000 +07
   29 115.455228 32:32:32:32:32:32 4dBm Nov 19, 2018 22:32:17.692535000 +07
   30 115.820607 32:32:32:32:32:32 5dBm Nov 19, 2018 22:32:18.057914000 +07
   31 115.844233 32:32:32:32:32:32 6dBm Nov 19, 2018 22:32:18.081540000 +07
   32 115.900527 32:32:32:32:32:32 4dBm Nov 19, 2018 22:32:18.137834000 +07
   33 115.958485 32:32:32:32:32:32 6dBm Nov 19, 2018 22:32:18.195792000 +07
   34 115.996869 32:32:32:32:32:32 4dBm Nov 19, 2018 22:32:18.234176000 +07
   35 137.163179 32:32:32:32:32:32 4dBm Nov 19, 2018 22:32:39.400486000 +07
   36 153.287965 32:32:32:32:32:32 5dBm Nov 19, 2018 22:32:55.525272000 +07
   37 153.372650 32:32:32:32:32:32 6dBm Nov 19, 2018 22:32:55.609957000 +07
   38 153.393102 32:32:32:32:32:32 2dBm Nov 19, 2018 22:32:55.630409000 +07
   39 153.489300 32:32:32:32:32:32 5dBm Nov 19, 2018 22:32:55.726607000 +07
   40 153.793163 32:32:32:32:32:32 3dBm Nov 19, 2018 22:32:56.030470000 +07
   41 154.000208 32:32:32:32:32:32 7dBm Nov 19, 2018 22:32:56.237515000 +07
   42 154.053289 32:32:32:32:32:32 5dBm Nov 19, 2018 22:32:56.290596000 +07
   43 154.091877 32:32:32:32:32:32 4dBm Nov 19, 2018 22:32:56.329184000 +07
   44 157.804622 32:32:32:32:32:32 4dBm Nov 19, 2018 22:33:00.041929000 +07
   45 158.842537 32:32:32:32:32:32 4dBm Nov 19, 2018 22:33:01.079844000 +07
   46 159.429166 32:32:32:32:32:32 2dBm Nov 19, 2018 22:33:01.666473000 +07
   47 159.620789 32:32:32:32:32:32 6dBm Nov 19, 2018 22:33:01.858096000 +07
   48 165.901666 32:32:32:32:32:32 7dBm Nov 19, 2018 22:33:08.138973000 +07
   49 167.260941 32:32:32:32:32:32 5dBm Nov 19, 2018 22:33:09.498248000 +07
   50 167.446996 32:32:32:32:32:32 5dBm Nov 19, 2018 22:33:09.684303000 +07
   51 169.296645 32:32:32:32:32:32 4dBm Nov 19, 2018 22:33:11.533952000 +07
   52 169.436588 32:32:32:32:32:32 3dBm Nov 19, 2018 22:33:11.673895000 +07
   53 172.469601 32:32:32:32:32:32 6dBm Nov 19, 2018 22:33:14.706908000 +07
   54 174.488014 32:32:32:32:32:32 4dBm Nov 19, 2018 22:33:16.725321000 +07
   55 177.041620 32:32:32:32:32:32 5dBm Nov 19, 2018 22:33:19.278927000 +07
   56 177.074159 32:32:32:32:32:32 4dBm Nov 19, 2018 22:33:19.311466000 +07
   57 177.099412 32:32:32:32:32:32 4dBm Nov 19, 2018 22:33:19.336719000 +07
   58 190.459101 32:32:32:32:32:32 4dBm Nov 19, 2018 22:33:32.696408000 +07
   59 190.809309 32:32:32:32:32:32 4dBm Nov 19, 2018 22:33:33.046616000 +07
   60 191.900595 32:32:32:32:32:32 5dBm Nov 19, 2018 22:33:34.137902000 +07
   61 195.426630 32:32:32:32:32:32 5dBm Nov 19, 2018 22:33:37.663937000 +07
   62 196.497902 32:32:32:32:32:32 5dBm Nov 19, 2018 22:33:38.735209000 +07
   63 207.851536 32:32:32:32:32:32 5dBm Nov 19, 2018 22:33:50.088843000 +07
   64 219.510722 32:32:32:32:32:32 4dBm Nov 19, 2018 22:34:01.748029000 +07
   65 221.259290 32:32:32:32:32:32 5dBm Nov 19, 2018 22:34:03.496597000 +07
   66 221.413598 32:32:32:32:32:32 6dBm Nov 19, 2018 22:34:03.650905000 +07
   67 221.658136 32:32:32:32:32:32 4dBm Nov 19, 2018 22:34:03.895443000 +07
   68 221.778658 32:32:32:32:32:32 6dBm Nov 19, 2018 22:34:04.015965000 +07
   69 221.866672 32:32:32:32:32:32 5dBm Nov 19, 2018 22:34:04.103979000 +07
   70 222.088020 32:32:32:32:32:32 5dBm Nov 19, 2018 22:34:04.325327000 +07
   71 222.200132 32:32:32:32:32:32 5dBm Nov 19, 2018 22:34:04.437439000 +07
   72 222.285597 32:32:32:32:32:32 6dBm Nov 19, 2018 22:34:04.522904000 +07
   73 222.682562 32:32:32:32:32:32 3dBm Nov 19, 2018 22:34:04.919869000 +07
   74 222.849020 32:32:32:32:32:32 5dBm Nov 19, 2018 22:34:05.086327000 +07
   75 223.113983 32:32:32:32:32:32 4dBm Nov 19, 2018 22:34:05.351290000 +07
   76 223.329734 32:32:32:32:32:32 5dBm Nov 19, 2018 22:34:05.567041000 +07
   77 223.618831 32:32:32:32:32:32 4dBm Nov 19, 2018 22:34:05.856138000 +07
   78 223.717873 32:32:32:32:32:32 5dBm Nov 19, 2018 22:34:05.955180000 +07
   79 223.757721 32:32:32:32:32:32 6dBm Nov 19, 2018 22:34:05.995028000 +07
   80 228.309986 32:32:32:32:32:32 4dBm Nov 19, 2018 22:34:10.547293000 +07
   81 228.645370 32:32:32:32:32:32 5dBm Nov 19, 2018 22:34:10.882677000 +07
   82 228.662378 32:32:32:32:32:32 2dBm Nov 19, 2018 22:34:10.899685000 +07
   83 229.106362 32:32:32:32:32:32 5dBm Nov 19, 2018 22:34:11.343669000 +07
   84 229.216875 32:32:32:32:32:32 4dBm Nov 19, 2018 22:34:11.454182000 +07
   85 229.819087 32:32:32:32:32:32 5dBm Nov 19, 2018 22:34:12.056394000 +07
   86 230.911979 32:32:32:32:32:32 6dBm Nov 19, 2018 22:34:13.149286000 +07
   87 231.014869 32:32:32:32:32:32 5dBm Nov 19, 2018 22:34:13.252176000 +07
   88 231.595896 32:32:32:32:32:32 6dBm Nov 19, 2018 22:34:13.833203000 +07
   89 231.931275 32:32:32:32:32:32 4dBm Nov 19, 2018 22:34:14.168582000 +07
   90 232.043460 32:32:32:32:32:32 7dBm Nov 19, 2018 22:34:14.280767000 +07
   91 233.062008 32:32:32:32:32:32 5dBm Nov 19, 2018 22:34:15.299315000 +07
