0
0.065784
0.112449
0.153087
0.183807
0.510687
0.543157
0.882574
0.955761
1.008584
1.02112
1.052348
1.143817
1.825854
3.714775
3.83541
4.116258
4.488095
4.822883
4.843649
5.262433
5.636689
6.223432
6.242954
6.320465
6.442864
6.469774
6.522302
6.542969
6.584597
6.668876
6.712809
6.748317
6.802786
6.845773
6.9039
6.975077
7.545889
8.685083
8.715018
8.732326
8.838334
8.892568
9.024321
9.050008
9.075315
9.081791
9.095274
9.259771
9.283959
9.310683
9.68614
9.783125
10.263763
10.344277
11.21163
13.864414
13.95138
13.984478
14.08892
14.155361
14.18697
14.230625
14.291527
14.338036
14.406018
14.439478
14.519662
14.549552
14.572553
14.591422
14.612199
14.789338
15.185785
15.262861
15.279942
15.471687
15.756781
15.941811
16.0407
16.062561
16.086151
16.122283
16.148887
16.169623
16.251808
16.312021
16.386297
16.467308
16.493085
16.505003
16.587516
16.633869
17.344927
17.489391
17.579709
17.664032
17.706904
17.723367
18.337413
18.364412
18.391103
18.412761
18.502656
18.583747
19.163888
19.400491
19.441504
19.454945
19.497495
19.798724
19.837762
20.287314
20.385608
20.821785
20.871619
20.910225
20.979374
21.223514
21.459915
21.615379
21.793859
21.955583
22.068184
22.151624
22.266158
22.442601
22.460715
22.501534
22.521496
22.553512
22.757482
22.823342
22.851989
22.921875
23.036914
23.055958
23.124141
23.30838
23.478399
23.535499
23.556387
23.623655
23.851401
23.873397
23.917785
23.930238
23.951266
23.970534
24.018907
24.077553
24.126849
24.142269
24.160225
24.203325
24.253603
24.342025
24.38236
24.424251
24.444484
24.453039
24.536515
24.637969
24.681005
24.68868
24.713387
24.930831
25.075589
25.236058
25.371142
25.439505
25.462061
25.483177
25.603064
25.681689
25.753579
25.835679
25.871996
25.975114
26.054422
26.125835
26.267758
26.322994
26.383085
26.48822
26.513305
26.607712
26.627017
26.852085
26.891676
26.996217
27.068565
27.084498
27.174502
27.298268
27.360907
27.418603
27.46373
27.49742
27.633197
27.731538
27.851211
27.914125
27.946159
28.00787
28.026989
28.106929
28.181168
28.264261
28.32212
28.366003
28.387617
28.458891
28.621434
28.674214
28.694664
28.753196
28.882971
29.006498
29.140554
29.224173
29.305399
29.342116
29.399965
29.484269
29.542442
29.656355
29.737828
29.759635
29.831234
29.87202
29.893493
29.998691
30.019786
30.046075
30.063736
30.120657
30.165265
30.249355
30.279161
30.280542
30.384701
30.492044
30.573617
