0
0.0
4.33998791285
2.37715288589
3.44800771406
0.0
3.57690290603
0.65425371839
1.44728977791
2.00524008436
8.4494892291
6.48538286003
1.05612545209
0.155303593465
0.0
0.962755728923
0.790694020732
0.59721016019
0.0
6.13248635363
0.0
0.340267655347
0.378470359825
5.42581687204
1.36655180524
0.86538939841
4.31594341727
0.0
10.7448993243
2.54450843125
0.0
2.64361726626
3.27086958879
2.13225940184
2.70179443457
0.0
1.4881604588
0.856754039569
0.42929078527
3.53842648993
6.1198750275
0.999196258546
3.73429096052
0.0
0.0
8.00274769641
31.2732452058
7.16478075925
0.643919323611
0.0
9.11125763277
0.648514341131
0.0
0.220379572518
2.29407909228
0.212953069898
0.0399289188174
2.32878982537
2.91868810735
3.23947084487
1.92328493482
1.92831812631
0.0
1.09738213359
1.57562345942
0.0
0.0
1.00207845044
2.6882120599
3.49335500501
9.78883269042
16.8172520554
1.97253030645
0.243671257386
0.0
0.0
0.0
0.590869690449
0.0
0.741039665426
3.35211890921
0.0
2.2238087698
3.02024727373
3.87493530432
0.0
1.33444037783
1.08178494359
1.08754051991
7.8568311267
16.9932485277
1.17075780758
2.28513358307
0.284822807637
0.609859515578
2.04505728687
2.19045200047
0.0
4.88068143536
0.119340686975
2.7141994694
6.31124362253
0.0
0.980062796134
0.0
0.500961457665
0.0
4.93808148521
0.0
7.25186466987
1.02435967886
2.25684576716
0.904834854188
7.00130855056
0.847176832702
1.93849056823
2.50227267723
1.39702293565
1.08567273903
0.712574834831
0.566708337998
1.62835208993
3.31569657711
7.34323846367
4.6464910889
1.46017007887
0.660503855171
23.4684842343
11.6564825576
5.32446208592
17.8674595612
0.0
5.63284147406
2.55805743967
3.45897711993
3.69533917559
0.0
4.94265987655
0.833869755832
0.0
2.23791548782
7.30198630957
4.16704620902
0.805169128844
2.52723559118
1.25234464413
0.0
2.41096814227
12.1482191464
5.79473806439
4.77967575604
5.6862395405
0.0
0.0
3.53883735579
9.2708896204
7.47341502533
0.953470759436
4.03997498733
3.6080919077
0.0
2.11872797821
0.794713545874
0.893629591083
5.49428338778
3.26332084361
0.871128957671
0.45993377081
0.816655202206
0.10336786065
0.223958900835
0.678777369116
0.725066411146
0.0
0.704331666768
0.0
0.0
1.06260003068
0.162800209327
0.193051171859
0.536488720343
0.37783002983
0.277183401002
0.444293908405
0.0
0.462993969937
0.0
1.26127557098
0.155247323455
0.560897260323
0.304825449643
0.133525099487
0.0
0.117686766117
0.0
0.169100395881
0.167434031782
0.0
0.286740097884
0.163551142192
0.118101338565
0.0885101877416
1.02067983312
1.67393305
0.188203136165
2.1972157324
0.366197728619
0.171536808981
0.153258651895
0.420832107327
0.264662938629
1.94358136336
0.752346877173
0.0
0.0
0.0
0.654552535123
0.107596563961
0.113038801946
0.104160530584
0.291188903213
0.142986281928
0.316316794288
0.420904853979
0.0
0.218911198699
0.111793396381
0.0
0.0
0.340073533119
1.31473474534
1.3632862863
0.437855077199
3.3377768812
0.926202019773
0.0
0.24531094127
0.0
0.182072806966
0.513671822377
19.3324150977
0.122262321662
0.272713138498
0.358866860675
