0
0.0
0.0
0.139453421715
0.0
0.152907636288
0.0
0.167659889214
0.183835412891
0.201571521914
0.0939364313358
0.0
0.0
0.139453421715
0.0
0.152907636288
0.0
0.167659889214
0.183835412891
0.201571521914
